%!PS-Adobe-3.0 EPSF-3.0
%%BoundingBox: 28 35 570 343
%%HiResBoundingBox: 28.591699 35.125244 569.954517 342.236230
%.....................................
%%Creator: GNU Ghostscript 652 (epswrite)
%%CreationDate: 2004/08/26 10:57:01
%%DocumentData: Clean7Bit
%%LanguageLevel: 2
%%EndComments
%%BeginProlog
% This copyright applies to everything between here and the %%EndProlog:
% Copyright (C) 2001 artofcode LLC, Benicia, CA.  All rights reserved.
%%BeginResource: procset GS_epswrite_2_0_1001
/GS_epswrite_2_0_1001 80 dict dup begin
/PageSize 2 array def/setpagesize{ PageSize aload pop 3 index eq exch
4 index eq and{ pop pop pop}{ PageSize dup  1
5 -1 roll put 0 4 -1 roll put dup where{ exch get exec}
{ pop/setpagedevice where
{ pop 1 dict dup /PageSize PageSize put setpagedevice}
{ /setpage where{ pop PageSize aload pop pageparams 3 {exch pop} repeat
setpage}if}ifelse}ifelse}ifelse} bind def
/!{bind def}bind def/#{load def}!/N/counttomark #
/rG{3{3 -1 roll 255 div}repeat setrgbcolor}!/G{255 div setgray}!/K{0 G}!
/r6{dup 3 -1 roll rG}!/r5{dup 3 1 roll rG}!/r3{dup rG}!
/w/setlinewidth #/J/setlinecap #
/j/setlinejoin #/M/setmiterlimit #/d/setdash #/i/setflat #
/m/moveto #/l/lineto #/c/rcurveto #
/p{N 2 idiv{N -2 roll rlineto}repeat}!
/P{N 0 gt{N -2 roll moveto p}if}!
/h{p closepath}!/H{P closepath}!
/lx{0 rlineto}!/ly{0 exch rlineto}!/v{0 0 6 2 roll c}!/y{2 copy c}!
/re{4 -2 roll m exch dup lx exch ly neg lx h}!
/^{3 index neg 3 index neg}!
/f{P fill}!/f*{P eofill}!/s{H stroke}!/S{P stroke}!
/q/gsave #/Q/grestore #/rf{re fill}!
/Y{P clip newpath}!/Y*{P eoclip newpath}!/rY{re Y}!
/|={pop exch 4 1 roll 3 array astore cvx exch 1 index def exec}!
/|{exch string readstring |=}!
/+{dup type/nametype eq{2 index 7 add -3 bitshift 2 index mul}if}!
/@/currentfile #/${+ @ |}!
/B{{2 copy string{readstring pop}aload pop 4 array astore cvx
3 1 roll}repeat pop pop true}!
/Ix{[1 0 0 1 11 -2 roll exch neg exch neg]exch}!
/,{true exch Ix imagemask}!/If{false exch Ix imagemask}!/I{exch Ix image}!
/Ic{exch Ix false 3 colorimage}!
/F{/Columns counttomark 3 add -2 roll/Rows exch/K -1/BlackIs1 true>>
/CCITTFaxDecode filter}!/FX{<</EndOfBlock false F}!
/X{/ASCII85Decode filter}!/@X{@ X}!/&2{2 index 2 index}!
/@F{@ &2<<F}!/@C{@X &2 FX}!
/$X{+ @X |}!/&4{4 index 4 index}!/$F{+ @ &4<<F |}!/$C{+ @X &4 FX |}!
/IC{3 1 roll 10 dict begin 1{/ImageType/Interpolate/Decode/DataSource
/ImageMatrix/BitsPerComponent/Height/Width}{exch def}forall
currentdict end image}!
end readonly def
%%EndResource
/pagesave null def
%%EndProlog
%%Page: 1 1
%%BeginPageSetup
GS_epswrite_2_0_1001 begin
/pagesave save store 100 dict begin
0.1 0.1 scale
%%EndPageSetup
gsave mark
Q q
0 0 5950 0 0 8420 ^ Y
14.4 w
1 J
1 j
K
4163.99 1046.81 260.4 40.8 196.8 -607.2 -170.4 -106.8 -91.2 -14.4 -195.6 49.2 0 638.4 H
S
4174.79 1886.81 -1.2 4.8 -3.6 4.8 -6 1.2 -4.8 -1.2 -4.8 -4.8 -1.2 -4.8 1.2 -6 
4.8 -3.6 4.8 -1.2 6 1.2 3.6 3.6 1.2 6 H
S
4424.39 1087.61 234 120 374.4 -517.2 -128.4 -153.6 -82.8 -42 -200.4 -14.4 -196.8 607.2 H
S
4174.79 1886.81 -1.2 4.8 -3.6 4.8 -6 1.2 -4.8 -1.2 -4.8 -4.8 -1.2 -4.8 1.2 -6 
4.8 -3.6 4.8 -1.2 6 1.2 3.6 3.6 1.2 6 H
S
4658.39 1207.61 186 186 516 -375.6 -74.4 -186 -66 -66 -187.2 -75.6 -374.4 517.2 H
S
4174.79 1886.81 -1.2 4.8 -3.6 4.8 -6 1.2 -4.8 -1.2 -4.8 -4.8 -1.2 -4.8 1.2 -6 
4.8 -3.6 4.8 -1.2 6 1.2 3.6 3.6 1.2 6 H
S
4844.39 1393.61 118.8 234 607.2 -198 -13.2 -200.4 -43.2 -82.8 -153.6 -128.4 -516 375.6 H
S
4174.79 1886.81 -1.2 4.8 -3.6 4.8 -6 1.2 -4.8 -1.2 -4.8 -4.8 -1.2 -4.8 1.2 -6 
4.8 -3.6 4.8 -1.2 6 1.2 3.6 3.6 1.2 6 H
S
4963.19 1627.61 40.8 259.2 638.4 0 49.2 -194.4 -14.4 -92.4 -106.8 -170.4 -607.2 198 H
S
4174.79 1886.81 -1.2 4.8 -3.6 4.8 -6 1.2 -4.8 -1.2 -4.8 -4.8 -1.2 -4.8 1.2 -6 
4.8 -3.6 4.8 -1.2 6 1.2 3.6 3.6 1.2 6 H
S
5003.99 1886.81 -40.8 259.2 607.2 198 106.8 -170.4 14.4 -92.4 -49.2 -194.4 -638.4 0 H
S
4174.79 1886.81 -1.2 4.8 -3.6 4.8 -6 1.2 -4.8 -1.2 -4.8 -4.8 -1.2 -4.8 1.2 -6 
4.8 -3.6 4.8 -1.2 6 1.2 3.6 3.6 1.2 6 H
S
4963.19 2146.01 -120 234 517.2 375.6 153.6 -128.4 42 -82.8 14.4 -200.4 -607.2 -198 H
S
4174.79 1886.81 -1.2 4.8 -3.6 4.8 -6 1.2 -4.8 -1.2 -4.8 -4.8 -1.2 -4.8 1.2 -6 
4.8 -3.6 4.8 -1.2 6 1.2 3.6 3.6 1.2 6 H
S
4843.19 2380.01 -184.8 186 374.4 517.2 186 -75.6 66 -66 75.6 -186 -517.2 -375.6 H
S
4174.79 1886.81 -1.2 4.8 -3.6 4.8 -6 1.2 -4.8 -1.2 -4.8 -4.8 -1.2 -4.8 1.2 -6 
4.8 -3.6 4.8 -1.2 6 1.2 3.6 3.6 1.2 6 H
S
4658.39 2566.01 -235.2 120 198 607.2 200.4 -14.4 82.8 -42 128.4 -153.6 -374.4 -517.2 H
S
4174.79 1886.81 -1.2 4.8 -3.6 4.8 -6 1.2 -4.8 -1.2 -4.8 -4.8 -1.2 -4.8 1.2 -6 
4.8 -3.6 4.8 -1.2 6 1.2 3.6 3.6 1.2 6 H
S
4423.19 2686.01 -259.2 40.8 0 638.4 194.4 49.2 92.4 -15.6 170.4 -105.6 -198 -607.2 H
S
4174.79 1886.81 -1.2 4.8 -3.6 4.8 -6 1.2 -4.8 -1.2 -4.8 -4.8 -1.2 -4.8 1.2 -6 
4.8 -3.6 4.8 -1.2 6 1.2 3.6 3.6 1.2 6 H
S
4163.99 2726.81 -259.2 -40.8 -198 607.2 170.4 105.6 92.4 15.6 194.4 -49.2 0 -638.4 H
S
4174.79 1886.81 -1.2 4.8 -3.6 4.8 -6 1.2 -4.8 -1.2 -4.8 -4.8 -1.2 -4.8 1.2 -6 
4.8 -3.6 4.8 -1.2 6 1.2 3.6 3.6 1.2 6 H
S
3904.79 2686.01 -234 -120 -375.6 516 128.4 154.8 82.8 42 200.4 14.4 198 -607.2 H
S
4174.79 1886.81 -1.2 4.8 -3.6 4.8 -6 1.2 -4.8 -1.2 -4.8 -4.8 -1.2 -4.8 1.2 -6 
4.8 -3.6 4.8 -1.2 6 1.2 3.6 3.6 1.2 6 H
S
3670.79 2566.01 -186 -186 -517.2 375.6 75.6 186 66 66 186 74.4 375.6 -516 H
S
4174.79 1886.81 -1.2 4.8 -3.6 4.8 -6 1.2 -4.8 -1.2 -4.8 -4.8 -1.2 -4.8 1.2 -6 
4.8 -3.6 4.8 -1.2 6 1.2 3.6 3.6 1.2 6 H
S
3484.79 2380.01 -120 -234 -607.2 196.8 14.4 200.4 42 84 153.6 128.4 517.2 -375.6 H
S
4174.79 1886.81 -1.2 4.8 -3.6 4.8 -6 1.2 -4.8 -1.2 -4.8 -4.8 -1.2 -4.8 1.2 -6 
4.8 -3.6 4.8 -1.2 6 1.2 3.6 3.6 1.2 6 H
S
3364.79 2146.01 -40.8 -259.2 -638.4 0 -49.2 194.4 14.4 92.4 106.8 169.2 607.2 -196.8 H
S
4174.79 1886.81 -1.2 4.8 -3.6 4.8 -6 1.2 -4.8 -1.2 -4.8 -4.8 -1.2 -4.8 1.2 -6 
4.8 -3.6 4.8 -1.2 6 1.2 3.6 3.6 1.2 6 H
S
3323.99 1886.81 40.8 -259.2 -607.2 -198 -105.6 170.4 -15.6 91.2 49.2 195.6 638.4 0 H
S
4174.79 1886.81 -1.2 4.8 -3.6 4.8 -6 1.2 -4.8 -1.2 -4.8 -4.8 -1.2 -4.8 1.2 -6 
4.8 -3.6 4.8 -1.2 6 1.2 3.6 3.6 1.2 6 H
S
3364.79 1627.61 120 -235.2 -517.2 -374.4 -153.6 128.4 -42 82.8 -14.4 200.4 607.2 198 H
S
4174.79 1886.81 -1.2 4.8 -3.6 4.8 -6 1.2 -4.8 -1.2 -4.8 -4.8 -1.2 -4.8 1.2 -6 
4.8 -3.6 4.8 -1.2 6 1.2 3.6 3.6 1.2 6 H
S
3484.79 1392.41 186 -184.8 -375.6 -517.2 -186 75.6 -66 64.8 -75.6 187.2 517.2 374.4 H
S
4174.79 1886.81 -1.2 4.8 -3.6 4.8 -6 1.2 -4.8 -1.2 -4.8 -4.8 -1.2 -4.8 1.2 -6 
4.8 -3.6 4.8 -1.2 6 1.2 3.6 3.6 1.2 6 H
S
3670.79 1207.61 234 -120 -196.8 -607.2 -200.4 14.4 -84 42 -128.4 153.6 375.6 517.2 H
S
4174.79 1886.81 -1.2 4.8 -3.6 4.8 -6 1.2 -4.8 -1.2 -4.8 -4.8 -1.2 -4.8 1.2 -6 
4.8 -3.6 4.8 -1.2 6 1.2 3.6 3.6 1.2 6 H
S
3904.79 1087.61 259.2 -40.8 0 -638.4 -194.4 -49.2 -92.4 14.4 -169.2 106.8 196.8 607.2 H
S
4174.79 1886.81 -1.2 4.8 -3.6 4.8 -6 1.2 -4.8 -1.2 -4.8 -4.8 -1.2 -4.8 1.2 -6 
4.8 -3.6 4.8 -1.2 6 1.2 3.6 3.6 1.2 6 H
S
1149.59 2114.81 -198 607.2 171.6 106.8 202.8 0 170.4 -106.8 -196.8 -607.2 -150 0 H
S
1027.19 2026.01 -517.2 375.6 76.8 187.2 163.2 118.8 201.6 14.4 198 -607.2 -122.4 -88.8 H
S
981.59 1883.21 -639.6 0 -48 195.6 62.4 193.2 153.6 129.6 517.2 -375.6 -45.6 -142.8 H
S
1027.19 1740.41 -517.2 -375.6 -153.6 129.6 -62.4 193.2 48 195.6 639.6 0 45.6 -142.8 H
S
1149.59 1652.81 -198 -608.4 -201.6 14.4 -163.2 120 -76.8 186 517.2 375.6 122.4 -87.6 H
S
1299.59 1652.81 196.8 -608.4 -170.4 -105.6 -202.8 0 -171.6 105.6 198 608.4 150 0 H
S
1420.79 1740.41 517.2 -375.6 -75.6 -186 -164.4 -120 -201.6 -14.4 -196.8 608.4 121.2 87.6 H
S
1466.39 1883.21 639.6 0 49.2 -195.6 -63.6 -193.2 -153.6 -129.6 -517.2 375.6 45.6 142.8 H
S
1420.79 2026.01 517.2 375.6 153.6 -129.6 63.6 -193.2 -49.2 -195.6 -639.6 0 -45.6 142.8 H
S
1299.59 2114.81 196.8 607.2 201.6 -14.4 164.4 -118.8 75.6 -187.2 -517.2 -375.6 -121.2 88.8 H
S
1241.99 1883.21 -2.4 8.4 -7.2 7.2 -8.4 2.4 -8.4 -2.4 -6 -7.2 -2.4 -8.4 2.4 -8.4 
6 -6 8.4 -2.4 8.4 2.4 7.2 6 2.4 8.4 H
S
7.2 w
1323.59 2188.01 -46.8 12 -46.8 3.6 S
1219.19 2203.61 -48 -3.6 -45.6 -12 S
1219.19 2137.61 -37.2 -3.6 -36 -8.4 S
1219.19 2160.41 -40.8 -4.8 -39.6 -9.6 S
1219.19 2182.01 -44.4 -3.6 -43.2 -10.8 S
1316.39 2167.61 -43.2 10.8 -43.2 3.6 S
1309.19 2146.01 -39.6 9.6 -39.6 4.8 S
1303.19 2125.61 -36 8.4 -37.2 3.6 S
1492.79 2711.21 -63.6 18 -66 13.2 -67.2 8.4 -66 2.4 S
1486.79 2689.61 -63.6 18 -63.6 13.2 -64.8 7.2 -64.8 3.6 S
1479.59 2669.21 -61.2 16.8 -62.4 13.2 -62.4 7.2 -63.6 3.6 S
1472.39 2648.81 -58.8 16.8 -61.2 12 -61.2 7.2 -61.2 2.4 S
1466.39 2627.21 -58.8 16.8 -58.8 12 -58.8 7.2 -60 2.4 S
1459.19 2606.81 -56.4 15.6 -56.4 12 -58.8 6 -57.6 3.6 S
1451.99 2585.21 -54 15.6 -55.2 10.8 -56.4 7.2 -56.4 2.4 S
1445.99 2564.81 -52.8 14.4 -54 10.8 -55.2 7.2 -54 2.4 S
1438.79 2544.41 -51.6 14.4 -51.6 9.6 -52.8 7.2 -52.8 2.4 S
1431.59 2522.81 -49.2 14.4 -50.4 9.6 -50.4 6 -51.6 2.4 S
1425.59 2502.41 -48 13.2 -49.2 9.6 -49.2 6 -49.2 2.4 S
1418.39 2480.81 -62.4 16.8 -62.4 10.8 -63.6 3.6 S
1411.19 2460.41 -58.8 15.6 -61.2 9.6 -61.2 3.6 S
1405.19 2438.81 -57.6 15.6 -58.8 9.6 -58.8 3.6 S
1405.19 2779.61 -58.8 9.6 -57.6 6 -58.8 2.4 S
1463.99 2742.41 -57.6 14.4 -58.8 9.6 -58.8 7.2 -58.8 2.4 S
1219.19 2644.01 -58.8 -3.6 -57.6 -6 -57.6 -12 -56.4 -15.6 S
1219.19 2665.61 -60 -2.4 -60 -7.2 -58.8 -12 -57.6 -16.8 S
1397.99 2418.41 -55.2 14.4 -56.4 9.6 -56.4 3.6 S
1390.79 2398.01 -52.8 13.2 -54 9.6 -54 2.4 S
1219.19 2423.21 -55.2 -2.4 -54 -9.6 -52.8 -13.2 S
1219.19 2446.01 -57.6 -3.6 -56.4 -9.6 -55.2 -14.4 S
1219.19 2226.41 -34.8 -2.4 -33.6 -6 -32.4 -8.4 S
1219.19 2248.01 -37.2 -2.4 -36 -6 -34.8 -9.6 S
1219.19 2269.61 -39.6 -2.4 -37.2 -6 -37.2 -9.6 S
1219.19 2292.41 -40.8 -3.6 -40.8 -6 -39.6 -10.8 S
1219.19 2314.01 -43.2 -2.4 -43.2 -7.2 -42 -12 S
1219.19 2335.61 -45.6 -2.4 -45.6 -7.2 -43.2 -12 S
1219.19 2357.21 -48 -2.4 -48 -7.2 -45.6 -13.2 S
1219.19 2380.01 -50.4 -3.6 -49.2 -7.2 -49.2 -13.2 S
1219.19 2401.61 -52.8 -3.6 -51.6 -8.4 -50.4 -13.2 S
1357.19 2292.41 -42 12 -42 7.2 -43.2 2.4 S
1349.99 2272.01 -39.6 10.8 -39.6 6 -40.8 3.6 S
1343.99 2251.61 -37.2 9.6 -38.4 6 -38.4 2.4 S
1336.79 2230.01 -34.8 9.6 -36 6 -36 2.4 S
1329.59 2209.61 -32.4 8.4 -33.6 6 -33.6 2.4 S
1384.79 2376.41 -51.6 13.2 -51.6 8.4 -51.6 3.6 S
1377.59 2356.01 -48 13.2 -50.4 7.2 -49.2 3.6 S
1364.39 2314.01 -44.4 12 -44.4 7.2 -45.6 2.4 S
1370.39 2334.41 -45.6 13.2 -46.8 7.2 -48 2.4 S
1219.19 2467.61 -60 -3.6 -58.8 -9.6 -56.4 -15.6 S
1219.19 2489.21 -62.4 -3.6 -60 -9.6 -60 -15.6 S
1219.19 2512.01 -64.8 -3.6 -62.4 -10.8 -62.4 -16.8 S
1219.19 2533.61 -50.4 -2.4 -49.2 -6 -49.2 -9.6 -46.8 -13.2 S
1219.19 2555.21 -51.6 -2.4 -51.6 -6 -50.4 -9.6 -49.2 -14.4 S
1219.19 2578.01 -54 -2.4 -52.8 -7.2 -51.6 -9.6 -51.6 -14.4 S
1219.19 2599.61 -55.2 -2.4 -55.2 -7.2 -52.8 -10.8 -52.8 -14.4 S
1219.19 2621.21 -57.6 -2.4 -55.2 -7.2 -56.4 -10.8 -54 -15.6 S
1219.19 2819.21 -63.6 -2.4 -63.6 -7.2 S
1219.19 2687.21 -62.4 -2.4 -61.2 -7.2 -60 -12 -60 -16.8 S
1219.19 2710.01 -63.6 -3.6 -63.6 -7.2 -62.4 -13.2 -61.2 -16.8 S
1219.19 2731.61 -66 -3.6 -64.8 -7.2 -63.6 -13.2 -62.4 -18 S
1219.19 2753.21 -67.2 -2.4 -67.2 -8.4 -64.8 -13.2 -64.8 -18 S
1219.19 2776.01 -60 -2.4 -58.8 -7.2 -58.8 -9.6 -57.6 -14.4 S
1219.19 2797.61 -58.8 -2.4 -58.8 -6 -58.8 -9.6 S
1355.99 2809.61 -63.6 7.2 -62.4 2.4 S
8.4 w
2528.39 688.01 -549.6 0 0 55.2 S
2528.39 688.01 0 55.2 P
2033.99 688.01 0 27.6 P
2089.19 688.01 0 27.6 P
2144.39 688.01 0 27.6 P
2199.59 688.01 0 27.6 P
2253.59 688.01 0 27.6 P
2308.79 688.01 0 27.6 P
2363.99 688.01 0 27.6 P
2419.19 688.01 0 27.6 P
2474.39 688.01 0 27.6 S
1952.39 852.41 -1.2 -1.2 -1.2 -2.4 -1.2 -1.2 -1.2 -2.4 -1.2 -2.4 0 -2.4 -1.2 -2.4 
0 -6 -1.2 -2.4 0 -20.4 1.2 -2.4 0 -4.8 1.2 -2.4 0 -3.6 1.2 -2.4 
1.2 -1.2 0 -1.2 1.2 -2.4 1.2 -1.2 1.2 -1.2 0 -1.2 18 1.2 -4.8 0 
-1.2 1.2 -2.4 1.2 -1.2 2.4 -2.4 1.2 0 1.2 -1.2 2.4 0 1.2 -1.2 1.2 
0 2.4 -1.2 2.4 0 31.2 1.2 2.4 0 2.4 1.2 2.4 0 1.2 1.2 1.2 
0 1.2 1.2 1.2 1.2 2.4 1.2 1.2 2.4 1.2 1.2 1.2 4.8 0 f*
1970.39 860.81 -7.2 0 -2.4 -1.2 -1.2 -1.2 -2.4 -1.2 -1.2 -1.2 -1.2 0 -1.2 -1.2 
-1.2 -2.4 22.8 0 2.4 -1.2 1.2 -1.2 2.4 -2.4 1.2 -1.2 1.2 -1.2 0 -2.4 
1.2 -1.2 0 -3.6 1.2 -2.4 0 -7.2 1.2 -2.4 0 -13.2 -1.2 -2.4 0 -8.4 
-1.2 -1.2 0 -2.4 -1.2 -1.2 0 -2.4 -1.2 -1.2 0 -1.2 -1.2 0 -1.2 -2.4 
-1.2 -1.2 -2.4 -1.2 -1.2 -1.2 -4.8 0 -18 -1.2 2.4 -1.2 1.2 -1.2 1.2 -1.2 
2.4 -1.2 2.4 -1.2 1.2 0 2.4 -1.2 4.8 0 4.8 0 2.4 1.2 2.4 0 
2.4 1.2 1.2 1.2 2.4 1.2 1.2 1.2 1.2 2.4 1.2 1.2 1.2 2.4 1.2 1.2 
1.2 2.4 1.2 2.4 0 2.4 1.2 2.4 0 3.6 1.2 2.4 0 26.4 -1.2 2.4 
0 3.6 -1.2 1.2 0 2.4 -1.2 2.4 -1.2 2.4 -1.2 1.2 0 2.4 -2.4 1.2 
-1.2 2.4 -1.2 1.2 -2.4 1.2 -1.2 1.2 -1.2 0 -1.2 1.2 -2.4 1.2 -4.8 0 f*
2367.59 850.01 -2.4 -1.2 -2.4 -1.2 -2.4 -1.2 0 -9.6 1.2 0 1.2 1.2 2.4 1.2 
2.4 0 1.2 1.2 2.4 1.2 0 1.2 2.4 1.2 2.4 1.2 1.2 1.2 2.4 1.2 
1.2 1.2 f*
2390.39 866.81 -6 0 -1.2 -1.2 -1.2 -2.4 -1.2 -1.2 -1.2 -2.4 -2.4 -1.2 -1.2 -2.4 
-1.2 -1.2 -2.4 -1.2 -1.2 -1.2 -2.4 -1.2 -1.2 -1.2 13.2 -1.2 0 -63.6 9.6 0 f*
2425.19 858.41 -1.2 -1.2 -1.2 -2.4 -1.2 -1.2 -1.2 -2.4 -1.2 -2.4 0 -2.4 -1.2 -2.4 
0 -6 -1.2 -2.4 0 -20.4 1.2 -2.4 0 -4.8 1.2 -2.4 0 -3.6 1.2 -2.4 
1.2 -1.2 0 -1.2 1.2 -2.4 1.2 -1.2 1.2 -1.2 0 -1.2 18 1.2 -4.8 0 
-1.2 1.2 -2.4 1.2 -1.2 2.4 -2.4 1.2 0 1.2 -1.2 2.4 0 1.2 -1.2 1.2 
0 2.4 -1.2 2.4 0 31.2 1.2 2.4 0 2.4 1.2 2.4 0 1.2 1.2 1.2 
0 1.2 1.2 1.2 1.2 2.4 1.2 1.2 2.4 1.2 1.2 1.2 4.8 0 f*
2443.19 866.81 -7.2 0 -2.4 -1.2 -1.2 -1.2 -2.4 -1.2 -1.2 -1.2 -1.2 0 -1.2 -1.2 
-1.2 -2.4 22.8 0 2.4 -1.2 1.2 -1.2 2.4 -2.4 1.2 -1.2 1.2 -1.2 0 -2.4 
1.2 -1.2 0 -3.6 1.2 -2.4 0 -7.2 1.2 -2.4 0 -13.2 -1.2 -2.4 0 -8.4 
-1.2 -1.2 0 -2.4 -1.2 -1.2 0 -2.4 -1.2 -1.2 0 -1.2 -1.2 0 -1.2 -2.4 
-1.2 -1.2 -2.4 -1.2 -1.2 -1.2 -4.8 0 -18 -1.2 2.4 -1.2 1.2 -1.2 1.2 -1.2 
2.4 -1.2 2.4 -1.2 1.2 0 2.4 -1.2 4.8 0 4.8 0 2.4 1.2 2.4 0 
2.4 1.2 1.2 1.2 2.4 1.2 1.2 1.2 1.2 2.4 1.2 1.2 1.2 2.4 1.2 1.2 
1.2 2.4 1.2 2.4 0 2.4 1.2 2.4 0 3.6 1.2 2.4 0 26.4 -1.2 2.4 
0 3.6 -1.2 1.2 0 2.4 -1.2 2.4 -1.2 2.4 -1.2 1.2 0 2.4 -2.4 1.2 
-1.2 2.4 -1.2 1.2 -2.4 1.2 -1.2 1.2 -1.2 0 -1.2 1.2 -2.4 1.2 -4.8 0 f*
2552.39 806.81 0 -3.6 -1.2 -2.4 -1.2 -2.4 -1.2 -1.2 -1.2 -1.2 -1.2 -1.2 -1.2 -1.2 
-2.4 -1.2 -24 0 1.2 -2.4 1.2 -1.2 2.4 -1.2 1.2 -1.2 2.4 0 2.4 -1.2 
1.2 0 2.4 -1.2 9.6 0 2.4 1.2 2.4 0 1.2 1.2 2.4 1.2 1.2 1.2 
2.4 1.2 1.2 1.2 1.2 2.4 1.2 1.2 1.2 2.4 1.2 1.2 1.2 2.4 0 2.4 
1.2 2.4 f*
2557.19 838.01 -19.2 0 1.2 0 2.4 -1.2 1.2 0 2.4 -1.2 2.4 -1.2 0 -1.2 
1.2 -1.2 1.2 -2.4 1.2 -1.2 1.2 -2.4 9.6 1.2 -1.2 2.4 0 2.4 -1.2 2.4 
-1.2 1.2 f*
2537.99 845.21 -7.2 0 -2.4 -1.2 -2.4 -1.2 -2.4 -1.2 -1.2 0 -1.2 -1.2 -1.2 -1.2 
-2.4 -2.4 -1.2 -1.2 -1.2 -2.4 -1.2 -2.4 0 -1.2 -1.2 -1.2 0 -2.4 -1.2 -2.4 
0 -16.8 1.2 -2.4 0 -2.4 1.2 -1.2 0 -2.4 1.2 -1.2 1.2 -2.4 1.2 -1.2 
1.2 -1.2 19.2 0 -4.8 0 -2.4 1.2 -1.2 1.2 -2.4 1.2 -1.2 1.2 -1.2 2.4 
-1.2 1.2 0 2.4 -1.2 1.2 0 4.8 -1.2 2.4 0 6 1.2 2.4 0 4.8 
1.2 2.4 1.2 1.2 0 2.4 1.2 1.2 1.2 0 1.2 2.4 1.2 1.2 2.4 0 
2.4 1.2 2.4 0 1.2 1.2 19.2 0 -1.2 1.2 -2.4 1.2 0 1.2 -2.4 1.2 
-1.2 1.2 -2.4 0 -2.4 1.2 -4.8 0 f*
2615.99 836.81 -1.2 -1.2 -13.2 0 1.2 -2.4 1.2 -1.2 1.2 -1.2 0 -4.8 1.2 -2.4 
0 -38.4 9.6 0 0 40.8 1.2 2.4 1.2 1.2 0 2.4 1.2 1.2 1.2 0 
1.2 1.2 1.2 1.2 2.4 1.2 4.8 0 f*
2581.19 838.01 -1.2 -2.4 8.4 0 2.4 1.2 4.8 0 f*
2579.99 844.01 -9.6 0 0 -58.8 10.8 0 0 39.6 1.2 1.2 0 2.4 1.2 1.2 
1.2 2.4 1.2 1.2 1.2 1.2 1.2 1.2 -8.4 0 f*
2632.79 845.21 -7.2 0 -1.2 -1.2 -2.4 -1.2 -1.2 -1.2 -2.4 -1.2 -1.2 -1.2 -1.2 -2.4 
18 0 2.4 -1.2 1.2 -1.2 1.2 -1.2 1.2 -2.4 0 -3.6 1.2 -2.4 0 -39.6 
9.6 0 0 46.8 -1.2 2.4 0 1.2 -1.2 2.4 -1.2 1.2 -1.2 1.2 -1.2 1.2 
-1.2 1.2 -2.4 1.2 -1.2 1.2 -4.8 0 f*
2597.99 845.21 -7.2 0 -1.2 -1.2 -2.4 -1.2 -1.2 0 -2.4 -1.2 -1.2 -2.4 -1.2 -1.2 
14.4 -1.2 2.4 0 2.4 -1.2 14.4 0 -1.2 0 -1.2 2.4 -1.2 2.4 -1.2 1.2 
-1.2 1.2 -2.4 1.2 -1.2 1.2 -4.8 0 f*
7.2 w
4163.99 2728.01 0 637.2 S
3957.59 3148.01 -63.6 -12 -62.4 -15.6 -62.4 -18 S
3961.19 3126.41 -62.4 -12 -62.4 -14.4 -61.2 -18 S
3964.79 3104.81 -92.4 -19.2 -90 -25.2 S
4163.99 3120.41 -94.8 -3.6 -93.6 -10.8 S
3968.39 3083.21 -90 -18 -88.8 -25.2 S
3971.99 3061.61 -88.8 -18 -87.6 -25.2 S
3975.59 3040.01 -87.6 -18 -85.2 -24 S
3977.99 3018.41 -85.2 -18 -82.8 -22.8 S
3981.59 2995.61 -82.8 -16.8 -82.8 -22.8 S
3985.19 2974.01 -81.6 -15.6 -80.4 -22.8 S
4009.19 2822.81 -69.6 -14.4 -68.4 -19.2 S
4012.79 2801.21 -68.4 -14.4 -67.2 -19.2 S
4163.99 2747.21 -64.8 -2.4 -64.8 -7.2 S
4163.99 2768.81 -67.2 -2.4 -66 -7.2 S
4163.99 2791.61 -68.4 -3.6 -68.4 -7.2 S
4163.99 2728.01 -63.6 -2.4 -63.6 -7.2 S
4016.39 2778.41 -67.2 -13.2 -64.8 -18 S
4019.99 2756.81 -64.8 -13.2 -63.6 -18 S
4023.59 2735.21 -63.6 -12 -62.4 -18 S
4163.99 2813.21 -70.8 -2.4 -69.6 -8.4 S
4163.99 2834.81 -72 -2.4 -72 -8.4 S
4163.99 3032.81 -87.6 -3.6 -87.6 -9.6 S
4163.99 2856.41 -73.2 -2.4 -74.4 -8.4 S
4163.99 2879.21 -75.6 -3.6 -75.6 -8.4 S
4163.99 2922.41 -79.2 -2.4 -78 -9.6 S
4163.99 2900.81 -76.8 -2.4 -76.8 -9.6 S
4163.99 2945.21 -80.4 -3.6 -80.4 -8.4 S
4163.99 2966.81 -82.8 -3.6 -81.6 -8.4 S
4163.99 2988.41 -84 -2.4 -84 -9.6 S
4163.99 3011.21 -86.4 -3.6 -85.2 -9.6 S
4163.99 3054.41 -88.8 -2.4 -88.8 -10.8 S
4163.99 3077.21 -91.2 -3.6 -90 -10.8 S
4163.99 3098.81 -92.4 -3.6 -92.4 -10.8 S
3988.79 2952.41 -80.4 -15.6 -78 -22.8 S
3992.39 2930.81 -78 -15.6 -78 -21.6 S
3995.99 2909.21 -76.8 -15.6 -75.6 -21.6 S
3999.59 2887.61 -75.6 -15.6 -73.2 -20.4 S
4001.99 2866.01 -73.2 -15.6 -72 -19.2 S
4005.59 2844.41 -70.8 -14.4 -70.8 -20.4 S
3920.39 3386.81 -91.2 -16.8 S
3923.99 3365.21 -78 -14.4 -75.6 -19.2 S
3926.39 3343.61 -73.2 -14.4 -73.2 -16.8 -72 -21.6 S
3929.99 3322.01 -72 -14.4 -72 -16.8 -72 -21.6 S
3933.59 3300.41 -72 -14.4 -70.8 -16.8 -69.6 -20.4 S
3937.19 3278.81 -70.8 -13.2 -69.6 -16.8 -68.4 -20.4 S
3940.79 3257.21 -69.6 -13.2 -68.4 -16.8 -68.4 -20.4 S
3944.39 3234.41 -68.4 -12 -67.2 -16.8 -67.2 -19.2 S
3947.99 3212.81 -67.2 -12 -67.2 -16.8 -64.8 -19.2 S
3950.39 3191.21 -66 -12 -64.8 -15.6 -64.8 -19.2 S
3953.99 3169.61 -64.8 -12 -63.6 -15.6 -63.6 -19.2 S
4163.99 3143.21 -63.6 -2.4 -64.8 -4.8 -63.6 -8.4 S
4163.99 3164.81 -64.8 -1.2 -66 -6 -64.8 -7.2 S
4163.99 3209.21 -67.2 -2.4 -68.4 -4.8 -67.2 -8.4 S
4163.99 3186.41 -66 -1.2 -67.2 -4.8 -66 -8.4 S
4163.99 3230.81 -68.4 -2.4 -68.4 -4.8 -68.4 -8.4 S
4163.99 3252.41 -69.6 -1.2 -69.6 -6 -69.6 -8.4 S
4163.99 3362.81 -75.6 -2.4 -75.6 -6 -75.6 -9.6 S
4163.99 3318.41 -73.2 -1.2 -73.2 -6 -73.2 -9.6 S
4163.99 3275.21 -70.8 -2.4 -70.8 -4.8 -70.8 -9.6 S
4163.99 3296.81 -72 -2.4 -72 -4.8 -72 -9.6 S
4163.99 3341.21 -74.4 -2.4 -74.4 -6 -74.4 -9.6 S
4093.19 3383.21 -80.4 -6 -78 -10.8 S
4023.59 3400.01 -92.4 -10.8 S
3841.19 3388.01 1.2 0 S
1.2 w
4005.59 3413.21 1.2 0 S
7.2 w
4027.19 2717.21 -62.4 -12 -61.2 -18 S
cleartomark end end pagesave restore showpage
%%PageTrailer
%%Trailer
%%Pages: 1
