#FIG 3.2  Produced by xfig version 3.2.5-alpha4
Landscape
Center
Metric
A4      
100.00
Single
-2
1200 2
0 32 #414541
0 33 #c0c0c0
0 34 #636363
0 35 #cdcdcd
0 36 #6c6c6c
0 37 #808080
0 38 #c6b797
0 39 #eff8ff
0 40 #dccba6
0 41 #404040
0 42 #e0e0e0
0 43 #8e8f8e
0 44 #aaaaaa
0 45 #555555
0 46 #8e8e8e
0 47 #d7d7d7
0 48 #aeaeae
0 49 #bebebe
0 50 #515151
0 51 #e7e3e7
0 52 #000049
0 53 #797979
0 54 #303430
0 55 #414141
0 56 #c7b696
0 57 #e7e7e7
0 58 #717571
6 5085 4095 5220 4185
2 1 0 1 0 7 50 -1 -1 4.000 0 0 -1 0 0 2
	 5175 4095 5085 4185
2 1 0 1 0 7 50 -1 -1 4.000 0 0 -1 0 0 2
	 5220 4095 5130 4185
-6
6 5085 4230 5220 4320
2 1 0 1 0 7 50 -1 -1 4.000 0 0 -1 0 0 2
	 5175 4230 5085 4320
2 1 0 1 0 7 50 -1 -1 4.000 0 0 -1 0 0 2
	 5220 4230 5130 4320
-6
6 5130 4725 5265 4815
2 1 0 1 0 7 50 -1 -1 4.000 0 0 -1 0 0 2
	 5220 4725 5130 4815
2 1 0 1 0 7 50 -1 -1 4.000 0 0 -1 0 0 2
	 5265 4725 5175 4815
-6
6 5130 4905 5265 4995
2 1 0 1 0 7 50 -1 -1 4.000 0 0 -1 0 0 2
	 5220 4905 5130 4995
2 1 0 1 0 7 50 -1 -1 4.000 0 0 -1 0 0 2
	 5265 4905 5175 4995
-6
6 2205 5535 5955 5760
6 5130 5535 5265 5625
2 1 0 1 0 7 50 -1 -1 4.000 0 0 -1 0 0 2
	 5220 5535 5130 5625
2 1 0 1 0 7 50 -1 -1 4.000 0 0 -1 0 0 2
	 5265 5535 5175 5625
-6
4 0 0 50 -1 5 6 0.0000 0 90 240 5715 5760 +128\001
4 0 0 50 -1 5 6 0.0000 0 90 240 5175 5760 +126\001
4 0 0 50 -1 5 6 0.0000 0 90 240 5445 5760 +127\001
4 0 0 50 -1 5 6 0.0000 0 90 180 4905 5760 +11\001
4 0 0 50 -1 5 6 0.0000 0 105 180 4635 5760 +10\001
4 0 0 50 -1 5 6 0.0000 0 90 120 4365 5760 +9\001
4 0 0 50 -1 5 6 0.0000 0 90 120 4095 5760 +8\001
4 0 0 50 -1 5 6 0.0000 0 75 120 3825 5760 +7\001
4 0 0 50 -1 5 6 0.0000 0 90 120 3555 5760 +6\001
4 0 0 50 -1 5 6 0.0000 0 75 120 3285 5760 +5\001
4 0 0 50 -1 5 6 0.0000 0 75 120 3015 5760 +4\001
4 0 0 50 -1 5 6 0.0000 0 90 120 2745 5760 +3\001
4 0 0 50 -1 5 6 0.0000 0 90 120 2475 5760 +2\001
4 0 0 50 -1 5 6 0.0000 0 90 120 2205 5760 +1\001
-6
2 1 2 1 33 7 60 -1 -1 3.000 0 0 -1 0 0 2
	 2475 5940 2475 3690
2 1 2 1 33 7 60 -1 -1 3.000 0 0 -1 0 0 2
	 2610 5940 2610 3690
2 1 2 1 33 7 60 -1 -1 3.000 0 0 -1 0 0 2
	 2745 5940 2745 3690
2 1 2 1 33 7 60 -1 -1 3.000 0 0 -1 0 0 2
	 2880 5940 2880 3690
2 1 2 1 33 7 60 -1 -1 3.000 0 0 -1 0 0 2
	 3015 5940 3015 3690
2 1 2 1 33 7 60 -1 -1 3.000 0 0 -1 0 0 2
	 3150 5940 3150 3690
2 1 2 1 33 7 60 -1 -1 3.000 0 0 -1 0 0 2
	 3285 5940 3285 3690
2 1 2 1 33 7 60 -1 -1 3.000 0 0 -1 0 0 2
	 3420 5940 3420 3690
2 1 2 1 33 7 60 -1 -1 3.000 0 0 -1 0 0 2
	 3555 5940 3555 3690
2 1 2 1 33 7 60 -1 -1 3.000 0 0 -1 0 0 2
	 3690 5940 3690 3690
2 1 2 1 33 7 60 -1 -1 3.000 0 0 -1 0 0 2
	 3825 5940 3825 3690
2 1 2 1 33 7 60 -1 -1 3.000 0 0 -1 0 0 2
	 3960 5940 3960 3690
2 1 2 1 33 7 60 -1 -1 3.000 0 0 -1 0 0 2
	 4095 5940 4095 3690
2 1 2 1 33 7 60 -1 -1 3.000 0 0 -1 0 0 2
	 4230 5940 4230 3690
2 1 2 1 33 7 60 -1 -1 3.000 0 0 -1 0 0 2
	 4365 5940 4365 3690
2 1 2 1 33 7 60 -1 -1 3.000 0 0 -1 0 0 2
	 4500 5940 4500 3690
2 1 2 1 33 7 60 -1 -1 3.000 0 0 -1 0 0 2
	 4635 5940 4635 3690
2 1 2 1 33 7 60 -1 -1 3.000 0 0 -1 0 0 2
	 4770 5940 4770 3690
2 1 2 1 33 7 60 -1 -1 3.000 0 0 -1 0 0 2
	 4905 5940 4905 3690
2 1 2 1 33 7 60 -1 -1 3.000 0 0 -1 0 0 2
	 5040 5940 5040 3690
2 1 2 1 33 7 60 -1 -1 3.000 0 0 -1 0 0 2
	 5175 5940 5175 3690
2 1 2 1 33 7 60 -1 -1 3.000 0 0 -1 0 0 2
	 5310 5940 5310 3690
2 1 2 1 33 7 60 -1 -1 3.000 0 0 -1 0 0 2
	 5445 5940 5445 3690
2 1 2 1 33 7 60 -1 -1 3.000 0 0 -1 0 0 2
	 5580 5940 5580 3690
2 1 2 1 33 7 60 -1 -1 3.000 0 0 -1 0 0 2
	 5715 5940 5715 3690
2 1 2 1 33 7 60 -1 -1 3.000 0 0 -1 0 0 2
	 5850 5940 5850 3690
2 1 2 1 33 7 60 -1 -1 3.000 0 0 -1 0 0 2
	 5985 5940 5985 3690
2 1 2 1 33 7 60 -1 -1 3.000 0 0 -1 0 0 2
	 6120 5940 6120 3690
2 1 2 1 33 7 60 -1 -1 3.000 0 0 -1 0 0 2
	 2205 5940 2205 3690
2 1 2 1 33 7 60 -1 -1 3.000 0 0 -1 0 0 2
	 2340 5940 2340 3690
2 1 2 1 33 7 60 -1 -1 3.000 0 0 -1 0 0 2
	 1850 5940 1850 3690
2 1 0 1 0 7 50 -1 -1 4.000 0 0 -1 0 0 4
	 1350 3960 1845 3960 1845 4140 5130 4140
2 1 0 1 0 7 50 -1 -1 4.000 0 0 -1 0 0 2
	 5175 4140 6705 4140
2 1 0 1 0 7 50 -1 -1 4.000 0 0 -1 0 0 2
	 1530 3645 1530 5940
2 1 0 1 0 7 50 -1 -1 4.000 0 0 -1 0 0 6
	 1350 4275 2160 4275 2160 4455 2385 4455 2385 4275 5130 4275
2 1 0 1 0 7 50 -1 -1 4.000 0 0 -1 0 0 2
	 5175 4275 6705 4275
2 1 0 1 0 7 50 -1 -1 4.000 0 0 -1 0 0 3
	 1350 4635 2205 4635 2205 4815
2 1 0 1 0 7 45 -1 -1 4.000 0 0 -1 0 0 5
	 2205 4815 2340 4815 2340 4635 2475 4635 2475 4815
2 1 0 1 0 7 45 -1 -1 4.000 0 0 -1 0 0 5
	 2475 4815 2610 4815 2610 4635 2745 4635 2745 4815
2 1 0 1 0 7 45 -1 -1 4.000 0 0 -1 0 0 5
	 2745 4815 2880 4815 2880 4635 3015 4635 3015 4815
2 1 0 1 0 7 45 -1 -1 4.000 0 0 -1 0 0 5
	 3015 4815 3150 4815 3150 4635 3285 4635 3285 4815
2 1 0 1 0 7 45 -1 -1 4.000 0 0 -1 0 0 5
	 3285 4815 3420 4815 3420 4635 3555 4635 3555 4815
2 1 0 1 0 7 45 -1 -1 4.000 0 0 -1 0 0 5
	 3555 4815 3690 4815 3690 4635 3825 4635 3825 4815
2 1 0 1 0 7 45 -1 -1 4.000 0 0 -1 0 0 5
	 3825 4815 3960 4815 3960 4635 4095 4635 4095 4815
2 1 0 1 0 7 45 -1 -1 4.000 0 0 -1 0 0 5
	 4095 4815 4230 4815 4230 4635 4365 4635 4365 4815
2 1 0 1 0 7 45 -1 -1 4.000 0 0 -1 0 0 5
	 4365 4815 4500 4815 4500 4635 4635 4635 4635 4815
2 1 0 1 0 7 45 -1 -1 4.000 0 0 -1 0 0 5
	 4635 4815 4770 4815 4770 4635 4905 4635 4905 4815
2 1 0 1 0 7 45 -1 -1 4.000 0 0 -1 0 0 5
	 4905 4815 5040 4815 5040 4635 5175 4635 5175 4770
2 1 0 1 0 7 45 -1 -1 4.000 0 0 -1 0 0 5
	 5175 4815 5310 4815 5310 4635 5445 4635 5445 4815
2 1 0 1 0 7 45 -1 -1 4.000 0 0 -1 0 0 5
	 5445 4815 5580 4815 5580 4635 5715 4635 5715 4815
2 1 0 1 0 7 45 -1 -1 4.000 0 0 -1 0 0 5
	 5715 4815 5850 4815 5850 4635 5985 4635 5985 4815
2 1 0 1 0 7 45 -1 -1 4.000 0 0 -1 0 0 5
	 5985 4815 6120 4815 6120 4635 6255 4635 6705 4635
2 1 0 1 0 7 50 -1 -1 4.000 0 0 -1 0 0 2
	 1350 4950 5175 4950
2 1 0 1 0 7 50 -1 -1 4.000 0 0 -1 0 0 6
	 5220 4950 6120 4950 6120 5130 6345 5130 6345 4950 6705 4950
2 1 0 1 0 7 50 -1 -1 4.000 0 0 -1 0 0 20
	 1350 5580 2205 5580 2205 5535 2475 5535 2475 5580 3015 5580
	 3015 5085 3285 5085 3285 5580 3555 5580 3555 5535 3825 5535
	 3825 5580 4095 5580 4095 5490 4365 5490 4365 5535 4770 5535
	 4770 5580 5175 5580
2 1 0 1 0 7 50 -1 -1 4.000 0 0 -1 0 0 8
	 5220 5580 5445 5580 5445 5535 5715 5535 5715 5580 5985 5580
	 5985 5535 6705 5535
2 1 0 1 0 7 50 -1 -1 4.000 0 0 -1 1 1 2
	1 1 1.00 30.00 30.00
	1 1 1.00 30.00 30.00
	 1530 3852 1845 3852
2 1 0 1 0 7 50 -1 -1 4.000 0 0 -1 0 1 2
	1 1 1.00 30.00 30.00
	 3150 5374 3532 5263
4 2 0 50 -1 5 10 0.0000 0 105 315 1335 4682 ckb\001
4 2 0 50 -1 5 10 0.0000 0 150 1050 1335 4318 shift_in_b\001
4 2 0 50 -1 5 10 0.0000 0 105 525 1335 4003 holdb\001
4 2 0 50 -1 5 10 0.0000 0 150 1155 1335 4987 shift_out_b\001
4 1 0 50 -1 0 10 0.0000 0 135 555 1535 6124 Time of\001
4 1 0 50 -1 0 10 0.0000 0 165 930 1535 6319 physics event\001
4 0 0 50 -1 0 10 0.0000 0 180 510 3554 5312 Signal?\001
4 2 0 50 -1 5 10 0.0000 0 120 840 1335 5605 Ana. Out\001
4 0 0 50 -1 0 12 0.0000 0 165 480 1440 3600 1.3 us\001
