%!PS-Adobe-3.0 EPSF-3.0
%%BoundingBox: 12 13 218 201
%%LanguageLevel: 2
%%Creator: OriginLab Corporation
%%Title: (D:\Tomek\ALICE\Pict4Christian\f9.EPS)
%%CreationDate: Fri Aug 20 15:16:47 2004
%%EndComments

/OriginLab::PSL1 128 dict dup begin def
/Save0 save def
%%BeginResource: procset OriginLab::PSL1
/wd{1 index where{pop pop pop}{bind def}ifelse}bind def
/setcmykcolor{1 sub 4 1 roll 3{3 index add neg dup 0 lt{pop 0}if 3 1 roll}repeat setrgbcolor pop}wd
/selectfont{dup type/arraytype eq{exch findfont exch makefont setfont}{exch findfont exch scalefont setfont}ifelse}wd
/xshow{1 index length 0 le{}{currentpoint exch 3 index length 1 sub 0 exch 1 exch{dup 5 index exch 1 getinterval show 3 index exch get add 2 copy exch moveto}for pop pop}ifelse pop pop}wd
/glyphshow{matrix currentmatrix exch currentfont dup/FontMatrix get concat currentpoint translate
 dup/Metrics get 2 index get 0 4 2 roll gsave/CharProcs get exch 2 copy known not{pop/.notdef}if
 get exec fill grestore moveto setmatrix}wd
/grayimage/image load def/rgbtogray{cvx exec dup length 3 idiv 1 sub 0 exch 1 exch{dup 3 mul dup 3 index exch get 255 div .3 mul exch
 1 add dup 4 index exch get 255 div .59 mul exch 1 add 4 index exch get 255 div .11 mul add add
 255 mul dup 255 gt{255}if round cvi 2 index 3 1 roll put}for dup length 3 idiv 0 exch getinterval}bind def
/colorimage{0 setgray pop pop cvlit/rgbtogray cvx 2 packedarray cvx grayimage}wd
/bd{bind def}bind def/ld{load def}bd/ed{exch def}bd/xd{cvx def}bd
/np/newpath ld/a/arc ld/m/moveto ld/l/lineto ld/c/curveto ld/rm/rmoveto ld/rl/rlineto ld/rc/rcurveto ld/cp/closepath ld/cpt/currentpoint ld
/tr/translate ld/sc/scale ld/ro/rotate ld/t/transform ld/it/itransform ld/dt/dtransform ld/idt/idtransform ld
/mtx/matrix ld/cmtx/currentmatrix ld/dmtx/defaultmatrix ld/smtx/setmatrix ld/catmtx/concatmatrix ld
/sw/setlinewidth ld/scap/setlinecap ld/sj/setlinejoin ld/sm/setmiterlimit ld/sd/setdash ld/rgb/setrgbcolor ld/crgb/currentrgbcolor ld/cmyk/setcmykcolor ld/gs/gsave ld/gr/grestore ld
/st/stroke ld/fi/fill ld/eofi/eofill ld/cl/clip ld/eocl/eoclip ld
/df/definefont ld/ff/findfont ld/sf/setfont ld/scf/scalefont ld/self/selectfont ld/cf/currentfont ld
/s/show ld/xs/xshow ld/gls/glyphshow ld/xgls{cpt 3 1 roll add exch 3 -1 roll gls m}bd
/cd/currentdict ld/i/index ld
/DrawBox{4 2 roll m 1 index 0 rl 0 exch rl neg 0 rl cp}bd
/DrawBcc{4 2 roll m 2 copy 0 lt exch 0 lt xor{dup 0 exch rl exch 0 rl neg 0 exch rl}{exch dup 0 rl exch 0 exch rl neg 0 rl}ifelse cp}bd
/rectline{dup type/arraytype eq{dup length 0 exch 4 exch 4 sub{0 1 3{3 copy add get 4 1 roll pop}for pop 5 1 roll DrawBox}for pop}{DrawBox}ifelse}bd
/rectpath{dup type/arraytype eq{dup length 0 exch 4 exch 4 sub{0 1 3{3 copy add get 4 1 roll pop}for pop 5 1 roll DrawBcc}for pop}{DrawBcc}ifelse}bd
/pathproc{[{/m cvx}{/l cvx}{/c cvx}{/cp cvx}pathforall]cvx}bd
/L1img/image ld/L1idx[{0}
 {dup 7 and 3 1 roll -3 bitshift get exch 7 sub 1 mul bitshift  1 and}bind 1 index dup
 {dup 1 and 3 1 roll -1 bitshift get exch 1 sub 4 mul bitshift 15 and}bind 1 index dup dup
 {get}bind]def
/image{dup type/dicttype eq {dup/ImgCS get 0 get/Indexed eq}{false}ifelse
 {begin Width Height 8 ImageMatrix {rgb_string rgb_lookup
 cd/DataSource get dup type/filetype eq
 {mystring readstring pop}{exec}ifelse
 dup length 0 ne
 {L1idx BitsPerComponent get 0 1 Width 1 sub
 {3 copy exch exec exch 3 mul exch
 3 mul dup 5 index exch get exch 1 add dup 6 index exch get exch 1 add 6 index exch get
 7 index exch 4 index 2 add exch put 6 index exch 3 index 1 add exch put 5 index exch 2 index exch put pop
 }for pop pop pop }{pop pop pop ()}ifelse }false 3 colorimage end} {dup type/dicttype eq
 {{dup mark exch L1img pop pop}stopped{cleartomark begin Width Height BitsPerComponent ImageMatrix
 {cd/DataSource get dup type/filetype eq {mystring readstring pop}{exec}ifelse
 }false 3 colorimage end} if}{L1img}ifelse}ifelse
 }bd
/L1imgmask/imagemask ld/imagemask{dup type/dicttype eq
 {{dup mark exch L1imgmask pop pop}stopped {cleartomark begin Width Height polarityflag ImageMatrix
 {cd/DataSource get dup type/filetype eq {mystring readstring pop}{exec}ifelse
 }L1imgmask end}if}{L1imgmask}ifelse
 }bd
%%EndResource
/rectclip{np rectpath clip np}wd
/rectfill{gs np rectpath fi gr}wd
/rectstroke{gs np dup type/arraytype eq{dup length 6 eq}{false}ifelse{1 index type/arraytype eq{exch}{5 1 roll}ifelse rectline concat st}{rectline st}ifelse gr}wd
%%BeginFont: /MC1_Arial
12 dict begin
/FontInfo 8 dict dup begin
/ItalicAngle 0 def
/UnderlinePosition -217.00 def
/UnderlineThickness 150.00 def
/StrikeoutPosition 530.00 def
/StrikeoutThickness 102.00 def
/isFixedPitch false def
end readonly def
/FontName /MC1_Arial def
/FontType 3 def
/FontMatrix [1 2048 div 0 0 1 2048 div 0 0] def
/FontBBox [-1361 -665 4154 2060] def
/Encoding 256 array def 0 1 255{Encoding exch/.notdef put}for
Encoding 32/s32 put
Encoding 48/s48 put
Encoding 49/s49 put
Encoding 50/s50 put
Encoding 51/s51 put
Encoding 52/s52 put
Encoding 53/s53 put
Encoding 54/s54 put
Encoding 56/s56 put
/BoundingBoxes 10 dict def
BoundingBoxes begin
/s32 [0 -434 569 1854] def
/s48 [0 -434 1139 1854] def
/s49 [0 -434 1139 1854] def
/s50 [0 -434 1139 1854] def
/s51 [0 -434 1139 1854] def
/s52 [0 -434 1139 1854] def
/s53 [0 -434 1139 1854] def
/s54 [0 -434 1139 1854] def
/s56 [0 -434 1139 1854] def
end
/Metrics 10 dict def
 Metrics begin
/s32 569 def
/s48 1139 def
/s49 1139 def
/s50 1139 def
/s51 1139 def
/s52 1139 def
/s53 1139 def
/s54 1139 def
/s56 1139 def
end
/CharProcs 10 dict def
CharProcs begin
/.notdef {} def
/s48 {
85 723 m
85 896.33 102.83 1035.83 138.5 1141.5 c
174.17 1247.17 227.17 1328.67 297.5 1386 c
367.83 1443.33 456.33 1472 563 1472 c
641.67 1472 710.67 1456.17 770 1424.5 c
829.33 1392.83 878.33 1347.17 917 1287.5 c
955.67 1227.83 986 1155.17 1008 1069.5 c
1030 983.83 1041 868.33 1041 723 c
1041 551 1023.33 412.17 988 306.5 c
952.67 200.83 899.83 119.17 829.5 61.5 c
759.17 3.83 670.33 -25 563 -25 c
421.67 -25 310.67 25.67 230 127 c
133.33 249 85 447.67 85 723 c
closepath 270 723 m
270 482.33 298.17 322.17 354.5 242.5 c
410.83 162.83 480.33 123 563 123 c
645.67 123 715.17 163 771.5 243 c
827.83 323 856 483 856 723 c
856 964.33 827.83 1124.67 771.5 1204 c
715.17 1283.33 645 1323 561 1323 c
478.33 1323 412.33 1288 363 1218 c
301 1128.67 270 963.67 270 723 c
closepath } bind def
/s49 {
763 0 m
583 0 763 0 583 0 c
583 1147 583 0 583 1147 c
539.67 1105.67 482.83 1064.33 412.5 1023 c
342.17 981.67 279 950.67 223 930 c
223 1104 223 930 223 1104 c
323.67 1151.33 411.67 1208.67 487 1276 c
562.33 1343.33 615.67 1408.67 647 1472 c
763 1472 647 1472 763 1472 c
763 0 763 1472 763 0 c
closepath } bind def
/s50 {
1031 173 m
1031 0 1031 173 1031 0 c
62 0 1031 0 62 0 c
60.67 43.33 67.67 85 83 125 c
107.67 191 147.17 256 201.5 320 c
255.83 384 334.33 458 437 542 c
596.33 672.67 704 776.17 760 852.5 c
816 928.83 844 1001 844 1069 c
844 1140.33 818.5 1200.5 767.5 1249.5 c
716.5 1298.5 650 1323 568 1323 c
481.33 1323 412 1297 360 1245 c
308 1193 281.67 1121 281 1029 c
96 1048 281 1029 96 1048 c
108.67 1186 156.33 1291.17 239 1363.5 c
321.67 1435.83 432.67 1472 572 1472 c
712.67 1472 824 1433 906 1355 c
988 1277 1029 1180.33 1029 1065 c
1029 1006.33 1017 948.67 993 892 c
969 835.33 929.17 775.67 873.5 713 c
817.83 650.33 725.33 564.33 596 455 c
488 364.33 418.67 302.83 388 270.5 c
357.33 238.17 332 205.67 312 173 c
1031 173 312 173 1031 173 c
closepath } bind def
/s51 {
86 387 m
266 411 86 387 266 411 c
286.67 309 321.83 235.5 371.5 190.5 c
421.17 145.5 481.67 123 553 123 c
637.67 123 709.17 152.33 767.5 211 c
825.83 269.67 855 342.33 855 429 c
855 511.67 828 579.83 774 633.5 c
720 687.17 651.33 714 568 714 c
534 714 491.67 707.33 441 694 c
461 852 441 694 461 852 c
473 850.67 482.67 850 490 850 c
566.67 850 635.67 870 697 910 c
758.33 950 789 1011.67 789 1095 c
789 1161 766.67 1215.67 722 1259 c
677.33 1302.33 619.67 1324 549 1324 c
479 1324 420.67 1302 374 1258 c
327.33 1214 297.33 1148 284 1060 c
104 1092 284 1060 104 1092 c
126 1212.67 176 1306.17 254 1372.5 c
332 1438.83 429 1472 545 1472 c
625 1472 698.67 1454.83 766 1420.5 c
833.33 1386.17 884.83 1339.33 920.5 1280 c
956.17 1220.67 974 1157.67 974 1091 c
974 1027.67 957 970 923 918 c
889 866 838.67 824.67 772 794 c
858.67 774 926 732.5 974 669.5 c
1022 606.5 1046 527.67 1046 433 c
1046 305 999.33 196.5 906 107.5 c
812.67 18.5 694.67 -26 552 -26 c
423.33 -26 316.5 12.33 231.5 89 c
146.5 165.67 98 265 86 387 c
closepath } bind def
/s52 {
662 0 m
662 351 662 0 662 351 c
26 351 662 351 26 351 c
26 516 26 351 26 516 c
695 1466 26 516 695 1466 c
842 1466 695 1466 842 1466 c
842 516 842 1466 842 516 c
1040 516 842 516 1040 516 c
1040 351 1040 516 1040 351 c
842 351 1040 351 842 351 c
842 0 842 351 842 0 c
662 0 842 0 662 0 c
closepath 662 516 m
662 1177 662 516 662 1177 c
203 516 662 1177 203 516 c
662 516 203 516 662 516 c
closepath } bind def
/s53 {
85 384 m
274 400 85 384 274 400 c
288 308 320.5 238.83 371.5 192.5 c
422.5 146.17 484 123 556 123 c
642.67 123 716 155.67 776 221 c
836 286.33 866 373 866 481 c
866 583.67 837.17 664.67 779.5 724 c
721.83 783.33 646.33 813 553 813 c
495 813 442.67 799.83 396 773.5 c
349.33 747.17 312.67 713 286 671 c
117 693 286 671 117 693 c
259 1446 117 693 259 1446 c
988 1446 259 1446 988 1446 c
988 1274 988 1446 988 1274 c
403 1274 988 1274 403 1274 c
324 880 403 1274 324 880 c
412 941.33 504.33 972 601 972 c
729 972 837 927.67 925 839 c
1013 750.33 1057 636.33 1057 497 c
1057 364.33 1018.33 249.67 941 153 c
847 34.33 718.67 -25 556 -25 c
422.67 -25 313.83 12.33 229.5 87 c
145.17 161.67 97 260.67 85 384 c
closepath } bind def
/s54 {
1019 1107 m
840 1093 1019 1107 840 1093 c
824 1163.67 801.33 1215 772 1247 c
723.33 1298.33 663.33 1324 592 1324 c
534.67 1324 484.33 1308 441 1276 c
384.33 1234.67 339.67 1174.33 307 1095 c
274.33 1015.67 257.33 902.67 256 756 c
299.33 822 352.33 871 415 903 c
477.67 935 543.33 951 612 951 c
732 951 834.17 906.83 918.5 818.5 c
1002.83 730.17 1045 616 1045 476 c
1045 384 1025.17 298.5 985.5 219.5 c
945.83 140.5 891.33 80 822 38 c
752.67 -4 674 -25 586 -25 c
436 -25 313.67 30.17 219 140.5 c
124.33 250.83 77 432.67 77 686 c
77 969.33 129.33 1175.33 234 1304 c
325.33 1416 448.33 1472 603 1472 c
718.33 1472 812.83 1439.67 886.5 1375 c
960.17 1310.33 1004.33 1221 1019 1107 c
closepath 284 475 m
284 413 297.17 353.67 323.5 297 c
349.83 240.33 386.67 197.17 434 167.5 c
481.33 137.83 531 123 583 123 c
659 123 724.33 153.67 779 215 c
833.67 276.33 861 359.67 861 465 c
861 566.33 834 646.17 780 704.5 c
726 762.83 658 792 576 792 c
494.67 792 425.67 762.83 369 704.5 c
312.33 646.17 284 569.67 284 475 c
closepath } bind def
/s56 {
362 795 m
287.33 822.33 232 861.33 196 912 c
160 962.67 142 1023.33 142 1094 c
142 1200.67 180.33 1290.33 257 1363 c
333.67 1435.67 435.67 1472 563 1472 c
691 1472 794 1434.83 872 1360.5 c
950 1286.17 989 1195.67 989 1089 c
989 1021 971.17 961.83 935.5 911.5 c
899.83 861.17 845.67 822.33 773 795 c
863 765.67 931.5 718.33 978.5 653 c
1025.5 587.67 1049 509.67 1049 419 c
1049 293.67 1004.67 188.33 916 103 c
827.33 17.67 710.67 -25 566 -25 c
421.33 -25 304.67 17.83 216 103.5 c
127.33 189.17 83 296 83 424 c
83 519.33 107.17 599.17 155.5 663.5 c
203.83 727.83 272.67 771.67 362 795 c
closepath 326 1100 m
326 1030.67 348.33 974 393 930 c
437.67 886 495.67 864 567 864 c
636.33 864 693.17 885.83 737.5 929.5 c
781.83 973.17 804 1026.67 804 1090 c
804 1156 781.17 1211.5 735.5 1256.5 c
689.83 1301.5 633 1324 565 1324 c
496.33 1324 439.33 1302 394 1258 c
348.67 1214 326 1161.33 326 1100 c
closepath 268 423 m
268 371.67 280.17 322 304.5 274 c
328.83 226 365 188.83 413 162.5 c
461 136.17 512.67 123 568 123 c
654 123 725 150.67 781 206 c
837 261.33 865 331.67 865 417 c
865 503.67 836.17 575.33 778.5 632 c
720.83 688.67 648.67 717 562 717 c
477.33 717 407.17 689 351.5 633 c
295.83 577 268 507 268 423 c
closepath } bind def
end
/BuildGlyph {
 exch dup /Metrics get 2 index get 0 setcharwidth
/CharProcs get exch 2 copy known not{pop/.notdef}if get exec fill}bind def
/BuildChar {
1 index /Encoding get exch get
1 index /BuildGlyph get exec
} bind def
currentdict end /MC1_Arial exch definefont pop
%%EndFont
%%BeginFont: /MC2_Arial-CYRBold
12 dict begin
/FontInfo 8 dict dup begin
/ItalicAngle 0 def
/UnderlinePosition -217.00 def
/UnderlineThickness 215.00 def
/StrikeoutPosition 530.00 def
/StrikeoutThickness 102.00 def
/isFixedPitch false def
end readonly def
/FontName /MC2_Arial-CYRBold def
/FontType 3 def
/FontMatrix [1 2048 div 0 0 1 2048 div 0 0] def
/FontBBox [-1286 -771 4165 2069] def
/Encoding 256 array def 0 1 255{Encoding exch/.notdef put}for
Encoding 32/s32 put
Encoding 40/s40 put
Encoding 41/s41 put
Encoding 65/s65 put
Encoding 78/s78 put
Encoding 97/s97 put
Encoding 98/s98 put
Encoding 99/s99 put
Encoding 100/s100 put
Encoding 101/s101 put
Encoding 102/s102 put
Encoding 104/s104 put
Encoding 105/s105 put
Encoding 108/s108 put
Encoding 109/s109 put
Encoding 110/s110 put
Encoding 111/s111 put
Encoding 112/s112 put
Encoding 114/s114 put
Encoding 115/s115 put
Encoding 116/s116 put
Encoding 117/s117 put
/BoundingBoxes 23 dict def
BoundingBoxes begin
/s32 [0 -434 569 1854] def
/s40 [0 -434 682 1854] def
/s41 [0 -434 682 1854] def
/s65 [0 -434 1479 1854] def
/s78 [0 -434 1479 1854] def
/s97 [0 -434 1139 1854] def
/s98 [0 -434 1251 1854] def
/s99 [0 -434 1139 1854] def
/s100 [0 -434 1251 1854] def
/s101 [0 -434 1139 1854] def
/s102 [0 -434 682 1854] def
/s104 [0 -434 1251 1854] def
/s105 [0 -434 569 1854] def
/s108 [0 -434 569 1854] def
/s109 [0 -434 1821 1854] def
/s110 [0 -434 1251 1854] def
/s111 [0 -434 1251 1854] def
/s112 [0 -434 1251 1854] def
/s114 [0 -434 797 1854] def
/s115 [0 -434 1139 1854] def
/s116 [0 -434 682 1854] def
/s117 [0 -434 1251 1854] def
end
/Metrics 23 dict def
 Metrics begin
/s32 569 def
/s40 682 def
/s41 682 def
/s65 1479 def
/s78 1479 def
/s97 1139 def
/s98 1251 def
/s99 1139 def
/s100 1251 def
/s101 1139 def
/s102 682 def
/s104 1251 def
/s105 569 def
/s108 569 def
/s109 1821 def
/s110 1251 def
/s111 1251 def
/s112 1251 def
/s114 797 def
/s115 1139 def
/s116 682 def
/s117 1251 def
end
/CharProcs 23 dict def
CharProcs begin
/.notdef {} def
/s40 {
613 -431 m
420 -431 613 -431 420 -431 c
318 -277 240.33 -117 187 49 c
133.67 215 107 375.67 107 531 c
107 723.67 140 906 206 1078 c
263.33 1227.33 336 1365 424 1491 c
616 1491 424 1491 616 1491 c
524.67 1289 461.83 1117.17 427.5 975.5 c
393.17 833.83 376 683.67 376 525 c
376 415.67 386.17 303.67 406.5 189 c
426.83 74.33 454.67 -34.67 490 -138 c
513.33 -206 554.33 -303.67 613 -431 c
closepath } bind def
/s41 {
69 -431 m
124.33 -312.33 163.33 -221.33 186 -158 c
208.67 -94.67 229.67 -21.67 249 61 c
268.33 143.67 282.67 222.17 292 296.5 c
301.33 370.83 306 447 306 525 c
306 683.67 289 833.83 255 975.5 c
221 1117.17 158.33 1289 67 1491 c
258 1491 67 1491 258 1491 c
358.67 1347.67 436.83 1195.67 492.5 1035 c
548.17 874.33 576 711.33 576 546 c
576 406.67 554 257.33 510 98 c
460 -80.67 377.67 -257 263 -431 c
69 -431 263 -431 69 -431 c
closepath } bind def
/s65 {
1471 0 m
1149 0 1471 0 1149 0 c
1021 333 1149 0 1021 333 c
435 333 1021 333 435 333 c
314 0 435 333 314 0 c
0 0 314 0 0 0 c
571 1466 0 0 571 1466 c
884 1466 571 1466 884 1466 c
1471 0 884 1466 1471 0 c
closepath 926 580 m
724 1124 926 580 724 1124 c
526 580 724 1124 526 580 c
926 580 526 580 926 580 c
closepath } bind def
/s78 {
152 0 m
152 1466 152 0 152 1466 c
440 1466 152 1466 440 1466 c
1040 487 440 1466 1040 487 c
1040 1466 1040 487 1040 1466 c
1315 1466 1040 1466 1315 1466 c
1315 0 1315 1466 1315 0 c
1018 0 1315 0 1018 0 c
427 956 1018 0 427 956 c
427 0 427 956 427 0 c
152 0 427 0 152 0 c
closepath } bind def
/s97 {
357 738 m
102 784 357 738 102 784 c
130.67 886.67 180 962.67 250 1012 c
320 1061.33 424 1086 562 1086 c
687.33 1086 780.67 1071.17 842 1041.5 c
903.33 1011.83 946.5 974.17 971.5 928.5 c
996.5 882.83 1009 799 1009 677 c
1006 349 1009 677 1006 349 c
1006 255.67 1010.5 186.83 1019.5 142.5 c
1028.5 98.17 1045.33 50.67 1070 0 c
792 0 1070 0 792 0 c
784.67 18.67 775.67 46.33 765 83 c
760.33 99.67 757 110.67 755 116 c
707 69.33 655.67 34.33 601 11 c
546.33 -12.33 488 -24 426 -24 c
316.67 -24 230.5 5.67 167.5 65 c
104.5 124.33 73 199.33 73 290 c
73 350 87.33 403.5 116 450.5 c
144.67 497.5 184.83 533.5 236.5 558.5 c
288.17 583.5 362.67 605.33 460 624 c
591.33 648.67 682.33 671.67 733 693 c
733 721 733 693 733 721 c
733 775 719.67 813.5 693 836.5 c
666.33 859.5 616 871 542 871 c
492 871 453 861.17 425 841.5 c
397 821.83 374.33 787.33 357 738 c
closepath 733 510 m
697 498 640 483.67 562 467 c
484 450.33 433 434 409 418 c
372.33 392 354 359 354 319 c
354 279.67 368.67 245.67 398 217 c
427.33 188.33 464.67 174 510 174 c
560.67 174 609 190.67 655 224 c
689 249.33 711.33 280.33 722 317 c
729.33 341 733 386.67 733 454 c
733 510 733 454 733 510 c
closepath } bind def
/s98 {
135 0 m
135 1466 135 0 135 1466 c
416 1466 135 1466 416 1466 c
416 938 416 1466 416 938 c
502.67 1036.67 605.33 1086 724 1086 c
853.33 1086 960.33 1039.17 1045 945.5 c
1129.67 851.83 1172 717.33 1172 542 c
1172 360.67 1128.83 221 1042.5 123 c
956.17 25 851.33 -24 728 -24 c
667.33 -24 607.5 -8.83 548.5 21.5 c
489.5 51.83 438.67 96.67 396 156 c
396 0 396 156 396 0 c
135 0 396 0 135 0 c
closepath 414 554 m
414 444 431.33 362.67 466 310 c
514.67 235.33 579.33 198 660 198 c
722 198 774.83 224.5 818.5 277.5 c
862.17 330.5 884 414 884 528 c
884 649.33 862 736.83 818 790.5 c
774 844.17 717.67 871 649 871 c
581.67 871 525.67 844.83 481 792.5 c
436.33 740.17 414 660.67 414 554 c
closepath } bind def
/s99 {
1073 748 m
796 698 1073 748 796 698 c
786.67 753.33 765.5 795 732.5 823 c
699.5 851 656.67 865 604 865 c
534 865 478.17 840.83 436.5 792.5 c
394.83 744.17 374 663.33 374 550 c
374 424 395.17 335 437.5 283 c
479.83 231 536.67 205 608 205 c
661.33 205 705 220.17 739 250.5 c
773 280.83 797 333 811 407 c
1087 360 811 407 1087 360 c
1058.33 233.33 1003.33 137.67 922 73 c
840.67 8.33 731.67 -24 595 -24 c
439.67 -24 315.83 25 223.5 123 c
131.17 221 85 356.67 85 530 c
85 705.33 131.33 841.83 224 939.5 c
316.67 1037.17 442 1086 600 1086 c
729.33 1086 832.17 1058.17 908.5 1002.5 c
984.83 946.83 1039.67 862 1073 748 c
closepath } bind def
/s100 {
1121 0 m
860 0 1121 0 860 0 c
860 156 860 0 860 156 c
816.67 95.33 765.5 50.17 706.5 20.5 c
647.5 -9.17 588 -24 528 -24 c
406 -24 301.5 25.17 214.5 123.5 c
127.5 221.83 84 359 84 535 c
84 715 126.33 851.83 211 945.5 c
295.67 1039.17 402.67 1086 532 1086 c
650.67 1086 753.33 1036.67 840 938 c
840 1466 840 938 840 1466 c
1121 1466 840 1466 1121 1466 c
1121 0 1121 1466 1121 0 c
closepath 371 554 m
371 440.67 386.67 358.67 418 308 c
463.33 234.67 526.67 198 608 198 c
672.67 198 727.67 225.5 773 280.5 c
818.33 335.5 841 417.67 841 527 c
841 649 819 736.83 775 790.5 c
731 844.17 674.67 871 606 871 c
539.33 871 483.5 844.5 438.5 791.5 c
393.5 738.5 371 659.33 371 554 c
closepath } bind def
/s101 {
762 338 m
1042 291 762 338 1042 291 c
1006 188.33 949.17 110.17 871.5 56.5 c
793.83 2.83 696.67 -24 580 -24 c
395.33 -24 258.67 36.33 170 157 c
100 253.67 65 375.67 65 523 c
65 699 111 836.83 203 936.5 c
295 1036.17 411.33 1086 552 1086 c
710 1086 834.67 1033.83 926 929.5 c
1017.33 825.17 1061 665.33 1057 450 c
353 450 1057 450 353 450 c
355 366.67 377.67 301.83 421 255.5 c
464.33 209.17 518.33 186 583 186 c
627 186 664 198 694 222 c
724 246 746.67 284.67 762 338 c
closepath 778 622 m
776 703.33 755 765.17 715 807.5 c
675 849.83 626.33 871 569 871 c
507.67 871 457 848.67 417 804 c
377 759.33 357.33 698.67 358 622 c
778 622 358 622 778 622 c
closepath } bind def
/s102 {
24 1062 m
180 1062 24 1062 180 1062 c
180 1142 180 1062 180 1142 c
180 1231.33 189.5 1298 208.5 1342 c
227.5 1386 262.5 1421.83 313.5 1449.5 c
364.5 1477.17 429 1491 507 1491 c
587 1491 665.33 1479 742 1455 c
704 1259 742 1455 704 1259 c
659.33 1269.67 616.33 1275 575 1275 c
534.33 1275 505.17 1265.5 487.5 1246.5 c
469.83 1227.5 461 1191 461 1137 c
461 1062 461 1137 461 1062 c
671 1062 461 1062 671 1062 c
671 841 671 1062 671 841 c
461 841 671 841 461 841 c
461 0 461 841 461 0 c
180 0 461 0 180 0 c
180 841 180 0 180 841 c
24 841 180 841 24 841 c
24 1062 24 841 24 1062 c
closepath } bind def
/s104 {
427 1466 m
427 927 427 1466 427 927 c
517.67 1033 626 1086 752 1086 c
816.67 1086 875 1074 927 1050 c
979 1026 1018.17 995.33 1044.5 958 c
1070.83 920.67 1088.83 879.33 1098.5 834 c
1108.17 788.67 1113 718.33 1113 623 c
1113 0 1113 623 1113 0 c
832 0 1113 0 832 0 c
832 561 832 0 832 561 c
832 672.33 826.67 743 816 773 c
805.33 803 786.5 826.83 759.5 844.5 c
732.5 862.17 698.67 871 658 871 c
611.33 871 569.67 859.67 533 837 c
496.33 814.33 469.5 780.17 452.5 734.5 c
435.5 688.83 427 621.33 427 532 c
427 0 427 532 427 0 c
146 0 427 0 146 0 c
146 1466 146 0 146 1466 c
427 1466 146 1466 427 1466 c
closepath } bind def
/s105 {
147 1206 m
147 1466 147 1206 147 1466 c
428 1466 147 1466 428 1466 c
428 1206 428 1466 428 1206 c
147 1206 428 1206 147 1206 c
closepath 147 0 m
147 1062 147 0 147 1062 c
428 1062 147 1062 428 1062 c
428 0 428 1062 428 0 c
147 0 428 0 147 0 c
closepath } bind def
/s108 {
147 0 m
147 1466 147 0 147 1466 c
428 1466 147 1466 428 1466 c
428 0 428 1466 428 0 c
147 0 428 0 147 0 c
closepath } bind def
/s109 {
126 1062 m
385 1062 126 1062 385 1062 c
385 917 385 1062 385 917 c
477.67 1029.67 588 1086 716 1086 c
784 1086 843 1072 893 1044 c
943 1016 984 973.67 1016 917 c
1062.67 973.67 1113 1016 1167 1044 c
1221 1072 1278.67 1086 1340 1086 c
1418 1086 1484 1070.17 1538 1038.5 c
1592 1006.83 1632.33 960.33 1659 899 c
1678.33 853.67 1688 780.33 1688 679 c
1688 0 1688 679 1688 0 c
1407 0 1688 0 1407 0 c
1407 607 1407 0 1407 607 c
1407 712.33 1397.33 780.33 1378 811 c
1352 851 1312 871 1258 871 c
1218.67 871 1181.67 859 1147 835 c
1112.33 811 1087.33 775.83 1072 729.5 c
1056.67 683.17 1049 610 1049 510 c
1049 0 1049 510 1049 0 c
768 0 1049 0 768 0 c
768 582 768 0 768 582 c
768 685.33 763 752 753 782 c
743 812 727.5 834.33 706.5 849 c
685.5 863.67 657 871 621 871 c
577.67 871 538.67 859.33 504 836 c
469.33 812.67 444.5 779 429.5 735 c
414.5 691 407 618 407 516 c
407 0 407 516 407 0 c
126 0 407 0 126 0 c
126 1062 126 0 126 1062 c
closepath } bind def
/s110 {
1113 0 m
832 0 1113 0 832 0 c
832 542 832 0 832 542 c
832 656.67 826 730.83 814 764.5 c
802 798.17 782.5 824.33 755.5 843 c
728.5 861.67 696 871 658 871 c
609.33 871 565.67 857.67 527 831 c
488.33 804.33 461.83 769 447.5 725 c
433.17 681 426 599.67 426 481 c
426 0 426 481 426 0 c
145 0 426 0 145 0 c
145 1062 145 0 145 1062 c
406 1062 145 1062 406 1062 c
406 906 406 1062 406 906 c
498.67 1026 615.33 1086 756 1086 c
818 1086 874.67 1074.83 926 1052.5 c
977.33 1030.17 1016.17 1001.67 1042.5 967 c
1068.83 932.33 1087.17 893 1097.5 849 c
1107.83 805 1113 742 1113 660 c
1113 0 1113 660 1113 0 c
closepath } bind def
/s111 {
82 546 m
82 639.33 105 729.67 151 817 c
197 904.33 262.17 971 346.5 1017 c
430.83 1063 525 1086 629 1086 c
789.67 1086 921.33 1033.83 1024 929.5 c
1126.67 825.17 1178 693.33 1178 534 c
1178 373.33 1126.17 240.17 1022.5 134.5 c
918.83 28.83 788.33 -24 631 -24 c
533.67 -24 440.83 -2 352.5 42 c
264.17 86 197 150.5 151 235.5 c
105 320.5 82 424 82 546 c
closepath 370 531 m
370 425.67 395 345 445 289 c
495 233 556.67 205 630 205 c
703.33 205 764.83 233 814.5 289 c
864.17 345 889 426.33 889 533 c
889 637 864.17 717 814.5 773 c
764.83 829 703.33 857 630 857 c
556.67 857 495 829 445 773 c
395 717 370 636.33 370 531 c
closepath } bind def
/s112 {
139 1062 m
401 1062 139 1062 401 1062 c
401 906 401 1062 401 906 c
435 959.33 481 1002.67 539 1036 c
597 1069.33 661.33 1086 732 1086 c
855.33 1086 960 1037.67 1046 941 c
1132 844.33 1175 709.67 1175 537 c
1175 359.67 1131.67 221.83 1045 123.5 c
958.33 25.17 853.33 -24 730 -24 c
671.33 -24 618.17 -12.33 570.5 11 c
522.83 34.33 472.67 74.33 420 131 c
420 -404 420 131 420 -404 c
139 -404 420 -404 139 -404 c
139 1062 139 -404 139 1062 c
closepath 417 549 m
417 429.67 440.67 341.5 488 284.5 c
535.33 227.5 593 199 661 199 c
726.33 199 780.67 225.17 824 277.5 c
867.33 329.83 889 415.67 889 535 c
889 646.33 866.67 729 822 783 c
777.33 837 722 864 656 864 c
587.33 864 530.33 837.5 485 784.5 c
439.67 731.5 417 653 417 549 c
closepath } bind def
/s114 {
416 0 m
135 0 416 0 135 0 c
135 1062 135 0 135 1062 c
396 1062 135 1062 396 1062 c
396 911 396 1062 396 911 c
440.67 982.33 480.83 1029.33 516.5 1052 c
552.17 1074.67 592.67 1086 638 1086 c
702 1086 763.67 1068.33 823 1033 c
736 788 823 1033 736 788 c
688.67 818.67 644.67 834 604 834 c
564.67 834 531.33 823.17 504 801.5 c
476.67 779.83 455.17 740.67 439.5 684 c
423.83 627.33 416 508.67 416 328 c
416 0 416 328 416 0 c
closepath } bind def
/s115 {
48 303 m
330 346 48 303 330 346 c
342 291.33 366.33 249.83 403 221.5 c
439.67 193.17 491 179 557 179 c
629.67 179 684.33 192.33 721 219 c
745.67 237.67 758 262.67 758 294 c
758 315.33 751.33 333 738 347 c
724 360.33 692.67 372.67 644 384 c
417.33 434 273.67 479.67 213 521 c
129 578.33 87 658 87 760 c
87 852 123.33 929.33 196 992 c
268.67 1054.67 381.33 1086 534 1086 c
679.33 1086 787.33 1062.33 858 1015 c
928.67 967.67 977.33 897.67 1004 805 c
739 756 1004 805 739 756 c
727.67 797.33 706.17 829 674.5 851 c
642.83 873 597.67 884 539 884 c
465 884 412 873.67 380 853 c
358.67 838.33 348 819.33 348 796 c
348 776 357.33 759 376 745 c
401.33 726.33 488.83 700 638.5 666 c
788.17 632 892.67 590.33 952 541 c
1010.67 491 1040 421.33 1040 332 c
1040 234.67 999.33 151 918 81 c
836.67 11 716.33 -24 557 -24 c
412.33 -24 297.83 5.33 213.5 64 c
129.17 122.67 74 202.33 48 303 c
closepath } bind def
/s116 {
634 1062 m
634 838 634 1062 634 838 c
442 838 634 838 442 838 c
442 410 442 838 442 410 c
442 323.33 443.83 272.83 447.5 258.5 c
451.17 244.17 459.5 232.33 472.5 223 c
485.5 213.67 501.33 209 520 209 c
546 209 583.67 218 633 236 c
657 18 633 236 657 18 c
591.67 -10 517.67 -24 435 -24 c
384.33 -24 338.67 -15.5 298 1.5 c
257.33 18.5 227.5 40.5 208.5 67.5 c
189.5 94.5 176.33 131 169 177 c
163 209.67 160 275.67 160 375 c
160 838 160 375 160 838 c
31 838 160 838 31 838 c
31 1062 31 838 31 1062 c
160 1062 31 1062 160 1062 c
160 1273 160 1062 160 1273 c
442 1437 160 1273 442 1437 c
442 1062 442 1437 442 1062 c
634 1062 442 1062 634 1062 c
closepath } bind def
/s117 {
846 0 m
846 159 846 0 846 159 c
807.33 102.33 756.5 57.67 693.5 25 c
630.5 -7.67 564 -24 494 -24 c
422.67 -24 358.67 -8.33 302 23 c
245.33 54.33 204.33 98.33 179 155 c
153.67 211.67 141 290 141 390 c
141 1062 141 390 141 1062 c
422 1062 141 1062 422 1062 c
422 574 422 1062 422 574 c
422 424.67 427.17 333.17 437.5 299.5 c
447.83 265.83 466.67 239.17 494 219.5 c
521.33 199.83 556 190 598 190 c
646 190 689 203.17 727 229.5 c
765 255.83 791 288.5 805 327.5 c
819 366.5 826 462 826 614 c
826 1062 826 614 826 1062 c
1107 1062 826 1062 1107 1062 c
1107 0 1107 1062 1107 0 c
846 0 1107 0 846 0 c
closepath } bind def
end
/BuildGlyph {
 exch dup /Metrics get 2 index get 0 setcharwidth
/CharProcs get exch 2 copy known not{pop/.notdef}if get exec fill}bind def
/BuildChar {
1 index /Encoding get exch get
1 index /BuildGlyph get exec
} bind def
currentdict end /MC2_Arial-CYRBold exch definefont pop
%%EndFont
0 0 228.25 213.28 rectpath cl np
/clipproc{clippath{[{/m cvx}{/l cvx}{/c cvx}{/cp cvx}pathforall}stopped
{cleartomark[pathbbox exch 3 i sub exch 2 i sub/rectpath cvx}if]np}bd
/iclmtx mtx cmtx def/iclpath clipproc xd/clinit{pathproc initclip np iclpath cl np exec}bd
/clmove{pathproc 3 1 roll clippath pathproc 2 i neg 2 i neg tr initclip np exec cl tr np exec}bd
/clrect[gs np iclpath{pathbbox}stopped{0 0 228.25 213.28 }if gr]def
/cloper{mtx cmtx iclmtx smtx exch exec smtx}bd
/cland{{exch cvx exec}cloper}bd
/clcopy{{exch clinit cvx exec}cloper}bd
/cldiff{{exch pathbbox 4 -1 roll clrect 0 get 2 copy gt{exch}if pop 4 1 roll
 3 -1 roll clrect 1 get 2 copy gt{exch}if pop 3 1 roll
 2 -1 roll clrect 2 get 2 copy lt{exch}if pop 2 1 roll
 1 -1 roll clrect 3 get 2 copy lt{exch}if pop 1 1 roll
 exch 3 i sub exch 2 i sub rectpath cvx exec}cloper}bd
/icl{{clinit}cloper}bd
0.139811 0.141333 sc
15.79 184.03 tr

/initmtx mtx cmtx def
gs
gs
[0.686516 0 0 -0.679134 0 1509.05] concat
1 -1 sc
/MC1_Arial 108 self 508 -2114 m
(0)[60 ] xs
1 -1 sc
gr
gs
[0.686516 0 0 -0.679134 0 1509.05] concat
1 -1 sc
/MC1_Arial 108 self 679 -2114 m
(50)[60 60 ] xs
1 -1 sc
gr
gs
[0.686516 0 0 -0.679134 0 1509.05] concat
1 -1 sc
/MC1_Arial 108 self 850 -2114 m
(100)[60 60 60 ] xs
1 -1 sc
gr
gs
[0.686516 0 0 -0.679134 0 1509.05] concat
1 -1 sc
/MC1_Arial 108 self 1050 -2114 m
(150)[60 60 60 ] xs
1 -1 sc
gr
gs
[0.686516 0 0 -0.679134 0 1509.05] concat
1 -1 sc
/MC1_Arial 108 self 1251 -2114 m
(200)[60 60 60 ] xs
1 -1 sc
gr
gs
[0.686516 0 0 -0.679134 0 1509.05] concat
1 -1 sc
/MC1_Arial 108 self 1452 -2114 m
(250)[60 60 60 ] xs
1 -1 sc
gr
gs
[0.686516 0 0 -0.679134 0 1509.05] concat
1 -1 sc
/MC1_Arial 108 self 1653 -2114 m
(300)[60 60 60 ] xs
1 -1 sc
gr
gs
[0.686516 0 0 -0.679134 0 1509.05] concat
1 -1 sc
/MC1_Arial 108 self 1853 -2114 m
(350)[60 60 60 ] xs
1 -1 sc
gr
gs
[0.686516 0 0 -0.679134 0 1509.05] concat
1 -1 sc
/MC1_Arial 108 self 2054 -2114 m
(400)[60 60 60 ] xs
1 -1 sc
gr
gs
[0.686516 0 0 -0.679134 0 1509.05] concat
1 -1 sc
/MC1_Arial 108 self 421 -2003 m
(0)[60 ] xs
1 -1 sc
gr
gs
[0.686516 0 0 -0.679134 0 1509.05] concat
1 -1 sc
/MC1_Arial 108 self 361 -1751 m
(20)[60 60 ] xs
1 -1 sc
gr
gs
[0.686516 0 0 -0.679134 0 1509.05] concat
1 -1 sc
/MC1_Arial 108 self 361 -1499 m
(40)[60 60 ] xs
1 -1 sc
gr
gs
[0.686516 0 0 -0.679134 0 1509.05] concat
1 -1 sc
/MC1_Arial 108 self 361 -1248 m
(60)[60 60 ] xs
1 -1 sc
gr
gs
[0.686516 0 0 -0.679134 0 1509.05] concat
1 -1 sc
/MC1_Arial 108 self 361 -996 m
(80)[60 60 ] xs
1 -1 sc
gr
gs
[0.686516 0 0 -0.679134 0 1509.05] concat
1 -1 sc
/MC1_Arial 108 self 301 -744 m
(100)[60 60 60 ] xs
1 -1 sc
gr
gs
[0.686516 0 0 -0.679134 0 1509.05] concat
1 -1 sc
/MC1_Arial 108 self 301 -492 m
(120)[60 60 60 ] xs
1 -1 sc
gr
[0.686516 0 0 -0.679134 0 1509.05] concat
538 2006 m
538 1972 l
7 sw
1 sj
1 scap
st
638 1989 m
638 1972 l
st
739 2006 m
739 1972 l
st
839 1989 m
839 1972 l
st
940 2006 m
940 1972 l
st
1040 1989 m
1040 1972 l
st
1140 2006 m
1140 1972 l
st
1241 1989 m
1241 1972 l
st
1341 2006 m
1341 1972 l
st
1441 1989 m
1441 1972 l
st
1542 2006 m
1542 1972 l
st
1642 1989 m
1642 1972 l
st
1743 2006 m
1743 1972 l
st
1843 1989 m
1843 1972 l
st
1943 2006 m
1943 1972 l
st
2044 1989 m
2044 1972 l
st
2144 2006 m
2144 1972 l
st
538 1972 m
2144 1972 l
st
504 1972 m
538 1972 l
st
521 1846 m
538 1846 l
st
504 1720 m
538 1720 l
st
521 1594 m
538 1594 l
st
504 1468 m
538 1468 l
st
521 1342 m
538 1342 l
st
504 1217 m
538 1217 l
st
521 1091 m
538 1091 l
st
504 965 m
538 965 l
st
521 839 m
538 839 l
st
504 713 m
538 713 l
st
521 587 m
538 587 l
st
504 461 m
538 461 l
st
538 1972 m
538 461 l
st
538 461 m
538 495 l
st
638 461 m
638 478 l
st
739 461 m
739 495 l
st
839 461 m
839 478 l
st
940 461 m
940 495 l
st
1040 461 m
1040 478 l
st
1140 461 m
1140 495 l
st
1241 461 m
1241 478 l
st
1341 461 m
1341 495 l
st
1441 461 m
1441 478 l
st
1542 461 m
1542 495 l
st
1642 461 m
1642 478 l
st
1743 461 m
1743 495 l
st
1843 461 m
1843 478 l
st
1943 461 m
1943 495 l
st
2044 461 m
2044 478 l
st
2144 461 m
2144 495 l
st
538 461 m
2144 461 l
st
2144 1972 m
2110 1972 l
st
2144 1846 m
2127 1846 l
st
2144 1720 m
2110 1720 l
st
2144 1594 m
2127 1594 l
st
2144 1468 m
2110 1468 l
st
2144 1342 m
2127 1342 l
st
2144 1217 m
2110 1217 l
st
2144 1091 m
2127 1091 l
st
2144 965 m
2110 965 l
st
2144 839 m
2127 839 l
st
2144 713 m
2110 713 l
st
2144 587 m
2127 587 l
st
2144 461 m
2110 461 l
st
2144 1972 m
2144 461 l
st
gs
pathproc 538 461 1607 1512 np rectpath
/eocl cland
np exec
538 1949 20 20 rectfill
2144 461 m
2 sw
538 1949 20 20 rectstroke
558 1962 20 20 rectfill
558 1962 20 20 rectstroke
578 1962 20 20 rectfill
578 1962 20 20 rectstroke
598 1962 20 20 rectfill
598 1962 20 20 rectstroke
618 1962 20 20 rectfill
618 1962 20 20 rectstroke
638 1761 20 20 rectfill
638 1761 20 20 rectstroke
658 1962 20 20 rectfill
658 1962 20 20 rectstroke
679 1949 20 20 rectfill
679 1949 20 20 rectstroke
699 1811 20 20 rectfill
699 1811 20 20 rectstroke
719 1622 20 20 rectfill
719 1622 20 20 rectstroke
739 1496 20 20 rectfill
739 1496 20 20 rectstroke
759 1609 20 20 rectfill
759 1609 20 20 rectstroke
779 1446 20 20 rectfill
779 1446 20 20 rectstroke
799 1169 20 20 rectfill
799 1169 20 20 rectstroke
819 1181 20 20 rectfill
819 1181 20 20 rectstroke
839 1232 20 20 rectfill
839 1232 20 20 rectstroke
859 955 20 20 rectfill
859 955 20 20 rectstroke
879 942 20 20 rectfill
879 942 20 20 rectstroke
899 879 20 20 rectfill
899 879 20 20 rectstroke
919 1093 20 20 rectfill
919 1093 20 20 rectstroke
940 1018 20 20 rectfill
940 1018 20 20 rectstroke
960 1005 20 20 rectfill
960 1005 20 20 rectstroke
980 1030 20 20 rectfill
980 1030 20 20 rectstroke
1000 1181 20 20 rectfill
1000 1181 20 20 rectstroke
1020 1219 20 20 rectfill
1020 1219 20 20 rectstroke
1040 1131 20 20 rectfill
1040 1131 20 20 rectstroke
1060 1118 20 20 rectfill
1060 1118 20 20 rectstroke
1080 1156 20 20 rectfill
1080 1156 20 20 rectstroke
1100 854 20 20 rectfill
1100 854 20 20 rectstroke
1120 1005 20 20 rectfill
1120 1005 20 20 rectstroke
1140 992 20 20 rectfill
1140 992 20 20 rectstroke
1160 665 20 20 rectfill
1160 665 20 20 rectstroke
1180 804 20 20 rectfill
1180 804 20 20 rectstroke
1201 854 20 20 rectfill
1201 854 20 20 rectstroke
1221 715 20 20 rectfill
1221 715 20 20 rectstroke
1241 942 20 20 rectfill
1241 942 20 20 rectstroke
1261 753 20 20 rectfill
1261 753 20 20 rectstroke
1281 652 20 20 rectfill
1281 652 20 20 rectstroke
1301 841 20 20 rectfill
1301 841 20 20 rectstroke
1321 980 20 20 rectfill
1321 980 20 20 rectstroke
1341 867 20 20 rectfill
1341 867 20 20 rectstroke
1361 980 20 20 rectfill
1361 980 20 20 rectstroke
1381 1358 20 20 rectfill
1381 1358 20 20 rectstroke
1401 1320 20 20 rectfill
1401 1320 20 20 rectstroke
1421 1521 20 20 rectfill
1421 1521 20 20 rectstroke
1441 1496 20 20 rectfill
1441 1496 20 20 rectstroke
1461 1534 20 20 rectfill
1461 1534 20 20 rectstroke
1482 1748 20 20 rectfill
1482 1748 20 20 rectstroke
1502 1698 20 20 rectfill
1502 1698 20 20 rectstroke
1522 1761 20 20 rectfill
1522 1761 20 20 rectstroke
1542 1823 20 20 rectfill
1542 1823 20 20 rectstroke
1562 1899 20 20 rectfill
1562 1899 20 20 rectstroke
1582 1836 20 20 rectfill
1582 1836 20 20 rectstroke
1602 1912 20 20 rectfill
1602 1912 20 20 rectstroke
1622 1886 20 20 rectfill
1622 1886 20 20 rectstroke
1642 1861 20 20 rectfill
1642 1861 20 20 rectstroke
1662 1924 20 20 rectfill
1662 1924 20 20 rectstroke
1682 1912 20 20 rectfill
1682 1912 20 20 rectstroke
1702 1924 20 20 rectfill
1702 1924 20 20 rectstroke
1722 1912 20 20 rectfill
1722 1912 20 20 rectstroke
1743 1912 20 20 rectfill
1743 1912 20 20 rectstroke
1763 1912 20 20 rectfill
1763 1912 20 20 rectstroke
1783 1924 20 20 rectfill
1783 1924 20 20 rectstroke
1803 1912 20 20 rectfill
1803 1912 20 20 rectstroke
1823 1962 20 20 rectfill
1823 1962 20 20 rectstroke
1843 1949 20 20 rectfill
1843 1949 20 20 rectstroke
1863 1912 20 20 rectfill
1863 1912 20 20 rectstroke
1883 1949 20 20 rectfill
1883 1949 20 20 rectstroke
1903 1962 20 20 rectfill
1903 1962 20 20 rectstroke
1923 1949 20 20 rectfill
1923 1949 20 20 rectstroke
gr
gs
gs
1 -1 sc
2261 -1271 tr
90 ro
/MC1_Arial 69 self 0 0 m
( )[19 ] xs
1 -1 sc
gr
gr
gs
1 -1 sc
/MC1_Arial 69 self 1332 -378 m
( )[19 ] xs
1 -1 sc
gr
gs
gs
1 -1 sc
219 -1875 tr
90 ro
/MC2_Arial-CYRBold 134 self 0 0 m
(Number of counts)[96 81 118 81 74 52 37 81 44 37 74 81 81 81 44 74 ] xs
1 -1 sc
gr
gr
gs
1 -1 sc
/MC2_Arial-CYRBold 134 self 443 -2317 m
(Amplitude \(channel number\))[92 118 81 37 37 44 81 81 74 37 44 74 81 74 81 81 74 37 37 81 81 118 81 74 52 44 ] xs
1 -1 sc
gr
gr
Save0 restore end
showpage
%%EOF
