%!PS-Adobe-2.0 EPSF-2.0
%%Title: cern.eps
%%Creator: fig2dev Version 3.2 Patchlevel 3d
%%CreationDate: Tue May  3 12:09:46 2005
%%For: grossior@lyopcs9.in2p3.fr (Jean-Yves Grossiord)
%%BoundingBox: 0 0 452 434
%%Magnification: 0.9400
%%EndComments
/$F2psDict 200 dict def
$F2psDict begin
$F2psDict /mtrx matrix put
/col-1 {0 setgray} bind def
/col0 {0.000 0.000 0.000 srgb} bind def
/col1 {0.000 0.000 1.000 srgb} bind def
/col2 {0.000 1.000 0.000 srgb} bind def
/col3 {0.000 1.000 1.000 srgb} bind def
/col4 {1.000 0.000 0.000 srgb} bind def
/col5 {1.000 0.000 1.000 srgb} bind def
/col6 {1.000 1.000 0.000 srgb} bind def
/col7 {1.000 1.000 1.000 srgb} bind def
/col8 {0.000 0.000 0.560 srgb} bind def
/col9 {0.000 0.000 0.690 srgb} bind def
/col10 {0.000 0.000 0.820 srgb} bind def
/col11 {0.530 0.810 1.000 srgb} bind def
/col12 {0.000 0.560 0.000 srgb} bind def
/col13 {0.000 0.690 0.000 srgb} bind def
/col14 {0.000 0.820 0.000 srgb} bind def
/col15 {0.000 0.560 0.560 srgb} bind def
/col16 {0.000 0.690 0.690 srgb} bind def
/col17 {0.000 0.820 0.820 srgb} bind def
/col18 {0.560 0.000 0.000 srgb} bind def
/col19 {0.690 0.000 0.000 srgb} bind def
/col20 {0.820 0.000 0.000 srgb} bind def
/col21 {0.560 0.000 0.560 srgb} bind def
/col22 {0.690 0.000 0.690 srgb} bind def
/col23 {0.820 0.000 0.820 srgb} bind def
/col24 {0.500 0.190 0.000 srgb} bind def
/col25 {0.630 0.250 0.000 srgb} bind def
/col26 {0.750 0.380 0.000 srgb} bind def
/col27 {1.000 0.500 0.500 srgb} bind def
/col28 {1.000 0.630 0.630 srgb} bind def
/col29 {1.000 0.750 0.750 srgb} bind def
/col30 {1.000 0.880 0.880 srgb} bind def
/col31 {1.000 0.840 0.000 srgb} bind def

end
save
newpath 0 434 moveto 0 0 lineto 452 0 lineto 452 434 lineto closepath clip newpath
-189.8 487.0 translate
1 -1 scale

/cp {closepath} bind def
/ef {eofill} bind def
/gr {grestore} bind def
/gs {gsave} bind def
/sa {save} bind def
/rs {restore} bind def
/l {lineto} bind def
/m {moveto} bind def
/rm {rmoveto} bind def
/n {newpath} bind def
/s {stroke} bind def
/sh {show} bind def
/slc {setlinecap} bind def
/slj {setlinejoin} bind def
/slw {setlinewidth} bind def
/srgb {setrgbcolor} bind def
/rot {rotate} bind def
/sc {scale} bind def
/sd {setdash} bind def
/ff {findfont} bind def
/sf {setfont} bind def
/scf {scalefont} bind def
/sw {stringwidth} bind def
/tr {translate} bind def
/tnt {dup dup currentrgbcolor
  4 -2 roll dup 1 exch sub 3 -1 roll mul add
  4 -2 roll dup 1 exch sub 3 -1 roll mul add
  4 -2 roll dup 1 exch sub 3 -1 roll mul add srgb}
  bind def
/shd {dup dup currentrgbcolor 4 -2 roll mul 4 -2 roll mul
  4 -2 roll mul srgb} bind def
/reencdict 12 dict def /ReEncode { reencdict begin
/newcodesandnames exch def /newfontname exch def /basefontname exch def
/basefontdict basefontname findfont def /newfont basefontdict maxlength dict def
basefontdict { exch dup /FID ne { dup /Encoding eq
{ exch dup length array copy newfont 3 1 roll put }
{ exch newfont 3 1 roll put } ifelse } { pop pop } ifelse } forall
newfont /FontName newfontname put newcodesandnames aload pop
128 1 255 { newfont /Encoding get exch /.notdef put } for
newcodesandnames length 2 idiv { newfont /Encoding get 3 1 roll put } repeat
newfontname newfont definefont pop end } def
/isovec [
8#055 /minus 8#200 /grave 8#201 /acute 8#202 /circumflex 8#203 /tilde
8#204 /macron 8#205 /breve 8#206 /dotaccent 8#207 /dieresis
8#210 /ring 8#211 /cedilla 8#212 /hungarumlaut 8#213 /ogonek 8#214 /caron
8#220 /dotlessi 8#230 /oe 8#231 /OE
8#240 /space 8#241 /exclamdown 8#242 /cent 8#243 /sterling
8#244 /currency 8#245 /yen 8#246 /brokenbar 8#247 /section 8#250 /dieresis
8#251 /copyright 8#252 /ordfeminine 8#253 /guillemotleft 8#254 /logicalnot
8#255 /hyphen 8#256 /registered 8#257 /macron 8#260 /degree 8#261 /plusminus
8#262 /twosuperior 8#263 /threesuperior 8#264 /acute 8#265 /mu 8#266 /paragraph
8#267 /periodcentered 8#270 /cedilla 8#271 /onesuperior 8#272 /ordmasculine
8#273 /guillemotright 8#274 /onequarter 8#275 /onehalf
8#276 /threequarters 8#277 /questiondown 8#300 /Agrave 8#301 /Aacute
8#302 /Acircumflex 8#303 /Atilde 8#304 /Adieresis 8#305 /Aring
8#306 /AE 8#307 /Ccedilla 8#310 /Egrave 8#311 /Eacute
8#312 /Ecircumflex 8#313 /Edieresis 8#314 /Igrave 8#315 /Iacute
8#316 /Icircumflex 8#317 /Idieresis 8#320 /Eth 8#321 /Ntilde 8#322 /Ograve
8#323 /Oacute 8#324 /Ocircumflex 8#325 /Otilde 8#326 /Odieresis 8#327 /multiply
8#330 /Oslash 8#331 /Ugrave 8#332 /Uacute 8#333 /Ucircumflex
8#334 /Udieresis 8#335 /Yacute 8#336 /Thorn 8#337 /germandbls 8#340 /agrave
8#341 /aacute 8#342 /acircumflex 8#343 /atilde 8#344 /adieresis 8#345 /aring
8#346 /ae 8#347 /ccedilla 8#350 /egrave 8#351 /eacute
8#352 /ecircumflex 8#353 /edieresis 8#354 /igrave 8#355 /iacute
8#356 /icircumflex 8#357 /idieresis 8#360 /eth 8#361 /ntilde 8#362 /ograve
8#363 /oacute 8#364 /ocircumflex 8#365 /otilde 8#366 /odieresis 8#367 /divide
8#370 /oslash 8#371 /ugrave 8#372 /uacute 8#373 /ucircumflex
8#374 /udieresis 8#375 /yacute 8#376 /thorn 8#377 /ydieresis] def
/Times-Roman /Times-Roman-iso isovec ReEncode
/$F2psBegin {$F2psDict begin /$F2psEnteredState save def} def
/$F2psEnd {$F2psEnteredState restore end} def

$F2psBegin
10 setmiterlimit
 0.05921 0.05921 sc
%
% Fig objects follow
%
% Polyline
7.500 slw
n 7650 1260 m 8505 1260 l 8505 1755 l 7650 1755 l
 cp gs col0 s gr 
/Times-Roman-iso ff 210.00 scf sf
7830 1575 m
gs 1 -1 sc (Begin) col0 sh gr
% Polyline
n 7605 7380 m 8460 7380 l 8460 7875 l 7605 7875 l
 cp gs col0 s gr 
/Times-Roman-iso ff 210.00 scf sf
7830 7695 m
gs 1 -1 sc (End) col0 sh gr
% Polyline
n 3555 3735 m 5535 3735 l 5535 4635 l 3555 4635 l
 cp gs col0 s gr 
/Times-Roman-iso ff 210.00 scf sf
4095 3960 m
gs 1 -1 sc (calibration 2) col0 sh gr
/Times-Roman-iso ff 210.00 scf sf
3780 4230 m
gs 1 -1 sc (PM gain calibration) col0 sh gr
/Times-Roman-iso ff 210.00 scf sf
3870 4500 m
gs 1 -1 sc (inside the L3 field) col0 sh gr
% Polyline
gs  clippath
8070 2085 m 8130 2085 l 8130 1933 l 8100 2053 l 8070 1933 l cp
eoclip
n 8100 1755 m
 8100 2070 l gs col0 s gr gr

% arrowhead
n 8070 1933 m 8100 2053 l 8130 1933 l  col0 s
% Polyline
gs  clippath
8070 4200 m 8130 4200 l 8130 4048 l 8100 4168 l 8070 4048 l cp
eoclip
n 8100 3870 m
 8100 4185 l gs col0 s gr gr

% arrowhead
n 8070 4048 m 8100 4168 l 8130 4048 l  col0 s
% Polyline
gs  clippath
8070 6360 m 8130 6360 l 8130 6208 l 8100 6328 l 8070 6208 l cp
eoclip
n 8100 6030 m
 8100 6345 l gs col0 s gr gr

% arrowhead
n 8070 6208 m 8100 6328 l 8130 6208 l  col0 s
% Polyline
gs  clippath
8070 7395 m 8130 7395 l 8130 7243 l 8100 7363 l 8070 7243 l cp
eoclip
n 8100 7065 m
 8100 7380 l gs col0 s gr gr

% arrowhead
n 8070 7243 m 8100 7363 l 8130 7243 l  col0 s
% Polyline
gs  clippath
8070 2895 m 8130 2895 l 8130 2743 l 8100 2863 l 8070 2743 l cp
eoclip
n 8100 2565 m
 8100 2880 l gs col0 s gr gr

% arrowhead
n 8070 2743 m 8100 2863 l 8130 2743 l  col0 s
% Polyline
gs  clippath
8070 5010 m 8130 5010 l 8130 4858 l 8100 4978 l 8070 4858 l cp
eoclip
n 8100 4680 m
 8100 4995 l gs col0 s gr gr

% arrowhead
n 8070 4858 m 8100 4978 l 8130 4858 l  col0 s
% Polyline
gs  clippath
5520 4065 m 5520 4125 l 5672 4125 l 5552 4095 l 5672 4065 l cp
eoclip
n 8100 4095 m
 5535 4095 l gs col0 s gr gr

% arrowhead
n 5672 4065 m 5552 4095 l 5672 4125 l  col0 s
% Polyline
gs  clippath
8085 2625 m 8085 2685 l 8237 2685 l 8117 2655 l 8237 2625 l cp
eoclip
n 8100 4005 m 10485 4005 l 10485 2655 l
 8100 2655 l gs col0 s gr gr

% arrowhead
n 8237 2625 m 8117 2655 l 8237 2685 l  col0 s
% Polyline
gs  clippath
8085 4785 m 8085 4845 l 8237 4845 l 8117 4815 l 8237 4785 l cp
eoclip
n 8100 6165 m 10485 6165 l 10485 4815 l
 8100 4815 l gs col0 s gr gr

% arrowhead
n 8237 4785 m 8117 4815 l 8237 4845 l  col0 s
% Polyline
n 6390 2070 m 9720 2070 l 9720 2565 l 6390 2565 l
 cp gs col0 s gr 
% Polyline
n 6165 2880 m 9945 2880 l 9945 3870 l 6165 3870 l
 cp gs col0 s gr 
% Polyline
n 6435 4185 m 9675 4185 l 9675 4680 l 6435 4680 l
 cp gs col0 s gr 
% Polyline
n 5985 4995 m 10170 4995 l 10170 6030 l 5985 6030 l
 cp gs col0 s gr 
% Polyline
n 6390 6345 m 9720 6345 l 9720 7065 l 6390 7065 l
 cp gs col0 s gr 
/Times-Roman-iso ff 210.00 scf sf
6435 3465 m
gs 1 -1 sc (Time scanning \(charge optimisation\) ) col0 sh gr
/Times-Roman-iso ff 210.00 scf sf
7650 3735 m
gs 1 -1 sc (\(2, 3, 4, 5\)) col0 sh gr
/Times-Roman-iso ff 210.00 scf sf
6660 5580 m
gs 1 -1 sc (scanning \(efficiency optimisation\)) col0 sh gr
/Times-Roman-iso ff 180.00 scf sf
6930 5850 m
gs 1 -1 sc (\(7, 8, 9, 10, 11, 12, 13, 14, 15\)) col0 sh gr
/Times-Roman-iso ff 210.00 scf sf
7110 6930 m
gs 1 -1 sc (\(3 with check of 4 to 15\)) col0 sh gr
/Times-Roman-iso ff 210.00 scf sf
6840 2385 m
gs 1 -1 sc (-4- PM gain adjustment \(17\)) col0 sh gr
/Times-Roman-iso ff 210.00 scf sf
6750 3195 m
gs 1 -1 sc (-5- Clock V0A, V0C, DCS) col0 sh gr
/Times-Roman-iso ff 210.00 scf sf
6660 4500 m
gs 1 -1 sc (-6- Individual channel delay \(1\)) col0 sh gr
/Times-Roman-iso ff 210.00 scf sf
6075 5310 m
gs 1 -1 sc (-7- Width / time of the observation windows) col0 sh gr
/Times-Roman-iso ff 210.00 scf sf
6525 6660 m
gs 1 -1 sc (-8- Time alignment of Clock DCS) col0 sh gr
$F2psEnd
rs
