%!PS-Adobe-2.0 EPSF-2.0
%%BoundingBox:  0 0 567 539
%%Title: charge.eps: Charge 
%%Creator: ROOT Version 4.00/08
%%CreationDate: Tue Aug 31 07:03:31 2004
%%EndComments
%%BeginProlog
80 dict begin
/s {stroke} def /l {lineto} def /m {moveto} def /t {translate} def
/sw {stringwidth} def /r {rotate} def /rl {roll}  def /R {repeat} def
/d {rlineto} def /rm {rmoveto} def /gr {grestore} def /f {eofill} def
/c {setrgbcolor} def /lw {setlinewidth} def /sd {setdash} def
/cl {closepath} def /sf {scalefont setfont} def /black {0 setgray} def
/box {m dup 0 exch d exch 0 d 0 exch neg d cl} def
/NC{systemdict begin initclip end}def/C{NC box clip newpath}def
/bl {box s} def /bf {box f} def /Y { 0 exch d} def /X { 0 d} def 
/mp {newpath /y exch def /x exch def} def
/side {[w .77 mul w .23 mul] .385 w mul sd w 0 l currentpoint t -144 r} def
/mr {mp x y w2 0 360 arc} def /m24 {mr s} def /m20 {mr f} def
/mb {mp x y w2 add m w2 neg 0 d 0 w neg d w 0 d 0 w d cl} def
/mt {mp x y w2 add m w2 neg w neg d w 0 d cl} def
/m21 {mb f} def /m25 {mb s} def /m22 {mt f} def /m26{mt s} def
/m23 {mp x y w2 sub m w2 w d w neg 0 d cl f} def
/m27 {mp x y w2 add m w3 neg w2 neg d w3 w2 neg d w3 w2 d cl s} def
/m28 {mp x w2 sub y w2 sub w3 add m w3 0 d  0 w3 neg d w3 0 d 0 w3 d w3 0 d  0 w3 d w3 neg 0 d 0 w3 d w3 neg 0 d
 0 w3 neg d w3 neg 0 d cl s } def
/m29 {mp gsave x w2 sub y w2 add w3 sub m currentpoint t
 4 {side} repeat cl fill gr} def
/m30 {mp gsave x w2 sub y w2 add w3 sub m currentpoint t
 4 {side} repeat cl s gr} def
/m31 {mp x y w2 sub m 0 w d x w2 sub y m w 0 d x w2 sub y w2 add m w w neg d x w2 sub y w2
 sub m w w d s} def
/m2 {mp x y w2 sub m 0 w d x w2 sub y m w 0 d s} def
/m5 {mp x w2 sub y w2 sub m w w d x w2 sub y w2 add m w w neg d s} def
/reencdict 24 dict def /ReEncode {reencdict begin /nco&na exch def
/nfnam exch def /basefontname exch def /basefontdict basefontname findfont def
/newfont basefontdict maxlength dict def basefontdict {exch dup /FID ne
{dup /Encoding eq {exch dup length array copy newfont 3 1 roll put} {exch 
newfont 3 1 roll put} ifelse} {pop pop} ifelse } forall newfont
/FontName nfnam put nco&na aload pop nco&na length 2 idiv {newfont
/Encoding get 3 1 roll put} repeat nfnam newfont definefont pop end } def
/accvec [ 176 /agrave 181 /Agrave 190 /acircumflex 192 /Acircumflex
201 /adieresis 204 /Adieresis 209 /ccedilla 210 /Ccedilla 211 /eacute
212 /Eacute 213 /egrave 214 /Egrave 215 /ecircumflex 216 /Ecircumflex
217 /edieresis 218 /Edieresis 219 /icircumflex 220 /Icircumflex
221 /idieresis 222 /Idieresis 223 /ntilde 224 /Ntilde 226 /ocircumflex
228 /Ocircumflex 229 /odieresis 230 /Odieresis 231 /ucircumflex 236 /Ucircumflex
237 /udieresis 238 /Udieresis 239 /aring 242 /Aring 243 /ydieresis
244 /Ydieresis 246 /aacute 247 /Aacute 252 /ugrave 253 /Ugrave] def
/Times-Roman /Times-Roman accvec ReEncode
/Times-Italic /Times-Italic accvec ReEncode
/Times-Bold /Times-Bold accvec ReEncode
/Times-BoldItalic /Times-BoldItalic accvec ReEncode
/Helvetica /Helvetica accvec ReEncode
/Helvetica-Oblique /Helvetica-Oblique accvec ReEncode
/Helvetica-Bold /Helvetica-Bold accvec ReEncode
/Helvetica-BoldOblique /Helvetica-BoldOblique  accvec ReEncode
/Courier /Courier accvec ReEncode
/Courier-Oblique /Courier-Oblique accvec ReEncode
/Courier-Bold /Courier-Bold accvec ReEncode
/Courier-BoldOblique /Courier-BoldOblique accvec ReEncode
/oshow {gsave [] 0 sd true charpath stroke gr} def
/stwn { /fs exch def /fn exch def /text exch def fn findfont fs sf
 text sw pop xs add /xs exch def} def
/stwb { /fs exch def /fn exch def /nbas exch def /textf exch deftextf length /tlen exch def nbas tlen gt {/nbas tlendef} iffn findfont fs sf textf dup length nbas sub nbas getinterval sw
pop neg xs add /xs exch def} def
/accspe [ 65 /plusminus  66 /bar  67 /existential  68 /universal 
69 /exclam  70 /numbersign 71 /greater  72 /question  73 /integral 
74 /colon  75 /semicolon  76 /less  77 /bracketleft  78 /bracketright
79 /greaterequal 80 /braceleft 81 /braceright 82 /radical
83 /spade 84 /heart 85 /diamond 86 /club 87 /lessequal
88 /multiply 89 /percent 90 /infinity 48 /circlemultiply 49 /circleplus
50 /emptyset  51 /lozenge 52 /bullet 53 /arrowright 54 /arrowup
55 /arrowleft 56 /arrowdown 57 /arrowboth 48 /degree 44 /comma 43 /plus 45 /angle 42 /angleleft 47 /divide 61 /notequal 40 /equivalence 41 /second 97 /approxequal 98 /congruent 99 /perpendicular 100 /partialdiff 101 /florin 102 /intersection
 103 /union 104 /propersuperset 105 /reflexsuperset 106 /notsubset 107 /propersubset 108 /reflexsubset 109 /element 110 /notelement 111 /gradient 112 /logicaland 113 /logicalor 114 /arrowdblboth 115 /arrowdblleft 116 /arrowdblup 117 /arrowdblright
 118 /arrowdbldown 119 /ampersand 120 /omega1 121 /similar 122 /aleph ] def
/Symbol /Special accspe ReEncode
%%EndProlog
%%BeginSetup
newpath  gsave  .25 .25 scale 
%%EndSetup
 gsave  0 0 t black [] 0 sd 3 lw 1 1 1 c 2268 2158 0 0 bf black 1 1 1 c 1814 1726 227 216 bf black 1814 1726 227 216 bl 1 1 1 c 1814 1726 227 216 bf black 1814 1726 227 216 bl 227 216 m 1814 X s
 gsave  1321 46
 t 0 r 0 0 m /Times-Roman findfont 82.2962 sf 0 0 m (Supply voltage \(V\)) show  gr  231 268 m -52 Y s 309 242 m -26 Y s 388 242 m -26 Y s 466 242 m -26 Y s 545 268 m -52 Y s 623 242 m -26 Y s 702 242 m -26 Y s 780 242 m -26 Y s 859 268 m -52 Y s
 938 242 m -26 Y s 1016 242 m -26 Y s 1095 242 m -26 Y s 1173 268 m -52 Y s 1252 242 m -26 Y s 1330 242 m -26 Y s 1409 242 m -26 Y s 1487 268 m -52 Y s 1566 242 m -26 Y s 1644 242 m -26 Y s 1723 242 m -26 Y s 1801 268 m -52 Y s 231 268 m -52 Y s 1801
 268 m -52 Y s 1880 242 m -26 Y s 1958 242 m -26 Y s 2037 242 m -26 Y s
 gsave  137 137
 t 0 r 0 0 m /Times-Roman findfont 82.2962 sf 0 0 m (1200) show  gr 
 gsave  453 137
 t 0 r 0 0 m /Times-Roman findfont 82.2962 sf 0 0 m (1400) show  gr 
 gsave  764 137
 t 0 r 0 0 m /Times-Roman findfont 82.2962 sf 0 0 m (1600) show  gr 
 gsave  1079 137
 t 0 r 0 0 m /Times-Roman findfont 82.2962 sf 0 0 m (1800) show  gr 
 gsave  1394 137
 t 0 r 0 0 m /Times-Roman findfont 82.2962 sf 0 0 m (2000) show  gr 
 gsave  1710 137
 t 0 r 0 0 m /Times-Roman findfont 82.2962 sf 0 0 m (2200) show  gr  227 216 m 1726 Y s
 gsave  82 1472
 t 90 r 0 0 m /Times-Roman findfont 82.2962 sf 0 0 m (Charge \(pC\)) show  gr  254 216 m -27 X s 254 263 m -27 X s 254 303 m -27 X s 254 337 m -27 X s 254 368 m -27 X s 281 395 m -54 X s
 /xs 0 def (1) /Times-Roman 82.2962 stwn  gsave  208 362
 t 0 r  xs neg 0 t 0 0 m /Times-Roman findfont 82.2962 sf 0 0 m (1) show  gr  254 574 m -27 X s 254 679 m -27 X s 254 753 m -27 X s 254 810 m -27 X s 254 858 m -27 X s 254 897 m -27 X s 254 932 m -27 X s 254 962 m -27 X s 281 989 m -54 X s
 /xs 0 def (10) /Times-Roman 82.2962 stwn  gsave  208 957
 t 0 r  xs neg 0 t 0 0 m /Times-Roman findfont 82.2962 sf 0 0 m (10) show  gr  254 1169 m -27 X s 254 1273 m -27 X s 254 1348 m -27 X s 254 1405 m -27 X s 254 1452 m -27 X s 254 1492 m -27 X s 254 1527 m -27 X s 254 1557 m -27 X s 281 1584 m -54 X
 s
 gsave  174 1596
 t 0 r 0 0 m /Times-Roman findfont 54.8641 sf 0 0 m (2) show  gr 
 gsave  82 1559
 t 0 r 0 0 m /Times-Roman findfont 82.2962 sf 0 0 m (10) show  gr  254 1763 m -27 X s 254 1868 m -27 X s 6 lw 1 0 0 c black 309 471 m 393 438 d 393 350 d 392 251 d 471 313 d s 3 lw 1 0 0 c /w 42 def /w2 {w 2 div} def /w3 {w 3 div} def 309 471 702
 909 1095 1259 1487 1510 1958 1823 5 { m21} R black 6 lw 0 0 1 c black 309 325 m 393 364 d 393 302 d 392 267 d 471 260 d s 3 lw 0 0 1 c 309 325 702 689 1095 991 1487 1258 1958 1518 5 { m22} R black 1 1 1 c 567 324 680 1597 bf black
 gsave  818 1815
 t 0 r 0 0 m /Times-Roman findfont 91.4402 sf 0 0 m (PMT1) show  gr  1 0 0 c 751 1840 m21 black
 gsave  818 1650
 t 0 r 0 0 m /Times-Roman findfont 91.4402 sf 0 0 m (PMT2) show  gr  0 0 1 c 751 1678 m22
 gr  gr 
showpage
end
%%EOF