%!PS-Adobe-2.0 EPSF-2.0
%%BoundingBox:  0 0 567 384
%%Title: /afs/in2p3.fr/group/alice/brapp/dNdEtaHijing.eps: c0
%%Creator: ROOT Version 3.10/02
%%CreationDate: Mon Jul  5 15:48:57 2004
%%EndComments
%%BeginProlog
80 dict begin
/s {stroke} def /l {lineto} def /m {moveto} def /t {translate} def
/sw {stringwidth} def /r {rotate} def /rl {roll}  def /R {repeat} def
/d {rlineto} def /rm {rmoveto} def /gr {grestore} def /f {eofill} def
/c {setrgbcolor} def /lw {setlinewidth} def /sd {setdash} def
/cl {closepath} def /sf {scalefont setfont} def /black {0 setgray} def
/box {m dup 0 exch d exch 0 d 0 exch neg d cl} def
/NC{systemdict begin initclip end}def/C{NC box clip newpath}def
/bl {box s} def /bf {box f} def /Y { 0 exch d} def /X { 0 d} def 
/mp {newpath /y exch def /x exch def} def
/side {[w .77 mul w .23 mul] .385 w mul sd w 0 l currentpoint t -144 r} def
/mr {mp x y w2 0 360 arc} def /m24 {mr s} def /m20 {mr f} def
/mb {mp x y w2 add m w2 neg 0 d 0 w neg d w 0 d 0 w d cl} def
/mt {mp x y w2 add m w2 neg w neg d w 0 d cl} def
/m21 {mb f} def /m25 {mb s} def /m22 {mt f} def /m26{mt s} def
/m23 {mp x y w2 sub m w2 w d w neg 0 d cl f} def
/m27 {mp x y w2 add m w3 neg w2 neg d w3 w2 neg d w3 w2 d cl s} def
/m28 {mp x w2 sub y w2 sub w3 add m w3 0 d  0 w3 neg d w3 0 d 0 w3 d w3 0 d  0 w3 d w3 neg 0 d 0 w3 d w3 neg 0 d
 0 w3 neg d w3 neg 0 d cl s } def
/m29 {mp gsave x w2 sub y w2 add w3 sub m currentpoint t
 4 {side} repeat cl fill gr} def
/m30 {mp gsave x w2 sub y w2 add w3 sub m currentpoint t
 4 {side} repeat cl s gr} def
/m31 {mp x y w2 sub m 0 w d x w2 sub y m w 0 d x w2 sub y w2 add m w w neg d x w2 sub y w2
 sub m w w d s} def
/m2 {mp x y w2 sub m 0 w d x w2 sub y m w 0 d s} def
/m5 {mp x w2 sub y w2 sub m w w d x w2 sub y w2 add m w w neg d s} def
/reencdict 24 dict def /ReEncode {reencdict begin /nco&na exch def
/nfnam exch def /basefontname exch def /basefontdict basefontname findfont def
/newfont basefontdict maxlength dict def basefontdict {exch dup /FID ne
{dup /Encoding eq {exch dup length array copy newfont 3 1 roll put} {exch 
newfont 3 1 roll put} ifelse} {pop pop} ifelse } forall newfont
/FontName nfnam put nco&na aload pop nco&na length 2 idiv {newfont
/Encoding get 3 1 roll put} repeat nfnam newfont definefont pop end } def
/accvec [ 176 /agrave 181 /Agrave 190 /acircumflex 192 /Acircumflex
201 /adieresis 204 /Adieresis 209 /ccedilla 210 /Ccedilla 211 /eacute
212 /Eacute 213 /egrave 214 /Egrave 215 /ecircumflex 216 /Ecircumflex
217 /edieresis 218 /Edieresis 219 /icircumflex 220 /Icircumflex
221 /idieresis 222 /Idieresis 223 /ntilde 224 /Ntilde 226 /ocircumflex
228 /Ocircumflex 229 /odieresis 230 /Odieresis 231 /ucircumflex 236 /Ucircumflex
237 /udieresis 238 /Udieresis 239 /aring 242 /Aring 243 /ydieresis
244 /Ydieresis 246 /aacute 247 /Aacute 252 /ugrave 253 /Ugrave] def
/Times-Roman /Times-Roman accvec ReEncode
/Times-Italic /Times-Italic accvec ReEncode
/Times-Bold /Times-Bold accvec ReEncode
/Times-BoldItalic /Times-BoldItalic accvec ReEncode
/Helvetica /Helvetica accvec ReEncode
/Helvetica-Oblique /Helvetica-Oblique accvec ReEncode
/Helvetica-Bold /Helvetica-Bold accvec ReEncode
/Helvetica-BoldOblique /Helvetica-BoldOblique  accvec ReEncode
/Courier /Courier accvec ReEncode
/Courier-Oblique /Courier-Oblique accvec ReEncode
/Courier-Bold /Courier-Bold accvec ReEncode
/Courier-BoldOblique /Courier-BoldOblique accvec ReEncode
/oshow {gsave [] 0 sd true charpath stroke gr} def
/stwn { /fs exch def /fn exch def /text exch def fn findfont fs sf
 text sw pop xs add /xs exch def} def
/stwb { /fs exch def /fn exch def /nbas exch def /textf exch deftextf length /tlen exch def nbas tlen gt {/nbas tlendef} iffn findfont fs sf textf dup length nbas sub nbas getinterval sw
pop neg xs add /xs exch def} def
/accspe [ 65 /plusminus  66 /bar  67 /existential  68 /universal 
69 /exclam  70 /numbersign 71 /greater  72 /question  73 /integral 
74 /colon  75 /semicolon  76 /less  77 /bracketleft  78 /bracketright
79 /greaterequal 80 /braceleft 81 /braceright 82 /radical
83 /spade 84 /heart 85 /diamond 86 /club 87 /lessequal
88 /multiply 89 /percent 90 /infinity 48 /circlemultiply 49 /circleplus
50 /emptyset  51 /lozenge 52 /bullet 53 /arrowright 54 /arrowup
55 /arrowleft 56 /arrowdown 57 /arrowboth 48 /degree 44 /comma 43 /plus 45 /angle 42 /angleleft 47 /divide 61 /notequal 40 /equivalence 41 /second 97 /approxequal 98 /congruent 99 /perpendicular 100 /partialdiff 101 /florin 102 /intersection
 103 /union 104 /propersuperset 105 /reflexsuperset 106 /notsubset 107 /propersubset 108 /reflexsubset 109 /element 110 /notelement 111 /gradient 112 /logicaland 113 /logicalor 114 /arrowdblboth 115 /arrowdblleft 116 /arrowdblup 117 /arrowdblright
 118 /arrowdbldown 119 /ampersand 120 /omega1 121 /similar 122 /aleph ] def
/Symbol /Special accspe ReEncode
%%EndProlog
%%BeginSetup
newpath  gsave  .25 .25 scale 
%%EndSetup
 gsave  0 0 t black [] 0 sd 3 lw 1 1 1 c 2268 1538 0 0 bf black 1 1 1 c 1779 1212 261 173 bf black 1779 1212 261 173 bl 1 1 1 c 1779 1212 261 173 bf black 1779 1212 261 173 bl 6 lw 1 1 1 c black 261 173 m 17 X 5 Y 9 X -2 Y 18 X 3 Y 9 X -3 Y 9 X 4 Y 9
 X -1 Y 9 X 1 Y 9 X 3 Y 9 X 3 Y 8 X -2 Y 9 X 4 Y 9 X -4 Y 9 X 5 Y 18 X 11 Y 9 X -1 Y 9 X 9 Y 17 X -1 Y 9 X -1 Y 9 X 22 Y 9 X -3 Y 9 X 2 Y 9 X 17 Y 9 X -1 Y 9 X 11 Y 9 X 2 Y 9 X 7 Y 8 X 18 Y 9 X 23 Y 9 X -1 Y 9 X 14 Y 9 X 27 Y 9 X 9 Y 9 X 16 Y 9 X 30
 Y 9 X -10 Y 8 X 32 Y 9 X 21 Y 9 X 56 Y 9 X -11 Y 9 X 49 Y 9 X 63 Y 9 X -9 Y 9 X 64 Y 9 X 19 Y 9 X 38 Y 8 X 7 Y 9 X 27 Y 9 X 46 Y 9 X 22 Y 9 X 53 Y 9 X 47 Y 9 X -29 Y 9 X 48 Y 9 X 17 Y 8 X -5 Y 9 X 77 Y 9 X -8 Y 18 X 27 Y 9 X -7 Y 9 X 47 Y 9 X 21 Y 9
 X -44 Y 9 X 34 Y 8 X -15 Y 9 X 64 Y 9 X -28 Y 9 X 57 Y 9 X -26 Y 9 X 7 Y 9 X 44 Y 9 X -25 Y 9 X 14 Y 8 X -16 Y 9 X 67 Y 9 X -93 Y 9 X 77 Y 9 X 28 Y 9 X 27 Y 9 X 19 Y 9 X -28 Y 9 X 15 Y 9 X -24 Y 8 X -19 Y 9 X 65 Y 9 X -15 Y 9 X 16 Y 9 X 12 Y 9 X -44
 Y 9 X 11 Y 9 X -23 Y 9 X 62 Y 8 X -23 Y 9 X -24 Y 9 X 52 Y 9 X -43 Y 9 X 36 Y 9 X -31 Y 9 X 30 Y 9 X -25 Y 9 X 2 Y 9 X 44 Y 8 X -30 Y 9 X 6 Y 9 X -18 Y 9 X -10 Y 9 X -3 Y 9 X 9 Y 9 X -69 Y 9 X 41 Y 9 X 20 Y 8 X 8 Y 9 X -57 Y 9 X -40 Y 9 X -8 Y 9 X
 54 Y 9 X -91 Y 9 X 20 Y 9 X 16 Y 9 X 21 Y 9 X -43 Y 8 X -14 Y 9 X -7 Y 9 X -12 Y 9 X 45 Y 9 X -90 Y 9 X 39 Y 9 X -6 Y 9 X -27 Y 9 X 5 Y 8 X -52 Y 9 X 20 Y 9 X -44 Y 9 X 30 Y 9 X -45 Y 18 X 5 Y 9 X -78 Y 9 X -15 Y 9 X -26 Y 8 X -31 Y 9 X -9 Y 9 X -47
 Y 9 X -46 Y 9 X -11 Y 9 X 14 Y 9 X -65 Y 9 X -47 Y 9 X -16 Y 8 X -55 Y 9 X -47 Y 9 X -9 Y 9 X -40 Y 9 X -30 Y 9 X -14 Y 9 X -38 Y 9 X -11 Y 9 X -17 Y 9 X -15 Y 8 X -30 Y 9 X -18 Y 9 X -5 Y 9 X -7 Y 9 X -12 Y 9 X -9 Y 9 X -13 Y 9 X 2 Y 9 X -24 Y 8 X
 8 Y 9 X -14 Y 18 X -22 Y 9 X 1 Y 9 X 1 Y 9 X -7 Y 9 X -6 Y 9 X -5 Y 9 X -3 Y 8 X -2 Y 9 X 2 Y 9 X -4 Y 9 X -8 Y 9 X 4 Y 18 X -6 Y 9 X -2 Y 9 X -2 Y 8 X 1 Y 9 X -1 Y 18 X 1 Y 9 X -3 Y 18 X -2 Y 9 X 1 Y 9 X s 3 lw 261 173 m 1779 X s
 gsave  2001 33
 t 0 r 0 0 m /Symbol findfont 71.6807 sf 0 0 m (h) show  gr  261 209 m -36 Y s 305 191 m -18 Y s 350 191 m -18 Y s 394 191 m -18 Y s 439 209 m -36 Y s 483 191 m -18 Y s 528 191 m -18 Y s 572 191 m -18 Y s 616 209 m -36 Y s 661 191 m -18 Y s 705 191 m
 -18 Y s 750 191 m -18 Y s 794 209 m -36 Y s 839 191 m -18 Y s 883 191 m -18 Y s 928 191 m -18 Y s 972 209 m -36 Y s 1017 191 m -18 Y s 1061 191 m -18 Y s 1106 191 m -18 Y s 1150 209 m -36 Y s 1195 191 m -18 Y s 1239 191 m -18 Y s 1284 191 m -18 Y s
 1328 209 m -36 Y s 1373 191 m -18 Y s 1417 191 m -18 Y s 1461 191 m -18 Y s 1506 209 m -36 Y s 1550 191 m -18 Y s 1595 191 m -18 Y s 1639 191 m -18 Y s 1684 209 m -36 Y s 1728 191 m -18 Y s 1773 191 m -18 Y s 1817 191 m -18 Y s 1862 209 m -36 Y s
 1906 191 m -18 Y s 1951 191 m -18 Y s 1995 191 m -18 Y s 2040 209 m -36 Y s
 gsave  218 117
 t 0 r 0 0 m /Times-Roman findfont 58.6478 sf 0 0 m (-10) show  gr 
 gsave  411 117
 t 0 r 0 0 m /Times-Roman findfont 58.6478 sf 0 0 m (-8) show  gr 
 gsave  590 117
 t 0 r 0 0 m /Times-Roman findfont 58.6478 sf 0 0 m (-6) show  gr 
 gsave  766 117
 t 0 r 0 0 m /Times-Roman findfont 58.6478 sf 0 0 m (-4) show  gr 
 gsave  945 117
 t 0 r 0 0 m /Times-Roman findfont 58.6478 sf 0 0 m (-2) show  gr 
 gsave  1134 117
 t 0 r 0 0 m /Times-Roman findfont 58.6478 sf 0 0 m (0) show  gr 
 gsave  1310 117
 t 0 r 0 0 m /Times-Roman findfont 58.6478 sf 0 0 m (2) show  gr 
 gsave  1489 117
 t 0 r 0 0 m /Times-Roman findfont 58.6478 sf 0 0 m (4) show  gr 
 gsave  1665 117
 t 0 r 0 0 m /Times-Roman findfont 58.6478 sf 0 0 m (6) show  gr 
 gsave  1844 117
 t 0 r 0 0 m /Times-Roman findfont 58.6478 sf 0 0 m (8) show  gr 
 gsave  2007 117
 t 0 r 0 0 m /Times-Roman findfont 58.6478 sf 0 0 m (10) show  gr  261 173 m 1212 Y s
 gsave  140 1320
 t 90 r 0 0 m /Symbol findfont 58.6478 sf 0 0 m (h) show  gr 
 gsave  140 1287
 t 90 r 0 0 m /Times-Roman findfont 58.6478 sf 0 0 m (d) show  gr 
 gsave  81 1333
 t 90 r 0 0 m /Times-Roman findfont 39.0986 sf 0 0 m (ch.) show  gr 
 gsave  62 1258
 t 90 r 0 0 m /Times-Roman findfont 58.6478 sf 0 0 m (dN) show  gr  6 lw 88 1254 m 131 Y s 3 lw 314 173 m -53 X s 287 203 m -26 X s 287 233 m -26 X s 287 264 m -26 X s 287 294 m -26 X s 314 324 m -53 X s 287 354 m -26 X s 287 385 m -26 X s 287 415
 m -26 X s 287 445 m -26 X s 314 476 m -53 X s 287 506 m -26 X s 287 536 m -26 X s 287 567 m -26 X s 287 597 m -26 X s 314 627 m -53 X s 287 658 m -26 X s 287 688 m -26 X s 287 718 m -26 X s 287 748 m -26 X s 314 779 m -53 X s 287 809 m -26 X s 287
 839 m -26 X s 287 870 m -26 X s 287 900 m -26 X s 314 930 m -53 X s 287 961 m -26 X s 287 991 m -26 X s 287 1021 m -26 X s 287 1051 m -26 X s 314 1082 m -53 X s 287 1112 m -26 X s 287 1142 m -26 X s 287 1173 m -26 X s 287 1203 m -26 X s 314 1233 m
 -53 X s 287 1264 m -26 X s 287 1294 m -26 X s 287 1324 m -26 X s 287 1354 m -26 X s 314 1385 m -53 X s
 gsave  215 156
 t 0 r 0 0 m /Times-Roman findfont 58.6478 sf 0 0 m (0) show  gr 
 gsave  150 310
 t 0 r 0 0 m /Times-Roman findfont 58.6478 sf 0 0 m (500) show  gr 
 gsave  117 459
 t 0 r 0 0 m /Times-Roman findfont 58.6478 sf 0 0 m (1000) show  gr 
 gsave  117 613
 t 0 r 0 0 m /Times-Roman findfont 58.6478 sf 0 0 m (1500) show  gr 
 gsave  117 762
 t 0 r 0 0 m /Times-Roman findfont 58.6478 sf 0 0 m (2000) show  gr 
 gsave  117 916
 t 0 r 0 0 m /Times-Roman findfont 58.6478 sf 0 0 m (2500) show  gr 
 gsave  117 1065
 t 0 r 0 0 m /Times-Roman findfont 58.6478 sf 0 0 m (3000) show  gr 
 gsave  117 1219
 t 0 r 0 0 m /Times-Roman findfont 58.6478 sf 0 0 m (3500) show  gr 
 gsave  117 1368
 t 0 r 0 0 m /Times-Roman findfont 58.6478 sf 0 0 m (4000) show  gr  1 0 0 c [12 12] 0 sd 6 lw 821 173 m 1212 Y s 866 173 m 1212 Y s 910 173 m 1212 Y s 954 173 m 1212 Y s 999 173 m 1212 Y s 1399 173 m 1212 Y s 1444 173 m 1212 Y s 1488 173 m 1212 Y
 s 1533 173 m 1212 Y s 1577 173 m 1212 Y s black
 gsave  634 1310
 t 0 r 0 0 m /Times-Roman findfont 71.6807 sf 0 0 m (V0C) show  gr 
 gsave  1617 1303
 t 0 r 0 0 m /Times-Roman findfont 71.6807 sf 0 0 m (V0A) show  gr 
 gsave  600 320
 t 0 r 0 0 m /Times-Roman findfont 61.9061 sf 0 0 m (ring 1) show  gr 
 gsave  1030 320
 t 0 r 0 0 m /Times-Roman findfont 61.9061 sf 0 0 m (ring 4) show  gr 
 gsave  1180 210
 t 0 r 0 0 m /Times-Roman findfont 61.9061 sf 0 0 m (ring 4) show  gr 
 gsave  1600 210
 t 0 r 0 0 m /Times-Roman findfont 61.9061 sf 0 0 m (ring 1) show  gr 
 gr  gr 
showpage
end
%%EOF
