%!PS-Adobe-2.0 EPSF-2.0
%%BoundingBox:  0 0 567 532
%%Title: ./efficiency.eps: efficiency
%%Creator: ROOT Version 4.01/04
%%CreationDate: Thu Feb  3 09:36:27 2005
%%EndComments
%%BeginProlog
80 dict begin
/s {stroke} def /l {lineto} def /m {moveto} def /t {translate} def
/sw {stringwidth} def /r {rotate} def /rl {roll}  def /R {repeat} def
/d {rlineto} def /rm {rmoveto} def /gr {grestore} def /f {eofill} def
/c {setrgbcolor} def /lw {setlinewidth} def /sd {setdash} def
/cl {closepath} def /sf {scalefont setfont} def /black {0 setgray} def
/box {m dup 0 exch d exch 0 d 0 exch neg d cl} def
/NC{systemdict begin initclip end}def/C{NC box clip newpath}def
/bl {box s} def /bf {box f} def /Y { 0 exch d} def /X { 0 d} def 
/mp {newpath /y exch def /x exch def} def
/side {[w .77 mul w .23 mul] .385 w mul sd w 0 l currentpoint t -144 r} def
/mr {mp x y w2 0 360 arc} def /m24 {mr s} def /m20 {mr f} def
/mb {mp x y w2 add m w2 neg 0 d 0 w neg d w 0 d 0 w d cl} def
/mt {mp x y w2 add m w2 neg w neg d w 0 d cl} def
/m21 {mb f} def /m25 {mb s} def /m22 {mt f} def /m26{mt s} def
/m23 {mp x y w2 sub m w2 w d w neg 0 d cl f} def
/m27 {mp x y w2 add m w3 neg w2 neg d w3 w2 neg d w3 w2 d cl s} def
/m28 {mp x w2 sub y w2 sub w3 add m w3 0 d  0 w3 neg d w3 0 d 0 w3 d w3 0 d  0 w3 d w3 neg 0 d 0 w3 d w3 neg 0 d
 0 w3 neg d w3 neg 0 d cl s } def
/m29 {mp gsave x w2 sub y w2 add w3 sub m currentpoint t
 4 {side} repeat cl fill gr} def
/m30 {mp gsave x w2 sub y w2 add w3 sub m currentpoint t
 4 {side} repeat cl s gr} def
/m31 {mp x y w2 sub m 0 w d x w2 sub y m w 0 d x w2 sub y w2 add m w w neg d x w2 sub y w2
 sub m w w d s} def
/m2 {mp x y w2 sub m 0 w d x w2 sub y m w 0 d s} def
/m5 {mp x w2 sub y w2 sub m w w d x w2 sub y w2 add m w w neg d s} def
/reencdict 24 dict def /ReEncode {reencdict begin /nco&na exch def
/nfnam exch def /basefontname exch def /basefontdict basefontname findfont def
/newfont basefontdict maxlength dict def basefontdict {exch dup /FID ne
{dup /Encoding eq {exch dup length array copy newfont 3 1 roll put} {exch 
newfont 3 1 roll put} ifelse} {pop pop} ifelse } forall newfont
/FontName nfnam put nco&na aload pop nco&na length 2 idiv {newfont
/Encoding get 3 1 roll put} repeat nfnam newfont definefont pop end } def
/accvec [ 176 /agrave 181 /Agrave 190 /acircumflex 192 /Acircumflex
201 /adieresis 204 /Adieresis 209 /ccedilla 210 /Ccedilla 211 /eacute
212 /Eacute 213 /egrave 214 /Egrave 215 /ecircumflex 216 /Ecircumflex
217 /edieresis 218 /Edieresis 219 /icircumflex 220 /Icircumflex
221 /idieresis 222 /Idieresis 223 /ntilde 224 /Ntilde 226 /ocircumflex
228 /Ocircumflex 229 /odieresis 230 /Odieresis 231 /ucircumflex 236 /Ucircumflex
237 /udieresis 238 /Udieresis 239 /aring 242 /Aring 243 /ydieresis
244 /Ydieresis 246 /aacute 247 /Aacute 252 /ugrave 253 /Ugrave] def
/Times-Roman /Times-Roman accvec ReEncode
/Times-Italic /Times-Italic accvec ReEncode
/Times /Times accvec ReEncode
/TimesItalic /TimesItalic accvec ReEncode
/Times /Times accvec ReEncode
/Times-Oblique /Times-Oblique accvec ReEncode
/Times /Times accvec ReEncode
/TimesOblique /TimesOblique  accvec ReEncode
/Courier /Courier accvec ReEncode
/Courier-Oblique /Courier-Oblique accvec ReEncode
/Courier-Bold /Courier-Bold accvec ReEncode
/Courier-BoldOblique /Courier-BoldOblique accvec ReEncode
/oshow {gsave [] 0 sd true charpath stroke gr} def
/stwn { /fs exch def /fn exch def /text exch def fn findfont fs sf
 text sw pop xs add /xs exch def} def
/stwb { /fs exch def /fn exch def /nbas exch def /textf exch deftextf length /tlen exch def nbas tlen gt {/nbas tlendef} iffn findfont fs sf textf dup length nbas sub nbas getinterval sw
pop neg xs add /xs exch def} def
/accspe [ 65 /plusminus  66 /bar  67 /existential  68 /universal 
69 /exclam  70 /numbersign 71 /greater  72 /question  73 /integral 
74 /colon  75 /semicolon  76 /less  77 /bracketleft  78 /bracketright
79 /greaterequal 80 /braceleft 81 /braceright 82 /radical
83 /spade 84 /heart 85 /diamond 86 /club 87 /lessequal
88 /multiply 89 /percent 90 /infinity 48 /circlemultiply 49 /circleplus
50 /emptyset  51 /lozenge 52 /bullet 53 /arrowright 54 /arrowup
55 /arrowleft 56 /arrowdown 57 /arrowboth 48 /degree 44 /comma 43 /plus 45 /angle 42 /angleleft 47 /divide 61 /notequal 40 /equivalence 41 /second 97 /approxequal 98 /congruent 99 /perpendicular 100 /partialdiff 101 /florin 102 /intersection
 103 /union 104 /propersuperset 105 /reflexsuperset 106 /notsubset 107 /propersubset 108 /reflexsubset 109 /element 110 /notelement 111 /gradient 112 /logicaland 113 /logicalor 114 /arrowdblboth 115 /arrowdblleft 116 /arrowdblup 117 /arrowdblright
 118 /arrowdbldown 119 /ampersand 120 /omega1 121 /similar 122 /aleph ] def
/Symbol /Special accspe ReEncode
%%EndProlog
%%BeginSetup
newpath  gsave  .25 .25 scale 
%%EndSetup
 gsave  0 0 t black [] 0 sd 3 lw 1 1 1 c 2268 2127 0 0 bf black 1 1 1 c 1850 1678 302 343 bf black 1850 1678 302 343 bl 1 1 1 c 1850 1678 302 343 bf black 1850 1678 302 343 bl 302 343 m 1850 X s
 gsave  1416 136
 t 0 r 0 0 m /Times findfont 100.787 sf 0 0 m (Threshold \(mV\)) show  gr  302 395 m -52 Y s [4 8] 0 sd 302 2021 m -1678 Y s [] 0 sd 672 395 m -52 Y s [4 8] 0 sd 672 2021 m -1678 Y s [] 0 sd 1042 395 m -52 Y s [4 8] 0 sd 1042 2021 m -1678 Y
 s [] 0 sd 1412 395 m -52 Y s [4 8] 0 sd 1412 2021 m -1678 Y s [] 0 sd 1782 395 m -52 Y s [4 8] 0 sd 1782 2021 m -1678 Y s [] 0 sd 2152 395 m -52 Y s [4 8] 0 sd 2152 2021 m -1678 Y s
 gsave  272 252
 t 0 r 0 0 m /Times findfont 100.787 sf 0 0 m (0) show  gr 
 gsave  640 252
 t 0 r 0 0 m /Times findfont 100.787 sf 0 0 m (5) show  gr 
 gsave  983 252
 t 0 r 0 0 m /Times findfont 100.787 sf 0 0 m (10) show  gr 
 gsave  1356 252
 t 0 r 0 0 m /Times findfont 100.787 sf 0 0 m (15) show  gr 
 gsave  1723 252
 t 0 r 0 0 m /Times findfont 100.787 sf 0 0 m (20) show  gr 
 gsave  2096 252
 t 0 r 0 0 m /Times findfont 100.787 sf 0 0 m (25) show  gr  [] 0 sd 302 343 m 1678 Y s
 gsave  116 1361
 t 90 r 0 0 m /Times findfont 100.787 sf 0 0 m (Efficiency \(%\)) show  gr  356 510 m -54 X s [4 8] 0 sd 2152 510 m -1850 X s [] 0 sd 329 544 m -27 X s 329 577 m -27 X s 329 611 m -27 X s 329 645 m -27 X s 356 678 m -54 X s [4 8] 0 sd 2152
 678 m -1850 X s [] 0 sd 329 712 m -27 X s 329 745 m -27 X s 329 779 m -27 X s 329 812 m -27 X s 356 846 m -54 X s [4 8] 0 sd 2152 846 m -1850 X s [] 0 sd 329 880 m -27 X s 329 913 m -27 X s 329 947 m -27 X s 329 980 m -27 X s 356 1014 m -54 X s
 [4 8] 0 sd 2152 1014 m -1850 X s [] 0 sd 329 1047 m -27 X s 329 1081 m -27 X s 329 1115 m -27 X s 329 1148 m -27 X s 356 1182 m -54 X s [4 8] 0 sd 2152 1182 m -1850 X s [] 0 sd 329 1215 m -27 X s 329 1249 m -27 X s 329 1282 m -27 X s 329 1316 m -27
 X s 356 1349 m -54 X s [4 8] 0 sd 2152 1349 m -1850 X s [] 0 sd 329 1383 m -27 X s 329 1417 m -27 X s 329 1450 m -27 X s 329 1484 m -27 X s 356 1517 m -54 X s [4 8] 0 sd 2152 1517 m -1850 X s [] 0 sd 329 1551 m -27 X s 329 1584 m -27 X s 329 1618 m
 -27 X s 329 1652 m -27 X s 356 1685 m -54 X s [4 8] 0 sd 2152 1685 m -1850 X s [] 0 sd 329 1719 m -27 X s 329 1752 m -27 X s 329 1786 m -27 X s 329 1819 m -27 X s 356 1853 m -54 X s [4 8] 0 sd 2152 1853 m -1850 X s [] 0 sd 329 1887 m -27 X s 329
 1920 m -27 X s 329 1954 m -27 X s 329 1987 m -27 X s 356 2021 m -54 X s [4 8] 0 sd 2152 2021 m -1850 X s [] 0 sd 356 510 m -54 X s [4 8] 0 sd 2152 510 m -1850 X s [] 0 sd 329 477 m -27 X s 329 443 m -27 X s 329 410 m -27 X s 329 376 m -27 X s
 gsave  176 484
 t 0 r 0 0 m /Times findfont 100.787 sf 0 0 m (10) show  gr 
 gsave  176 650
 t 0 r 0 0 m /Times findfont 100.787 sf 0 0 m (20) show  gr 
 gsave  176 816
 t 0 r 0 0 m /Times findfont 100.787 sf 0 0 m (30) show  gr 
 gsave  176 988
 t 0 r 0 0 m /Times findfont 100.787 sf 0 0 m (40) show  gr 
 gsave  176 1154
 t 0 r 0 0 m /Times findfont 100.787 sf 0 0 m (50) show  gr 
 gsave  176 1320
 t 0 r 0 0 m /Times findfont 100.787 sf 0 0 m (60) show  gr 
 gsave  176 1492
 t 0 r 0 0 m /Times findfont 100.787 sf 0 0 m (70) show  gr 
 gsave  176 1658
 t 0 r 0 0 m /Times findfont 100.787 sf 0 0 m (80) show  gr 
 gsave  176 1824
 t 0 r 0 0 m /Times findfont 100.787 sf 0 0 m (90) show  gr 
 gsave  121 1991
 t 0 r 0 0 m /Times findfont 100.787 sf 0 0 m (100) show  gr  1 0 0 c 6 lw black 1 0 0 c 672 1685 m 370 252 d 370 X 370 -17 d s 3 lw /w 42 def /w2 {w 2 div} def /w3 {w 3 div} def 672 1685 1042 1937 1412 1937 1782 1920 4 { m21} R 6 lw black 1
 0 0 c 672 1568 m 370 386 d 370 X 370 -17 d s 3 lw 672 1568 1042 1954 1412 1954 1782 1937 4 { m22} R 0 0 1 c 6 lw black 0 0 1 c 672 980 m 370 755 d 370 185 d 370 -50 d s 3 lw 672 980 1042 1735 1412 1920 1782 1870 4 { m20} R black
 gsave  484 1774
 t 0 r 0 0 m /Times-Roman findfont 120.945 sf 0 0 m (PMT1) show  gr 
 gsave  489 1411
 t 0 r 0 0 m /Times-Roman findfont 120.945 sf 0 0 m (PMT2) show  gr 
 gsave  499 826
 t 0 r 0 0 m /Times-Roman findfont 120.945 sf 0 0 m (PMT4) show  gr 
 gr  gr 
showpage
end
%%EOF
