%!PS-Adobe-2.0 EPSF-2.0
%%BoundingBox:  0 0 567 539
%%Title: /afs/in2p3.fr/group/alice/brapp/TestV0/test_octobre_2004/gain.eps: Gain 
%%Creator: ROOT Version 4.01/04
%%CreationDate: Thu Feb  3 09:26:58 2005
%%EndComments
%%BeginProlog
80 dict begin
/s {stroke} def /l {lineto} def /m {moveto} def /t {translate} def
/sw {stringwidth} def /r {rotate} def /rl {roll}  def /R {repeat} def
/d {rlineto} def /rm {rmoveto} def /gr {grestore} def /f {eofill} def
/c {setrgbcolor} def /lw {setlinewidth} def /sd {setdash} def
/cl {closepath} def /sf {scalefont setfont} def /black {0 setgray} def
/box {m dup 0 exch d exch 0 d 0 exch neg d cl} def
/NC{systemdict begin initclip end}def/C{NC box clip newpath}def
/bl {box s} def /bf {box f} def /Y { 0 exch d} def /X { 0 d} def 
/mp {newpath /y exch def /x exch def} def
/side {[w .77 mul w .23 mul] .385 w mul sd w 0 l currentpoint t -144 r} def
/mr {mp x y w2 0 360 arc} def /m24 {mr s} def /m20 {mr f} def
/mb {mp x y w2 add m w2 neg 0 d 0 w neg d w 0 d 0 w d cl} def
/mt {mp x y w2 add m w2 neg w neg d w 0 d cl} def
/m21 {mb f} def /m25 {mb s} def /m22 {mt f} def /m26{mt s} def
/m23 {mp x y w2 sub m w2 w d w neg 0 d cl f} def
/m27 {mp x y w2 add m w3 neg w2 neg d w3 w2 neg d w3 w2 d cl s} def
/m28 {mp x w2 sub y w2 sub w3 add m w3 0 d  0 w3 neg d w3 0 d 0 w3 d w3 0 d  0 w3 d w3 neg 0 d 0 w3 d w3 neg 0 d
 0 w3 neg d w3 neg 0 d cl s } def
/m29 {mp gsave x w2 sub y w2 add w3 sub m currentpoint t
 4 {side} repeat cl fill gr} def
/m30 {mp gsave x w2 sub y w2 add w3 sub m currentpoint t
 4 {side} repeat cl s gr} def
/m31 {mp x y w2 sub m 0 w d x w2 sub y m w 0 d x w2 sub y w2 add m w w neg d x w2 sub y w2
 sub m w w d s} def
/m2 {mp x y w2 sub m 0 w d x w2 sub y m w 0 d s} def
/m5 {mp x w2 sub y w2 sub m w w d x w2 sub y w2 add m w w neg d s} def
/reencdict 24 dict def /ReEncode {reencdict begin /nco&na exch def
/nfnam exch def /basefontname exch def /basefontdict basefontname findfont def
/newfont basefontdict maxlength dict def basefontdict {exch dup /FID ne
{dup /Encoding eq {exch dup length array copy newfont 3 1 roll put} {exch 
newfont 3 1 roll put} ifelse} {pop pop} ifelse } forall newfont
/FontName nfnam put nco&na aload pop nco&na length 2 idiv {newfont
/Encoding get 3 1 roll put} repeat nfnam newfont definefont pop end } def
/accvec [ 176 /agrave 181 /Agrave 190 /acircumflex 192 /Acircumflex
201 /adieresis 204 /Adieresis 209 /ccedilla 210 /Ccedilla 211 /eacute
212 /Eacute 213 /egrave 214 /Egrave 215 /ecircumflex 216 /Ecircumflex
217 /edieresis 218 /Edieresis 219 /icircumflex 220 /Icircumflex
221 /idieresis 222 /Idieresis 223 /ntilde 224 /Ntilde 226 /ocircumflex
228 /Ocircumflex 229 /odieresis 230 /Odieresis 231 /ucircumflex 236 /Ucircumflex
237 /udieresis 238 /Udieresis 239 /aring 242 /Aring 243 /ydieresis
244 /Ydieresis 246 /aacute 247 /Aacute 252 /ugrave 253 /Ugrave] def
/Times-Roman /Times-Roman accvec ReEncode
/Times-Italic /Times-Italic accvec ReEncode
/Times-Bold /Times-Bold accvec ReEncode
/Times-BoldItalic /Times-BoldItalic accvec ReEncode
/Helvetica /Helvetica accvec ReEncode
/Helvetica-Oblique /Helvetica-Oblique accvec ReEncode
/Times /Times accvec ReEncode
/TimesOblique /TimesOblique  accvec ReEncode
/Courier /Courier accvec ReEncode
/Courier-Oblique /Courier-Oblique accvec ReEncode
/Courier-Bold /Courier-Bold accvec ReEncode
/Courier-BoldOblique /Courier-BoldOblique accvec ReEncode
/oshow {gsave [] 0 sd true charpath stroke gr} def
/stwn { /fs exch def /fn exch def /text exch def fn findfont fs sf
 text sw pop xs add /xs exch def} def
/stwb { /fs exch def /fn exch def /nbas exch def /textf exch deftextf length /tlen exch def nbas tlen gt {/nbas tlendef} iffn findfont fs sf textf dup length nbas sub nbas getinterval sw
pop neg xs add /xs exch def} def
/accspe [ 65 /plusminus  66 /bar  67 /existential  68 /universal 
69 /exclam  70 /numbersign 71 /greater  72 /question  73 /integral 
74 /colon  75 /semicolon  76 /less  77 /bracketleft  78 /bracketright
79 /greaterequal 80 /braceleft 81 /braceright 82 /radical
83 /spade 84 /heart 85 /diamond 86 /club 87 /lessequal
88 /multiply 89 /percent 90 /infinity 48 /circlemultiply 49 /circleplus
50 /emptyset  51 /lozenge 52 /bullet 53 /arrowright 54 /arrowup
55 /arrowleft 56 /arrowdown 57 /arrowboth 48 /degree 44 /comma 43 /plus 45 /angle 42 /angleleft 47 /divide 61 /notequal 40 /equivalence 41 /second 97 /approxequal 98 /congruent 99 /perpendicular 100 /partialdiff 101 /florin 102 /intersection
 103 /union 104 /propersuperset 105 /reflexsuperset 106 /notsubset 107 /propersubset 108 /reflexsubset 109 /element 110 /notelement 111 /gradient 112 /logicaland 113 /logicalor 114 /arrowdblboth 115 /arrowdblleft 116 /arrowdblup 117 /arrowdblright
 118 /arrowdbldown 119 /ampersand 120 /omega1 121 /similar 122 /aleph ] def
/Symbol /Special accspe ReEncode
%%EndProlog
%%BeginSetup
newpath  gsave  .25 .25 scale 
%%EndSetup
 gsave  0 0 t black [] 0 sd 3 lw 1 1 1 c 2268 2158 0 0 bf black 1 1 1 c 1882 1705 272 345 bf black 1882 1705 272 345 bl 1 1 1 c 1882 1705 272 345 bf black 1882 1705 272 345 bl 272 345 m 1882 X s
 gsave  1280 137
 t 0 r 0 0 m /Times findfont 100.584 sf 0 0 m (Supply voltage \(V\)) show  gr  276 399 m -54 Y s 358 372 m -27 Y s 439 372 m -27 Y s 521 372 m -27 Y s 602 399 m -54 Y s 684 372 m -27 Y s 765 372 m -27 Y s 847 372 m -27 Y s 928 399 m -54 Y s
 1010 372 m -27 Y s 1091 372 m -27 Y s 1172 372 m -27 Y s 1254 399 m -54 Y s 1335 372 m -27 Y s 1417 372 m -27 Y s 1498 372 m -27 Y s 1580 399 m -54 Y s 1661 372 m -27 Y s 1743 372 m -27 Y s 1824 372 m -27 Y s 1906 399 m -54 Y s 276 399 m -54 Y s
 1906 399 m -54 Y s 1987 372 m -27 Y s 2069 372 m -27 Y s 2150 372 m -27 Y s
 gsave  165 251
 t 0 r 0 0 m /Times findfont 100.584 sf 0 0 m (1200) show  gr 
 gsave  489 251
 t 0 r 0 0 m /Times findfont 100.584 sf 0 0 m (1400) show  gr 
 gsave  814 251
 t 0 r 0 0 m /Times findfont 100.584 sf 0 0 m (1600) show  gr 
 gsave  1143 251
 t 0 r 0 0 m /Times findfont 100.584 sf 0 0 m (1800) show  gr 
 gsave  1468 251
 t 0 r 0 0 m /Times findfont 100.584 sf 0 0 m (2000) show  gr 
 gsave  1792 251
 t 0 r 0 0 m /Times findfont 100.584 sf 0 0 m (2200) show  gr  272 345 m 1705 Y s
 gsave  82 1833
 t 90 r 0 0 m /Times findfont 100.584 sf 0 0 m (Gain) show  gr  326 365 m -54 X s
 gsave  215 375
 t 0 r 0 0 m /Times findfont 68.5801 sf 0 0 m (4) show  gr 
 gsave  105 329
 t 0 r 0 0 m /Times findfont 100.584 sf 0 0 m (10) show  gr  299 491 m -27 X s 299 566 m -27 X s 299 618 m -27 X s 299 659 m -27 X s 299 692 m -27 X s 299 721 m -27 X s 299 745 m -27 X s 299 767 m -27 X s 326 786 m -54 X s
 gsave  215 796
 t 0 r 0 0 m /Times findfont 68.5801 sf 0 0 m (5) show  gr 
 gsave  105 750
 t 0 r 0 0 m /Times findfont 100.584 sf 0 0 m (10) show  gr  299 913 m -27 X s 299 987 m -27 X s 299 1040 m -27 X s 299 1080 m -27 X s 299 1114 m -27 X s 299 1142 m -27 X s 299 1166 m -27 X s 299 1188 m -27 X s 326 1207 m -54 X s
 gsave  215 1221
 t 0 r 0 0 m /Times findfont 68.5801 sf 0 0 m (6) show  gr 
 gsave  105 1175
 t 0 r 0 0 m /Times findfont 100.584 sf 0 0 m (10) show  gr  299 1334 m -27 X s 299 1408 m -27 X s 299 1461 m -27 X s 299 1502 m -27 X s 299 1535 m -27 X s 299 1563 m -27 X s 299 1588 m -27 X s 299 1609 m -27 X s 326 1629 m -54 X s
 gsave  215 1641
 t 0 r 0 0 m /Times findfont 68.5801 sf 0 0 m (7) show  gr 
 gsave  105 1596
 t 0 r 0 0 m /Times findfont 100.584 sf 0 0 m (10) show  gr  299 1756 m -27 X s 299 1830 m -27 X s 299 1882 m -27 X s 299 1923 m -27 X s 299 1957 m -27 X s 299 1985 m -27 X s 299 2009 m -27 X s 299 2031 m -27 X s 326 2050 m -54 X s
 gsave  215 2062
 t 0 r 0 0 m /Times findfont 68.5801 sf 0 0 m (8) show  gr 
 gsave  105 2016
 t 0 r 0 0 m /Times findfont 100.584 sf 0 0 m (10) show  gr  6 lw 358 1051 m 407 311 d 407 247 d 408 178 d 489 222 d s 3 lw /w 52 def /w2 {w 2 div} def /w3 {w 3 div} def 358 1051 765 1362 1172 1609 1580 1787 2069 2009 5 { m21} R 6 lw 1 0 1 c
 black 765 1325 m 407 238 d 408 210 d 489 219 d s 3 lw 1 0 1 c /w 57 def /w2 {w 2 div} def /w3 {w 3 div} def 765 1325 1172 1563 1580 1773 2069 1992 4 { m29} R black 6 lw 358 948 m 407 258 d 407 214 d 408 189 d 489 184 d s 3 lw /w 52
 def /w2 {w 2 div} def /w3 {w 3 div} def 358 948 765 1206 1172 1420 1580 1609 2069 1793 5 { m22} R [12 12] 0 sd 6 lw 358 913 m 407 253 d 407 254 d 408 209 d 489 201 d s [] 0 sd 3 lw 358 913 765 1166 1172 1420 1580 1629 2069 1830 5 { m25} R
 [12 12] 0 sd 6 lw 358 819 m 407 230 d 407 192 d 408 167 d 489 182 d s [] 0 sd 3 lw 358 819 765 1049 1172 1241 1580 1408 2069 1590 5 { m26} R [12 12] 0 sd 6 lw 358 553 m 407 192 d 407 168 d 408 167 d 489 145 d s [] 0 sd 3 lw /w 57
 def /w2 {w 2 div} def /w3 {w 3 div} def 358 553 765 745 1172 913 1580 1080 2069 1225 5 { m28} R 1 0 0 c 6 lw black 1 0 0 c 765 843 m 407 212 d 489 97 d s 3 lw /w 52 def /w2 {w 2 div} def /w3 {w 3 div} def 765 843 1172 1055 1661 1152 3 { m20} R black
 gsave  1586 1925
 t 0 r 0 0 m /Times-Roman findfont 100.584 sf 0 0 m (PMT1) show  gr 
 gsave  1646 1550
 t 0 r 0 0 m /Times-Roman findfont 100.584 sf 0 0 m (PMT2) show  gr 
 gsave  1861 1079
 t 0 r 0 0 m /Times-Roman findfont 100.584 sf 0 0 m (PMT3) show  gr 
 gsave  1545 1216
 t 0 r 0 0 m /Times-Roman findfont 100.584 sf 0 0 m (PMT4) show  gr  [12 12] 0 sd 358 345 m 711 Y s 521 345 m 711 Y s 1172 345 m 711 Y s 276 1056 m 1874 X s
 gr  gr 
showpage
end
%%EOF
