%!PS-Adobe-2.0 EPSF-2.0
%%BoundingBox:  0 0 377 737
%%Title: c1n.eps: carte1
%%Creator: ROOT Version 4.01/04
%%CreationDate: Wed Feb  2 15:51:43 2005
%%EndComments
%%BeginProlog
80 dict begin
/s {stroke} def /l {lineto} def /m {moveto} def /t {translate} def
/sw {stringwidth} def /r {rotate} def /rl {roll}  def /R {repeat} def
/d {rlineto} def /rm {rmoveto} def /gr {grestore} def /f {eofill} def
/c {setrgbcolor} def /lw {setlinewidth} def /sd {setdash} def
/cl {closepath} def /sf {scalefont setfont} def /black {0 setgray} def
/box {m dup 0 exch d exch 0 d 0 exch neg d cl} def
/NC{systemdict begin initclip end}def/C{NC box clip newpath}def
/bl {box s} def /bf {box f} def /Y { 0 exch d} def /X { 0 d} def 
/mp {newpath /y exch def /x exch def} def
/side {[w .77 mul w .23 mul] .385 w mul sd w 0 l currentpoint t -144 r} def
/mr {mp x y w2 0 360 arc} def /m24 {mr s} def /m20 {mr f} def
/mb {mp x y w2 add m w2 neg 0 d 0 w neg d w 0 d 0 w d cl} def
/mt {mp x y w2 add m w2 neg w neg d w 0 d cl} def
/m21 {mb f} def /m25 {mb s} def /m22 {mt f} def /m26{mt s} def
/m23 {mp x y w2 sub m w2 w d w neg 0 d cl f} def
/m27 {mp x y w2 add m w3 neg w2 neg d w3 w2 neg d w3 w2 d cl s} def
/m28 {mp x w2 sub y w2 sub w3 add m w3 0 d  0 w3 neg d w3 0 d 0 w3 d w3 0 d  0 w3 d w3 neg 0 d 0 w3 d w3 neg 0 d
 0 w3 neg d w3 neg 0 d cl s } def
/m29 {mp gsave x w2 sub y w2 add w3 sub m currentpoint t
 4 {side} repeat cl fill gr} def
/m30 {mp gsave x w2 sub y w2 add w3 sub m currentpoint t
 4 {side} repeat cl s gr} def
/m31 {mp x y w2 sub m 0 w d x w2 sub y m w 0 d x w2 sub y w2 add m w w neg d x w2 sub y w2
 sub m w w d s} def
/m2 {mp x y w2 sub m 0 w d x w2 sub y m w 0 d s} def
/m5 {mp x w2 sub y w2 sub m w w d x w2 sub y w2 add m w w neg d s} def
/reencdict 24 dict def /ReEncode {reencdict begin /nco&na exch def
/nfnam exch def /basefontname exch def /basefontdict basefontname findfont def
/newfont basefontdict maxlength dict def basefontdict {exch dup /FID ne
{dup /Encoding eq {exch dup length array copy newfont 3 1 roll put} {exch 
newfont 3 1 roll put} ifelse} {pop pop} ifelse } forall newfont
/FontName nfnam put nco&na aload pop nco&na length 2 idiv {newfont
/Encoding get 3 1 roll put} repeat nfnam newfont definefont pop end } def
/accvec [ 176 /agrave 181 /Agrave 190 /acircumflex 192 /Acircumflex
201 /adieresis 204 /Adieresis 209 /ccedilla 210 /Ccedilla 211 /eacute
212 /Eacute 213 /egrave 214 /Egrave 215 /ecircumflex 216 /Ecircumflex
217 /edieresis 218 /Edieresis 219 /icircumflex 220 /Icircumflex
221 /idieresis 222 /Idieresis 223 /ntilde 224 /Ntilde 226 /ocircumflex
228 /Ocircumflex 229 /odieresis 230 /Odieresis 231 /ucircumflex 236 /Ucircumflex
237 /udieresis 238 /Udieresis 239 /aring 242 /Aring 243 /ydieresis
244 /Ydieresis 246 /aacute 247 /Aacute 252 /ugrave 253 /Ugrave] def
/Times-Roman /Times-Roman accvec ReEncode
/Times-Italic /Times-Italic accvec ReEncode
/Times /Times accvec ReEncode
/TimesItalic /TimesItalic accvec ReEncode
/Times /Times accvec ReEncode
/Times-Oblique /Times-Oblique accvec ReEncode
/Times /Times accvec ReEncode
/TimesOblique /TimesOblique  accvec ReEncode
/Courier /Courier accvec ReEncode
/Courier-Oblique /Courier-Oblique accvec ReEncode
/Courier-Bold /Courier-Bold accvec ReEncode
/Courier-BoldOblique /Courier-BoldOblique accvec ReEncode
/oshow {gsave [] 0 sd true charpath stroke gr} def
/stwn { /fs exch def /fn exch def /text exch def fn findfont fs sf
 text sw pop xs add /xs exch def} def
/stwb { /fs exch def /fn exch def /nbas exch def /textf exch deftextf length /tlen exch def nbas tlen gt {/nbas tlendef} iffn findfont fs sf textf dup length nbas sub nbas getinterval sw
pop neg xs add /xs exch def} def
/accspe [ 65 /plusminus  66 /bar  67 /existential  68 /universal 
69 /exclam  70 /numbersign 71 /greater  72 /question  73 /integral 
74 /colon  75 /semicolon  76 /less  77 /bracketleft  78 /bracketright
79 /greaterequal 80 /braceleft 81 /braceright 82 /radical
83 /spade 84 /heart 85 /diamond 86 /club 87 /lessequal
88 /multiply 89 /percent 90 /infinity 48 /circlemultiply 49 /circleplus
50 /emptyset  51 /lozenge 52 /bullet 53 /arrowright 54 /arrowup
55 /arrowleft 56 /arrowdown 57 /arrowboth 48 /degree 44 /comma 43 /plus 45 /angle 42 /angleleft 47 /divide 61 /notequal 40 /equivalence 41 /second 97 /approxequal 98 /congruent 99 /perpendicular 100 /partialdiff 101 /florin 102 /intersection
 103 /union 104 /propersuperset 105 /reflexsuperset 106 /notsubset 107 /propersubset 108 /reflexsubset 109 /element 110 /notelement 111 /gradient 112 /logicaland 113 /logicalor 114 /arrowdblboth 115 /arrowdblleft 116 /arrowdblup 117 /arrowdblright
 118 /arrowdbldown 119 /ampersand 120 /omega1 121 /similar 122 /aleph ] def
/Symbol /Special accspe ReEncode
%%EndProlog
%%BeginSetup
newpath  gsave  .25 .25 scale 
%%EndSetup
 gsave  0 0 t black [] 0 sd 3 lw 1 1 1 c 1508 2948 0 0 bf black 1 1 1 c 1478 924 15 1995 bf black 1 1 1 c 1227 729 192 2143 bf black 1227 729 192 2143 bl 192 2143 m 1227 X s 304 2166 m -23 Y s 348 2154 m -11 Y s 393 2154 m -11 Y s 438 2154 m -11 Y s
 482 2154 m -11 Y s 527 2166 m -23 Y s 571 2154 m -11 Y s 616 2154 m -11 Y s 661 2154 m -11 Y s 705 2154 m -11 Y s 750 2166 m -23 Y s 794 2154 m -11 Y s 839 2154 m -11 Y s 884 2154 m -11 Y s 928 2154 m -11 Y s 973 2166 m -23 Y s 1017 2154 m -11 Y s
 1062 2154 m -11 Y s 1107 2154 m -11 Y s 1151 2154 m -11 Y s 1196 2166 m -23 Y s 1240 2154 m -11 Y s 1285 2154 m -11 Y s 1330 2154 m -11 Y s 1374 2154 m -11 Y s 1419 2166 m -23 Y s 304 2166 m -23 Y s 259 2154 m -11 Y s 215 2154 m -11 Y s
 gsave  287 2103
 t 0 r 0 0 m /Times findfont 43.9865 sf 0 0 m (0) show  gr 
 gsave  487 2103
 t 0 r 0 0 m /Times findfont 43.9865 sf 0 0 m (100) show  gr 
 gsave  710 2103
 t 0 r 0 0 m /Times findfont 43.9865 sf 0 0 m (200) show  gr 
 gsave  933 2103
 t 0 r 0 0 m /Times findfont 43.9865 sf 0 0 m (300) show  gr 
 gsave  1156 2103
 t 0 r 0 0 m /Times findfont 43.9865 sf 0 0 m (400) show  gr 
 gsave  1379 2103
 t 0 r 0 0 m /Times findfont 43.9865 sf 0 0 m (500) show  gr  192 2143 m 729 Y s 227 2209 m -35 X s 210 2224 m -18 X s 210 2238 m -18 X s 210 2253 m -18 X s 210 2268 m -18 X s 227 2283 m -35 X s 210 2297 m -18 X s 210 2312 m -18 X s 210 2327
 m -18 X s 210 2342 m -18 X s 227 2356 m -35 X s 210 2371 m -18 X s 210 2386 m -18 X s 210 2401 m -18 X s 210 2415 m -18 X s 227 2430 m -35 X s 210 2445 m -18 X s 210 2460 m -18 X s 210 2474 m -18 X s 210 2489 m -18 X s 227 2504 m -35 X s 210 2519 m
 -18 X s 210 2533 m -18 X s 210 2548 m -18 X s 210 2563 m -18 X s 227 2578 m -35 X s 210 2592 m -18 X s 210 2607 m -18 X s 210 2622 m -18 X s 210 2636 m -18 X s 227 2651 m -35 X s 210 2666 m -18 X s 210 2681 m -18 X s 210 2695 m -18 X s 210 2710 m
 -18 X s 227 2725 m -35 X s 210 2740 m -18 X s 210 2754 m -18 X s 210 2769 m -18 X s 210 2784 m -18 X s 227 2799 m -35 X s 210 2813 m -18 X s 210 2828 m -18 X s 210 2843 m -18 X s 210 2858 m -18 X s 227 2872 m -35 X s 227 2209 m -35 X s 210 2194 m
 -18 X s 210 2179 m -18 X s 210 2165 m -18 X s 210 2150 m -18 X s
 gsave  135 2198
 t 0 r 0 0 m /Times findfont 43.9865 sf 0 0 m (10) show  gr 
 gsave  135 2272
 t 0 r 0 0 m /Times findfont 43.9865 sf 0 0 m (20) show  gr 
 gsave  135 2343
 t 0 r 0 0 m /Times findfont 43.9865 sf 0 0 m (30) show  gr 
 gsave  135 2417
 t 0 r 0 0 m /Times findfont 43.9865 sf 0 0 m (40) show  gr 
 gsave  135 2492
 t 0 r 0 0 m /Times findfont 43.9865 sf 0 0 m (50) show  gr 
 gsave  135 2566
 t 0 r 0 0 m /Times findfont 43.9865 sf 0 0 m (60) show  gr 
 gsave  135 2640
 t 0 r 0 0 m /Times findfont 43.9865 sf 0 0 m (70) show  gr 
 gsave  135 2715
 t 0 r 0 0 m /Times findfont 43.9865 sf 0 0 m (80) show  gr 
 gsave  135 2786
 t 0 r 0 0 m /Times findfont 43.9865 sf 0 0 m (90) show  gr 
 gsave  108 2860
 t 0 r 0 0 m /Times findfont 43.9865 sf 0 0 m (100) show  gr  1 1 1 c black 192 2143 m 18 X 22 Y 2 X 14 Y 3 X -14 Y 2 X 14 Y 2 X 82 Y 2 X -37 Y 3 X 22 Y 2 X 37 Y 2 X -45 Y 2 X 59 Y 3 X 111 Y 2 X -81 Y 2 X 52 Y 2 X 125 Y 2 X -8 Y 3 X 89 Y 2 X
 81 Y 2 X 103 Y 2 X 59 Y 3 X 44 Y s 255 2872 m -29 Y s 255 2843 m 2 X 29 Y s 351 2872 m -44 Y s 351 2828 m 2 X -22 Y 2 X 7 Y 2 X -169 Y 3 X 29 Y 2 X -125 Y 2 X -96 Y 2 X -15 Y 3 X 23 Y 2 X -126 Y 2 X -22 Y 2 X -66 Y 2 X 66 Y 3 X -37 Y 2 X -22 Y 2 X
 -66 Y 2 X 51 Y 3 X -51 Y 2 X 15 Y 4 X 7 Y 3 X -15 Y 2 X -15 Y 2 X 15 Y 2 X -15 Y 2 X -14 Y 3 X 14 Y 2 X 15 Y 2 X 8 Y 5 X -30 Y 2 X 37 Y 2 X -37 Y 2 X 30 Y 3 X -37 Y 2 X 14 Y 2 X -29 Y 2 X 29 Y 2 X 23 Y 3 X -15 Y 2 X -30 Y 2 X 22 Y 2 X 15 Y 3 X -7 Y
 2 X -15 Y 4 X 15 Y 5 X -8 Y 2 X 67 Y 2 X -44 Y 2 X -37 Y 5 X 14 Y 2 X -22 Y 2 X 30 Y 3 X -30 Y 2 X 37 Y 2 X -7 Y 2 X 7 Y 3 X -7 Y 2 X -8 Y 2 X 15 Y 2 X -15 Y 5 X 8 Y 2 X 22 Y 2 X -15 Y 2 X -15 Y 3 X 23 Y 2 X 7 Y 2 X -30 Y 2 X 37 Y 3 X -37 Y 2 X -22
 Y 2 X 74 Y 2 X -37 Y 2 X 8 Y 3 X 7 Y 2 X 7 Y 2 X -22 Y 2 X 37 Y 3 X -7 Y 2 X -37 Y 2 X 37 Y 7 X -8 Y 2 X -14 Y 2 X -8 Y 2 X 67 Y 3 X -59 Y 2 X 51 Y 4 X -15 Y 5 X 8 Y 2 X 66 Y 2 X -59 Y 2 X -44 Y 3 X 37 Y 2 X 59 Y 2 X -44 Y 2 X 7 Y 3 X 15 Y 2 X -59 Y
 2 X 88 Y 2 X -81 Y 5 X 74 Y 2 X -8 Y 2 X 45 Y 2 X -52 Y 3 X 30 Y 4 X -52 Y 2 X 29 Y 3 X 23 Y 2 X 29 Y 2 X -81 Y 2 X 103 Y 3 X -66 Y 2 X 88 Y 2 X -14 Y 2 X -37 Y 2 X 7 Y 3 X 37 Y 2 X -15 Y 2 X -22 Y 7 X 15 Y 4 X 22 Y 3 X -59 Y 2 X 81 Y 2 X -66 Y 2 X
 -15 Y 2 X 59 Y 3 X -59 Y 4 X 110 Y 2 X -110 Y 3 X 88 Y 2 X -36 Y 2 X 58 Y 2 X -81 Y 3 X 8 Y 2 X -8 Y 2 X 23 Y 7 X 29 Y 2 X -22 Y 2 X -15 Y 2 X -51 Y 3 X 14 Y 2 X 59 Y 2 X -103 Y 2 X 125 Y 3 X -44 Y 2 X -59 Y 2 X 140 Y 2 X -88 Y 2 X 103 Y 3 X -177 Y
 2 X 118 Y 2 X -44 Y 2 X 66 Y 3 X -103 Y 2 X 22 Y 2 X -29 Y 2 X 59 Y 3 X 29 Y 2 X -59 Y 4 X -22 Y 2 X -15 Y 3 X 22 Y 2 X 15 Y 2 X -29 Y 2 X -8 Y 3 X -29 Y 2 X 7 Y 2 X -37 Y 2 X 59 Y 2 X 22 Y 3 X 15 Y 2 X -66 Y 2 X 110 Y 2 X -44 Y 3 X 30 Y 2 X -52 Y 2
 X -44 Y 2 X -8 Y 3 X 30 Y 2 X -8 Y 2 X -59 Y 2 X 45 Y 2 X 7 Y 3 X -7 Y 2 X 59 Y 2 X -59 Y 2 X 22 Y 3 X -22 Y 2 X -45 Y 2 X 52 Y 2 X -37 Y 3 X 22 Y 2 X 45 Y 2 X -104 Y 2 X 81 Y 2 X 8 Y 3 X -59 Y 2 X 15 Y 2 X 14 Y 2 X -29 Y 3 X -22 Y 2 X 51 Y 2 X -44
 Y 2 X 22 Y 3 X -7 Y 2 X -44 Y 2 X 59 Y 2 X -15 Y 2 X -37 Y 3 X 15 Y 2 X 73 Y 2 X -36 Y 2 X -23 Y 3 X -14 Y 2 X -22 Y 2 X 29 Y 2 X 7 Y 3 X -22 Y 2 X -14 Y 2 X -15 Y 4 X 44 Y 3 X -52 Y 2 X 8 Y 2 X 29 Y 2 X -7 Y 3 X -15 Y 2 X -7 Y 4 X 15 Y 3 X 44 Y 2 X
 -37 Y 2 X -7 Y 2 X 7 Y 2 X 22 Y 3 X -59 Y 2 X -29 Y 2 X 81 Y 2 X -37 Y 3 X 44 Y 2 X -37 Y 4 X -7 Y 3 X 29 Y 4 X -14 Y 2 X 7 Y 5 X -7 Y 2 X -45 Y 2 X 15 Y 2 X 7 Y 5 X -22 Y 4 X 59 Y 2 X -44 Y 3 X 15 Y 2 X -15 Y 4 X 7 Y 7 X 15 Y 2 X -29 Y 3 X 7 Y 2 X
 7 Y 2 X -29 Y 2 X 15 Y 2 X 22 Y 3 X -22 Y 2 X -8 Y 2 X 8 Y 2 X 37 Y 3 X -8 Y 2 X -29 Y 2 X 7 Y 2 X -22 Y 5 X 15 Y 2 X 14 Y 2 X -14 Y 2 X -8 Y 3 X -14 Y 2 X 7 Y 2 X 7 Y 2 X 8 Y 3 X 14 Y 2 X -29 Y 4 X 15 Y 3 X -22 Y 2 X 51 Y 2 X -37 Y 2 X -7 Y 2 X 7 Y
 7 X 15 Y 2 X -7 Y 7 X 22 Y 2 X -30 Y 3 X 8 Y 4 X -8 Y 2 X -7 Y 5 X -7 Y 2 X 36 Y 2 X -36 Y 5 X 36 Y 2 X -29 Y 4 X 7 Y 3 X -14 Y 2 X 7 Y 2 X 29 Y 4 X -29 Y 9 X 15 Y 3 X -15 Y 4 X -7 Y 2 X 14 Y 3 X 8 Y 2 X -15 Y 2 X -7 Y 2 X 7 Y 2 X 7 Y 5 X -14 Y 2 X
 22 Y 2 X -8 Y 3 X -14 Y 2 X 7 Y 2 X -7 Y 2 X 7 Y 2 X 15 Y 5 X -15 Y 2 X 15 Y 2 X -15 Y 3 X 29 Y 2 X -36 Y 2 X 59 Y 2 X -45 Y 3 X -7 Y 2 X -7 Y 2 X 7 Y 2 X -7 Y 18 X 7 Y 5 X -7 Y 2 X 7 Y 2 X -7 Y 7 X 7 Y 2 X -7 Y 2 X 22 Y 2 X -15 Y 7 X -7 Y 2 X 7 Y 3
 X -7 Y 4 X 7 Y 2 X -7 Y 7 X 7 Y 7 X -7 Y 11 X 22 Y 2 X -8 Y 2 X -14 Y 11 X 7 Y 3 X -7 Y 2 X 7 Y 4 X -7 Y 38 X 7 Y 2 X -7 Y 18 X 7 Y 3 X -7 Y 26 X 7 Y 2 X -7 Y 12 X 7 Y 2 X -7 Y 29 X s 0.999 0.999 0.999 c 946 314 458 2549 bf 1 1 1 c black
 gsave  852 2796
 t 0 r 0 0 m /Times findfont 60.9044 sf 0 0 m (PMT1) show  gr 
 gsave  693 2715
 t 0 r 0 0 m /Times findfont 60.9044 sf 0 0 m (HT 1250 V, AR10) show  gr 
 gsave  1160 2634
 t 0 r 0 0 m /Times findfont 60.9044 sf 0 0 m ( = 54) show  gr 
 gsave  1122 2634
 t 0 r 0 0 m /Symbol findfont 60.9044 sf 0 0 m (s) show  gr 
 gsave  561 2634
 t 0 r 0 0 m /Times findfont 60.9044 sf 0 0 m (MIP\(17 p.e.\) = 179 /\040) show  gr 
 gsave  822 2556
 t 0 r 0 0 m /Times findfont 60.9044 sf 0 0 m (12.5 pC) show  gr  1 1 1 c 1478 924 15 1012 bf black 1 1 1 c 1227 730 192 1160 bf black 1227 730 192 1160 bl 192 1160 m 1227 X s 304 1183 m -23 Y s 348 1171 m -11 Y s 393 1171 m -11 Y s 438 1171
 m -11 Y s 482 1171 m -11 Y s 527 1183 m -23 Y s 571 1171 m -11 Y s 616 1171 m -11 Y s 661 1171 m -11 Y s 705 1171 m -11 Y s 750 1183 m -23 Y s 794 1171 m -11 Y s 839 1171 m -11 Y s 884 1171 m -11 Y s 928 1171 m -11 Y s 973 1183 m -23 Y s 1017 1171 m
 -11 Y s 1062 1171 m -11 Y s 1107 1171 m -11 Y s 1151 1171 m -11 Y s 1196 1183 m -23 Y s 1240 1171 m -11 Y s 1285 1171 m -11 Y s 1330 1171 m -11 Y s 1374 1171 m -11 Y s 1419 1183 m -23 Y s 304 1183 m -23 Y s 259 1171 m -11 Y s 215 1171 m -11 Y s
 gsave  287 1119
 t 0 r 0 0 m /Times findfont 43.9865 sf 0 0 m (0) show  gr 
 gsave  487 1119
 t 0 r 0 0 m /Times findfont 43.9865 sf 0 0 m (100) show  gr 
 gsave  710 1119
 t 0 r 0 0 m /Times findfont 43.9865 sf 0 0 m (200) show  gr 
 gsave  933 1119
 t 0 r 0 0 m /Times findfont 43.9865 sf 0 0 m (300) show  gr 
 gsave  1156 1119
 t 0 r 0 0 m /Times findfont 43.9865 sf 0 0 m (400) show  gr 
 gsave  1379 1119
 t 0 r 0 0 m /Times findfont 43.9865 sf 0 0 m (500) show  gr  192 1160 m 730 Y s 227 1226 m -35 X s 210 1241 m -18 X s 210 1256 m -18 X s 210 1271 m -18 X s 210 1285 m -18 X s 227 1300 m -35 X s 210 1315 m -18 X s 210 1329 m -18 X s 210 1344
 m -18 X s 210 1359 m -18 X s 227 1374 m -35 X s 210 1388 m -18 X s 210 1403 m -18 X s 210 1418 m -18 X s 210 1433 m -18 X s 227 1447 m -35 X s 210 1462 m -18 X s 210 1477 m -18 X s 210 1492 m -18 X s 210 1506 m -18 X s 227 1521 m -35 X s 210 1536 m
 -18 X s 210 1551 m -18 X s 210 1565 m -18 X s 210 1580 m -18 X s 227 1595 m -35 X s 210 1610 m -18 X s 210 1624 m -18 X s 210 1639 m -18 X s 210 1654 m -18 X s 227 1669 m -35 X s 210 1683 m -18 X s 210 1698 m -18 X s 210 1713 m -18 X s 210 1728 m
 -18 X s 227 1742 m -35 X s 210 1757 m -18 X s 210 1772 m -18 X s 210 1786 m -18 X s 210 1801 m -18 X s 227 1816 m -35 X s 210 1831 m -18 X s 210 1845 m -18 X s 210 1860 m -18 X s 210 1875 m -18 X s 227 1890 m -35 X s 227 1226 m -35 X s 210 1212 m
 -18 X s 210 1197 m -18 X s 210 1182 m -18 X s 210 1167 m -18 X s
 gsave  135 1214
 t 0 r 0 0 m /Times findfont 43.9865 sf 0 0 m (10) show  gr 
 gsave  135 1288
 t 0 r 0 0 m /Times findfont 43.9865 sf 0 0 m (20) show  gr 
 gsave  135 1362
 t 0 r 0 0 m /Times findfont 43.9865 sf 0 0 m (30) show  gr 
 gsave  135 1437
 t 0 r 0 0 m /Times findfont 43.9865 sf 0 0 m (40) show  gr 
 gsave  135 1508
 t 0 r 0 0 m /Times findfont 43.9865 sf 0 0 m (50) show  gr 
 gsave  135 1582
 t 0 r 0 0 m /Times findfont 43.9865 sf 0 0 m (60) show  gr 
 gsave  135 1657
 t 0 r 0 0 m /Times findfont 43.9865 sf 0 0 m (70) show  gr 
 gsave  135 1731
 t 0 r 0 0 m /Times findfont 43.9865 sf 0 0 m (80) show  gr 
 gsave  135 1805
 t 0 r 0 0 m /Times findfont 43.9865 sf 0 0 m (90) show  gr 
 gsave  108 1876
 t 0 r 0 0 m /Times findfont 43.9865 sf 0 0 m (100) show  gr  1 1 1 c black 192 1160 m 5 X 7 Y 2 X -7 Y 2 X 7 Y 5 X 52 Y 2 X -52 Y 2 X 52 Y 2 X 15 Y 3 X -59 Y 2 X 44 Y 2 X 37 Y 2 X -59 Y 3 X 51 Y 2 X 30 Y 2 X 22 Y 2 X 15 Y 3 X 37 Y 2 X 81 Y
 2 X 37 Y 2 X -37 Y 2 X 81 Y 3 X 110 Y 2 X -66 Y 2 X 66 Y 2 X 148 Y 3 X 29 Y 2 X 89 Y s 257 1890 m -89 Y s 257 1801 m 2 X 74 Y 3 X 15 Y s 348 1890 m -45 Y s 348 1845 m 3 X 8 Y 2 X -8 Y 2 X -191 Y 2 X -52 Y 3 X 59 Y 2 X -214 Y 2 X 45 Y 2 X -89 Y 3 X
 22 Y 2 X -22 Y 2 X -29 Y 2 X -52 Y 2 X 44 Y 3 X -110 Y 2 X -15 Y 4 X 7 Y 3 X -44 Y 6 X 30 Y 3 X -45 Y 2 X 23 Y 4 X -30 Y 2 X 30 Y 3 X -23 Y 2 X 15 Y 2 X -29 Y 2 X 22 Y 3 X -22 Y 2 X -8 Y 2 X 30 Y 2 X 7 Y 3 X -29 Y 4 X 22 Y 4 X -22 Y 3 X 7 Y 2 X -15
 Y 2 X 52 Y 2 X -15 Y 3 X -15 Y 2 X 15 Y 2 X 22 Y 2 X -29 Y 3 X 7 Y 2 X -7 Y 2 X -22 Y 2 X 37 Y 2 X -8 Y 3 X 37 Y 2 X -29 Y 2 X 29 Y 2 X -37 Y 3 X -7 Y 2 X 29 Y 2 X -29 Y 2 X 37 Y 3 X 29 Y 2 X -44 Y 2 X -15 Y 2 X -29 Y 2 X 44 Y 3 X 7 Y 2 X -7 Y 2 X
 -15 Y 2 X 15 Y 3 X -7 Y 2 X -8 Y 2 X 37 Y 2 X -29 Y 3 X 14 Y 4 X 45 Y 2 X -74 Y 2 X 7 Y 3 X 52 Y 2 X -30 Y 2 X 67 Y 2 X -22 Y 3 X -30 Y 2 X 52 Y 2 X -45 Y 2 X -36 Y 2 X 81 Y 3 X -30 Y 2 X 37 Y 2 X -7 Y 2 X -37 Y 3 X 44 Y 2 X -15 Y 2 X 52 Y 2 X -30 Y
 3 X -36 Y 2 X -15 Y 2 X 73 Y 2 X -66 Y 2 X 74 Y 3 X 7 Y 2 X 15 Y 7 X 44 Y 2 X -132 Y 2 X 73 Y 2 X 44 Y 3 X -29 Y 4 X 44 Y 2 X -7 Y 2 X 22 Y 3 X 7 Y 2 X -44 Y 2 X 37 Y 2 X -7 Y 3 X -52 Y 2 X 22 Y 2 X 37 Y 2 X -74 Y 3 X 74 Y 2 X -44 Y 2 X 7 Y 2 X 81 Y
 2 X 22 Y 3 X -110 Y 2 X 14 Y 2 X 96 Y 2 X -51 Y 3 X -22 Y 2 X -52 Y 4 X 88 Y 5 X -95 Y 2 X 59 Y 2 X -8 Y 2 X 22 Y 3 X 22 Y 2 X -73 Y 2 X 37 Y 2 X 59 Y 3 X -45 Y 2 X -22 Y 2 X 8 Y 2 X 22 Y 3 X -37 Y 2 X 66 Y 2 X -37 Y 2 X -51 Y 2 X 81 Y 3 X -44 Y 2 X
 -15 Y 2 X 96 Y 2 X -89 Y 3 X 74 Y 4 X -66 Y 2 X -30 Y 3 X 22 Y 2 X -22 Y 2 X 66 Y 2 X -29 Y 2 X -74 Y 3 X -51 Y 2 X 81 Y 2 X 7 Y 5 X 7 Y 2 X -22 Y 2 X 15 Y 2 X -96 Y 3 X 67 Y 2 X 36 Y 2 X -59 Y 2 X 8 Y 2 X 22 Y 3 X -103 Y 2 X 96 Y 2 X 7 Y 2 X -74 Y
 3 X 52 Y 2 X -37 Y 2 X 52 Y 2 X 7 Y 2 X -81 Y 3 X 29 Y 2 X -22 Y 2 X 74 Y 2 X -37 Y 3 X -74 Y 2 X 23 Y 2 X 14 Y 2 X 8 Y 3 X 14 Y 2 X -14 Y 2 X 29 Y 2 X -59 Y 2 X 44 Y 3 X 15 Y 2 X -37 Y 2 X -22 Y 2 X -15 Y 3 X -7 Y 2 X 7 Y 2 X -7 Y 2 X 44 Y 3 X -37
 Y 2 X -22 Y 2 X 59 Y 2 X 8 Y 2 X -22 Y 3 X 14 Y 2 X 15 Y 2 X -44 Y 2 X -30 Y 3 X 45 Y 2 X -52 Y 2 X -15 Y 2 X 30 Y 3 X -22 Y 2 X -23 Y 2 X 45 Y 2 X 14 Y 2 X -14 Y 3 X -15 Y 2 X -15 Y 2 X 44 Y 2 X -88 Y 3 X 52 Y 2 X 7 Y 4 X -15 Y 3 X 8 Y 2 X 29 Y 2 X
 -29 Y 2 X -15 Y 2 X 22 Y 3 X -22 Y 2 X 7 Y 2 X -15 Y 2 X 8 Y 3 X -22 Y 2 X 44 Y 4 X -15 Y 3 X -37 Y 2 X 37 Y 2 X 8 Y 2 X -37 Y 2 X 29 Y 3 X 15 Y 2 X -52 Y 4 X 59 Y 3 X -51 Y 2 X 44 Y 2 X -30 Y 2 X -14 Y 3 X 14 Y 2 X -22 Y 2 X 45 Y 2 X -37 Y 2 X 37 Y
 3 X -30 Y 2 X 30 Y 2 X -45 Y 2 X 59 Y 3 X -37 Y 2 X 30 Y 2 X -52 Y 2 X 8 Y 2 X 14 Y 3 X -7 Y 2 X -7 Y 2 X 7 Y 2 X 15 Y 3 X -15 Y 2 X 7 Y 2 X -22 Y 2 X 15 Y 3 X -15 Y 2 X 22 Y 2 X -14 Y 2 X -8 Y 2 X 22 Y 3 X -7 Y 2 X -7 Y 2 X -8 Y 2 X 30 Y 3 X 7 Y 2
 X -15 Y 2 X -29 Y 2 X 22 Y 3 X 7 Y 2 X -29 Y 2 X 15 Y 2 X 14 Y 2 X -22 Y 3 X 8 Y 2 X -8 Y 2 X -7 Y 5 X 22 Y 2 X -22 Y 2 X 22 Y 2 X -22 Y 3 X 22 Y 2 X -7 Y 2 X -15 Y 2 X 22 Y 2 X -22 Y 3 X 15 Y 2 X 14 Y 2 X -7 Y 2 X -7 Y 3 X 14 Y 2 X -22 Y 7 X -7 Y 2
 X 22 Y 2 X -7 Y 2 X -15 Y 2 X 7 Y 3 X 22 Y 2 X -7 Y 4 X -15 Y 3 X 22 Y 2 X -29 Y 2 X 22 Y 5 X -22 Y 2 X 22 Y 2 X 7 Y 2 X -29 Y 2 X 7 Y 3 X -7 Y 4 X 15 Y 2 X -8 Y 9 X -7 Y 3 X 22 Y 2 X -22 Y 2 X 7 Y 2 X -7 Y 7 X 22 Y 2 X -22 Y 5 X 22 Y 2 X -15 Y 2 X
 -7 Y 11 X 15 Y 2 X -15 Y 9 X 7 Y 3 X -7 Y 6 X 15 Y 2 X -15 Y 3 X 15 Y 2 X -15 Y 7 X 7 Y 2 X -7 Y 2 X 7 Y 2 X 8 Y 3 X -15 Y 2 X 7 Y 2 X -7 Y 7 X 7 Y 6 X -7 Y 14 X 7 Y 2 X -7 Y 13 X 7 Y 5 X -7 Y 40 X 7 Y 2 X -7 Y 16 X 7 Y 2 X -7 Y 40 X 7 Y 2 X -7 Y 63
 X s 0.999 0.999 0.999 c 946 314 458 1566 bf 1 1 1 c black
 gsave  849 1815
 t 0 r 0 0 m /Times findfont 60.9044 sf 0 0 m (PMT2) show  gr 
 gsave  693 1734
 t 0 r 0 0 m /Times findfont 60.9044 sf 0 0 m (HT 1350 V, AR10) show  gr 
 gsave  1160 1650
 t 0 r 0 0 m /Times findfont 60.9044 sf 0 0 m ( = 46) show  gr 
 gsave  1122 1650
 t 0 r 0 0 m /Symbol findfont 60.9044 sf 0 0 m (s) show  gr 
 gsave  561 1650
 t 0 r 0 0 m /Times findfont 60.9044 sf 0 0 m (MIP\(17 p.e.\) = 164 /\040) show  gr 
 gsave  822 1572
 t 0 r 0 0 m /Times findfont 60.9044 sf 0 0 m (11.5 pC) show  gr  1 1 1 c 1478 924 15 29 bf black 1 1 1 c 1227 730 192 177 bf black 1227 730 192 177 bl 192 177 m 1227 X s 304 200 m -23 Y s 348 189 m -12 Y s 393 189 m -12 Y s 438 189 m -12 Y
 s 482 189 m -12 Y s 527 200 m -23 Y s 571 189 m -12 Y s 616 189 m -12 Y s 661 189 m -12 Y s 705 189 m -12 Y s 750 200 m -23 Y s 794 189 m -12 Y s 839 189 m -12 Y s 884 189 m -12 Y s 928 189 m -12 Y s 973 200 m -23 Y s 1017 189 m -12 Y s 1062 189 m
 -12 Y s 1107 189 m -12 Y s 1151 189 m -12 Y s 1196 200 m -23 Y s 1240 189 m -12 Y s 1285 189 m -12 Y s 1330 189 m -12 Y s 1374 189 m -12 Y s 1419 200 m -23 Y s 304 200 m -23 Y s 259 189 m -12 Y s 215 189 m -12 Y s
 gsave  287 139
 t 0 r 0 0 m /Times findfont 43.9865 sf 0 0 m (0) show  gr 
 gsave  487 139
 t 0 r 0 0 m /Times findfont 43.9865 sf 0 0 m (100) show  gr 
 gsave  710 139
 t 0 r 0 0 m /Times findfont 43.9865 sf 0 0 m (200) show  gr 
 gsave  933 139
 t 0 r 0 0 m /Times findfont 43.9865 sf 0 0 m (300) show  gr 
 gsave  1156 139
 t 0 r 0 0 m /Times findfont 43.9865 sf 0 0 m (400) show  gr 
 gsave  1379 139
 t 0 r 0 0 m /Times findfont 43.9865 sf 0 0 m (500) show  gr  192 177 m 730 Y s 227 244 m -35 X s 210 258 m -18 X s 210 273 m -18 X s 210 288 m -18 X s 210 303 m -18 X s 227 317 m -35 X s 210 332 m -18 X s 210 347 m -18 X s 210 362 m -18 X s
 210 376 m -18 X s 227 391 m -35 X s 210 406 m -18 X s 210 421 m -18 X s 210 435 m -18 X s 210 450 m -18 X s 227 465 m -35 X s 210 479 m -18 X s 210 494 m -18 X s 210 509 m -18 X s 210 524 m -18 X s 227 538 m -35 X s 210 553 m -18 X s 210 568 m -18 X
 s 210 583 m -18 X s 210 597 m -18 X s 227 612 m -35 X s 210 627 m -18 X s 210 642 m -18 X s 210 656 m -18 X s 210 671 m -18 X s 227 686 m -35 X s 210 701 m -18 X s 210 715 m -18 X s 210 730 m -18 X s 210 745 m -18 X s 227 760 m -35 X s 210 774 m -18
 X s 210 789 m -18 X s 210 804 m -18 X s 210 819 m -18 X s 227 833 m -35 X s 210 848 m -18 X s 210 863 m -18 X s 210 878 m -18 X s 210 892 m -18 X s 227 907 m -35 X s 227 244 m -35 X s 210 229 m -18 X s 210 214 m -18 X s 210 199 m -18 X s 210 185 m
 -18 X s
 gsave  135 233
 t 0 r 0 0 m /Times findfont 43.9865 sf 0 0 m (10) show  gr 
 gsave  135 304
 t 0 r 0 0 m /Times findfont 43.9865 sf 0 0 m (20) show  gr 
 gsave  135 379
 t 0 r 0 0 m /Times findfont 43.9865 sf 0 0 m (30) show  gr 
 gsave  135 453
 t 0 r 0 0 m /Times findfont 43.9865 sf 0 0 m (40) show  gr 
 gsave  135 527
 t 0 r 0 0 m /Times findfont 43.9865 sf 0 0 m (50) show  gr 
 gsave  135 602
 t 0 r 0 0 m /Times findfont 43.9865 sf 0 0 m (60) show  gr 
 gsave  135 673
 t 0 r 0 0 m /Times findfont 43.9865 sf 0 0 m (70) show  gr 
 gsave  135 747
 t 0 r 0 0 m /Times findfont 43.9865 sf 0 0 m (80) show  gr 
 gsave  135 822
 t 0 r 0 0 m /Times findfont 43.9865 sf 0 0 m (90) show  gr 
 gsave  108 896
 t 0 r 0 0 m /Times findfont 43.9865 sf 0 0 m (100) show  gr  1 1 1 c black 192 177 m 41 X 8 Y 2 X 14 Y 2 X -14 Y 2 X 37 Y 5 X -37 Y 2 X 29 Y 2 X 81 Y 5 X 44 Y 2 X 23 Y 2 X 7 Y 2 X 162 Y 3 X 7 Y 2 X 199 Y 2 X -14 Y 2 X 184 Y s 337 907 m -44
 Y s 337 863 m 3 X -30 Y 2 X -96 Y 2 X -58 Y 2 X -155 Y 2 X -52 Y 3 X -51 Y 2 X -30 Y 2 X -81 Y 2 X 15 Y 3 X -59 Y 2 X 7 Y 2 X -29 Y 2 X 51 Y 3 X -59 Y 2 X 30 Y 2 X -44 Y 2 X -23 Y 2 X 15 Y 3 X -15 Y 2 X 45 Y 2 X -52 Y 5 X 22 Y 2 X 30 Y 2 X -30 Y 2 X
 -22 Y 3 X 7 Y 2 X 45 Y 4 X -22 Y 2 X -8 Y 3 X 22 Y 2 X -22 Y 4 X 22 Y 3 X -14 Y 2 X 7 Y 11 X 37 Y 2 X -15 Y 2 X 7 Y 3 X -22 Y 2 X -22 Y 2 X -15 Y 2 X 37 Y 3 X -7 Y 2 X 15 Y 2 X -37 Y 2 X 22 Y 3 X 29 Y 2 X 8 Y 2 X -22 Y 4 X 51 Y 3 X -15 Y 2 X -36 Y 2
 X -37 Y 2 X 29 Y 3 X 15 Y 2 X 37 Y 2 X -8 Y 2 X -29 Y 3 X -22 Y 2 X 44 Y 2 X 15 Y 4 X -30 Y 3 X 22 Y 2 X -22 Y 2 X -36 Y 2 X 81 Y 3 X -23 Y 4 X -14 Y 2 X 73 Y 3 X -59 Y 2 X 37 Y 2 X -44 Y 4 X 66 Y 3 X 15 Y 2 X -51 Y 2 X 51 Y 2 X -74 Y 3 X 52 Y 2 X
 -52 Y 2 X -44 Y 2 X 74 Y 2 X -59 Y 3 X 37 Y 2 X -37 Y 2 X 81 Y 2 X -37 Y 3 X 52 Y 2 X -37 Y 2 X 29 Y 2 X -29 Y 3 X -15 Y 2 X 22 Y 2 X -14 Y 2 X 7 Y 2 X 74 Y 3 X -15 Y 2 X -59 Y 4 X 29 Y 5 X 37 Y 2 X -29 Y 2 X -15 Y 3 X 22 Y 2 X -29 Y 4 X -67 Y 2 X
 81 Y 3 X -7 Y 2 X 44 Y 2 X -14 Y 2 X -45 Y 3 X 89 Y 2 X -103 Y 2 X 103 Y 2 X 44 Y 3 X -155 Y 2 X 74 Y 2 X 52 Y 2 X -89 Y 2 X -15 Y 3 X 67 Y 2 X -74 Y 2 X 37 Y 2 X -15 Y 3 X 37 Y 2 X 44 Y 2 X -59 Y 7 X -74 Y 2 X 37 Y 2 X 52 Y 2 X -52 Y 3 X 67 Y 2 X
 44 Y 2 X -96 Y 2 X 15 Y 3 X 44 Y 2 X -22 Y 2 X -37 Y 2 X -15 Y 3 X 15 Y 2 X -37 Y 2 X 37 Y 2 X 52 Y 2 X -22 Y 3 X -8 Y 4 X -15 Y 2 X -14 Y 3 X -15 Y 2 X 37 Y 2 X -15 Y 2 X 52 Y 3 X 29 Y 2 X -103 Y 2 X 15 Y 2 X 59 Y 2 X -59 Y 5 X -8 Y 2 X -44 Y 2 X
 -7 Y 3 X 44 Y 2 X 29 Y 2 X -22 Y 2 X 30 Y 3 X -37 Y 4 X 29 Y 2 X 45 Y 2 X -89 Y 3 X -59 Y 2 X 118 Y 2 X -29 Y 2 X 66 Y 5 X -74 Y 2 X 15 Y 4 X -22 Y 3 X 29 Y 2 X -29 Y 2 X -44 Y 2 X 14 Y 3 X 45 Y 2 X -37 Y 2 X 22 Y 2 X 15 Y 3 X 73 Y 2 X -81 Y 2 X -37
 Y 2 X 30 Y 2 X 7 Y 3 X -7 Y 2 X -22 Y 2 X 29 Y 2 X -73 Y 3 X 59 Y 2 X -37 Y 2 X -8 Y 2 X 74 Y 3 X -59 Y 2 X 30 Y 2 X -30 Y 2 X 30 Y 2 X -23 Y 3 X 15 Y 2 X -29 Y 2 X 59 Y 2 X -45 Y 3 X -36 Y 4 X 66 Y 2 X -37 Y 3 X 44 Y 2 X -81 Y 4 X 81 Y 2 X -14 Y 3
 X -15 Y 2 X -37 Y 2 X 59 Y 2 X -22 Y 3 X -8 Y 2 X -14 Y 2 X -8 Y 2 X -7 Y 3 X 15 Y 4 X 7 Y 7 X -22 Y 2 X -15 Y 2 X 30 Y 2 X -59 Y 3 X 37 Y 2 X -22 Y 2 X 58 Y 2 X -29 Y 3 X 15 Y 2 X 22 Y 2 X -52 Y 2 X -7 Y 2 X -15 Y 3 X 15 Y 2 X 15 Y 2 X 7 Y 2 X -37
 Y 3 X -7 Y 2 X -15 Y 2 X 30 Y 2 X 44 Y 3 X -15 Y 2 X 15 Y 2 X -52 Y 2 X 30 Y 5 X -8 Y 2 X -22 Y 2 X 22 Y 2 X -22 Y 5 X 37 Y 2 X -29 Y 2 X 14 Y 2 X -7 Y 3 X -15 Y 4 X -7 Y 2 X 44 Y 3 X -22 Y 2 X 59 Y 2 X -52 Y 2 X -29 Y 5 X 22 Y 2 X -30 Y 2 X 37 Y 2
 X -59 Y 3 X 30 Y 2 X -8 Y 2 X 8 Y 2 X 7 Y 3 X -15 Y 2 X -14 Y 2 X 44 Y 2 X 7 Y 3 X -22 Y 2 X -7 Y 2 X 22 Y 2 X 29 Y 2 X -29 Y 3 X -22 Y 2 X -22 Y 2 X 14 Y 2 X -7 Y 3 X -7 Y 2 X 7 Y 2 X 7 Y 5 X 8 Y 2 X -8 Y 2 X 23 Y 2 X 7 Y 2 X -15 Y 3 X -7 Y 4 X -22
 Y 5 X 29 Y 2 X 8 Y 2 X -23 Y 5 X -22 Y 2 X 37 Y 4 X -7 Y 2 X -22 Y 7 X -8 Y 2 X 30 Y 3 X -15 Y 4 X 15 Y 2 X -22 Y 3 X 44 Y 2 X -44 Y 4 X 22 Y 2 X -15 Y 5 X -7 Y 7 X 14 Y 2 X -22 Y 2 X 8 Y 2 X 14 Y 3 X -7 Y 2 X -7 Y 2 X -8 Y 2 X 22 Y 2 X -22 Y 3 X 8
 Y 2 X 14 Y 4 X -14 Y 5 X -8 Y 2 X 8 Y 2 X -8 Y 5 X 15 Y 2 X -7 Y 2 X -8 Y 2 X 22 Y 3 X -14 Y 2 X 14 Y 2 X -22 Y 2 X 15 Y 3 X -7 Y 6 X 7 Y 5 X -15 Y 9 X 8 Y 4 X 7 Y 2 X -15 Y 3 X 8 Y 2 X 44 Y 2 X -52 Y 2 X 22 Y 2 X -22 Y 3 X 8 Y 2 X 7 Y 2 X -7 Y 2 X
 -8 Y 3 X 8 Y 2 X -8 Y 13 X 8 Y 2 X -8 Y 5 X 8 Y 2 X -8 Y 2 X 8 Y 3 X -8 Y 2 X 8 Y 4 X -8 Y 7 X 8 Y 4 X -8 Y 3 X 15 Y 4 X -15 Y 2 X 15 Y 3 X -15 Y 4 X 8 Y 2 X -8 Y 3 X 8 Y 2 X -8 Y 2 X 15 Y 2 X -15 Y 18 X 8 Y 2 X -8 Y 3 X 15 Y 2 X 7 Y 2 X -22 Y 11 X
 8 Y 2 X -8 Y 5 X 8 Y 2 X -8 Y 29 X 22 Y 2 X -22 Y 2 X 8 Y 3 X -8 Y 9 X 8 Y 2 X -8 Y 9 X 8 Y 2 X -8 Y 2 X 8 Y 2 X -8 Y 3 X 8 Y 2 X -8 Y 7 X 8 Y 2 X s 0.999 0.999 0.999 c 946 314 458 584 bf 1 1 1 c black
 gsave  849 832
 t 0 r 0 0 m /Times findfont 60.9044 sf 0 0 m (PMT4) show  gr 
 gsave  693 751
 t 0 r 0 0 m /Times findfont 60.9044 sf 0 0 m (HT 1750 V, AR10) show  gr 
 gsave  1160 669
 t 0 r 0 0 m /Times findfont 60.9044 sf 0 0 m ( = 77) show  gr 
 gsave  1122 669
 t 0 r 0 0 m /Symbol findfont 60.9044 sf 0 0 m (s) show  gr 
 gsave  561 669
 t 0 r 0 0 m /Times findfont 60.9044 sf 0 0 m (MIP\(17 p.e.\) = 166 /\040) show  gr 
 gsave  822 588
 t 0 r 0 0 m /Times findfont 60.9044 sf 0 0 m (11.6 pC) show  gr 
 gr  gr 
showpage
end
%%EOF
