%!PS-Adobe-2.0 EPSF-2.0
%%Title: MIP.eps
%%Creator: fig2dev Version 3.2 Patchlevel 3d
%%CreationDate: Wed May  4 16:56:02 2005
%%For: grossior@lyopcs9.in2p3.fr (Jean-Yves Grossiord)
%%BoundingBox: 0 0 324 231
%%Magnification: 0.9400
%%EndComments
/$F2psDict 200 dict def
$F2psDict begin
$F2psDict /mtrx matrix put
/col-1 {0 setgray} bind def
/col0 {0.000 0.000 0.000 srgb} bind def
/col1 {0.000 0.000 1.000 srgb} bind def
/col2 {0.000 1.000 0.000 srgb} bind def
/col3 {0.000 1.000 1.000 srgb} bind def
/col4 {1.000 0.000 0.000 srgb} bind def
/col5 {1.000 0.000 1.000 srgb} bind def
/col6 {1.000 1.000 0.000 srgb} bind def
/col7 {1.000 1.000 1.000 srgb} bind def
/col8 {0.000 0.000 0.560 srgb} bind def
/col9 {0.000 0.000 0.690 srgb} bind def
/col10 {0.000 0.000 0.820 srgb} bind def
/col11 {0.530 0.810 1.000 srgb} bind def
/col12 {0.000 0.560 0.000 srgb} bind def
/col13 {0.000 0.690 0.000 srgb} bind def
/col14 {0.000 0.820 0.000 srgb} bind def
/col15 {0.000 0.560 0.560 srgb} bind def
/col16 {0.000 0.690 0.690 srgb} bind def
/col17 {0.000 0.820 0.820 srgb} bind def
/col18 {0.560 0.000 0.000 srgb} bind def
/col19 {0.690 0.000 0.000 srgb} bind def
/col20 {0.820 0.000 0.000 srgb} bind def
/col21 {0.560 0.000 0.560 srgb} bind def
/col22 {0.690 0.000 0.690 srgb} bind def
/col23 {0.820 0.000 0.820 srgb} bind def
/col24 {0.500 0.190 0.000 srgb} bind def
/col25 {0.630 0.250 0.000 srgb} bind def
/col26 {0.750 0.380 0.000 srgb} bind def
/col27 {1.000 0.500 0.500 srgb} bind def
/col28 {1.000 0.630 0.630 srgb} bind def
/col29 {1.000 0.750 0.750 srgb} bind def
/col30 {1.000 0.880 0.880 srgb} bind def
/col31 {1.000 0.840 0.000 srgb} bind def

end
save
newpath 0 231 moveto 0 0 lineto 324 0 lineto 324 231 lineto closepath clip newpath
148.6 42.1 translate
1 -1 scale

/cp {closepath} bind def
/ef {eofill} bind def
/gr {grestore} bind def
/gs {gsave} bind def
/sa {save} bind def
/rs {restore} bind def
/l {lineto} bind def
/m {moveto} bind def
/rm {rmoveto} bind def
/n {newpath} bind def
/s {stroke} bind def
/sh {show} bind def
/slc {setlinecap} bind def
/slj {setlinejoin} bind def
/slw {setlinewidth} bind def
/srgb {setrgbcolor} bind def
/rot {rotate} bind def
/sc {scale} bind def
/sd {setdash} bind def
/ff {findfont} bind def
/sf {setfont} bind def
/scf {scalefont} bind def
/sw {stringwidth} bind def
/tr {translate} bind def
/tnt {dup dup currentrgbcolor
  4 -2 roll dup 1 exch sub 3 -1 roll mul add
  4 -2 roll dup 1 exch sub 3 -1 roll mul add
  4 -2 roll dup 1 exch sub 3 -1 roll mul add srgb}
  bind def
/shd {dup dup currentrgbcolor 4 -2 roll mul 4 -2 roll mul
  4 -2 roll mul srgb} bind def
/$F2psBegin {$F2psDict begin /$F2psEnteredState save def} def
/$F2psEnd {$F2psEnteredState restore end} def

$F2psBegin
10 setmiterlimit
 0.05921 0.05921 sc
%
% Fig objects follow
%
% Polyline
15.000 slw
 [90] 0 sd
n -90 -2205 m
 -90 0 l gs col0 s gr  [] 0 sd
% Polyline
 [90] 0 sd
n 90 -2160 m
 90 0 l gs col0 s gr  [] 0 sd
% Polyline
7.500 slw
 [60] 0 sd
gs  clippath
-21 -2050 m -7 -1992 l 139 -2025 l 16 -2028 l 126 -2084 l cp
eoclip
n 1170 -2295 m
 0 -2025 l gs col0 s gr gr
 [] 0 sd
% arrowhead
n 126 -2084 m 16 -2028 l 139 -2025 l  col0 s
% Polyline
gs  clippath
2625 30 m 2625 -30 l 2473 -30 l 2593 0 l 2473 30 l cp
eoclip
n -2160 0 m
 2610 0 l gs col0 s gr gr

% arrowhead
n 2473 30 m 2593 0 l 2473 -30 l  col0 s
% Polyline
gs  clippath
30 -2850 m -30 -2850 l -30 -2697 l 0 -2817 l 30 -2697 l cp
eoclip
n 0 0 m
 0 -2835 l gs col0 s gr gr

% arrowhead
n 30 -2697 m 0 -2817 l -30 -2697 l  col0 s
% Polyline
2 slj
15.000 slw
n 0 -2205 m -1 -2205 l -9 -2205 l -22 -2204 l -39 -2204 l -55 -2203 l
 -68 -2201 l -80 -2200 l -90 -2198 l -98 -2195 l -107 -2192 l
 -116 -2189 l -126 -2184 l -136 -2179 l -146 -2174 l -157 -2167 l
 -167 -2160 l -177 -2153 l -188 -2145 l -196 -2138 l -206 -2130 l
 -215 -2121 l -226 -2112 l -236 -2102 l -248 -2091 l -259 -2081 l
 -269 -2070 l -280 -2060 l -289 -2050 l -299 -2041 l -308 -2033 l
 -316 -2024 l -324 -2015 l -333 -2007 l -342 -1998 l -351 -1988 l
 -360 -1979 l -369 -1969 l -378 -1959 l -387 -1950 l -396 -1940 l
 -404 -1930 l -413 -1920 l -421 -1909 l -430 -1898 l -440 -1886 l
 -450 -1872 l -461 -1858 l -471 -1844 l -482 -1829 l -492 -1815 l
 -501 -1801 l -510 -1787 l -518 -1775 l -525 -1763 l -532 -1751 l
 -538 -1739 l -544 -1726 l -550 -1714 l -555 -1701 l -560 -1689 l
 -565 -1676 l -570 -1664 l -574 -1652 l -578 -1641 l -582 -1630 l
 -585 -1620 l -588 -1610 l -592 -1599 l -596 -1588 l -600 -1576 l
 -604 -1565 l -609 -1552 l -613 -1540 l -618 -1529 l -623 -1517 l
 -628 -1506 l -632 -1495 l -638 -1485 l -643 -1475 l -649 -1464 l
 -655 -1453 l -661 -1441 l -669 -1428 l -676 -1415 l -684 -1402 l
 -691 -1389 l -699 -1375 l -706 -1362 l -713 -1349 l -720 -1335 l
 -726 -1323 l -732 -1310 l -738 -1297 l -745 -1283 l -751 -1268 l
 -758 -1252 l -765 -1236 l -772 -1220 l -779 -1205 l -785 -1189 l
 -792 -1174 l -798 -1160 l -804 -1146 l -810 -1133 l -816 -1119 l
 -822 -1106 l -828 -1093 l -835 -1079 l -842 -1065 l -849 -1050 l
 -857 -1036 l -865 -1022 l -873 -1008 l -881 -994 l -890 -981 l
 -898 -969 l -906 -957 l -915 -945 l -924 -933 l -934 -921 l
 -944 -909 l -955 -896 l -967 -882 l -979 -868 l -991 -854 l
 -1004 -840 l -1016 -825 l -1028 -811 l -1040 -797 l -1051 -784 l
 -1062 -771 l -1073 -758 l -1081 -746 l -1090 -734 l -1100 -721 l
 -1109 -708 l -1118 -695 l -1128 -681 l -1138 -667 l -1148 -653 l
 -1157 -638 l -1167 -624 l -1177 -610 l -1186 -597 l -1195 -584 l
 -1205 -571 l -1214 -559 l -1223 -548 l -1233 -534 l -1244 -521 l
 -1255 -508 l -1267 -494 l -1279 -480 l -1292 -466 l -1305 -452 l
 -1318 -438 l -1331 -425 l -1343 -412 l -1355 -400 l -1366 -389 l
 -1377 -378 l -1388 -368 l -1398 -357 l -1408 -347 l -1419 -337 l
 -1429 -326 l -1440 -315 l -1452 -304 l -1464 -294 l -1475 -283 l
 -1487 -272 l -1499 -262 l -1510 -252 l -1522 -243 l -1533 -234 l
 -1545 -225 l -1557 -216 l -1570 -207 l -1583 -198 l -1597 -188 l
 -1611 -178 l -1626 -169 l -1641 -159 l -1656 -149 l -1671 -139 l
 -1685 -130 l -1698 -121 l -1710 -113 l -1722 -105 l -1733 -98 l
 -1744 -89 l -1755 -81 l -1766 -72 l -1777 -64 l -1788 -56 l
 -1798 -48 l -1808 -41 l -1817 -34 l -1827 -28 l -1835 -23 l
 -1844 -19 l -1853 -15 l -1866 -10 l -1880 -7 l -1895 -4 l
 -1909 -2 l -1923 -1 l -1934 0 l -1944 0 l -1950 0 l
 -1955 0 l -1953 0 l -1945 0 l -1937 0 l
 -1935 0 l gs col0 s gr 
% Polyline
n 0 -2205 m 1 -2205 l 9 -2205 l 22 -2204 l 39 -2204 l 55 -2203 l
 68 -2201 l 80 -2200 l 90 -2198 l 98 -2195 l 107 -2192 l
 116 -2189 l 126 -2184 l 136 -2179 l 146 -2174 l 157 -2167 l
 167 -2160 l 177 -2153 l 188 -2145 l 196 -2138 l 206 -2130 l
 215 -2121 l 226 -2112 l 236 -2102 l 248 -2091 l 259 -2081 l
 269 -2070 l 280 -2060 l 289 -2050 l 299 -2041 l 308 -2033 l
 316 -2024 l 324 -2015 l 333 -2007 l 342 -1998 l 351 -1988 l
 360 -1979 l 369 -1969 l 378 -1959 l 387 -1950 l 396 -1940 l
 404 -1930 l 413 -1920 l 421 -1909 l 430 -1898 l 440 -1886 l
 450 -1872 l 461 -1858 l 471 -1844 l 482 -1829 l 492 -1815 l
 501 -1801 l 510 -1787 l 518 -1775 l 525 -1763 l 532 -1751 l
 538 -1739 l 544 -1726 l 550 -1714 l 555 -1701 l 560 -1689 l
 565 -1676 l 570 -1664 l 574 -1652 l 578 -1641 l 582 -1630 l
 585 -1620 l 588 -1610 l 592 -1599 l 596 -1588 l 600 -1576 l
 604 -1565 l 609 -1552 l 613 -1540 l 618 -1529 l 623 -1517 l
 628 -1506 l 632 -1495 l 638 -1485 l 643 -1475 l 649 -1464 l
 655 -1453 l 661 -1441 l 669 -1428 l 676 -1415 l 684 -1402 l
 691 -1389 l 699 -1375 l 706 -1362 l 713 -1349 l 720 -1335 l
 726 -1323 l 732 -1310 l 738 -1297 l 745 -1283 l 751 -1268 l
 758 -1252 l 765 -1236 l 772 -1220 l 779 -1205 l 785 -1189 l
 792 -1174 l 798 -1160 l 804 -1146 l 810 -1133 l 816 -1119 l
 822 -1106 l 828 -1093 l 835 -1079 l 842 -1065 l 849 -1050 l
 857 -1036 l 865 -1022 l 873 -1008 l 881 -994 l 890 -981 l
 898 -969 l 906 -957 l 915 -945 l 924 -933 l 934 -921 l
 944 -909 l 955 -896 l 967 -882 l 979 -868 l 991 -854 l
 1004 -840 l 1016 -825 l 1028 -811 l 1040 -797 l 1051 -784 l
 1062 -771 l 1073 -758 l 1081 -746 l 1090 -734 l 1100 -721 l
 1109 -708 l 1118 -695 l 1128 -681 l 1138 -667 l 1148 -653 l
 1157 -638 l 1167 -624 l 1177 -610 l 1186 -597 l 1195 -584 l
 1205 -571 l 1214 -559 l 1223 -548 l 1233 -534 l 1244 -521 l
 1255 -508 l 1267 -494 l 1279 -480 l 1292 -466 l 1305 -452 l
 1318 -438 l 1331 -425 l 1343 -412 l 1355 -400 l 1366 -389 l
 1377 -378 l 1388 -368 l 1398 -357 l 1408 -347 l 1419 -337 l
 1429 -326 l 1440 -315 l 1452 -304 l 1464 -294 l 1475 -283 l
 1487 -272 l 1499 -262 l 1510 -252 l 1522 -243 l 1533 -234 l
 1545 -225 l 1557 -216 l 1570 -207 l 1583 -198 l 1597 -188 l
 1611 -178 l 1626 -169 l 1641 -159 l 1656 -149 l 1671 -139 l
 1685 -130 l 1698 -121 l 1710 -113 l 1722 -105 l 1733 -98 l
 1744 -89 l 1755 -81 l 1766 -72 l 1777 -64 l 1788 -56 l
 1798 -48 l 1808 -41 l 1817 -34 l 1827 -28 l 1835 -23 l
 1844 -19 l 1853 -15 l 1866 -10 l 1880 -7 l 1895 -4 l
 1909 -2 l 1923 -1 l 1934 0 l 1944 0 l 1950 0 l
 1955 0 l 1953 0 l 1945 0 l 1937 0 l
 1935 0 l gs col0 s gr 
/Times-Roman ff 210.00 scf sf
945 -2385 m
gs 1 -1 sc (no loss of charge) col0 sh gr
/Times-Roman ff 210.00 scf sf
-720 -2385 m
gs 1 -1 sc (charge) col0 sh gr
/Times-Roman ff 210.00 scf sf
-585 -2610 m
gs 1 -1 sc (MIP ) col0 sh gr
/Times-Roman ff 210.00 scf sf
405 315 m
gs 1 -1 sc (starting integration time) col0 sh gr
$F2psEnd
rs
