%!PS-Adobe-2.0 EPSF-2.0
%%BoundingBox:  0 0 567 584
%%Title: /afs/in2p3.fr/group/alice/brapp/2005/pgasdiff2.eps: Tof
%%Creator: ROOT Version 4.04/02
%%CreationDate: Thu Jun  9 13:13:40 2005
%%EndComments
%%BeginProlog
80 dict begin
/s {stroke} def /l {lineto} def /m {moveto} def /t {translate} def
/sw {stringwidth} def /r {rotate} def /rl {roll}  def /R {repeat} def
/d {rlineto} def /rm {rmoveto} def /gr {grestore} def /f {eofill} def
/c {setrgbcolor} def /lw {setlinewidth} def /sd {setdash} def
/cl {closepath} def /sf {scalefont setfont} def /black {0 setgray} def
/box {m dup 0 exch d exch 0 d 0 exch neg d cl} def
/NC{systemdict begin initclip end}def/C{NC box clip newpath}def
/bl {box s} def /bf {box f} def /Y { 0 exch d} def /X { 0 d} def 
/mp {newpath /y exch def /x exch def} def
/side {[w .77 mul w .23 mul] .385 w mul sd w 0 l currentpoint t -144 r} def
/mr {mp x y w2 0 360 arc} def /m24 {mr s} def /m20 {mr f} def
/mb {mp x y w2 add m w2 neg 0 d 0 w neg d w 0 d 0 w d cl} def
/mt {mp x y w2 add m w2 neg w neg d w 0 d cl} def
/m21 {mb f} def /m25 {mb s} def /m22 {mt f} def /m26{mt s} def
/m23 {mp x y w2 sub m w2 w d w neg 0 d cl f} def
/m27 {mp x y w2 add m w3 neg w2 neg d w3 w2 neg d w3 w2 d cl s} def
/m28 {mp x w2 sub y w2 sub w3 add m w3 0 d  0 w3 neg d w3 0 d 0 w3 d w3 0 d  0 w3 d w3 neg 0 d 0 w3 d w3 neg 0 d
 0 w3 neg d w3 neg 0 d cl s } def
/m29 {mp gsave x w2 sub y w2 add w3 sub m currentpoint t
 4 {side} repeat cl fill gr} def
/m30 {mp gsave x w2 sub y w2 add w3 sub m currentpoint t
 4 {side} repeat cl s gr} def
/m31 {mp x y w2 sub m 0 w d x w2 sub y m w 0 d x w2 sub y w2 add m w w neg d x w2 sub y w2
 sub m w w d s} def
/m2 {mp x y w2 sub m 0 w d x w2 sub y m w 0 d s} def
/m5 {mp x w2 sub y w2 sub m w w d x w2 sub y w2 add m w w neg d s} def
/reencdict 24 dict def /ReEncode {reencdict begin /nco&na exch def
/nfnam exch def /basefontname exch def /basefontdict basefontname findfont def
/newfont basefontdict maxlength dict def basefontdict {exch dup /FID ne
{dup /Encoding eq {exch dup length array copy newfont 3 1 roll put} {exch 
newfont 3 1 roll put} ifelse} {pop pop} ifelse } forall newfont
/FontName nfnam put nco&na aload pop nco&na length 2 idiv {newfont
/Encoding get 3 1 roll put} repeat nfnam newfont definefont pop end } def
/accvec [ 176 /agrave 181 /Agrave 190 /acircumflex 192 /Acircumflex
201 /adieresis 204 /Adieresis 209 /ccedilla 210 /Ccedilla 211 /eacute
212 /Eacute 213 /egrave 214 /Egrave 215 /ecircumflex 216 /Ecircumflex
217 /edieresis 218 /Edieresis 219 /icircumflex 220 /Icircumflex
221 /idieresis 222 /Idieresis 223 /ntilde 224 /Ntilde 226 /ocircumflex
228 /Ocircumflex 229 /odieresis 230 /Odieresis 231 /ucircumflex 236 /Ucircumflex
237 /udieresis 238 /Udieresis 239 /aring 242 /Aring 243 /ydieresis
244 /Ydieresis 246 /aacute 247 /Aacute 252 /ugrave 253 /Ugrave] def
/Times-Roman /Times-Roman accvec ReEncode
/Times-Italic /Times-Italic accvec ReEncode
/Times-Bold /Times-Bold accvec ReEncode
/Times-BoldItalic /Times-BoldItalic accvec ReEncode
/Helvetica /Helvetica accvec ReEncode
/Helvetica-Oblique /Helvetica-Oblique accvec ReEncode
/Times /Times accvec ReEncode
/TimesOblique /TimesOblique  accvec ReEncode
/Courier /Courier accvec ReEncode
/Courier-Oblique /Courier-Oblique accvec ReEncode
/Courier-Bold /Courier-Bold accvec ReEncode
/Courier-BoldOblique /Courier-BoldOblique accvec ReEncode
/oshow {gsave [] 0 sd true charpath stroke gr} def
/stwn { /fs exch def /fn exch def /text exch def fn findfont fs sf
 text sw pop xs add /xs exch def} def
/stwb { /fs exch def /fn exch def /nbas exch def /textf exch deftextf length /tlen exch def nbas tlen gt {/nbas tlendef} iffn findfont fs sf textf dup length nbas sub nbas getinterval sw
pop neg xs add /xs exch def} def
/accspe [ 65 /plusminus  66 /bar  67 /existential  68 /universal 
69 /exclam  70 /numbersign 71 /greater  72 /question  73 /integral 
74 /colon  75 /semicolon  76 /less  77 /bracketleft  78 /bracketright
79 /greaterequal 80 /braceleft 81 /braceright 82 /radical
83 /spade 84 /heart 85 /diamond 86 /club 87 /lessequal
88 /multiply 89 /percent 90 /infinity 48 /circlemultiply 49 /circleplus
50 /emptyset  51 /lozenge 52 /bullet 53 /arrowright 54 /arrowup
55 /arrowleft 56 /arrowdown 57 /arrowboth 48 /degree 44 /comma 43 /plus 45 /angle 42 /angleleft 47 /divide 61 /notequal 40 /equivalence 41 /second 97 /approxequal 98 /congruent 99 /perpendicular 100 /partialdiff 101 /florin 102 /intersection
 103 /union 104 /propersuperset 105 /reflexsuperset 106 /notsubset 107 /propersubset 108 /reflexsubset 109 /element 110 /notelement 111 /gradient 112 /logicaland 113 /logicalor 114 /arrowdblboth 115 /arrowdblleft 116 /arrowdblup 117 /arrowdblright
 118 /arrowdbldown 119 /ampersand 120 /omega1 121 /similar 122 /aleph ] def
/Symbol /Special accspe ReEncode
%%EndProlog
%%BeginSetup
newpath  gsave  .25 .25 scale 
%%EndSetup
 gsave  0 0 t black[  ] 0 sd 3 lw 1 1 1 c 2268 2337 0 0 bf black 1 1 1 c 1843 1804 306 380 bf black 1843 1804 306 380 bl 1 1 1 c 1843 1804 306 380 bf black 1843 1804 306 380 bl 6 lw 1 1 1 c black 306 380 m 14 X 7 Y 8 X -7 Y 7 X 4 Y 7 X -4 Y 8 X 16 Y
 7 X -16 Y 59 X 4 Y 7 X 4 Y 15 X -4 Y 7 X 3 Y 8 X -3 Y 29 X 3 Y 7 X 1 Y 8 X 8 Y 7 X -16 Y 15 X 13 Y 7 X -13 Y 7 X 4 Y 15 X 4 Y 7 X 9 Y 8 X -9 Y 7 X 5 Y 7 X 4 Y 8 X -13 Y 7 X 13 Y 7 X -9 Y 8 X 12 Y 7 X 1 Y 8 X -17 Y 7 X 22 Y 7 X -5 Y 15 X 18 Y 7 X -13
 Y 8 X 8 Y 14 X -17 Y 8 X 9 Y 7 X 43 Y 7 X 9 Y 8 X 21 Y 7 X 5 Y 7 X -31 Y 8 X 9 Y 7 X 26 Y 7 X 35 Y 8 X 4 Y 7 X 5 Y 7 X -14 Y 8 X 118 Y 7 X 42 Y 7 X -12 Y 8 X -22 Y 7 X 44 Y 7 X 160 Y 8 X -35 Y 7 X 148 Y 8 X -14 Y 7 X 36 Y 7 X 51 Y 8 X 40 Y 7 X 70 Y
 7 X 21 Y 8 X 96 Y 7 X 164 Y 7 X -100 Y 8 X 260 Y 7 X -146 Y 7 X 60 Y 8 X 92 Y 7 X -135 Y 7 X 229 Y 8 X -17 Y 7 X -12 Y 7 X -261 Y 8 X 139 Y 7 X -127 Y 15 X -185 Y 7 X 39 Y 7 X -70 Y 8 X -61 Y 7 X -4 Y 8 X -148 Y 7 X -11 Y 7 X -97 Y 8 X -2 Y 7 X -10
 Y 7 X -29 Y 8 X -90 Y 7 X -31 Y 7 X -45 Y 8 X -49 Y 7 X -14 Y 7 X 8 Y 8 X -55 Y 7 X -50 Y 7 X 69 Y 8 X -54 Y 7 X 8 Y 7 X -30 Y 8 X 54 Y 7 X -11 Y 7 X -65 Y 8 X 59 Y 7 X 45 Y 15 X -80 Y 7 X -23 Y 8 X 32 Y 7 X 73 Y 7 X 2 Y 8 X 5 Y 7 X 51 Y 7 X 30 Y 8
 X 33 Y 7 X 84 Y 7 X -19 Y 8 X 66 Y 7 X -32 Y 7 X 55 Y 8 X 80 Y 7 X 103 Y 7 X 98 Y 8 X -99 Y 14 X 98 Y 8 X -110 Y 7 X -30 Y 7 X -23 Y 8 X 106 Y 7 X -33 Y 7 X -20 Y 8 X -214 Y 7 X -33 Y 7 X 29 Y 8 X 28 Y 7 X -28 Y 8 X -133 Y 7 X -58 Y 7 X 28 Y 8 X -58
 Y 7 X -42 Y 7 X 23 Y 8 X -80 Y 7 X -53 Y 7 X 53 Y 8 X -39 Y 7 X 28 Y 7 X -10 Y 8 X -59 Y 7 X 19 Y 7 X -34 Y 8 X 7 Y 7 X 11 Y 7 X -26 Y 8 X 30 Y 7 X -19 Y 7 X -8 Y 8 X -3 Y 7 X -4 Y 15 X 16 Y 7 X 6 Y 8 X -18 Y 7 X 4 Y 7 X 8 Y 8 X -12 Y 7 X 8 Y 7 X 3
 Y 8 X -11 Y 7 X 8 Y 7 X -4 Y 8 X 8 Y 7 X -1 Y 7 X -7 Y 8 X 12 Y 7 X -12 Y 7 X -8 Y 8 X 12 Y 14 X -12 Y 15 X 17 Y 7 X -10 Y 8 X 6 Y 7 X -13 Y 7 X 22 Y 8 X -22 Y 22 X 7 Y 7 X -7 Y 15 X 15 Y 7 X -8 Y 8 X 12 Y 7 X -12 Y 7 X 20 Y 8 X -23 Y 7 X 15 Y 7 X
 -15 Y 8 X -4 Y 7 X 8 Y 7 X -1 Y 8 X -3 Y 7 X 3 Y 7 X -7 Y 8 X 7 Y 7 X 8 Y 7 X -7 Y 8 X 4 Y 7 X 7 Y 7 X -4 Y 8 X -15 Y 14 X 4 Y 8 X -4 Y 7 X 12 Y 8 X 10 Y 7 X -22 Y 7 X 4 Y 8 X -4 Y 7 X 19 Y 7 X -7 Y 8 X -5 Y 7 X -3 Y 7 X 3 Y 8 X -7 Y 7 X 7 Y 7 X -7
 Y 15 X 12 Y 7 X -5 Y 15 X -7 Y 7 X s 3 lw 306 380 m 1843 X s
 gsave  1932 177
 t 0 r 0 0 m /Times findfont 103.526 sf 0 0 m ( \(ns\)) show  gr 
 gsave  1799 138
 t 0 r 0 0 m /Times findfont 69.0175 sf 0 0 m (V0C) show  gr 
 gsave  1730 177
 t 0 r 0 0 m /Times findfont 103.526 sf 0 0 m (-t) show  gr 
 gsave  1592 138
 t 0 r 0 0 m /Times findfont 69.0175 sf 0 0 m (V0A) show  gr 
 gsave  1558 177
 t 0 r 0 0 m /Times findfont 103.526 sf 0 0 m (t) show  gr  306 437 m -57 Y s 379 408 m -28 Y s 453 408 m -28 Y s 526 408 m -28 Y s 599 408 m -28 Y s 673 437 m -57 Y s 746 408 m -28 Y s 820 408 m -28 Y s 893 408 m -28 Y s 967 408 m -28 Y s
 1040 437 m -57 Y s 1114 408 m -28 Y s 1187 408 m -28 Y s 1261 408 m -28 Y s 1334 408 m -28 Y s 1407 437 m -57 Y s 1481 408 m -28 Y s 1554 408 m -28 Y s 1628 408 m -28 Y s 1701 408 m -28 Y s 1775 437 m -57 Y s 1848 408 m -28 Y s 1922 408 m -28 Y s
 1995 408 m -28 Y s 2069 408 m -28 Y s 2142 437 m -57 Y s 2142 437 m -57 Y s
 gsave  276 276
 t 0 r 0 0 m /Times findfont 103.526 sf 0 0 m (0) show  gr 
 gsave  641 276
 t 0 r 0 0 m /Times findfont 103.526 sf 0 0 m (5) show  gr 
 gsave  981 276
 t 0 r 0 0 m /Times findfont 103.526 sf 0 0 m (10) show  gr 
 gsave  1346 276
 t 0 r 0 0 m /Times findfont 103.526 sf 0 0 m (15) show  gr 
 gsave  1716 276
 t 0 r 0 0 m /Times findfont 103.526 sf 0 0 m (20) show  gr 
 gsave  2080 276
 t 0 r 0 0 m /Times findfont 103.526 sf 0 0 m (25) show  gr  306 380 m 1804 Y s 358 380 m -52 X s 332 416 m -26 X s 332 452 m -26 X s 332 488 m -26 X s 332 524 m -26 X s 358 560 m -52 X s 332 596 m -26 X s 332 632 m -26 X s 332 668 m -26 X s
 332 704 m -26 X s 358 740 m -52 X s 332 777 m -26 X s 332 813 m -26 X s 332 849 m -26 X s 332 885 m -26 X s 358 921 m -52 X s 332 957 m -26 X s 332 993 m -26 X s 332 1029 m -26 X s 332 1065 m -26 X s 358 1101 m -52 X s 332 1137 m -26 X s 332 1173 m
 -26 X s 332 1210 m -26 X s 332 1246 m -26 X s 358 1282 m -52 X s 332 1318 m -26 X s 332 1354 m -26 X s 332 1390 m -26 X s 332 1426 m -26 X s 358 1462 m -52 X s 332 1498 m -26 X s 332 1534 m -26 X s 332 1570 m -26 X s 332 1607 m -26 X s 358 1643 m
 -52 X s 332 1679 m -26 X s 332 1715 m -26 X s 332 1751 m -26 X s 332 1787 m -26 X s 358 1823 m -52 X s 332 1859 m -26 X s 332 1895 m -26 X s 332 1931 m -26 X s 332 1967 m -26 X s 358 2003 m -52 X s 332 2040 m -26 X s 332 2076 m -26 X s 332 2112 m
 -26 X s 332 2148 m -26 X s 358 2184 m -52 X s
 gsave  237 330
 t 0 r 0 0 m /Times findfont 103.526 sf 0 0 m (0) show  gr 
 gsave  64 513
 t 0 r 0 0 m /Times findfont 103.526 sf 0 0 m (1000) show  gr 
 gsave  64 695
 t 0 r 0 0 m /Times findfont 103.526 sf 0 0 m (2000) show  gr 
 gsave  64 873
 t 0 r 0 0 m /Times findfont 103.526 sf 0 0 m (3000) show  gr 
 gsave  64 1055
 t 0 r 0 0 m /Times findfont 103.526 sf 0 0 m (4000) show  gr 
 gsave  64 1232
 t 0 r 0 0 m /Times findfont 103.526 sf 0 0 m (5000) show  gr 
 gsave  64 1415
 t 0 r 0 0 m /Times findfont 103.526 sf 0 0 m (6000) show  gr 
 gsave  64 1597
 t 0 r 0 0 m /Times findfont 103.526 sf 0 0 m (7000) show  gr 
 gsave  64 1775
 t 0 r 0 0 m /Times findfont 103.526 sf 0 0 m (8000) show  gr 
 gsave  64 1957
 t 0 r 0 0 m /Times findfont 103.526 sf 0 0 m (9000) show  gr 
 gsave  5 2135
 t 0 r 0 0 m /Times findfont 103.526 sf 0 0 m (10000) show  gr [ 12 12] 0 sd 6 lw 1 1 1 c black 306 380 m 7 X 7 Y 7 X -7 Y 88 X 7 Y 8 X -7 Y 51 X 4 Y 8 X -4 Y 22 X 7 Y 14 X -7 Y 30 X 4 Y 14 X -4 Y 59 X 4 Y 30 X 8 Y 7 X 5 Y 7 X -13 Y 8 X 9 Y
 7 X 8 Y 22 X 5 Y 7 X 8 Y 8 X -4 Y 7 X -4 Y 7 X 26 Y 8 X -5 Y 7 X 18 Y 7 X -13 Y 8 X 34 Y 7 X 18 Y 7 X -5 Y 8 X 53 Y 7 X 4 Y 7 X 65 Y 8 X 38 Y 7 X 22 Y 7 X 35 Y 8 X 96 Y 7 X 65 Y 8 X 87 Y 7 X 74 Y 7 X -58 Y 8 X 136 Y 7 X 242 Y 7 X -69 Y 8 X 39 Y 7 X
 248 Y 7 X 61 Y 8 X 34 Y 7 X 78 Y 7 X 105 Y 8 X 52 Y 7 X 34 Y 7 X -95 Y 8 X 52 Y 7 X -178 Y 7 X 43 Y 8 X -177 Y 7 X 129 Y 7 X -229 Y 8 X -57 Y 7 X -49 Y 7 X -81 Y 8 X -121 Y 7 X -79 Y 8 X -152 Y 7 X -7 Y 7 X -205 Y 8 X -9 Y 7 X -17 Y 7 X -22 Y 8 X
 -32 Y 7 X -89 Y 7 X -13 Y 8 X 5 Y 7 X -17 Y 7 X -49 Y 8 X 14 Y 7 X -25 Y 7 X -1 Y 8 X -24 Y 7 X 32 Y 7 X -51 Y 8 X -4 Y 7 X 39 Y 7 X -24 Y 8 X -10 Y 7 X 22 Y 7 X -6 Y 8 X -26 Y 7 X 49 Y 8 X -34 Y 7 X 104 Y 7 X -16 Y 8 X -7 Y 7 X -8 Y 7 X 179 Y 8 X
 -76 Y 7 X 112 Y 7 X -79 Y 8 X 200 Y 7 X 113 Y 7 X -72 Y 8 X 77 Y 7 X 201 Y 7 X 35 Y 8 X 115 Y 7 X -72 Y 7 X 67 Y 8 X 92 Y 7 X -72 Y 7 X -91 Y 8 X 61 Y 7 X -168 Y 7 X -23 Y 8 X -150 Y 7 X 23 Y 7 X -125 Y 8 X -31 Y 7 X -195 Y 8 X -57 Y 7 X 9 Y 7 X -81
 Y 8 X 22 Y 7 X -22 Y 7 X -34 Y 8 X -54 Y 7 X 23 Y 7 X 8 Y 8 X -19 Y 7 X -24 Y 7 X 5 Y 8 X 10 Y 7 X 5 Y 7 X -3 Y 8 X -20 Y 7 X 3 Y 7 X -7 Y 8 X 16 Y 7 X 11 Y 7 X -11 Y 8 X -4 Y 7 X -12 Y 7 X 7 Y 8 X -7 Y 7 X 27 Y 8 X -15 Y 7 X -12 Y 7 X 8 Y 8 X -4 Y
 14 X 4 Y 8 X 4 Y 7 X -12 Y 15 X 7 Y 7 X -3 Y 7 X 4 Y 8 X 11 Y 7 X -6 Y 7 X -1 Y 8 X -4 Y 7 X -8 Y 15 X 12 Y 7 X -12 Y 7 X 16 Y 15 X -16 Y 7 X 16 Y 8 X -12 Y 7 X -4 Y 8 X 7 Y 7 X -3 Y 7 X 11 Y 8 X -15 Y 7 X 7 Y 7 X 8 Y 8 X -15 Y 7 X 12 Y 7 X -12 Y 15
 X 24 Y 7 X -24 Y 8 X 19 Y 7 X -7 Y 7 X 3 Y 8 X -15 Y 7 X 15 Y 7 X -15 Y 8 X 12 Y 7 X 3 Y 7 X -7 Y 8 X -8 Y 14 X 7 Y 8 X 9 Y 7 X -16 Y 7 X 12 Y 8 X -12 Y 7 X 19 Y 8 X -15 Y 7 X -4 Y 7 X 7 Y 8 X -7 Y 7 X 4 Y 7 X 4 Y 8 X -8 Y 14 X 8 Y 8 X -4 Y 7 X -4 Y
 7 X 8 Y 8 X -8 Y 7 X 22 Y 7 X -10 Y 8 X -5 Y 7 X -7 Y 7 X s[  ] 0 sd 3 lw 1 1 1 c 1588 128 402 2199 bf black 402 2199 m 1588 X s 1990 2199 m 128 Y s 1990 2327 m -1588 X s 402 2327 m -128 Y s 1 1 1 c black
 gsave  863 2243
 t 0 r 0 0 m /Times findfont 93.6666 sf 0 0 m ( between p-p and p-Gas) show  gr 
 gsave  739 2209
 t 0 r 0 0 m /Times findfont 64.0876 sf 0 0 m (V0C) show  gr 
 gsave  626 2243
 t 0 r 0 0 m /Times findfont 93.6666 sf 0 0 m ( - t) show  gr 
 gsave  498 2209
 t 0 r 0 0 m /Times findfont 64.0876 sf 0 0 m (V0A) show  gr 
 gsave  463 2243
 t 0 r 0 0 m /Times findfont 93.6666 sf 0 0 m (t) show  gr 
 gsave  1301 1750
 t 0 r 0 0 m /Times findfont 103.526 sf 0 0 m (p-Gas [100kHz]) show  gr 
 gsave  1301 1637
 t 0 r 0 0 m /Times findfont 103.526 sf 0 0 m (from C side) show  gr 
 gsave  1513 1509
 t 0 r 0 0 m /Times findfont 103.526 sf 0 0 m (O evts\)) show  gr 
 gsave  1435 1563
 t 0 r 0 0 m /Times findfont 69.0175 sf 0 0 m (16) show  gr 
 gsave  1301 1509
 t 0 r 0 0 m /Times findfont 103.526 sf 0 0 m (\(p-) show  gr 
 gsave  439 2071
 t 0 r 0 0 m /Times findfont 103.526 sf 0 0 m (p-p [200kHz]) show  gr 
 gsave  429 1947
 t 0 r 0 0 m /Times findfont 103.526 sf 0 0 m (\(minimum-bias evts\)) show  gr  823 1499 m -197 429 d s 858 1513 m -10 -73 d -59 44 d f 858 1513 m -10 -73 d -59 44 d 69 29 d cl s 1459 1139 m 183 345 d s 1494 1119 m -69 -39 d 74 Y f 1494 1119
 m -69 -39 d 74 Y 69 -35 d cl s
 gr  gr 
showpage
end
%%EOF
