%!PS-Adobe-2.0 EPSF-2.0
%%BoundingBox:  0 0 567 384
%%Title: /afs/in2p3.fr/home/b/brapp/AliRoot/PbPbv0/RapportS_SN_PbPb.eps: c1
%%Creator: ROOT Version 3.10/02
%%CreationDate: Mon Jul 19 14:45:13 2004
%%EndComments
%%BeginProlog
80 dict begin
/s {stroke} def /l {lineto} def /m {moveto} def /t {translate} def
/sw {stringwidth} def /r {rotate} def /rl {roll}  def /R {repeat} def
/d {rlineto} def /rm {rmoveto} def /gr {grestore} def /f {eofill} def
/c {setrgbcolor} def /lw {setlinewidth} def /sd {setdash} def
/cl {closepath} def /sf {scalefont setfont} def /black {0 setgray} def
/box {m dup 0 exch d exch 0 d 0 exch neg d cl} def
/NC{systemdict begin initclip end}def/C{NC box clip newpath}def
/bl {box s} def /bf {box f} def /Y { 0 exch d} def /X { 0 d} def 
/mp {newpath /y exch def /x exch def} def
/side {[w .77 mul w .23 mul] .385 w mul sd w 0 l currentpoint t -144 r} def
/mr {mp x y w2 0 360 arc} def /m24 {mr s} def /m20 {mr f} def
/mb {mp x y w2 add m w2 neg 0 d 0 w neg d w 0 d 0 w d cl} def
/mt {mp x y w2 add m w2 neg w neg d w 0 d cl} def
/m21 {mb f} def /m25 {mb s} def /m22 {mt f} def /m26{mt s} def
/m23 {mp x y w2 sub m w2 w d w neg 0 d cl f} def
/m27 {mp x y w2 add m w3 neg w2 neg d w3 w2 neg d w3 w2 d cl s} def
/m28 {mp x w2 sub y w2 sub w3 add m w3 0 d  0 w3 neg d w3 0 d 0 w3 d w3 0 d  0 w3 d w3 neg 0 d 0 w3 d w3 neg 0 d
 0 w3 neg d w3 neg 0 d cl s } def
/m29 {mp gsave x w2 sub y w2 add w3 sub m currentpoint t
 4 {side} repeat cl fill gr} def
/m30 {mp gsave x w2 sub y w2 add w3 sub m currentpoint t
 4 {side} repeat cl s gr} def
/m31 {mp x y w2 sub m 0 w d x w2 sub y m w 0 d x w2 sub y w2 add m w w neg d x w2 sub y w2
 sub m w w d s} def
/m2 {mp x y w2 sub m 0 w d x w2 sub y m w 0 d s} def
/m5 {mp x w2 sub y w2 sub m w w d x w2 sub y w2 add m w w neg d s} def
/reencdict 24 dict def /ReEncode {reencdict begin /nco&na exch def
/nfnam exch def /basefontname exch def /basefontdict basefontname findfont def
/newfont basefontdict maxlength dict def basefontdict {exch dup /FID ne
{dup /Encoding eq {exch dup length array copy newfont 3 1 roll put} {exch 
newfont 3 1 roll put} ifelse} {pop pop} ifelse } forall newfont
/FontName nfnam put nco&na aload pop nco&na length 2 idiv {newfont
/Encoding get 3 1 roll put} repeat nfnam newfont definefont pop end } def
/accvec [ 176 /agrave 181 /Agrave 190 /acircumflex 192 /Acircumflex
201 /adieresis 204 /Adieresis 209 /ccedilla 210 /Ccedilla 211 /eacute
212 /Eacute 213 /egrave 214 /Egrave 215 /ecircumflex 216 /Ecircumflex
217 /edieresis 218 /Edieresis 219 /icircumflex 220 /Icircumflex
221 /idieresis 222 /Idieresis 223 /ntilde 224 /Ntilde 226 /ocircumflex
228 /Ocircumflex 229 /odieresis 230 /Odieresis 231 /ucircumflex 236 /Ucircumflex
237 /udieresis 238 /Udieresis 239 /aring 242 /Aring 243 /ydieresis
244 /Ydieresis 246 /aacute 247 /Aacute 252 /ugrave 253 /Ugrave] def
/Times-Roman /Times-Roman accvec ReEncode
/Times-Italic /Times-Italic accvec ReEncode
/Times-Bold /Times-Bold accvec ReEncode
/Times-BoldItalic /Times-BoldItalic accvec ReEncode
/Helvetica /Helvetica accvec ReEncode
/Helvetica-Oblique /Helvetica-Oblique accvec ReEncode
/Helvetica-Bold /Helvetica-Bold accvec ReEncode
/Helvetica-BoldOblique /Helvetica-BoldOblique  accvec ReEncode
/Courier /Courier accvec ReEncode
/Courier-Oblique /Courier-Oblique accvec ReEncode
/Courier-Bold /Courier-Bold accvec ReEncode
/Courier-BoldOblique /Courier-BoldOblique accvec ReEncode
/oshow {gsave [] 0 sd true charpath stroke gr} def
/stwn { /fs exch def /fn exch def /text exch def fn findfont fs sf
 text sw pop xs add /xs exch def} def
/stwb { /fs exch def /fn exch def /nbas exch def /textf exch deftextf length /tlen exch def nbas tlen gt {/nbas tlendef} iffn findfont fs sf textf dup length nbas sub nbas getinterval sw
pop neg xs add /xs exch def} def
/accspe [ 65 /plusminus  66 /bar  67 /existential  68 /universal 
69 /exclam  70 /numbersign 71 /greater  72 /question  73 /integral 
74 /colon  75 /semicolon  76 /less  77 /bracketleft  78 /bracketright
79 /greaterequal 80 /braceleft 81 /braceright 82 /radical
83 /spade 84 /heart 85 /diamond 86 /club 87 /lessequal
88 /multiply 89 /percent 90 /infinity 48 /circlemultiply 49 /circleplus
50 /emptyset  51 /lozenge 52 /bullet 53 /arrowright 54 /arrowup
55 /arrowleft 56 /arrowdown 57 /arrowboth 48 /degree 44 /comma 43 /plus 45 /angle 42 /angleleft 47 /divide 61 /notequal 40 /equivalence 41 /second 97 /approxequal 98 /congruent 99 /perpendicular 100 /partialdiff 101 /florin 102 /intersection
 103 /union 104 /propersuperset 105 /reflexsuperset 106 /notsubset 107 /propersubset 108 /reflexsubset 109 /element 110 /notelement 111 /gradient 112 /logicaland 113 /logicalor 114 /arrowdblboth 115 /arrowdblleft 116 /arrowdblup 117 /arrowdblright
 118 /arrowdbldown 119 /ampersand 120 /omega1 121 /similar 122 /aleph ] def
/Symbol /Special accspe ReEncode
%%EndProlog
%%BeginSetup
newpath  gsave  .25 .25 scale 
%%EndSetup
 gsave  0 0 t black [] 0 sd 3 lw 1 1 1 c 2268 1538 0 0 bf black 1 1 1 c 1882 1215 272 246 bf black 1882 1215 272 246 bl 1 1 1 c 1882 1215 272 246 bf black 1882 1215 272 246 bl 272 246 m 1882 X s
 gsave  2092 59
 t 0 r 0 0 m /Symbol findfont 114.037 sf 0 0 m (h) show  gr  529 284 m -38 Y s 614 265 m -19 Y s 700 265 m -19 Y s 785 265 m -19 Y s 871 284 m -38 Y s 957 265 m -19 Y s 1042 265 m -19 Y s 1128 265 m -19 Y s 1213 284 m -38 Y s 1299 265 m -19 Y s 1384
 265 m -19 Y s 1470 265 m -19 Y s 1555 284 m -38 Y s 1641 265 m -19 Y s 1727 265 m -19 Y s 1812 265 m -19 Y s 1898 284 m -38 Y s 529 284 m -38 Y s 443 265 m -19 Y s 358 265 m -19 Y s 1898 284 m -38 Y s 1983 265 m -19 Y s 2069 265 m -19 Y s
 gsave  495 179
 t 0 r 0 0 m /Times-Roman findfont 71.6807 sf 0 0 m (-4) show  gr 
 gsave  837 179
 t 0 r 0 0 m /Times-Roman findfont 71.6807 sf 0 0 m (-2) show  gr 
 gsave  1193 179
 t 0 r 0 0 m /Times-Roman findfont 71.6807 sf 0 0 m (0) show  gr 
 gsave  1535 179
 t 0 r 0 0 m /Times-Roman findfont 71.6807 sf 0 0 m (2) show  gr 
 gsave  1877 179
 t 0 r 0 0 m /Times-Roman findfont 71.6807 sf 0 0 m (4) show  gr  272 246 m 1215 Y s [4 8] 0 sd 2154 246 m -1882 X s 2154 398 m -1882 X s 2154 550 m -1882 X s 2154 702 m -1882 X s 2154 854 m -1882 X s 2154 1005 m -1882 X s 2154 1157 m -1882 X s
 2154 1309 m -1882 X s 2154 1461 m -1882 X s [] 0 sd 1 1 0 c black 1 1 0 c 272 246 m 308 X 239 Y 86 X 269 Y 85 X 127 Y 86 X 59 Y 85 X -694 Y 770 X 716 Y 103 X -50 Y 86 X 3 Y 102 X -49 Y 103 X -620 Y 68 X f black 1 1 0 c black 272 246 m 308 X 239 Y 86
 X 269 Y 85 X 127 Y 86 X 59 Y 85 X -694 Y 770 X 716 Y 103 X -50 Y 86 X 3 Y 102 X -49 Y 103 X -620 Y 68 X s 272 246 m 1882 X s
 gsave  2092 59
 t 0 r 0 0 m /Symbol findfont 114.037 sf 0 0 m (h) show  gr  529 284 m -38 Y s 614 265 m -19 Y s 700 265 m -19 Y s 785 265 m -19 Y s 871 284 m -38 Y s 957 265 m -19 Y s 1042 265 m -19 Y s 1128 265 m -19 Y s 1213 284 m -38 Y s 1299 265 m -19 Y s 1384
 265 m -19 Y s 1470 265 m -19 Y s 1555 284 m -38 Y s 1641 265 m -19 Y s 1727 265 m -19 Y s 1812 265 m -19 Y s 1898 284 m -38 Y s 529 284 m -38 Y s 443 265 m -19 Y s 358 265 m -19 Y s 1898 284 m -38 Y s 1983 265 m -19 Y s 2069 265 m -19 Y s
 gsave  495 179
 t 0 r 0 0 m /Times-Roman findfont 71.6807 sf 0 0 m (-4) show  gr 
 gsave  837 179
 t 0 r 0 0 m /Times-Roman findfont 71.6807 sf 0 0 m (-2) show  gr 
 gsave  1193 179
 t 0 r 0 0 m /Times-Roman findfont 71.6807 sf 0 0 m (0) show  gr 
 gsave  1535 179
 t 0 r 0 0 m /Times-Roman findfont 71.6807 sf 0 0 m (2) show  gr 
 gsave  1877 179
 t 0 r 0 0 m /Times-Roman findfont 71.6807 sf 0 0 m (4) show  gr  272 246 m 1215 Y s
 gsave  104 1163
 t 90 r 0 0 m /Times-Roman findfont 84.7135 sf 0 0 m (S/\(S+N\)) show  gr  326 246 m -54 X s 299 276 m -27 X s 299 307 m -27 X s 299 337 m -27 X s 299 368 m -27 X s 326 398 m -54 X s 299 428 m -27 X s 299 459 m -27 X s 299 489 m -27 X s 299 519 m
 -27 X s 326 550 m -54 X s 299 580 m -27 X s 299 611 m -27 X s 299 641 m -27 X s 299 671 m -27 X s 326 702 m -54 X s 299 732 m -27 X s 299 762 m -27 X s 299 793 m -27 X s 299 823 m -27 X s 326 854 m -54 X s 299 884 m -27 X s 299 914 m -27 X s 299 945
 m -27 X s 299 975 m -27 X s 326 1005 m -54 X s 299 1036 m -27 X s 299 1066 m -27 X s 299 1097 m -27 X s 299 1127 m -27 X s 326 1157 m -54 X s 299 1188 m -27 X s 299 1218 m -27 X s 299 1248 m -27 X s 299 1279 m -27 X s 326 1309 m -54 X s 299 1339 m
 -27 X s 299 1370 m -27 X s 299 1400 m -27 X s 299 1431 m -27 X s 326 1461 m -54 X s
 gsave  222 228
 t 0 r 0 0 m /Times-Roman findfont 71.6807 sf 0 0 m (0) show  gr 
 gsave  173 381
 t 0 r 0 0 m /Times-Roman findfont 71.6807 sf 0 0 m (0.1) show  gr 
 gsave  163 531
 t 0 r 0 0 m /Times-Roman findfont 71.6807 sf 0 0 m (0.2) show  gr 
 gsave  163 684
 t 0 r 0 0 m /Times-Roman findfont 71.6807 sf 0 0 m (0.3) show  gr 
 gsave  160 834
 t 0 r 0 0 m /Times-Roman findfont 71.6807 sf 0 0 m (0.4) show  gr 
 gsave  163 987
 t 0 r 0 0 m /Times-Roman findfont 71.6807 sf 0 0 m (0.5) show  gr 
 gsave  163 1140
 t 0 r 0 0 m /Times-Roman findfont 71.6807 sf 0 0 m (0.6) show  gr 
 gsave  163 1290
 t 0 r 0 0 m /Times-Roman findfont 71.6807 sf 0 0 m (0.7) show  gr 
 gsave  163 1443
 t 0 r 0 0 m /Times-Roman findfont 71.6807 sf 0 0 m (0.8) show  gr 
 gsave  681 313
 t 0 r 0 0 m /Times-Roman findfont 71.6807 sf 0 0 m (V0C) show  gr 
 gsave  1834 313
 t 0 r 0 0 m /Times-Roman findfont 71.6807 sf 0 0 m (V0A) show  gr 
 gsave  645 499
 t 90 r 0 0 m /Times-Roman findfont 61.9061 sf 0 0 m (ring 1) show  gr 
 gsave  2062 880
 t 90 r 0 0 m /Times-Roman findfont 61.9061 sf 0 0 m (ring 1) show  gr 
 gsave  1766 977
 t 90 r 0 0 m /Times-Roman findfont 61.9061 sf 0 0 m (ring 4) show  gr 
 gsave  909 955
 t 90 r 0 0 m /Times-Roman findfont 61.9061 sf 0 0 m (ring 4) show  gr 
 gr  gr 
showpage
end
%%EOF
