%!PS-Adobe-2.0 EPSF-2.0
%%Title: shoebox.eps
%%Creator: fig2dev Version 3.2 Patchlevel 3d
%%CreationDate: Tue Feb  8 13:58:17 2005
%%For: grossior@lyopcs9.in2p3.fr (Jean-Yves Grossiord)
%%BoundingBox: 0 0 654 388
%%Magnification: 0.9400
%%EndComments
/$F2psDict 200 dict def
$F2psDict begin
$F2psDict /mtrx matrix put
/col-1 {0 setgray} bind def
/col0 {0.000 0.000 0.000 srgb} bind def
/col1 {0.000 0.000 1.000 srgb} bind def
/col2 {0.000 1.000 0.000 srgb} bind def
/col3 {0.000 1.000 1.000 srgb} bind def
/col4 {1.000 0.000 0.000 srgb} bind def
/col5 {1.000 0.000 1.000 srgb} bind def
/col6 {1.000 1.000 0.000 srgb} bind def
/col7 {1.000 1.000 1.000 srgb} bind def
/col8 {0.000 0.000 0.560 srgb} bind def
/col9 {0.000 0.000 0.690 srgb} bind def
/col10 {0.000 0.000 0.820 srgb} bind def
/col11 {0.530 0.810 1.000 srgb} bind def
/col12 {0.000 0.560 0.000 srgb} bind def
/col13 {0.000 0.690 0.000 srgb} bind def
/col14 {0.000 0.820 0.000 srgb} bind def
/col15 {0.000 0.560 0.560 srgb} bind def
/col16 {0.000 0.690 0.690 srgb} bind def
/col17 {0.000 0.820 0.820 srgb} bind def
/col18 {0.560 0.000 0.000 srgb} bind def
/col19 {0.690 0.000 0.000 srgb} bind def
/col20 {0.820 0.000 0.000 srgb} bind def
/col21 {0.560 0.000 0.560 srgb} bind def
/col22 {0.690 0.000 0.690 srgb} bind def
/col23 {0.820 0.000 0.820 srgb} bind def
/col24 {0.500 0.190 0.000 srgb} bind def
/col25 {0.630 0.250 0.000 srgb} bind def
/col26 {0.750 0.380 0.000 srgb} bind def
/col27 {1.000 0.500 0.500 srgb} bind def
/col28 {1.000 0.630 0.630 srgb} bind def
/col29 {1.000 0.750 0.750 srgb} bind def
/col30 {1.000 0.880 0.880 srgb} bind def
/col31 {1.000 0.840 0.000 srgb} bind def

end
save
newpath 0 388 moveto 0 0 lineto 654 0 lineto 654 388 lineto closepath clip newpath
-21.2 416.3 translate
1 -1 scale

/cp {closepath} bind def
/ef {eofill} bind def
/gr {grestore} bind def
/gs {gsave} bind def
/sa {save} bind def
/rs {restore} bind def
/l {lineto} bind def
/m {moveto} bind def
/rm {rmoveto} bind def
/n {newpath} bind def
/s {stroke} bind def
/sh {show} bind def
/slc {setlinecap} bind def
/slj {setlinejoin} bind def
/slw {setlinewidth} bind def
/srgb {setrgbcolor} bind def
/rot {rotate} bind def
/sc {scale} bind def
/sd {setdash} bind def
/ff {findfont} bind def
/sf {setfont} bind def
/scf {scalefont} bind def
/sw {stringwidth} bind def
/tr {translate} bind def
/tnt {dup dup currentrgbcolor
  4 -2 roll dup 1 exch sub 3 -1 roll mul add
  4 -2 roll dup 1 exch sub 3 -1 roll mul add
  4 -2 roll dup 1 exch sub 3 -1 roll mul add srgb}
  bind def
/shd {dup dup currentrgbcolor 4 -2 roll mul 4 -2 roll mul
  4 -2 roll mul srgb} bind def
/reencdict 12 dict def /ReEncode { reencdict begin
/newcodesandnames exch def /newfontname exch def /basefontname exch def
/basefontdict basefontname findfont def /newfont basefontdict maxlength dict def
basefontdict { exch dup /FID ne { dup /Encoding eq
{ exch dup length array copy newfont 3 1 roll put }
{ exch newfont 3 1 roll put } ifelse } { pop pop } ifelse } forall
newfont /FontName newfontname put newcodesandnames aload pop
128 1 255 { newfont /Encoding get exch /.notdef put } for
newcodesandnames length 2 idiv { newfont /Encoding get 3 1 roll put } repeat
newfontname newfont definefont pop end } def
/isovec [
8#055 /minus 8#200 /grave 8#201 /acute 8#202 /circumflex 8#203 /tilde
8#204 /macron 8#205 /breve 8#206 /dotaccent 8#207 /dieresis
8#210 /ring 8#211 /cedilla 8#212 /hungarumlaut 8#213 /ogonek 8#214 /caron
8#220 /dotlessi 8#230 /oe 8#231 /OE
8#240 /space 8#241 /exclamdown 8#242 /cent 8#243 /sterling
8#244 /currency 8#245 /yen 8#246 /brokenbar 8#247 /section 8#250 /dieresis
8#251 /copyright 8#252 /ordfeminine 8#253 /guillemotleft 8#254 /logicalnot
8#255 /hyphen 8#256 /registered 8#257 /macron 8#260 /degree 8#261 /plusminus
8#262 /twosuperior 8#263 /threesuperior 8#264 /acute 8#265 /mu 8#266 /paragraph
8#267 /periodcentered 8#270 /cedilla 8#271 /onesuperior 8#272 /ordmasculine
8#273 /guillemotright 8#274 /onequarter 8#275 /onehalf
8#276 /threequarters 8#277 /questiondown 8#300 /Agrave 8#301 /Aacute
8#302 /Acircumflex 8#303 /Atilde 8#304 /Adieresis 8#305 /Aring
8#306 /AE 8#307 /Ccedilla 8#310 /Egrave 8#311 /Eacute
8#312 /Ecircumflex 8#313 /Edieresis 8#314 /Igrave 8#315 /Iacute
8#316 /Icircumflex 8#317 /Idieresis 8#320 /Eth 8#321 /Ntilde 8#322 /Ograve
8#323 /Oacute 8#324 /Ocircumflex 8#325 /Otilde 8#326 /Odieresis 8#327 /multiply
8#330 /Oslash 8#331 /Ugrave 8#332 /Uacute 8#333 /Ucircumflex
8#334 /Udieresis 8#335 /Yacute 8#336 /Thorn 8#337 /germandbls 8#340 /agrave
8#341 /aacute 8#342 /acircumflex 8#343 /atilde 8#344 /adieresis 8#345 /aring
8#346 /ae 8#347 /ccedilla 8#350 /egrave 8#351 /eacute
8#352 /ecircumflex 8#353 /edieresis 8#354 /igrave 8#355 /iacute
8#356 /icircumflex 8#357 /idieresis 8#360 /eth 8#361 /ntilde 8#362 /ograve
8#363 /oacute 8#364 /ocircumflex 8#365 /otilde 8#366 /odieresis 8#367 /divide
8#370 /oslash 8#371 /ugrave 8#372 /uacute 8#373 /ucircumflex
8#374 /udieresis 8#375 /yacute 8#376 /thorn 8#377 /ydieresis] def
/Times-Roman /Times-Roman-iso isovec ReEncode
 /DrawEllipse {
	/endangle exch def
	/startangle exch def
	/yrad exch def
	/xrad exch def
	/y exch def
	/x exch def
	/savematrix mtrx currentmatrix def
	x y tr xrad yrad sc 0 0 1 startangle endangle arc
	closepath
	savematrix setmatrix
	} def

/$F2psBegin {$F2psDict begin /$F2psEnteredState save def} def
/$F2psEnd {$F2psEnteredState restore end} def

$F2psBegin
10 setmiterlimit
 0.05921 0.05921 sc
%
% Fig objects follow
%
/Times-Roman-iso ff 330.00 scf sf
9045 3870 m
gs 1 -1 sc (discriminator) col0 sh gr
/Times-Roman-iso ff 330.00 scf sf
9045 3555 m
gs 1 -1 sc (to FEE threshold ) col0 sh gr
% Polyline
30.000 slw
 [120] 0 sd
n 8100 4365 m
 6300 4365 l gs col0 s gr  [] 0 sd
% Polyline
 [120] 0 sd
n 8100 4140 m 8820 4140 l 8820 4590 l 8100 4590 l
 cp gs col0 s gr  [] 0 sd
/Times-Roman-iso ff 330.00 scf sf
1305 3285 m
gs 1 -1 sc (3 mV-3 V) col0 sh gr
/Times-Roman-iso ff 330.00 scf sf
1350 2925 m
gs 1 -1 sc (amplitude) col0 sh gr
% Polyline
n 4410 3015 m 4905 3015 l 4905 4320 l 4410 4320 l
 cp gs col0 s gr 
/Times-Roman-iso ff 300.00 scf sf
4725 4185 m
gs 1 -1 sc  90.0 rot (clamping) col0 sh gr
/Times-Roman-iso ff 330.00 scf sf
4095 1485 m
gs 1 -1 sc (9.6 mV-300 mV) col0 sh gr
/Times-Roman-iso ff 330.00 scf sf
4320 1125 m
gs 1 -1 sc (amplitude) col0 sh gr
/Times-Roman-iso ff 330.00 scf sf
9045 4410 m
gs 1 -1 sc (to NINO) col0 sh gr
/Times-Roman-iso ff 330.00 scf sf
10035 4410 m
gs 1 -1 sc ( ) col0 sh gr
/Times-Roman-iso ff 330.00 scf sf
9045 4725 m
gs 1 -1 sc (0.1-2 pC) col0 sh gr
/Times-Roman-iso ff 330.00 scf sf
6255 5040 m
gs 1 -1 sc (6 pC-200 pC) col0 sh gr
/Times-Roman-iso ff 330.00 scf sf
6435 4680 m
gs 1 -1 sc (charge) col0 sh gr
/Times-Roman-iso ff 330.00 scf sf
3330 6210 m
gs 1 -1 sc (amplitude) col0 sh gr
/Times-Roman-iso ff 330.00 scf sf
3330 6570 m
gs 1 -1 sc (3 mV-3 V) col0 sh gr
/Times-Roman-iso ff 330.00 scf sf
5220 6210 m
gs 1 -1 sc (charge) col0 sh gr
/Times-Roman-iso ff 330.00 scf sf
5175 6570 m
gs 1 -1 sc (0.6-600 pC) col0 sh gr
/Times-Roman-iso ff 330.00 scf sf
8595 1440 m
gs 1 -1 sc (6-200 pC) col0 sh gr
/Times-Roman-iso ff 330.00 scf sf
8685 1080 m
gs 1 -1 sc (charge) col0 sh gr
/Times-Roman-iso ff 330.00 scf sf
6705 1440 m
gs 1 -1 sc (30 mV-1 V) col0 sh gr
/Times-Roman-iso ff 330.00 scf sf
6795 1080 m
gs 1 -1 sc (amplitude) col0 sh gr
/Times-Roman-iso ff 330.00 scf sf
1920 4305 m
gs 1 -1 sc (anode) col0 sh gr
/Times-Roman-iso ff 330.00 scf sf
1920 4620 m
gs 1 -1 sc (signal) col0 sh gr
% Ellipse
n 1181 4317 463 463 0 360 DrawEllipse gs col0 s gr

% Polyline
n 2790 4365 m 2790 5490 l
 7560 5490 l gs col0 s gr 
% Polyline
n 6300 3645 m
 7560 3645 l gs col0 s gr 
% Polyline
n 6300 2070 m
 7560 2070 l gs col0 s gr 
% Polyline
n 7560 2070 m
 8865 2070 l gs col0 s gr 
% Polyline
n 7560 3645 m
 8865 3645 l gs col0 s gr 
% Polyline
n 7560 5490 m
 8865 5490 l gs col0 s gr 
% Polyline
n 1845 4365 m
 2790 4365 l gs col0 s gr 
% Polyline
n 1665 4365 m
 1845 4365 l gs col0 s gr 
% Polyline
n 4230 3645 m
 4410 3645 l gs col0 s gr 
% Polyline
n 4905 3645 m
 5580 3645 l gs col0 s gr 
% Polyline
n 2790 4365 m
 2790 3645 l gs col0 s gr 
% Polyline
n 3510 3420 m 4230 3420 l 4230 3870 l 3510 3870 l
 cp gs col0 s gr 
% Polyline
n 5580 3420 m 6300 3420 l 6300 3870 l 5580 3870 l
 cp gs col0 s gr 
% Polyline
n 5580 1845 m 6300 1845 l 6300 2295 l 5580 2295 l
 cp gs col0 s gr 
% Polyline
n 5580 2070 m 5220 2070 l
 5220 3645 l gs col0 s gr 
% Polyline
n 2790 3645 m
 3510 3645 l gs col0 s gr 
% Polyline
15.000 slw
 [90] 0 sd
gs  clippath
1695 4290 m 1815 4290 l 1815 4002 l 1755 4242 l 1695 4002 l cp
eoclip
n 1755 3375 m
 1755 4275 l gs col0 s gr gr
 [] 0 sd
% arrowhead
n 1695 4002 m 1755 4242 l 1815 4002 l  col0 s
% Polyline
 [90] 0 sd
gs  clippath
5025 3615 m 5145 3615 l 5145 3327 l 5085 3567 l 5025 3327 l cp
eoclip
n 5085 1575 m
 5085 3600 l gs col0 s gr gr
 [] 0 sd
% arrowhead
n 5025 3327 m 5085 3567 l 5145 3327 l  col0 s
% Polyline
 [90] 0 sd
gs  clippath
6870 1995 m 6990 1995 l 6990 1707 l 6930 1947 l 6870 1707 l cp
eoclip
n 6930 1575 m
 6930 1980 l gs col0 s gr gr
 [] 0 sd
% arrowhead
n 6870 1707 m 6930 1947 l 6990 1707 l  col0 s
% Polyline
 [90] 0 sd
gs  clippath
6690 3570 m 6810 3570 l 6810 3282 l 6750 3522 l 6690 3282 l cp
eoclip
n 6750 1620 m
 6750 3555 l gs col0 s gr gr
 [] 0 sd
% arrowhead
n 6690 3282 m 6750 3522 l 6810 3282 l  col0 s
% Polyline
30.000 slw
n 5040 5985 m
 4860 6660 l gs col0 s gr 
% Polyline
n 8505 855 m
 8325 1530 l gs col0 s gr 
/Times-Roman-iso ff 330.00 scf sf
9045 5535 m
gs 1 -1 sc (to FEE QDC) col0 sh gr
/Times-Roman-iso ff 330.00 scf sf
9045 2115 m
gs 1 -1 sc (to TDR wake-up) col0 sh gr
/Times-Roman-iso ff 330.00 scf sf
945 4410 m
gs 1 -1 sc (PMT) col0 sh gr
/Times-Roman-iso ff 330.00 scf sf
6435 4095 m
gs 1 -1 sc (OR) col0 sh gr
/Times-Roman-iso ff 270.00 scf sf
3510 3735 m
gs 1 -1 sc (G=3.2) col0 sh gr
/Times-Roman-iso ff 270.00 scf sf
5580 3735 m
gs 1 -1 sc (G=3.2) col0 sh gr
/Times-Roman-iso ff 270.00 scf sf
5580 2160 m
gs 1 -1 sc (G=3.2) col0 sh gr
/Times-Roman-iso ff 270.00 scf sf
8100 4455 m
gs 1 -1 sc (G=.01) col0 sh gr
$F2psEnd
rs
