%!PS-Adobe-2.0 EPSF-2.0
%%BoundingBox:  0 0 567 566
%%Title: /afs/in2p3.fr/home/b/brapp/AliRoot/PbPbv0/SNvsS_PbPb_32channels.eps: 
%%Creator: ROOT Version 3.10/02
%%CreationDate: Mon Jul  5 14:09:14 2004
%%EndComments
%%BeginProlog
80 dict begin
/s {stroke} def /l {lineto} def /m {moveto} def /t {translate} def
/sw {stringwidth} def /r {rotate} def /rl {roll}  def /R {repeat} def
/d {rlineto} def /rm {rmoveto} def /gr {grestore} def /f {eofill} def
/c {setrgbcolor} def /lw {setlinewidth} def /sd {setdash} def
/cl {closepath} def /sf {scalefont setfont} def /black {0 setgray} def
/box {m dup 0 exch d exch 0 d 0 exch neg d cl} def
/NC{systemdict begin initclip end}def/C{NC box clip newpath}def
/bl {box s} def /bf {box f} def /Y { 0 exch d} def /X { 0 d} def 
/mp {newpath /y exch def /x exch def} def
/side {[w .77 mul w .23 mul] .385 w mul sd w 0 l currentpoint t -144 r} def
/mr {mp x y w2 0 360 arc} def /m24 {mr s} def /m20 {mr f} def
/mb {mp x y w2 add m w2 neg 0 d 0 w neg d w 0 d 0 w d cl} def
/mt {mp x y w2 add m w2 neg w neg d w 0 d cl} def
/m21 {mb f} def /m25 {mb s} def /m22 {mt f} def /m26{mt s} def
/m23 {mp x y w2 sub m w2 w d w neg 0 d cl f} def
/m27 {mp x y w2 add m w3 neg w2 neg d w3 w2 neg d w3 w2 d cl s} def
/m28 {mp x w2 sub y w2 sub w3 add m w3 0 d  0 w3 neg d w3 0 d 0 w3 d w3 0 d  0 w3 d w3 neg 0 d 0 w3 d w3 neg 0 d
 0 w3 neg d w3 neg 0 d cl s } def
/m29 {mp gsave x w2 sub y w2 add w3 sub m currentpoint t
 4 {side} repeat cl fill gr} def
/m30 {mp gsave x w2 sub y w2 add w3 sub m currentpoint t
 4 {side} repeat cl s gr} def
/m31 {mp x y w2 sub m 0 w d x w2 sub y m w 0 d x w2 sub y w2 add m w w neg d x w2 sub y w2
 sub m w w d s} def
/m2 {mp x y w2 sub m 0 w d x w2 sub y m w 0 d s} def
/m5 {mp x w2 sub y w2 sub m w w d x w2 sub y w2 add m w w neg d s} def
/reencdict 24 dict def /ReEncode {reencdict begin /nco&na exch def
/nfnam exch def /basefontname exch def /basefontdict basefontname findfont def
/newfont basefontdict maxlength dict def basefontdict {exch dup /FID ne
{dup /Encoding eq {exch dup length array copy newfont 3 1 roll put} {exch 
newfont 3 1 roll put} ifelse} {pop pop} ifelse } forall newfont
/FontName nfnam put nco&na aload pop nco&na length 2 idiv {newfont
/Encoding get 3 1 roll put} repeat nfnam newfont definefont pop end } def
/accvec [ 176 /agrave 181 /Agrave 190 /acircumflex 192 /Acircumflex
201 /adieresis 204 /Adieresis 209 /ccedilla 210 /Ccedilla 211 /eacute
212 /Eacute 213 /egrave 214 /Egrave 215 /ecircumflex 216 /Ecircumflex
217 /edieresis 218 /Edieresis 219 /icircumflex 220 /Icircumflex
221 /idieresis 222 /Idieresis 223 /ntilde 224 /Ntilde 226 /ocircumflex
228 /Ocircumflex 229 /odieresis 230 /Odieresis 231 /ucircumflex 236 /Ucircumflex
237 /udieresis 238 /Udieresis 239 /aring 242 /Aring 243 /ydieresis
244 /Ydieresis 246 /aacute 247 /Aacute 252 /ugrave 253 /Ugrave] def
/Times-Roman /Times-Roman accvec ReEncode
/Times-Italic /Times-Italic accvec ReEncode
/Times-Bold /Times-Bold accvec ReEncode
/Times-BoldItalic /Times-BoldItalic accvec ReEncode
/Helvetica /Helvetica accvec ReEncode
/Helvetica-Oblique /Helvetica-Oblique accvec ReEncode
/Helvetica-Bold /Helvetica-Bold accvec ReEncode
/Helvetica-BoldOblique /Helvetica-BoldOblique  accvec ReEncode
/Courier /Courier accvec ReEncode
/Courier-Oblique /Courier-Oblique accvec ReEncode
/Courier-Bold /Courier-Bold accvec ReEncode
/Courier-BoldOblique /Courier-BoldOblique accvec ReEncode
/oshow {gsave [] 0 sd true charpath stroke gr} def
/stwn { /fs exch def /fn exch def /text exch def fn findfont fs sf
 text sw pop xs add /xs exch def} def
/stwb { /fs exch def /fn exch def /nbas exch def /textf exch deftextf length /tlen exch def nbas tlen gt {/nbas tlendef} iffn findfont fs sf textf dup length nbas sub nbas getinterval sw
pop neg xs add /xs exch def} def
/accspe [ 65 /plusminus  66 /bar  67 /existential  68 /universal 
69 /exclam  70 /numbersign 71 /greater  72 /question  73 /integral 
74 /colon  75 /semicolon  76 /less  77 /bracketleft  78 /bracketright
79 /greaterequal 80 /braceleft 81 /braceright 82 /radical
83 /spade 84 /heart 85 /diamond 86 /club 87 /lessequal
88 /multiply 89 /percent 90 /infinity 48 /circlemultiply 49 /circleplus
50 /emptyset  51 /lozenge 52 /bullet 53 /arrowright 54 /arrowup
55 /arrowleft 56 /arrowdown 57 /arrowboth 48 /degree 44 /comma 43 /plus 45 /angle 42 /angleleft 47 /divide 61 /notequal 40 /equivalence 41 /second 97 /approxequal 98 /congruent 99 /perpendicular 100 /partialdiff 101 /florin 102 /intersection
 103 /union 104 /propersuperset 105 /reflexsuperset 106 /notsubset 107 /propersubset 108 /reflexsubset 109 /element 110 /notelement 111 /gradient 112 /logicaland 113 /logicalor 114 /arrowdblboth 115 /arrowdblleft 116 /arrowdblup 117 /arrowdblright
 118 /arrowdbldown 119 /ampersand 120 /omega1 121 /similar 122 /aleph ] def
/Symbol /Special accspe ReEncode
%%EndProlog
%%BeginSetup
newpath  gsave  .25 .25 scale 
%%EndSetup
 gsave  0 0 t black [] 0 sd 3 lw 1 1 1 c 2268 2264 0 0 bf black 1 1 1 c 1088 1087 23 1155 bf black 1 1 1 c 807 869 193 1266 bf black 807 869 193 1266 bl 1 1 1 c 807 869 193 1266 bf black 807 869 193 1266 bl 193 1266 m 807 X s
 gsave  967 1163
 t 0 r 0 0 m /Times-Roman findfont 52.3824 sf 0 0 m (S) show  gr  394 1291 m -25 Y s 435 1279 m -13 Y s 475 1279 m -13 Y s 515 1279 m -13 Y s 556 1279 m -13 Y s 596 1291 m -25 Y s 637 1279 m -13 Y s 677 1279 m -13 Y s 717 1279 m -13 Y s 758 1279 m
 -13 Y s 798 1291 m -25 Y s 838 1279 m -13 Y s 879 1279 m -13 Y s 919 1279 m -13 Y s 960 1279 m -13 Y s 1000 1291 m -25 Y s 394 1291 m -25 Y s 354 1279 m -13 Y s 314 1279 m -13 Y s 273 1279 m -13 Y s 233 1279 m -13 Y s
 gsave  350 1219
 t 0 r 0 0 m /Times-Roman findfont 52.3824 sf 0 0 m (500) show  gr 
 gsave  536 1219
 t 0 r 0 0 m /Times-Roman findfont 52.3824 sf 0 0 m (1000) show  gr 
 gsave  738 1219
 t 0 r 0 0 m /Times-Roman findfont 52.3824 sf 0 0 m (1500) show  gr 
 gsave  941 1219
 t 0 r 0 0 m /Times-Roman findfont 52.3824 sf 0 0 m (2000) show  gr  193 1266 m 869 Y s
 gsave  78 2036
 t 90 r 0 0 m /Times-Roman findfont 52.3824 sf 0 0 m (S+N) show  gr  219 1483 m -26 X s 206 1538 m -13 X s 206 1592 m -13 X s 206 1646 m -13 X s 219 1701 m -26 X s 206 1755 m -13 X s 206 1809 m -13 X s 206 1864 m -13 X s 219 1918 m -26 X s 206
 1972 m -13 X s 206 2026 m -13 X s 206 2081 m -13 X s 219 2135 m -26 X s 219 1483 m -26 X s 206 1429 m -13 X s 206 1375 m -13 X s 206 1321 m -13 X s
 gsave  72 1470
 t 0 r 0 0 m /Times-Roman findfont 52.3824 sf 0 0 m (2000) show  gr 
 gsave  72 1686
 t 0 r 0 0 m /Times-Roman findfont 52.3824 sf 0 0 m (4000) show  gr 
 gsave  72 1902
 t 0 r 0 0 m /Times-Roman findfont 52.3824 sf 0 0 m (6000) show  gr 
 gsave  72 2121
 t 0 r 0 0 m /Times-Roman findfont 52.3824 sf 0 0 m (8000) show  gr  [12 12] 0 sd 192 1266 m 808 217 d s [] 0 sd 1 0 0 c /w 26 def /w2 {w 2 div} def /w3 {w 3 div} def 616 1983 664 2069 542 1940 634 2032 542 1865 509 1866 422 1698 402 1659 310 1502
 378 1586 489 1781 364 1539 303 1452 286 1445 326 1511 304 1501 249 1363 286 1443 18 { m26} R black 0 0 1 c 539 1492 563 1509 493 1479 546 1513 472 1469 496 1471 417 1416 358 1375 278 1331 336 1371 435 1433 340 1380 291 1331 257 1312 303 1338 285
1335 235 1306 262 1318 18 { m27} R black 1 1 1 c 176 91 219 2031 bf black 219 2031 m 176 X s 395 2031 m 91 Y s 395 2122 m -176 X s 219 2122 m -91 Y s 1 1 1 c black
 gsave  219 2055
 t 0 r 0 0 m /Times-Roman findfont 58.6563 sf 0 0 m (ring 1) show  gr  1 1 1 c 1088 1087 1157 1155 bf black 1 1 1 c 807 869 1327 1266 bf black 807 869 1327 1266 bl 1 1 1 c 807 869 1327 1266 bf black 807 869 1327 1266 bl 1327 1266 m 807 X s
 gsave  2101 1163
 t 0 r 0 0 m /Times-Roman findfont 52.3824 sf 0 0 m (S) show  gr  1528 1291 m -25 Y s 1568 1279 m -13 Y s 1609 1279 m -13 Y s 1649 1279 m -13 Y s 1690 1279 m -13 Y s 1730 1291 m -25 Y s 1770 1279 m -13 Y s 1811 1279 m -13 Y s 1851 1279 m -13 Y s
 1891 1279 m -13 Y s 1932 1291 m -25 Y s 1972 1279 m -13 Y s 2013 1279 m -13 Y s 2053 1279 m -13 Y s 2093 1279 m -13 Y s 2134 1291 m -25 Y s 1528 1291 m -25 Y s 1488 1279 m -13 Y s 1447 1279 m -13 Y s 1407 1279 m -13 Y s 1367 1279 m -13 Y s
 gsave  1483 1219
 t 0 r 0 0 m /Times-Roman findfont 52.3824 sf 0 0 m (500) show  gr 
 gsave  1670 1219
 t 0 r 0 0 m /Times-Roman findfont 52.3824 sf 0 0 m (1000) show  gr 
 gsave  1872 1219
 t 0 r 0 0 m /Times-Roman findfont 52.3824 sf 0 0 m (1500) show  gr 
 gsave  2075 1219
 t 0 r 0 0 m /Times-Roman findfont 52.3824 sf 0 0 m (2000) show  gr  1327 1266 m 869 Y s
 gsave  1212 2036
 t 90 r 0 0 m /Times-Roman findfont 52.3824 sf 0 0 m (S+N) show  gr  1353 1483 m -26 X s 1340 1538 m -13 X s 1340 1592 m -13 X s 1340 1646 m -13 X s 1353 1701 m -26 X s 1340 1755 m -13 X s 1340 1809 m -13 X s 1340 1864 m -13 X s 1353 1918 m -26 X
 s 1340 1972 m -13 X s 1340 2026 m -13 X s 1340 2081 m -13 X s 1353 2135 m -26 X s 1353 1483 m -26 X s 1340 1429 m -13 X s 1340 1375 m -13 X s 1340 1321 m -13 X s
 gsave  1206 1470
 t 0 r 0 0 m /Times-Roman findfont 52.3824 sf 0 0 m (2000) show  gr 
 gsave  1206 1686
 t 0 r 0 0 m /Times-Roman findfont 52.3824 sf 0 0 m (4000) show  gr 
 gsave  1206 1902
 t 0 r 0 0 m /Times-Roman findfont 52.3824 sf 0 0 m (6000) show  gr 
 gsave  1206 2121
 t 0 r 0 0 m /Times-Roman findfont 52.3824 sf 0 0 m (8000) show  gr  [12 12] 0 sd 1326 1266 m 808 217 d s [] 0 sd 1 0 0 c 1858 1710 1918 1753 1806 1667 1892 1720 1774 1616 1760 1629 1645 1523 1592 1493 1487 1400 1556 1460 1685 1559 1535 1439 1461
 1383 1446 1372 1498 1410 1467 1398 1399 1325 1436 1360 18 { m26} R black 0 0 1 c 1782 1559 1845 1586 1751 1547 1836 1578 1759 1533 1726 1519 1627 1455 1545 1401 1459 1361 1519 1394 1692 1486 1531 1403 1450 1348 1428 1331 1459 1351 1454 1352 1389
 1307 1429 1337 18 { m27} R black 1 1 1 c 177 98 1359 2024 bf black 1359 2024 m 177 X s 1536 2024 m 98 Y s 1536 2122 m -177 X s 1359 2122 m -98 Y s 1 1 1 c black
 gsave  1363 2052
 t 0 r 0 0 m /Times-Roman findfont 58.6563 sf 0 0 m (ring 2) show  gr  1 1 1 c 1088 1087 23 23 bf black 1 1 1 c 804 868 196 133 bf black 804 868 196 133 bl 1 1 1 c 804 868 196 133 bf black 804 868 196 133 bl 196 133 m 804 X s
 gsave  967 29
 t 0 r 0 0 m /Times-Roman findfont 52.3824 sf 0 0 m (S) show  gr  397 157 m -24 Y s 437 145 m -12 Y s 477 145 m -12 Y s 517 145 m -12 Y s 558 145 m -12 Y s 598 157 m -24 Y s 638 145 m -12 Y s 678 145 m -12 Y s 718 145 m -12 Y s 759 145 m -12 Y s
 799 157 m -24 Y s 839 145 m -12 Y s 879 145 m -12 Y s 919 145 m -12 Y s 960 145 m -12 Y s 1000 157 m -24 Y s 397 157 m -24 Y s 357 145 m -12 Y s 316 145 m -12 Y s 276 145 m -12 Y s 236 145 m -12 Y s
 gsave  353 85
 t 0 r 0 0 m /Times-Roman findfont 52.3824 sf 0 0 m (500) show  gr 
 gsave  536 85
 t 0 r 0 0 m /Times-Roman findfont 52.3824 sf 0 0 m (1000) show  gr 
 gsave  738 85
 t 0 r 0 0 m /Times-Roman findfont 52.3824 sf 0 0 m (1500) show  gr 
 gsave  941 85
 t 0 r 0 0 m /Times-Roman findfont 52.3824 sf 0 0 m (2000) show  gr  196 133 m 868 Y s
 gsave  82 902
 t 90 r 0 0 m /Times-Roman findfont 52.3824 sf 0 0 m (S+N) show  gr  222 350 m -26 X s 209 404 m -13 X s 209 458 m -13 X s 209 513 m -13 X s 222 567 m -26 X s 209 621 m -13 X s 209 675 m -13 X s 209 730 m -13 X s 222 784 m -26 X s 209 838 m -13 X
 s 209 893 m -13 X s 209 947 m -13 X s 222 1001 m -26 X s 222 350 m -26 X s 209 295 m -13 X s 209 241 m -13 X s 209 187 m -13 X s
 gsave  75 337
 t 0 r 0 0 m /Times-Roman findfont 52.3824 sf 0 0 m (2000) show  gr 
 gsave  75 552
 t 0 r 0 0 m /Times-Roman findfont 52.3824 sf 0 0 m (4000) show  gr 
 gsave  75 768
 t 0 r 0 0 m /Times-Roman findfont 52.3824 sf 0 0 m (6000) show  gr 
 gsave  75 987
 t 0 r 0 0 m /Times-Roman findfont 52.3824 sf 0 0 m (8000) show  gr  [12 12] 0 sd 196 133 m 804 217 d s [] 0 sd 1 0 0 c 773 509 815 540 707 470 774 505 674 441 662 434 515 344 469 321 361 239 445 289 598 394 414 273 346 227 320 215 360 247 335 233
 269 180 310 215 18 { m26} R black 0 0 1 c 678 421 690 433 604 388 677 432 595 379 561 369 493 302 426 260 329 215 374 250 523 344 395 250 303 201 305 191 344 222 318 214 254 170 287 190 18 { m27} R black 1 1 1 c 183 98 225 894 bf black 225 894 m 183
 X s 408 894 m 98 Y s 408 992 m -183 X s 225 992 m -98 Y s 1 1 1 c black
 gsave  232 921
 t 0 r 0 0 m /Times-Roman findfont 58.6563 sf 0 0 m (ring 3) show  gr  1 1 1 c 1088 1087 1157 23 bf black 1 1 1 c 807 868 1327 133 bf black 807 868 1327 133 bl 1 1 1 c 807 868 1327 133 bf black 807 868 1327 133 bl 1327 133 m 807 X s
 gsave  2101 29
 t 0 r 0 0 m /Times-Roman findfont 52.3824 sf 0 0 m (S) show  gr  1528 157 m -24 Y s 1568 145 m -12 Y s 1609 145 m -12 Y s 1649 145 m -12 Y s 1690 145 m -12 Y s 1730 157 m -24 Y s 1770 145 m -12 Y s 1811 145 m -12 Y s 1851 145 m -12 Y s 1891 145 m
 -12 Y s 1932 157 m -24 Y s 1972 145 m -12 Y s 2013 145 m -12 Y s 2053 145 m -12 Y s 2093 145 m -12 Y s 2134 157 m -24 Y s 1528 157 m -24 Y s 1488 145 m -12 Y s 1447 145 m -12 Y s 1407 145 m -12 Y s 1367 145 m -12 Y s
 gsave  1483 85
 t 0 r 0 0 m /Times-Roman findfont 52.3824 sf 0 0 m (500) show  gr 
 gsave  1670 85
 t 0 r 0 0 m /Times-Roman findfont 52.3824 sf 0 0 m (1000) show  gr 
 gsave  1872 85
 t 0 r 0 0 m /Times-Roman findfont 52.3824 sf 0 0 m (1500) show  gr 
 gsave  2075 85
 t 0 r 0 0 m /Times-Roman findfont 52.3824 sf 0 0 m (2000) show  gr  1327 133 m 868 Y s
 gsave  1212 902
 t 90 r 0 0 m /Times-Roman findfont 52.3824 sf 0 0 m (S+N) show  gr  1353 350 m -26 X s 1340 404 m -13 X s 1340 458 m -13 X s 1340 513 m -13 X s 1353 567 m -26 X s 1340 621 m -13 X s 1340 675 m -13 X s 1340 730 m -13 X s 1353 784 m -26 X s 1340
 838 m -13 X s 1340 893 m -13 X s 1340 947 m -13 X s 1353 1001 m -26 X s 1353 350 m -26 X s 1340 295 m -13 X s 1340 241 m -13 X s 1340 187 m -13 X s
 gsave  1206 337
 t 0 r 0 0 m /Times-Roman findfont 52.3824 sf 0 0 m (2000) show  gr 
 gsave  1206 552
 t 0 r 0 0 m /Times-Roman findfont 52.3824 sf 0 0 m (4000) show  gr 
 gsave  1206 768
 t 0 r 0 0 m /Times-Roman findfont 52.3824 sf 0 0 m (6000) show  gr 
 gsave  1206 987
 t 0 r 0 0 m /Times-Roman findfont 52.3824 sf 0 0 m (8000) show  gr  [12 12] 0 sd 1326 133 m 808 217 d s [] 0 sd 1 0 0 c 1900 474 1983 498 1823 425 1914 463 1833 419 1814 403 1656 320 1616 300 1499 227 1570 270 1745 370 1552 261 1485 221 1452 204
 1493 225 1495 229 1408 179 1440 202 18 { m26} R black 0 0 1 c 1950 511 2026 550 1937 492 2024 533 1889 466 1868 447 1729 376 1637 318 1491 236 1608 292 1800 424 1606 298 1510 240 1458 217 1537 252 1520 245 1423 188 1459 214 18 { m27} R black 1 1 1 c
 187 95 1359 897 bf black 1359 897 m 187 X s 1546 897 m 95 Y s 1546 992 m -187 X s 1359 992 m -95 Y s 1 1 1 c black
 gsave  1359 925
 t 0 r 0 0 m /Times-Roman findfont 58.6563 sf 0 0 m (ring 4) show  gr 
 gr  gr 
showpage
end
%%EOF
