%!PS-Adobe-2.0 EPSF-2.0
%%BoundingBox:  0 0 567 539
%%Title: Threshold.eps: Charge 
%%Creator: ROOT Version 4.00/08
%%CreationDate: Fri Aug 27 02:42:10 2004
%%EndComments
%%BeginProlog
80 dict begin
/s {stroke} def /l {lineto} def /m {moveto} def /t {translate} def
/sw {stringwidth} def /r {rotate} def /rl {roll}  def /R {repeat} def
/d {rlineto} def /rm {rmoveto} def /gr {grestore} def /f {eofill} def
/c {setrgbcolor} def /lw {setlinewidth} def /sd {setdash} def
/cl {closepath} def /sf {scalefont setfont} def /black {0 setgray} def
/box {m dup 0 exch d exch 0 d 0 exch neg d cl} def
/NC{systemdict begin initclip end}def/C{NC box clip newpath}def
/bl {box s} def /bf {box f} def /Y { 0 exch d} def /X { 0 d} def 
/mp {newpath /y exch def /x exch def} def
/side {[w .77 mul w .23 mul] .385 w mul sd w 0 l currentpoint t -144 r} def
/mr {mp x y w2 0 360 arc} def /m24 {mr s} def /m20 {mr f} def
/mb {mp x y w2 add m w2 neg 0 d 0 w neg d w 0 d 0 w d cl} def
/mt {mp x y w2 add m w2 neg w neg d w 0 d cl} def
/m21 {mb f} def /m25 {mb s} def /m22 {mt f} def /m26{mt s} def
/m23 {mp x y w2 sub m w2 w d w neg 0 d cl f} def
/m27 {mp x y w2 add m w3 neg w2 neg d w3 w2 neg d w3 w2 d cl s} def
/m28 {mp x w2 sub y w2 sub w3 add m w3 0 d  0 w3 neg d w3 0 d 0 w3 d w3 0 d  0 w3 d w3 neg 0 d 0 w3 d w3 neg 0 d
 0 w3 neg d w3 neg 0 d cl s } def
/m29 {mp gsave x w2 sub y w2 add w3 sub m currentpoint t
 4 {side} repeat cl fill gr} def
/m30 {mp gsave x w2 sub y w2 add w3 sub m currentpoint t
 4 {side} repeat cl s gr} def
/m31 {mp x y w2 sub m 0 w d x w2 sub y m w 0 d x w2 sub y w2 add m w w neg d x w2 sub y w2
 sub m w w d s} def
/m2 {mp x y w2 sub m 0 w d x w2 sub y m w 0 d s} def
/m5 {mp x w2 sub y w2 sub m w w d x w2 sub y w2 add m w w neg d s} def
/reencdict 24 dict def /ReEncode {reencdict begin /nco&na exch def
/nfnam exch def /basefontname exch def /basefontdict basefontname findfont def
/newfont basefontdict maxlength dict def basefontdict {exch dup /FID ne
{dup /Encoding eq {exch dup length array copy newfont 3 1 roll put} {exch 
newfont 3 1 roll put} ifelse} {pop pop} ifelse } forall newfont
/FontName nfnam put nco&na aload pop nco&na length 2 idiv {newfont
/Encoding get 3 1 roll put} repeat nfnam newfont definefont pop end } def
/accvec [ 176 /agrave 181 /Agrave 190 /acircumflex 192 /Acircumflex
201 /adieresis 204 /Adieresis 209 /ccedilla 210 /Ccedilla 211 /eacute
212 /Eacute 213 /egrave 214 /Egrave 215 /ecircumflex 216 /Ecircumflex
217 /edieresis 218 /Edieresis 219 /icircumflex 220 /Icircumflex
221 /idieresis 222 /Idieresis 223 /ntilde 224 /Ntilde 226 /ocircumflex
228 /Ocircumflex 229 /odieresis 230 /Odieresis 231 /ucircumflex 236 /Ucircumflex
237 /udieresis 238 /Udieresis 239 /aring 242 /Aring 243 /ydieresis
244 /Ydieresis 246 /aacute 247 /Aacute 252 /ugrave 253 /Ugrave] def
/Times-Roman /Times-Roman accvec ReEncode
/Times-Italic /Times-Italic accvec ReEncode
/Times-Bold /Times-Bold accvec ReEncode
/Times-BoldItalic /Times-BoldItalic accvec ReEncode
/Helvetica /Helvetica accvec ReEncode
/Helvetica-Oblique /Helvetica-Oblique accvec ReEncode
/Helvetica-Bold /Helvetica-Bold accvec ReEncode
/Helvetica-BoldOblique /Helvetica-BoldOblique  accvec ReEncode
/Courier /Courier accvec ReEncode
/Courier-Oblique /Courier-Oblique accvec ReEncode
/Courier-Bold /Courier-Bold accvec ReEncode
/Courier-BoldOblique /Courier-BoldOblique accvec ReEncode
/oshow {gsave [] 0 sd true charpath stroke gr} def
/stwn { /fs exch def /fn exch def /text exch def fn findfont fs sf
 text sw pop xs add /xs exch def} def
/stwb { /fs exch def /fn exch def /nbas exch def /textf exch deftextf length /tlen exch def nbas tlen gt {/nbas tlendef} iffn findfont fs sf textf dup length nbas sub nbas getinterval sw
pop neg xs add /xs exch def} def
/accspe [ 65 /plusminus  66 /bar  67 /existential  68 /universal 
69 /exclam  70 /numbersign 71 /greater  72 /question  73 /integral 
74 /colon  75 /semicolon  76 /less  77 /bracketleft  78 /bracketright
79 /greaterequal 80 /braceleft 81 /braceright 82 /radical
83 /spade 84 /heart 85 /diamond 86 /club 87 /lessequal
88 /multiply 89 /percent 90 /infinity 48 /circlemultiply 49 /circleplus
50 /emptyset  51 /lozenge 52 /bullet 53 /arrowright 54 /arrowup
55 /arrowleft 56 /arrowdown 57 /arrowboth 48 /degree 44 /comma 43 /plus 45 /angle 42 /angleleft 47 /divide 61 /notequal 40 /equivalence 41 /second 97 /approxequal 98 /congruent 99 /perpendicular 100 /partialdiff 101 /florin 102 /intersection
 103 /union 104 /propersuperset 105 /reflexsuperset 106 /notsubset 107 /propersubset 108 /reflexsubset 109 /element 110 /notelement 111 /gradient 112 /logicaland 113 /logicalor 114 /arrowdblboth 115 /arrowdblleft 116 /arrowdblup 117 /arrowdblright
 118 /arrowdbldown 119 /ampersand 120 /omega1 121 /similar 122 /aleph ] def
/Symbol /Special accspe ReEncode
%%EndProlog
%%BeginSetup
newpath  gsave  .25 .25 scale 
%%EndSetup
 gsave  0 0 t black [] 0 sd 3 lw 1 1 1 c 2268 2158 0 0 bf black 1 1 1 c 1814 1726 227 216 bf black 1814 1726 227 216 bl 1 1 1 c black 227 216 m 128 X 1 Y 25 X -1 Y 26 X 3 Y 25 X 11 Y 26 X 36 Y 25 X 107 Y 26 X 231 Y 25 X 364 Y 26 X 308 Y 25 X 291 Y 26
 X 59 Y 26 X -147 Y 25 X -243 Y 26 X -294 Y 25 X -354 Y 26 X -178 Y 25 X -114 Y 26 X -31 Y 25 X 4 Y 26 X 14 Y 26 X 16 Y 25 X 6 Y 26 X 42 Y 25 X 23 Y 26 X -2 Y 25 X 26 Y 26 X 26 Y 25 X 19 Y 26 X 11 Y 26 X 39 Y 25 X -13 Y 26 X -23 Y 25 X -11 Y 26 X -38
 Y 25 X -37 Y 26 X 6 Y 25 X -15 Y 26 X -23 Y 25 X -17 Y 26 X -39 Y 26 X 10 Y 25 X -11 Y 26 X -28 Y 25 X 26 Y 26 X -23 Y 25 X 3 Y 26 X -3 Y 25 X -20 Y 26 X 10 Y 26 X -8 Y 25 X -8 Y 26 X 3 Y 25 X 3 Y 26 X 7 Y 25 X -17 Y 26 X 1 Y 25 X 5 Y 26 X -7 Y 51 X
 2 Y 26 X -4 Y 25 X -3 Y 51 X 2 Y 51 X -3 Y 26 X s 227 216 m 1814 X s
 gsave  1518 50
 t 0 r 0 0 m /Times-Roman findfont 82.2962 sf 0 0 m (ADC channel) show  gr  227 268 m -52 Y s 278 242 m -26 Y s 329 242 m -26 Y s 380 242 m -26 Y s 431 242 m -26 Y s 482 268 m -52 Y s 533 242 m -26 Y s 584 242 m -26 Y s 636 242 m -26 Y s 687 242 m
 -26 Y s 738 268 m -52 Y s 789 242 m -26 Y s 840 242 m -26 Y s 891 242 m -26 Y s 942 242 m -26 Y s 993 268 m -52 Y s 1044 242 m -26 Y s 1096 242 m -26 Y s 1147 242 m -26 Y s 1198 242 m -26 Y s 1249 268 m -52 Y s 1300 242 m -26 Y s 1351 242 m -26 Y s
 1402 242 m -26 Y s 1453 242 m -26 Y s 1504 268 m -52 Y s 1555 242 m -26 Y s 1607 242 m -26 Y s 1658 242 m -26 Y s 1709 242 m -26 Y s 1760 268 m -52 Y s 1811 242 m -26 Y s 1862 242 m -26 Y s 1913 242 m -26 Y s 1964 242 m -26 Y s 2015 268 m -52 Y s
 2015 268 m -52 Y s
 gsave  155 137
 t 0 r 0 0 m /Times-Roman findfont 82.2962 sf 0 0 m (160) show  gr 
 gsave  411 137
 t 0 r 0 0 m /Times-Roman findfont 82.2962 sf 0 0 m (170) show  gr 
 gsave  668 137
 t 0 r 0 0 m /Times-Roman findfont 82.2962 sf 0 0 m (180) show  gr 
 gsave  924 137
 t 0 r 0 0 m /Times-Roman findfont 82.2962 sf 0 0 m (190) show  gr 
 gsave  1180 137
 t 0 r 0 0 m /Times-Roman findfont 82.2962 sf 0 0 m (200) show  gr 
 gsave  1436 137
 t 0 r 0 0 m /Times-Roman findfont 82.2962 sf 0 0 m (210) show  gr 
 gsave  1687 137
 t 0 r 0 0 m /Times-Roman findfont 82.2962 sf 0 0 m (220) show  gr 
 gsave  1943 137
 t 0 r 0 0 m /Times-Roman findfont 82.2962 sf 0 0 m (230) show  gr  227 216 m 1726 Y s 281 216 m -54 X s 254 288 m -27 X s 254 360 m -27 X s 254 432 m -27 X s 281 504 m -54 X s 254 575 m -27 X s 254 647 m -27 X s 254 719 m -27 X s 281 791 m -54 X
 s 254 863 m -27 X s 254 935 m -27 X s 254 1007 m -27 X s 281 1079 m -54 X s 254 1151 m -27 X s 254 1223 m -27 X s 254 1295 m -27 X s 281 1367 m -54 X s 254 1439 m -27 X s 254 1511 m -27 X s 254 1583 m -27 X s 281 1654 m -54 X s 254 1726 m -27 X s
 254 1798 m -27 X s 254 1870 m -27 X s 281 1942 m -54 X s
 gsave  169 197
 t 0 r 0 0 m /Times-Roman findfont 82.2962 sf 0 0 m (0) show  gr 
 gsave  78 485
 t 0 r 0 0 m /Times-Roman findfont 82.2962 sf 0 0 m (200) show  gr 
 gsave  78 773
 t 0 r 0 0 m /Times-Roman findfont 82.2962 sf 0 0 m (400) show  gr 
 gsave  78 1056
 t 0 r 0 0 m /Times-Roman findfont 82.2962 sf 0 0 m (600) show  gr 
 gsave  78 1344
 t 0 r 0 0 m /Times-Roman findfont 82.2962 sf 0 0 m (800) show  gr 
 gsave  32 1632
 t 0 r 0 0 m /Times-Roman findfont 82.2962 sf 0 0 m (1000) show  gr 
 gsave  32 1920
 t 0 r 0 0 m /Times-Roman findfont 82.2962 sf 0 0 m (1200) show  gr  6 lw 1116 216 m 719 Y s [12 12] 0 sd 876 216 m 1582 Y s [] 0 sd 620 216 m 1582 Y s 1 1 1 c black 1116 576 m -499 X s 1065 604 m 51 -28 d -51 -32 d s 672 604 m -55 -28 d 55 -32 d
 s
 gsave  814 489
 t 0 r 0 0 m /Times-Roman findfont 82.2962 sf 0 0 m (1.3 pC) show  gr  1 1 1 c black 1116 796 m -243 X s 1065 823 m 51 -27 d -51 -32 d s 928 823 m -55 -27 d 55 -32 d s
 gsave  997 828
 t 0 r 0 0 m /Times-Roman findfont 54.8641 sf 0 0 m (MIP) show  gr 
 gsave  946 850
 t 0 r 0 0 m /Symbol findfont 82.2962 sf 0 0 m (s) show  gr 
 gsave  901 850
 t 0 r 0 0 m /Times-Roman findfont 82.2962 sf 0 0 m (2) show  gr  1 1 1 c black 873 1774 m -256 X s 823 1801 m 50 -27 d -50 -32 d s 672 1801 m -55 -27 d 55 -32 d s
 gsave  722 1815
 t 0 r 0 0 m /Times-Roman findfont 54.8641 sf 0 0 m (Pedestal) show  gr 
 gsave  672 1843
 t 0 r 0 0 m /Symbol findfont 82.2962 sf 0 0 m (s) show  gr 
 gsave  558 1843
 t 0 r 0 0 m /Times-Roman findfont 82.2962 sf 0 0 m (3.8) show  gr 
 gsave  1248 1843
 t 0 r 0 0 m /Times-Roman findfont 82.2962 sf 0 0 m (Cosmic test) show  gr 
 gsave  1248 1728
 t 0 r 0 0 m /Times-Roman findfont 82.2962 sf 0 0 m (PMT1 @ 1250 Volt) show  gr 
 gr  gr 
showpage
end
%%EOF
