%!PS-Adobe-3.0 EPSF-3.0
%%BoundingBox: 56 243 576 562
%%Title: C:\users\essertaize\LASER_A4_A4SECTEUR5.PS
%%Creator: GSview from C:\users\essertaize\LASER_A4_A4SECTEUR5.PS
%%CreationDate: Fri Feb 11 11:33:14 2005
%%Pages: 1
%%EndComments
%%Page: 1 1
%%BeginDocument: C:\users\essertaize\LASER_A4_A4SECTEUR5.PS
%![PS-Adobe-1.0]%%
%%[Status: Busy;Source: Serial 9]%%
%%[Creator: ]%%
%%[Title: Fichier Postscript]%%
%%[Creation Date: mon may 28 10:00:00 1990]%%
%%[DocumentFonts: Courier]%%
%%BoundingBox:         28         28        610        851
%%Pages: (atend)
%%[EndComments]%%
/c { setrgbcolor } def
/w { setlinewidth } def
/m { moveto } def
/l { lineto } def
/n { newpath } def
/h { show } def
/r { rotate } def
/e { ellipse } def
/cu { curveto } def
/sc { scale } def
/rc { rectclip } def
/ic { initclip } def
/cc { closepath clip } def
/sp { showpage } def
/tr { translate } def
/mf { makefont setfont } def
/gs { gsave } def
/gr { grestore } def
/s { stroke } def
/ISOdict 12 dict def
/ISOcode
{ ISOdict begin
/newcodes exch def/newfontname exch def/basefontname exch def
/basefontdict basefontname findfont def
/newfont basefontdict maxlength dict def
basefontdict {exch dup /FID ne {dup/Encoding eq
{exch dup length array copy newfont 3 1 roll put}
{exch newfont 3 1 roll put}ifelse}{pop pop}ifelse}forall 
newfont/FontName newfontname put
newcodes aload pop
newcodes length 2 idiv 
{newfont/Encoding get 3 1 roll put} repeat
newfontname newfont definefont pop end } def
/scandvec[
8#202/Ccedilla 8#203/Eacute 8#205/Odieresis 8#206/Udieresis
8#210/agrave 8#211/acircumflex 8#212/adieresis 8#215/ccedilia
8#216/eacute 8#217/egrave 8#220/ecircumflex 8#221/edieresis
8#224/icircumflex 8#225/idieresis 8#231/ocircumflex
8#232/odieresis 8#235/ugrave 8#236/ucircumflex
8#237/udieresis 8#251/copyright 8#313/Agrave
8#344/Acircumflex 8#345/Adieresis
8#346/Ecircumflex 8#350/Edieresis 8#351/Egrave
8#353/Icircumflex 8#354/Idieresis 8#357/Ocircumflex 
8#363/Ugrave 8#364/Ucircumflex ] def

%%[Definition d'une ellipse]%%
/ellipsedict 8 dict def
ellipsedict/mtrx matrix put
/ellipse { ellipsedict begin
/endangle exch def /startangle exch def
/yrad exch def /xrad exch def
/y exch def /x exch def
/savematrix mtrx currentmatrix def
x y translate xrad yrad scale
0 0 1 startangle endangle arc
savematrix setmatrix end } def

%%[Definition de la police de caracteres]%%
/Courier /Courier_ISO scandvec ISOcode
/pol1 /Courier_ISO findfont def
2 setlinejoin
[] 0 setdash

%%[c:/users/essertaize/A4SECTEUR5              Name of the drawi]%%
%%[                                            User name        ]%%
%%[     10                                     Category         ]%%

%%[scale transformation in cm]%%
   28.3465    28.3465 sc
0 0 tr
0.013 w
%%Page:  0   1
    0.5000     0.5000    20.5000    28.9929 rc
0.024 w
n
    3.7414    15.8307 m
    4.3476    16.0519 l
    4.6698    16.1839 l
    4.9814    16.3222 l
s
n
    5.0382    16.3486 m
    5.3369    16.4938 l
s
n
    5.3904    16.5210 m
    5.6785    16.6741 l
s
n
    5.7289    16.7021 m
    6.0067    16.8637 l
s
n
    6.0542    16.8926 m
    6.3222    17.0630 l
s
n
    6.3671    17.0928 m
    6.6367    17.2810 l
s
n
    6.6793    17.3122 m
    6.9227    17.4991 l
s
n
    6.9627    17.5314 m
    7.1947    17.7277 l
s
n
    7.2323    17.7611 m
    7.4524    17.9674 l
s
n
    4.4747    19.7603 m
    4.2182    19.5290 l
    3.9380    19.3107 l
s
n
    3.9083    19.2892 m
    3.5199    19.0339 l
    3.2230    18.8650 l
    2.9116    18.7079 l
s
n
    2.8724    18.6894 m
    2.5205    18.5352 l
s
n
    2.4889    18.5223 m
    2.1041    18.3771 l
s
n
    2.0576    18.3609 m
    2.0208    18.3483 l
s
n
    3.7414    16.6277 m
    4.1162    16.7605 l
s
n
    4.1754    16.7827 m
    4.5277    16.9214 l
s
n
    4.5845    16.9450 m
    4.9223    17.0922 l
s
n
    4.9768    17.1171 m
    5.3003    17.2724 l
s
n
    5.3525    17.2987 m
    5.6620    17.4621 l
s
n
    5.7119    17.4897 m
    6.0075    17.6612 l
s
n
    6.0550    17.6901 m
    6.3367    17.8696 l
s
n
    6.3820    17.8999 m
    6.6497    18.0875 l
s
n
    6.6926    18.1191 m
    6.9461    18.3149 l
s
n
    6.9866    18.3479 m
    7.2255    18.5521 l
s
n
    7.2637    18.5864 m
    7.4667    18.7785 l
s
n
   19.8910     8.6575 m
   20.0034     8.7442 l
   20.1139     8.8805 l
   20.1921     9.0352 l
   20.2307     9.1821 l
   20.2330     9.3071 l
   20.2052     9.4023 l
   20.1549     9.4652 l
   20.0813     9.4984 l
   19.9927     9.4956 l
   19.8910     9.4546 l
   19.7794     9.3688 l
   19.6714     9.2368 l
   19.5911     9.0803 l
   19.5505     8.9252 l
   19.5495     8.8011 l
   19.5796     8.7043 l
   19.6317     8.6433 l
   19.7050     8.6130 l
   19.7926     8.6173 l
   19.8910     8.6575 l
s
n
   18.7545    10.2758 m
   18.6762    10.2984 l
   18.5799    10.2836 l
   18.4721    10.2271 l
   18.3596    10.1245 l
   18.2575     9.9783 l
   18.1910     9.8197 l
   18.1658     9.6770 l
   18.1757     9.5626 l
   18.2096     9.4840 l
   18.2664     9.4304 l
s
n
    5.8075    16.5976 m
    5.7860    16.5875 l
    5.7785    16.5686 l
    5.7838    16.5549 l
s
n
    5.4290    16.4176 m
    5.4077    16.4070 l
    5.4005    16.3880 l
    5.4059    16.3746 l
s
n
    5.0504    16.2376 m
    5.0296    16.2269 l
    5.0225    16.2081 l
    5.0275    16.1945 l
s
n
    4.6635    16.0624 m
    4.6429    16.0508 l
    4.6363    16.0317 l
    4.6418    16.0187 l
s
n
    2.0577    17.5143 m
    2.0622    17.5080 l
s
n
    4.2703    15.8908 m
    4.2501    15.8787 l
    4.2437    15.8597 l
    4.2492    15.8469 l
s
n
    2.9284    16.6437 m
    2.9205    16.6241 l
    2.9255    16.6110 l
s
n
    6.1290    16.7542 m
    6.1239    16.7698 l
    6.1339    16.7901 l
s
n
    6.4407    16.9727 m
    6.4368    16.9931 l
s
n
    6.7523    17.1913 m
    6.7489    17.2125 l
s
n
    7.0846    17.4529 m
    7.0815    17.4561 l
s
n
    7.3657    17.6823 m
    7.3793    17.6827 l
s
n
    7.3575    17.6759 m
    7.3657    17.6823 l
s
n
    5.7831    17.3922 m
    5.7814    17.4157 l
    5.7940    17.4317 l
    5.8082    17.4341 l
s
n
    3.2590    18.8495 m
    3.2566    18.8730 l
    3.2690    18.8891 l
    3.2834    18.8918 l
s
n
    5.4052    17.2119 m
    5.4032    17.2351 l
    5.4155    17.2513 l
    5.4297    17.2541 l
s
n
    2.8766    18.6718 m
    2.8743    18.6952 l
    2.8866    18.7114 l
    2.9010    18.7140 l
s
n
    5.0273    17.0315 m
    5.0251    17.0546 l
    5.0371    17.0710 l
    5.0511    17.0742 l
s
n
    2.4901    18.4964 m
    2.4877    18.5198 l
    2.5001    18.5360 l
    2.5145    18.5387 l
s
n
    4.6411    16.8560 m
    4.6387    16.8788 l
    4.6504    16.8955 l
    4.6643    16.8990 l
s
n
    2.0622    18.3449 m
    2.0598    18.3684 l
    2.0722    18.3845 l
    2.0866    18.3872 l
s
n
    4.2485    16.6842 m
    4.2453    16.7054 l
    4.2577    16.7239 l
    4.2715    16.7272 l
s
n
    2.9255    17.4480 m
    2.9231    17.4714 l
    2.9355    17.4876 l
    2.9499    17.4902 l
s
n
    6.1534    17.6333 m
    6.1320    17.6240 l
    6.1238    17.6053 l
    6.1283    17.5915 l
s
n
    3.6285    19.0911 m
    3.6071    19.0814 l
    3.5992    19.0626 l
    3.6041    19.0488 l
s
n
    6.4657    17.8515 m
    6.4441    17.8427 l
    6.4356    17.8242 l
    6.4400    17.8101 l
s
n
    3.9364    19.3118 m
    3.9149    19.3021 l
    3.9071    19.2834 l
    3.9120    19.2696 l
s
n
    6.7781    18.0697 m
    6.7562    18.0614 l
    6.7475    18.0430 l
    6.7517    18.0287 l
s
n
    4.2402    19.5350 m
    4.2187    19.5253 l
    4.2109    19.5065 l
    4.2158    19.4927 l
s
n
    7.0822    18.2926 m
    7.0624    18.2873 l
    7.0511    18.2668 l
    7.0558    18.2516 l
s
n
    4.5025    19.7820 m
    4.4811    19.7724 l
    4.4732    19.7536 l
    4.4781    19.7398 l
s
n
    7.3799    18.5192 m
    7.3576    18.5121 l
    7.3482    18.4939 l
    7.3521    18.4791 l
s
n
    6.0561    19.2836 m
    6.0346    19.2739 l
    6.0268    19.2551 l
    6.0317    19.2413 l
s
n
    2.0208    17.5512 m
    2.0208    18.3483 l
s
n
    3.7414    15.8307 m
    3.7414    16.6277 l
s
n
    7.4667    18.0172 m
    7.4667    18.3926 l
s
n
    7.4667    18.4537 m
    7.4667    18.7785 l
s
n
    2.0208    18.3483 m
    3.7414    16.6277 l
s
n
    2.0208    17.5512 m
    3.7414    15.8307 l
s
n
    7.3521    18.4791 m
    9.3855    16.9435 l
s
n
    7.3799    18.5192 m
    9.4291    16.9717 l
s
n
    7.0550    18.2521 m
    9.1205    16.7725 l
s
n
    7.0822    18.2926 m
    9.1646    16.8009 l
s
n
    6.7517    18.0287 m
    8.8540    16.6004 l
s
n
    6.7781    18.0697 m
    8.8985    16.6292 l
s
n
    7.3793    17.6828 m
    8.9126    16.6382 l
s
n
    6.4400    17.8101 m
    8.5862    16.4275 l
s
n
    6.4657    17.8515 m
    8.6312    16.4566 l
s
n
    7.0815    17.4561 m
    8.6321    16.4572 l
s
n
    4.5025    19.7820 m
    7.0815    18.2931 l
s
n
    4.2402    19.5350 m
    6.7776    18.0700 l
s
n
    3.9364    19.3118 m
    6.4654    17.8517 l
s
n
    3.6041    19.0488 m
    6.1284    17.5914 l
s
n
    3.6285    19.0911 m
    6.1532    17.6334 l
s
n
    6.1283    17.5915 m
    8.3178    16.2543 l
s
n
    6.1534    17.6333 m
    8.3634    16.2837 l
s
n
    2.9499    17.4902 m
    4.2715    16.7272 l
s
n
    2.9255    17.4480 m
    4.2481    16.6844 l
s
n
    2.0866    18.3872 m
    4.6645    16.8988 l
s
n
    2.0622    18.3449 m
    4.6408    16.8561 l
s
n
    2.5145    18.5387 m
    5.0512    17.0741 l
s
n
    2.4901    18.4964 m
    5.0272    17.0316 l
s
n
    2.8766    18.6718 m
    5.4052    17.2119 l
s
n
    5.4297    17.2541 m
    7.7689    15.8999 l
s
n
    5.4052    17.2119 m
    7.7229    15.8702 l
s
n
    3.2834    18.8918 m
    5.8081    17.4342 l
s
n
    5.8082    17.4341 m
    8.0370    16.0730 l
s
n
    5.7831    17.3922 m
    7.9914    16.0436 l
s
n
    7.2367    17.7651 m
    7.3787    17.6831 l
s
n
    6.9171    17.4947 m
    7.0377    17.4250 l
s
n
    6.7524    17.1913 m
    8.3047    16.2458 l
s
n
    6.3046    17.0513 m
    6.4407    16.9727 l
s
n
    5.9737    16.8438 m
    6.1288    16.7543 l
s
n
    4.1335    15.9699 m
    4.2711    15.8905 l
s
n
    4.0741    15.9479 m
    4.2484    15.8473 l
s
n
    4.5444    16.1312 m
    4.6642    16.0621 l
s
n
    4.4873    16.1078 m
    4.6412    16.0190 l
s
n
    2.0622    17.5080 m
    2.0666    17.5054 l
s
n
    4.9383    16.3024 m
    5.0509    16.2374 l
s
n
    4.8836    16.2776 m
    5.0275    16.1945 l
s
n
    5.3157    16.4830 m
    5.4293    16.4174 l
s
n
    5.6266    16.6457 m
    5.7837    16.5550 l
s
n
   18.7545    10.2758 m
   20.1350     9.4787 l
s
n
    6.0317    19.2413 m
    7.3530    18.4785 l
s
n
    6.0561    19.2836 m
    7.3790    18.5198 l
s
n
    4.4781    19.7398 m
    7.0558    18.2516 l
s
n
    4.2158    19.4927 m
    6.7522    18.0283 l
s
n
    3.9120    19.2696 m
    6.4403    17.8098 l
s
n
    5.0511    17.0742 m
    7.5031    15.7283 l
s
n
    5.0273    17.0315 m
    7.4565    15.6982 l
s
n
    2.9010    18.7140 m
    5.4297    17.2541 l
s
n
    3.2590    18.8495 m
    5.7833    17.3921 l
s
n
    7.0621    17.4674 m
    7.0811    17.4564 l
s
n
    6.6191    17.2682 m
    6.7525    17.1912 l
s
n
    8.5847    15.7383 m
   16.9227    10.9380 l
s
n
    6.4407    16.9727 m
    6.9526    16.6780 l
s
n
    6.9771    16.7202 m
    8.0673    16.0926 l
s
n
   13.3829    12.8081 m
   18.3458    10.1084 l
s
n
    8.8531    15.2722 m
   12.5258    13.2744 l
s
n
    6.1290    16.7542 m
    7.2396    16.1500 l
s
n
   12.5502    13.3167 m
   17.8162    10.4520 l
s
n
    7.2632    16.1927 m
    7.7838    15.9095 l
s
n
    2.9255    16.6110 m
    3.0096    16.5625 l
s
n
    5.2633    16.4569 m
    5.4056    16.3748 l
s
n
    5.6767    16.6731 m
    5.8077    16.5975 l
s
n
    5.8075    16.5976 m
    7.0042    15.9466 l
s
n
    5.7838    16.5549 m
    7.4118    15.6693 l
s
n
   18.2664     9.4304 m
   19.6469     8.6333 l
s
n
    4.2710    16.7274 m
    6.9792    15.3901 l
s
n
    4.2485    16.6841 m
    6.9314    15.3592 l
s
n
    4.6643    16.8990 m
    7.2397    15.5583 l
s
n
    4.6411    16.8560 m
    7.1925    15.5278 l
s
n
    5.4289    16.4176 m
    7.1780    15.5184 l
s
n
    5.4059    16.3746 m
    7.1306    15.4879 l
s
n
    4.6635    16.0624 m
    6.6249    15.1613 l
s
n
    4.6418    16.0187 m
    6.5763    15.1300 l
s
n
    5.0504    16.2376 m
    6.8999    15.3389 l
s
n
    5.0280    16.1942 m
    6.8519    15.3079 l
s
n
    4.2703    15.8909 m
    6.3533    14.9860 l
s
n
    4.2492    15.8469 m
    6.3041    14.9542 l
s
n
    4.5659    19.7454 m
    6.0273    19.2583 l
s
n
    6.1991    19.2010 m
    7.4667    18.7785 l
s
n
    9.7026    16.7652 m
   18.4178    10.1836 l
s
n
    9.6732    16.7263 m
   17.1273    11.0970 l
s
n
    9.4175    16.5598 m
   17.0761    11.0737 l
s
n
    9.4459    16.5995 m
   18.4127    10.1764 l
s
n
    9.1432    16.4040 m
   17.0217    11.0518 l
s
n
    9.1877    16.4328 m
   18.3937    10.1788 l
s
n
    9.3366    16.3493 m
   16.9857    11.1385 l
s
n
    8.8832    16.2362 m
   16.9617    11.0325 l
s
n
    9.0675    16.1756 m
   18.3888    10.1712 l
s
n
    8.9291    16.2658 m
   17.0145    11.0567 l
s
n
    8.6228    16.0681 m
   18.3588    10.1221 l
s
n
    8.6683    16.0974 m
   18.3842    10.1638 l
s
n
    8.0931    15.7123 m
   18.2032     9.8596 l
s
n
    8.1824    15.6042 m
   16.4734    10.8046 l
s
n
    8.3591    15.8762 m
   18.2052     9.8631 l
s
n
    8.4393    15.7701 m
   16.5553    10.8135 l
s
n
    8.7531    15.9726 m
   16.9861    10.9577 l
s
n
    7.8238    15.5523 m
   18.2143     9.8491 l
s
n
    7.7772    15.5222 m
   16.3865    10.7967 l
s
n
    8.3810    15.9120 m
   17.0626    10.9138 l
s
n
    8.1058    15.7343 m
   11.6931    13.7829 l
s
n
    7.8847    15.4120 m
   15.9773    11.0098 l
s
n
    7.3154    15.2240 m
   18.1993     9.8490 l
s
n
    7.2676    15.1932 m
   18.1897     9.7994 l
s
n
    7.5682    15.3873 m
   18.2009     9.8523 l
s
n
    7.5210    15.3568 m
   16.2943    10.7898 l
s
n
    7.6631    15.2690 m
    9.8429    14.1483 l
s
n
    7.6158    15.2384 m
   15.6422    11.1119 l
s
n
    6.9716    15.0021 m
   16.7746    10.4985 l
s
n
    6.9230    14.9707 m
   16.2090    10.7046 l
s
n
    7.3971    15.0972 m
   11.4822    13.1121 l
s
n
    7.3492    15.0663 m
   16.3100    10.7118 l
s
n
    6.8743    14.7597 m
   17.4090    10.1835 l
s
n
    6.8251    14.7279 m
   18.1839     9.7937 l
s
n
    6.3567    14.9301 m
   10.3829    17.5294 l
s
n
    6.3567    13.9100 m
   10.3829    16.5093 l
s
n
   10.3829    16.5093 m
   10.3829    17.5294 l
s
n
    6.3567    13.9100 m
    6.3567    14.9301 l
s
n
    6.3041    14.9542 m
   10.3291    17.5527 l
s
n
    6.3079    13.9312 m
    6.3079    14.9542 l
s
n
   10.3291    17.5527 m
   10.3829    17.5294 l
s
n
    6.3079    13.9312 m
    6.3567    13.9100 l
s

sp
%%Trailer
%%Pages:   1
%%EOF

%%EndDocument
%%Trailer
