%!PS-Adobe-3.0 EPSF-3.0
%%BoundingBox: 33 212 594 606
%%Title: C:\users\essertaize\LASER_A4_A4CROQUIS.PS
%%Creator: GSview from C:\users\essertaize\LASER_A4_A4CROQUIS.PS
%%CreationDate: Mon Jul 05 15:02:49 2004
%%Pages: 1
%%EndComments
%%Page: 1 1
%%BeginDocument: C:\users\essertaize\LASER_A4_A4CROQUIS.PS
%![PS-Adobe-1.0]%%
%%[Status: Busy;Source: Serial 9]%%
%%[Creator: ]%%
%%[Title: Fichier Postscript]%%
%%[Creation Date: mon may 28 10:00:00 1990]%%
%%[DocumentFonts: Courier]%%
%%BoundingBox:         28         28        610        851
%%Pages: (atend)
%%[EndComments]%%
/c { setrgbcolor } def
/w { setlinewidth } def
/m { moveto } def
/l { lineto } def
/n { newpath } def
/h { show } def
/r { rotate } def
/e { ellipse } def
/cu { curveto } def
/sc { scale } def
/rc { rectclip } def
/ic { initclip } def
/cc { closepath clip } def
/sp { showpage } def
/tr { translate } def
/mf { makefont setfont } def
/gs { gsave } def
/gr { grestore } def
/s { stroke } def
/ISOdict 12 dict def
/ISOcode
{ ISOdict begin
/newcodes exch def/newfontname exch def/basefontname exch def
/basefontdict basefontname findfont def
/newfont basefontdict maxlength dict def
basefontdict {exch dup /FID ne {dup/Encoding eq
{exch dup length array copy newfont 3 1 roll put}
{exch newfont 3 1 roll put}ifelse}{pop pop}ifelse}forall 
newfont/FontName newfontname put
newcodes aload pop
newcodes length 2 idiv 
{newfont/Encoding get 3 1 roll put} repeat
newfontname newfont definefont pop end } def
/scandvec[
8#202/Ccedilla 8#203/Eacute 8#205/Odieresis 8#206/Udieresis
8#210/agrave 8#211/acircumflex 8#212/adieresis 8#215/ccedilia
8#216/eacute 8#217/egrave 8#220/ecircumflex 8#221/edieresis
8#224/icircumflex 8#225/idieresis 8#231/ocircumflex
8#232/odieresis 8#235/ugrave 8#236/ucircumflex
8#237/udieresis 8#251/copyright 8#313/Agrave
8#344/Acircumflex 8#345/Adieresis
8#346/Ecircumflex 8#350/Edieresis 8#351/Egrave
8#353/Icircumflex 8#354/Idieresis 8#357/Ocircumflex 
8#363/Ugrave 8#364/Ucircumflex ] def

%%[Definition d'une ellipse]%%
/ellipsedict 8 dict def
ellipsedict/mtrx matrix put
/ellipse { ellipsedict begin
/endangle exch def /startangle exch def
/yrad exch def /xrad exch def
/y exch def /x exch def
/savematrix mtrx currentmatrix def
x y translate xrad yrad scale
0 0 1 startangle endangle arc
savematrix setmatrix end } def

%%[Definition de la police de caracteres]%%
/Courier /Courier_ISO scandvec ISOcode
/pol1 /Courier_ISO findfont def
2 setlinejoin
[] 0 setdash

%%[c:/users/essertaize/A4CROQUIS               Name of the drawi]%%
%%[                                            User name        ]%%
%%[     10                                     Category         ]%%

%%[scale transformation in cm]%%
   28.3465    28.3465 sc
0 0 tr
0.013 w
%%Page:  0   1
    0.5000     0.5000    20.5000    28.9929 rc
0.013 w
n
    2.3633    15.0637 m
    2.6567    15.0637 l
s
n
    2.7545    15.0637 m
    2.8524    15.0637 l
s
n
    2.9502    15.0637 m
    3.5371    15.0637 l
s
n
    3.6349    15.0637 m
    3.7327    15.0637 l
s
n
    3.8305    15.0637 m
    4.4174    15.0637 l
s
n
    4.5152    15.0637 m
    4.6130    15.0637 l
s
n
    4.7108    15.0637 m
    5.2977    15.0637 l
s
n
    5.3955    15.0637 m
    5.4934    15.0637 l
s
n
    5.5912    15.0637 m
    6.1781    15.0637 l
s
n
    6.2759    15.0637 m
    6.3737    15.0637 l
s
n
    6.4715    15.0637 m
    7.0584    15.0637 l
s
n
    7.1562    15.0637 m
    7.2540    15.0637 l
s
n
    7.3518    15.0637 m
    7.9387    15.0637 l
s
n
    8.0365    15.0637 m
    8.1343    15.0637 l
s
n
    8.2322    15.0637 m
    8.8190    15.0637 l
s
n
    8.9169    15.0637 m
    9.0147    15.0637 l
s
n
    9.1125    15.0637 m
    9.6994    15.0637 l
s
n
    9.7972    15.0637 m
    9.8950    15.0637 l
s
n
    9.9928    15.0637 m
   10.5797    15.0637 l
s
n
   10.6775    15.0637 m
   10.7753    15.0637 l
s
n
   10.8732    15.0637 m
   11.4600    15.0637 l
s
n
   11.5579    15.0637 m
   11.6557    15.0637 l
s
n
   11.7535    15.0637 m
   12.3404    15.0637 l
s
n
   12.4382    15.0637 m
   12.5360    15.0637 l
s
n
   12.6338    15.0637 m
   13.2207    15.0637 l
s
n
   13.3185    15.0637 m
   13.4163    15.0637 l
s
n
   13.5141    15.0637 m
   14.1010    15.0637 l
s
n
   14.1989    15.0637 m
   14.2967    15.0637 l
s
n
   14.3945    15.0637 m
   14.9814    15.0637 l
s
n
   15.0792    15.0637 m
   15.1770    15.0637 l
s
n
   15.2748    15.0637 m
   15.8617    15.0637 l
s
n
   15.9595    15.0637 m
   16.0573    15.0637 l
s
n
   16.1551    15.0637 m
   16.7420    15.0637 l
s
n
   16.8398    15.0637 m
   16.9377    15.0637 l
s
n
   17.0355    15.0637 m
   17.3289    15.0637 l
s
n
   18.6759    15.0637 m
   18.9208    15.0637 l
s
n
   19.0025    15.0637 m
   19.0841    15.0637 l
s
n
   19.1658    15.0637 m
   19.6557    15.0637 l
s
n
   19.7373    15.0637 m
   19.8190    15.0637 l
s
n
   19.9006    15.0637 m
   20.3905    15.0637 l
s
n
   20.4722    15.0637 m
   20.5538    15.0637 l
s
n
   20.6355    15.0637 m
   20.8804    15.0637 l
s
0.068 w
n
   18.8384    16.9087 m
   18.8384    19.4299 l
s
n
   16.5443    16.9087 m
   16.5443    18.8228 l
s
n
   19.1312    16.9087 m
   19.1312    19.5074 l
s
n
   16.0562    15.0637 m
   16.0562    17.1625 l
s
n
   15.3729    15.0973 m
   15.3729    17.1625 l
s
n
   14.6896    15.0637 m
   14.6896    17.1625 l
s
n
   14.6896    17.1625 m
   16.0562    17.1625 l
s
n
    1.3610    16.5182 m
    4.2859    16.5182 l
s
n
   16.5443    18.8228 m
   18.8384    19.4299 l
s
n
   19.1312    19.5074 m
   19.8995    19.7107 l
s
n
   16.5443    16.9087 m
   18.8384    16.9087 l
s
n
   16.0562    16.5182 m
   20.2163    16.5182 l
s
n
   16.5443    13.2187 m
   18.8384    13.2187 l
s
n
   16.5443    13.2187 m
   16.5443    10.2876 l
s
n
   16.0562    13.6092 m
   20.2163    13.6092 l
s
n
   16.0562    15.0637 m
   16.0562    12.9649 l
s
n
   15.3729    15.0301 m
   15.3729    12.9649 l
s
n
   14.6896    12.9649 m
   16.0562    12.9649 l
s
n
   14.6896    15.0637 m
   14.6896    12.9649 l
s
n
    1.3610    13.6092 m
    3.9756    13.6092 l
s
0.013 w
n
   14.6896    17.1625 m
   14.2995    17.1625 l
s
n
   14.6896    12.9649 m
   14.2995    12.9649 l
s
n
   14.4948    17.1625 m
   14.4948    12.9649 l
s
n
   14.3972    16.7720 m
   14.4948    17.1625 l
   14.5924    16.7720 l
s
n
   14.5924    13.3554 m
   14.4948    12.9649 l
   14.3972    13.3554 l
s
gs
   14.1633    14.5071 m
   90.0000 rotate
pol1 [    0.5566 0 0    1.2432 0 0 ] mf
(86) h gr
n
   18.7483    16.5182 m
   18.7483    13.6092 l
s
n
   18.6758    16.2281 m
   18.7483    16.5182 l
   18.8459    16.1277 l
s
n
   18.8459    13.9996 m
   18.7483    13.6092 l
   18.6758    13.8993 l
s
gs
   18.4168    14.0800 m
   90.0000 rotate
pol1 [    0.4918 0 0    1.2432 0 0 ] mf
(59,6) h gr
n
   18.8384    19.4299 m
   18.8384    20.4542 l
s
n
   19.1312    19.5074 m
   19.1312    20.4542 l
s
n
   18.2526    20.2590 m
   19.7169    20.2590 l
s
n
   18.4479    20.3566 m
   18.8384    20.2590 l
   18.4479    20.1614 l
s
n
   19.5217    20.1614 m
   19.1312    20.2590 l
   19.5217    20.3566 l
s
gs
   18.7194    20.5905 m
    0.0000 rotate
pol1 [    0.5307 0 0    1.2432 0 0 ] mf
(5) h gr
0.068 w
n
   19.1312    13.2187 m
   19.8995    13.2187 l
s
n
   19.1312    13.2187 m
   19.1312    10.7498 l
s
n
   18.8384    13.2187 m
   18.8384    10.6975 l
s
n
   13.2253    15.0637 m
   13.2253    16.9087 l
s
n
   13.0300    15.0637 m
   13.0300    16.9087 l
s
n
   13.1276    16.9087     0.0976   180.0000     0.0000 arcn
s
n
   12.9324    16.6158     0.0976   180.0000   360.0000 arc
s
n
   13.3229    16.6158     0.0976   180.0000   270.0000 arc
s
n
   13.0300    16.6158 m
   13.0300    16.9087 l
s
n
   12.8348    15.0637 m
   12.8348    16.9087 l
s
n
   12.8348    16.6158 m
   12.8348    16.9087 l
s
n
   12.7372    16.9087     0.0976   180.0000     0.0000 arcn
s
n
   12.6396    15.0637 m
   12.6396    16.9087 l
s
n
   12.5419    16.6158     0.0976   180.0000   360.0000 arc
s
n
   12.6396    16.6158 m
   12.6396    16.9087 l
s
n
   12.4443    15.0637 m
   12.4443    16.9087 l
s
n
   12.4443    16.6158 m
   12.4443    16.9087 l
s
n
   12.3467    16.9087     0.0976   180.0000     0.0000 arcn
s
n
   12.2491    15.0637 m
   12.2491    16.9087 l
s
n
   12.1515    16.6158     0.0976   180.0000   360.0000 arc
s
n
   12.2491    16.6158 m
   12.2491    16.9087 l
s
n
   12.0538    15.0637 m
   12.0538    16.9087 l
s
n
   11.9562    16.9087     0.0976   180.0000     0.0000 arcn
s
n
   11.8586    15.0637 m
   11.8586    16.9087 l
s
n
   11.7610    16.6158     0.0976   180.0000   360.0000 arc
s
n
   11.6634    15.0637 m
   11.6634    16.9087 l
s
n
   11.5657    16.9087     0.0976   180.0000     0.0000 arcn
s
n
   11.4681    15.0637 m
   11.4681    16.9087 l
s
n
   11.3705    16.6158     0.0976   -90.0000     0.0000 arc
s
n
   13.3229    16.5182 m
   14.6896    16.5182 l
s
n
   13.2253    15.0637 m
   13.2253    13.2187 l
s
n
   13.0300    15.0637 m
   13.0300    13.2187 l
s
n
   13.1276    13.2187     0.0976   180.0000   360.0000 arc
s
n
   12.9324    13.5116     0.0976   180.0000     0.0000 arcn
s
n
   13.3229    13.5116     0.0976   180.0000    90.0000 arcn
s
n
   13.0300    13.5116 m
   13.0300    13.2187 l
s
n
   12.8348    15.0637 m
   12.8348    13.2187 l
s
n
   12.8348    13.5116 m
   12.8348    13.2187 l
s
n
   12.7372    13.2187     0.0976   180.0000   360.0000 arc
s
n
   12.6396    15.0637 m
   12.6396    13.2187 l
s
n
   12.5419    13.5116     0.0976   180.0000     0.0000 arcn
s
n
   12.6396    13.5116 m
   12.6396    13.2187 l
s
n
   12.4443    15.0637 m
   12.4443    13.2187 l
s
n
   12.4443    13.5116 m
   12.4443    13.2187 l
s
n
   12.3467    13.2187     0.0976   180.0000   360.0000 arc
s
n
   12.2491    15.0637 m
   12.2491    13.2187 l
s
n
   12.1515    13.5116     0.0976   180.0000     0.0000 arcn
s
n
   12.2491    13.5116 m
   12.2491    13.2187 l
s
n
   12.0538    15.0637 m
   12.0538    13.2187 l
s
n
   11.9562    13.2187     0.0976   180.0000   360.0000 arc
s
n
   11.8586    15.0637 m
   11.8586    13.2187 l
s
n
   11.7610    13.5116     0.0976   180.0000     0.0000 arcn
s
n
   11.6634    15.0637 m
   11.6634    13.2187 l
s
n
   11.5657    13.2187     0.0976   180.0000   360.0000 arc
s
n
   11.4681    15.0637 m
   11.4681    13.2187 l
s
n
   11.3705    13.5116     0.0976    90.0000     0.0000 arcn
s
n
   13.3229    13.6092 m
   14.6896    13.6092 l
s
n
    9.9062    15.0637 m
    9.9062    16.9087 l
s
n
    9.7110    15.0637 m
    9.7110    16.9087 l
s
n
    9.8086    16.9087     0.0976   180.0000     0.0000 arcn
s
n
    9.6134    16.6158     0.0976   180.0000   360.0000 arc
s
n
   10.0038    16.6158     0.0976   180.0000   270.0000 arc
s
n
    9.7110    16.6158 m
    9.7110    16.9087 l
s
n
    9.5157    15.0637 m
    9.5157    16.9087 l
s
n
    9.5157    16.6158 m
    9.5157    16.9087 l
s
n
    9.4181    16.9087     0.0976   180.0000     0.0000 arcn
s
n
    9.3205    15.0637 m
    9.3205    16.9087 l
s
n
    9.2229    16.6158     0.0976   180.0000   360.0000 arc
s
n
    9.3205    16.6158 m
    9.3205    16.9087 l
s
n
    9.1253    15.0637 m
    9.1253    16.9087 l
s
n
    9.1253    16.6158 m
    9.1253    16.9087 l
s
n
    9.0276    16.9087     0.0976   180.0000     0.0000 arcn
s
n
    8.9300    15.0637 m
    8.9300    16.9087 l
s
n
    8.8324    16.6158     0.0976   180.0000   360.0000 arc
s
n
    8.9300    16.6158 m
    8.9300    16.9087 l
s
n
    8.7348    15.0637 m
    8.7348    16.9087 l
s
n
    8.6372    16.9087     0.0976   180.0000     0.0000 arcn
s
n
    8.5396    15.0637 m
    8.5396    16.9087 l
s
n
    8.4419    16.6158     0.0976   180.0000   360.0000 arc
s
n
    8.3443    15.0637 m
    8.3443    16.9087 l
s
n
    8.2467    16.9087     0.0976   180.0000     0.0000 arcn
s
n
    8.1491    15.0637 m
    8.1491    16.9087 l
s
n
    8.0515    16.6158     0.0976   -90.0000     0.0000 arc
s
n
    9.9062    15.0637 m
    9.9062    13.2187 l
s
n
    9.7110    15.0637 m
    9.7110    13.2187 l
s
n
    9.8086    13.2187     0.0976   180.0000   360.0000 arc
s
n
    9.6134    13.5116     0.0976   180.0000     0.0000 arcn
s
n
   10.0038    13.5116     0.0976   180.0000    90.0000 arcn
s
n
    9.7110    13.5116 m
    9.7110    13.2187 l
s
n
    9.5157    15.0637 m
    9.5157    13.2187 l
s
n
    9.5157    13.5116 m
    9.5157    13.2187 l
s
n
    9.4181    13.2187     0.0976   180.0000   360.0000 arc
s
n
    9.3205    15.0637 m
    9.3205    13.2187 l
s
n
    9.2229    13.5116     0.0976   180.0000     0.0000 arcn
s
n
    9.3205    13.5116 m
    9.3205    13.2187 l
s
n
    9.1253    15.0637 m
    9.1253    13.2187 l
s
n
    9.1253    13.5116 m
    9.1253    13.2187 l
s
n
    9.0276    13.2187     0.0976   180.0000   360.0000 arc
s
n
    8.9300    15.0637 m
    8.9300    13.2187 l
s
n
    8.8324    13.5116     0.0976   180.0000     0.0000 arcn
s
n
    8.9300    13.5116 m
    8.9300    13.2187 l
s
n
    8.7348    15.0637 m
    8.7348    13.2187 l
s
n
    8.6372    13.2187     0.0976   180.0000   360.0000 arc
s
n
    8.5396    15.0637 m
    8.5396    13.2187 l
s
n
    8.4419    13.5116     0.0976   180.0000     0.0000 arcn
s
n
    8.3443    15.0637 m
    8.3443    13.2187 l
s
n
    8.2467    13.2187     0.0976   180.0000   360.0000 arc
s
n
    8.1491    15.0637 m
    8.1491    13.2187 l
s
n
    8.0515    13.5116     0.0976    90.0000     0.0000 arcn
s
n
   10.0038    13.6092 m
   11.3705    13.6092 l
s
n
   10.0038    16.5182 m
   11.3705    16.5182 l
s
0.013 w
n
    1.7557    20.8825 m
    1.7557    20.5930 l
s
n
    1.7557    20.4965 m
    1.7557    20.4000 l
s
n
    1.7557    20.3035 m
    1.7557    19.7246 l
s
n
    1.7557    19.6281 m
    1.7557    19.5316 l
s
n
    1.7557    19.4351 m
    1.7557    18.8561 l
s
n
    1.7557    18.7596 m
    1.7557    18.6632 l
s
n
    1.7557    18.5667 m
    1.7557    17.9877 l
s
n
    1.7557    17.8912 m
    1.7557    17.7947 l
s
n
    1.7557    17.6982 m
    1.7557    17.1193 l
s
n
    1.7557    17.0228 m
    1.7557    16.9263 l
s
n
    1.7557    16.8298 m
    1.7557    16.2509 l
s
n
    1.7557    16.1544 m
    1.7557    16.0579 l
s
n
    1.7557    15.9614 m
    1.7557    15.6719 l
s
n
    1.7557    14.3251 m
    1.7557    14.0420 l
s
n
    1.7557    13.9476 m
    1.7557    13.8532 l
s
n
    1.7557    13.7588 m
    1.7557    13.1925 l
s
n
    1.7557    13.0981 m
    1.7557    13.0038 l
s
n
    1.7557    12.9094 m
    1.7557    12.3431 l
s
n
    1.7557    12.2487 m
    1.7557    12.1543 l
s
n
    1.7557    12.0599 m
    1.7557    11.4936 l
s
n
    1.7557    11.3993 m
    1.7557    11.3049 l
s
n
    1.7557    11.2105 m
    1.7557    10.6442 l
s
n
    1.7557    10.5498 m
    1.7557    10.4554 l
s
n
    1.7557    10.3611 m
    1.7557     9.7948 l
s
n
    1.7557     9.7004 m
    1.7557     9.6060 l
s
n
    1.7557     9.5116 m
    1.7557     8.9453 l
s
n
    1.7557     8.8509 m
    1.7557     8.7566 l
s
n
    1.7557     8.6622 m
    1.7557     8.0959 l
s
n
    1.7557     8.0015 m
    1.7557     7.9071 l
s
n
    1.7557     7.8127 m
    1.7557     7.5296 l
s
n
    4.3747    17.3508 m
    4.3436    17.0593 l
s
n
    4.3332    16.9622 m
    4.3229    16.8650 l
s
n
    4.3125    16.7678 m
    4.2503    16.1848 l
s
n
    4.2399    16.0877 m
    4.2296    15.9905 l
s
n
    4.2192    15.8933 m
    4.1570    15.3104 l
s
n
    4.1467    15.2132 m
    4.1363    15.1160 l
s
n
    4.1259    15.0189 m
    4.0638    14.4359 l
s
n
    4.0534    14.3387 m
    4.0430    14.2415 l
s
n
    4.0327    14.1444 m
    3.9705    13.5614 l
s
n
    3.9601    13.4642 m
    3.9497    13.3670 l
s
n
    3.9394    13.2699 m
    3.9083    12.9784 l
s
n
    4.5203    17.3353 m
    4.4892    17.0438 l
s
n
    4.4788    16.9466 m
    4.4685    16.8495 l
s
n
    4.4581    16.7523 m
    4.3959    16.1693 l
s
n
    4.3855    16.0721 m
    4.3752    15.9750 l
s
n
    4.3648    15.8778 m
    4.3026    15.2948 l
s
n
    4.2923    15.1977 m
    4.2819    15.1005 l
s
n
    4.2715    15.0033 m
    4.2094    14.4203 l
s
n
    4.1990    14.3232 m
    4.1886    14.2260 l
s
n
    4.1783    14.1288 m
    4.1161    13.5458 l
s
n
    4.1057    13.4487 m
    4.0953    13.3515 l
s
n
    4.0850    13.2543 m
    4.0539    12.9628 l
s
0.068 w
n
    4.4331    16.5182 m
    8.0515    16.5182 l
s
n
    4.1228    13.6092 m
    8.0515    13.6092 l
s
0.013 w
n
   14.6896    12.9649 m
   14.6896    10.6642 l
s
n
    1.7557    10.8594 m
   14.6896    10.8594 l
s
n
    2.1462    10.7618 m
    1.7557    10.8594 l
    2.1462    10.9570 l
s
n
   14.2991    10.9570 m
   14.6896    10.8594 l
   14.2991    10.7618 l
s
gs
    7.3748    11.1909 m
    0.0000 rotate
pol1 [    0.5652 0 0    1.2432 0 0 ] mf
(820) h gr
n
   19.1312    10.7498 m
   19.1312     7.8052 l
s
n
    1.7557     8.0005 m
   19.1312     8.0005 l
s
n
    2.1462     7.9029 m
    1.7557     8.0005 l
    2.1462     8.0981 l
s
n
   18.7407     8.0981 m
   19.1312     8.0005 l
   18.7407     7.9029 l
s
gs
    9.5956     8.3320 m
    0.0000 rotate
pol1 [    0.5652 0 0    1.2432 0 0 ] mf
(900) h gr
n
   14.6896    17.1625 m
   14.6896    18.1515 l
s
n
   16.0562    17.1625 m
   16.0562    18.1515 l
s
n
   14.1038    17.9563 m
   16.6419    17.9563 l
s
n
   14.2991    18.0539 m
   14.6896    17.9563 l
   14.2991    17.8586 l
s
n
   16.4467    17.8586 m
   16.0562    17.9563 l
   16.4467    18.0539 l
s
gs
   14.8163    18.2878 m
    0.0000 rotate
pol1 [    0.5566 0 0    1.2432 0 0 ] mf
(28) h gr
n
   16.5443    11.3046 m
   16.5443     8.8143 l
s
n
   18.8384    10.6975 m
   18.8384     8.8143 l
s
n
   16.5443     9.0095 m
   18.8384     9.0095 l
s
n
   16.9348     8.9119 m
   16.5443     9.0095 l
   16.9348     9.1071 l
s
n
   18.4479     9.1071 m
   18.8384     9.0095 l
   18.4479     8.9119 l
s
gs
   17.1348     9.3410 m
    0.0000 rotate
pol1 [    0.5566 0 0    1.2432 0 0 ] mf
(47) h gr
gs
   17.1135    17.7020 m
    0.0000 rotate
pol1 [    0.4025 0    0.1079     0.8771 0 0 ] mf
(VOC) h gr
gs
   19.7930    17.1185 m
   90.0000 rotate
pol1 [    0.2617 0    0.0701     0.6209 0 0 ] mf
(absorbor) h gr
n
   10.3485    16.5182 m
    9.6969    18.5514 l
    1.7367    18.5514 l
s
n
   10.3223    16.9199 m
   10.3485    16.5182 l
   10.1364    16.8603 l
s
gs
    2.2547    18.8829 m
    0.0000 rotate
pol1 [    0.4616 0    0.1237     1.2432 0 0 ] mf
(stainless steel) h gr
gs
    1.1723    14.5840 m
    0.0000 rotate
pol1 [    0.4012 0    0.1075     1.2432 0 0 ] mf
(IP) h gr
n
   18.8331    10.6966 m
   18.8384    10.7018 l
s
n
   18.6650    10.6665 m
   18.8384    10.8399 l
s
n
   18.4969    10.6365 m
   18.8384    10.9779 l
s
n
   18.3288    10.6065 m
   18.8384    11.1160 l
s
n
   18.1607    10.5764 m
   18.8384    11.2540 l
s
n
   17.9927    10.5464 m
   18.8384    11.3921 l
s
n
   17.8246    10.5164 m
   18.8384    11.5302 l
s
n
   17.6565    10.4863 m
   18.8384    11.6682 l
s
n
   17.4884    10.4563 m
   18.8384    11.8063 l
s
n
   17.3203    10.4263 m
   18.8384    11.9443 l
s
n
   17.1522    10.3962 m
   18.8384    12.0824 l
s
n
   16.9841    10.3662 m
   18.8384    12.2204 l
s
n
   16.8160    10.3362 m
   18.8384    12.3585 l
s
n
   16.6480    10.3061 m
   18.8384    12.4965 l
s
n
   16.5443    10.3405 m
   18.8384    12.6346 l
s
n
   16.5443    10.4786 m
   18.8384    12.7726 l
s
n
   16.5443    10.6166 m
   18.8384    12.9107 l
s
n
   16.5443    10.7547 m
   18.8384    13.0487 l
s
n
   16.5443    10.8928 m
   18.8384    13.1868 l
s
n
   16.5443    11.0308 m
   18.7322    13.2187 l
s
n
   16.5443    11.1689 m
   18.5941    13.2187 l
s
n
   16.5443    11.3069 m
   18.4561    13.2187 l
s
n
   16.5443    11.4450 m
   18.3180    13.2187 l
s
n
   16.5443    11.5830 m
   18.1800    13.2187 l
s
n
   16.5443    11.7211 m
   18.0419    13.2187 l
s
n
   16.5443    11.8591 m
   17.9039    13.2187 l
s
n
   16.5443    11.9972 m
   17.7658    13.2187 l
s
n
   16.5443    12.1352 m
   17.6278    13.2187 l
s
n
   16.5443    12.2733 m
   17.4897    13.2187 l
s
n
   16.5443    12.4114 m
   17.3517    13.2187 l
s
n
   16.5443    12.5494 m
   17.2136    13.2187 l
s
n
   16.5443    12.6875 m
   17.0756    13.2187 l
s
n
   16.5443    12.8255 m
   16.9375    13.2187 l
s
n
   16.5443    12.9636 m
   16.7994    13.2187 l
s
n
   16.5443    13.1016 m
   16.6614    13.2187 l
s
n
   18.8328    16.9087 m
   18.8384    16.9143 l
s
n
   18.6947    16.9087 m
   18.8384    17.0523 l
s
n
   18.5567    16.9087 m
   18.8384    17.1904 l
s
n
   18.4186    16.9087 m
   18.8384    17.3284 l
s
n
   18.2806    16.9087 m
   18.8384    17.4665 l
s
n
   18.1425    16.9087 m
   18.8384    17.6045 l
s
n
   18.0045    16.9087 m
   18.8384    17.7426 l
s
n
   17.8664    16.9087 m
   18.4770    17.5193 l
s
n
   18.5952    17.6374 m
   18.8384    17.8806 l
s
n
   17.7284    16.9087 m
   18.3390    17.5193 l
s
n
   18.5952    17.7755 m
   18.8384    18.0187 l
s
n
   17.5903    16.9087 m
   18.2009    17.5193 l
s
n
   18.5951    17.9135 m
   18.8384    18.1568 l
s
n
   17.4523    16.9087 m
   18.0629    17.5193 l
s
n
   18.5951    18.0516 m
   18.8384    18.2948 l
s
n
   17.3142    16.9087 m
   17.9248    17.5193 l
s
n
   18.5952    18.1897 m
   18.8384    18.4329 l
s
n
   17.1761    16.9087 m
   17.7868    17.5193 l
s
n
   18.5951    18.3277 m
   18.8384    18.5709 l
s
n
   17.0381    16.9087 m
   17.6487    17.5193 l
s
n
   18.5952    18.4658 m
   18.8384    18.7090 l
s
n
   16.9000    16.9087 m
   17.5107    17.5193 l
s
n
   18.4608    18.4695 m
   18.8384    18.8470 l
s
n
   16.7620    16.9087 m
   17.3726    17.5193 l
s
n
   18.3228    18.4695 m
   18.8384    18.9851 l
s
n
   16.6239    16.9087 m
   17.2345    17.5193 l
s
n
   18.1847    18.4695 m
   18.8384    19.1231 l
s
n
   16.5443    16.9671 m
   17.0965    17.5193 l
s
n
   18.0467    18.4695 m
   18.8384    19.2612 l
s
n
   16.5443    17.1052 m
   16.9584    17.5193 l
s
n
   17.9086    18.4695 m
   18.8384    19.3992 l
s
n
   16.5443    17.2432 m
   16.8394    17.5384 l
s
n
   17.7706    18.4695 m
   18.6923    19.3912 l
s
n
   16.5443    17.3813 m
   16.8394    17.6764 l
s
n
   17.6325    18.4695 m
   18.5046    19.3416 l
s
n
   16.5443    17.5194 m
   16.8394    17.8145 l
s
n
   17.4945    18.4695 m
   18.3168    19.2919 l
s
n
   16.5443    17.6574 m
   16.8394    17.9525 l
s
n
   17.3564    18.4695 m
   18.1291    19.2422 l
s
n
   16.5443    17.7955 m
   16.8394    18.0906 l
s
n
   17.2183    18.4695 m
   17.9413    19.1925 l
s
n
   16.5443    17.9335 m
   16.8394    18.2286 l
s
n
   17.0803    18.4695 m
   17.7536    19.1428 l
s
n
   16.5443    18.0716 m
   16.8394    18.3667 l
s
n
   16.9422    18.4695 m
   17.5659    19.0931 l
s
n
   16.5443    18.2096 m
   17.3781    19.0434 l
s
n
   16.5443    18.3477 m
   17.1904    18.9938 l
s
n
   16.5443    18.4857 m
   17.0026    18.9441 l
s
n
   16.5443    18.6238 m
   16.8149    18.8944 l
s
n
   16.5443    18.7618 m
   16.6272    18.8447 l
s
n
   19.8995    13.0494 m
   19.7301    13.2187 l
s
n
   19.8995    12.8423 m
   19.5231    13.2187 l
s
n
   19.8995    12.6352 m
   19.3160    13.2187 l
s
n
   19.8995    12.4281 m
   19.1312    13.1964 l
s
n
   19.8995    12.2211 m
   19.1312    12.9893 l
s
n
   19.8995    12.0140 m
   19.1312    12.7822 l
s
n
   19.8995    11.8069 m
   19.1312    12.5751 l
s
n
   19.8995    11.5998 m
   19.1312    12.3681 l
s
n
   19.8995    11.3927 m
   19.1312    12.1610 l
s
n
   19.8995    11.1857 m
   19.1312    11.9539 l
s
n
   19.8995    10.9786 m
   19.1312    11.7468 l
s
n
   19.8014    10.8696 m
   19.1312    11.5397 l
s
n
   19.6257    10.8382 m
   19.1312    11.3326 l
s
n
   19.4500    10.8068 m
   19.1312    11.1256 l
s
n
   19.2743    10.7754 m
   19.1312    10.9185 l
s
n
   19.8995    19.6760 m
   19.8720    19.7034 l
s
n
   19.8995    19.4689 m
   19.7083    19.6601 l
s
n
   19.7553    19.4060 m
   19.5445    19.6168 l
s
n
   19.5482    19.4060 m
   19.3808    19.5734 l
s
n
   19.3411    19.4060 m
   19.2170    19.5301 l
s
n
   19.2498    19.2903 m
   19.1312    19.4088 l
s
n
   19.2498    19.0832 m
   19.1312    19.2017 l
s
n
   19.2498    18.8761 m
   19.1312    18.9947 l
s
n
   19.2498    18.6690 m
   19.1312    18.7876 l
s
n
   19.2498    18.4620 m
   19.1312    18.5805 l
s
n
   19.2498    18.2549 m
   19.1312    18.3734 l
s
n
   19.2498    18.0478 m
   19.1312    18.1663 l
s
n
   19.2498    17.8407 m
   19.1312    17.9592 l
s
n
   19.2498    17.6336 m
   19.1312    17.7522 l
s
n
   19.7676    16.9087 m
   19.7518    16.9245 l
s
n
   19.2498    17.4265 m
   19.1312    17.5451 l
s
n
   19.5605    16.9087 m
   19.5447    16.9245 l
s
n
   19.2498    17.2195 m
   19.1312    17.3380 l
s
n
   19.3534    16.9087 m
   19.3376    16.9245 l
s
n
   19.2498    17.0124 m
   19.1312    17.1309 l
s
n
   19.1464    16.9087 m
   19.1312    16.9238 l
s

sp
%%Trailer
%%Pages:   1
%%EOF

%%EndDocument
%%Trailer
