%!PS-Adobe-3.0 EPSF-3.0
%%BoundingBox: 47 150 567 724
%%Title: C:\users\essertaize\LASER_A4_A4PERCABS1.PS
%%Creator: GSview from C:\users\essertaize\LASER_A4_A4PERCABS1.PS
%%CreationDate: Mon Mar 14 15:22:48 2005
%%Pages: 1
%%EndComments
%%Page: 1 1
%%BeginDocument: C:\users\essertaize\LASER_A4_A4PERCABS1.PS
%![PS-Adobe-1.0]%%
%%[Status: Busy;Source: Serial 9]%%
%%[Creator: ]%%
%%[Title: Fichier Postscript]%%
%%[Creation Date: mon may 28 10:00:00 1990]%%
%%[DocumentFonts: Courier]%%
%%BoundingBox:         28         28        610        851
%%Pages: (atend)
%%[EndComments]%%
/c { setrgbcolor } def
/w { setlinewidth } def
/m { moveto } def
/l { lineto } def
/n { newpath } def
/h { show } def
/r { rotate } def
/e { ellipse } def
/cu { curveto } def
/sc { scale } def
/rc { rectclip } def
/ic { initclip } def
/cc { closepath clip } def
/sp { showpage } def
/tr { translate } def
/mf { makefont setfont } def
/gs { gsave } def
/gr { grestore } def
/s { stroke } def
/ISOdict 12 dict def
/ISOcode
{ ISOdict begin
/newcodes exch def/newfontname exch def/basefontname exch def
/basefontdict basefontname findfont def
/newfont basefontdict maxlength dict def
basefontdict {exch dup /FID ne {dup/Encoding eq
{exch dup length array copy newfont 3 1 roll put}
{exch newfont 3 1 roll put}ifelse}{pop pop}ifelse}forall 
newfont/FontName newfontname put
newcodes aload pop
newcodes length 2 idiv 
{newfont/Encoding get 3 1 roll put} repeat
newfontname newfont definefont pop end } def
/scandvec[
8#202/Ccedilla 8#203/Eacute 8#205/Odieresis 8#206/Udieresis
8#210/agrave 8#211/acircumflex 8#212/adieresis 8#215/ccedilia
8#216/eacute 8#217/egrave 8#220/ecircumflex 8#221/edieresis
8#224/icircumflex 8#225/idieresis 8#231/ocircumflex
8#232/odieresis 8#235/ugrave 8#236/ucircumflex
8#237/udieresis 8#251/copyright 8#313/Agrave
8#344/Acircumflex 8#345/Adieresis
8#346/Ecircumflex 8#350/Edieresis 8#351/Egrave
8#353/Icircumflex 8#354/Idieresis 8#357/Ocircumflex 
8#363/Ugrave 8#364/Ucircumflex ] def

%%[Definition d'une ellipse]%%
/ellipsedict 8 dict def
ellipsedict/mtrx matrix put
/ellipse { ellipsedict begin
/endangle exch def /startangle exch def
/yrad exch def /xrad exch def
/y exch def /x exch def
/savematrix mtrx currentmatrix def
x y translate xrad yrad scale
0 0 1 startangle endangle arc
savematrix setmatrix end } def

%%[Definition de la police de caracteres]%%
/Courier /Courier_ISO scandvec ISOcode
/pol1 /Courier_ISO findfont def
2 setlinejoin
[] 0 setdash

%%[c:/users/essertaize/A4PERCABS1              Name of the drawi]%%
%%[                                            User name        ]%%
%%[     10                                     Category         ]%%

%%[scale transformation in cm]%%
   28.3465    28.3465 sc
0 0 tr
0.013 w
%%Page:  0   1
    0.5000     0.5000    20.5000    28.9929 rc
0.034 w
n
   11.2751    22.8981 m
   11.2939    22.8903 l
   11.3554    22.8648 l
   11.5273    22.7936 l
   11.5605    22.7799 l
   11.5727    22.7748 l
s
n
   11.2751    22.8981 m
   11.2939    22.8903 l
   11.3554    22.8648 l
   11.5273    22.7936 l
   11.5605    22.7799 l
   11.5727    22.7748 l
s
n
   15.3085    21.1637 m
   15.3148    21.1596 l
s
n
   15.5695    20.9893 m
   15.5758    20.9852 l
s
n
   15.7549    21.0979 m
   15.7718    21.0867 l
   15.8272    21.0496 l
   15.9819    20.9463 l
   16.0117    20.9263 l
   16.0227    20.9190 l
s
n
   15.8146    21.1872 m
   15.8315    21.1759 l
   15.8868    21.1389 l
   16.0416    21.0356 l
   16.0714    21.0156 l
   16.0824    21.0083 l
s
n
   15.9871    20.7103 m
   15.9933    20.7062 l
s
n
   18.6517    15.5215 m
   18.6439    15.5403 l
   18.6184    15.6019 l
   18.5472    15.7738 l
   18.5335    15.8069 l
   18.5284    15.8191 l
s
n
   18.6517    15.5215 m
   18.6439    15.5403 l
   18.6184    15.6019 l
   18.5472    15.7738 l
   18.5335    15.8069 l
   18.5284    15.8191 l
s
n
   17.7673    18.2828 m
   17.7631    18.2891 l
s
n
   16.9173    19.5550 m
   16.9131    19.5612 l
s
n
   16.7429    19.8160 m
   16.7387    19.8222 l
s
n
   16.8515    20.0013 m
   16.8402    20.0182 l
   16.8032    20.0736 l
   16.6998    20.2283 l
   16.6799    20.2582 l
   16.6725    20.2692 l
s
n
   16.9408    20.0610 m
   16.9295    20.0779 l
   16.8925    20.1333 l
   16.7891    20.2880 l
   16.7692    20.3178 l
   16.7618    20.3288 l
s
n
   16.4639    20.2335 m
   16.4597    20.2398 l
s
n
   18.6517    14.4713 m
   18.6439    14.4526 l
   18.6184    14.3910 l
   18.5472    14.2191 l
   18.5335    14.1859 l
   18.5284    14.1737 l
s
n
   18.6517    14.4713 m
   18.6439    14.4526 l
   18.6184    14.3910 l
   18.5472    14.2191 l
   18.5335    14.1859 l
   18.5284    14.1737 l
s
n
   17.7673    11.7100 m
   17.7631    11.7038 l
s
n
   16.9173    10.4379 m
   16.9131    10.4316 l
s
n
   16.7429    10.1769 m
   16.7387    10.1706 l
s
n
   16.8515     9.9915 m
   16.8402     9.9746 l
   16.8032     9.9192 l
   16.6998     9.7645 l
   16.6799     9.7347 l
   16.6725     9.7237 l
s
n
   16.9408     9.9319 m
   16.9295     9.9150 l
   16.8925     9.8596 l
   16.7891     9.7049 l
   16.7692     9.6750 l
   16.7618     9.6640 l
s
n
   16.4639     9.7593 m
   16.4597     9.7531 l
s
n
   11.2751     7.0948 m
   11.2939     7.1025 l
   11.3554     7.1280 l
   11.5273     7.1992 l
   11.5605     7.2130 l
   11.5727     7.2180 l
s
n
   11.2751     7.0948 m
   11.2939     7.1025 l
   11.3554     7.1280 l
   11.5273     7.1992 l
   11.5605     7.2130 l
   11.5727     7.2180 l
s
n
   14.0364     7.9791 m
   14.0427     7.9833 l
s
n
   15.3085     8.8291 m
   15.3148     8.8333 l
s
n
   15.5695     9.0035 m
   15.5758     9.0077 l
s
n
   15.7549     8.8949 m
   15.7718     8.9062 l
   15.8272     8.9432 l
   15.9819     9.0466 l
   16.0117     9.0665 l
   16.0227     9.0739 l
s
n
   15.8146     8.8056 m
   15.8315     8.8169 l
   15.8868     8.8539 l
   16.0416     8.9573 l
   16.0714     8.9772 l
   16.0824     8.9846 l
s
n
   15.9871     9.2825 m
   15.9933     9.2867 l
s
n
   10.2249     7.0948 m
   10.2061     7.1025 l
   10.1446     7.1280 l
    9.9727     7.1992 l
    9.9395     7.2130 l
    9.9273     7.2180 l
s
n
   10.2249     7.0948 m
   10.2061     7.1025 l
   10.1446     7.1280 l
    9.9727     7.1992 l
    9.9395     7.2130 l
    9.9273     7.2180 l
s
n
    7.4636     7.9791 m
    7.4573     7.9833 l
s
n
    6.1915     8.8291 m
    6.1852     8.8333 l
s
n
    5.9305     9.0035 m
    5.9242     9.0077 l
s
n
    5.7451     8.8949 m
    5.7282     8.9062 l
    5.6728     8.9432 l
    5.5181     9.0466 l
    5.4883     9.0665 l
    5.4773     9.0739 l
s
n
    5.6854     8.8056 m
    5.6685     8.8169 l
    5.6132     8.8539 l
    5.4584     8.9573 l
    5.4286     8.9772 l
    5.4176     8.9846 l
s
n
    5.5129     9.2825 m
    5.5067     9.2867 l
s
n
    2.8483    14.4713 m
    2.8561    14.4526 l
    2.8816    14.3910 l
    2.9528    14.2191 l
    2.9665    14.1859 l
    2.9716    14.1737 l
s
n
    2.8483    14.4713 m
    2.8561    14.4526 l
    2.8816    14.3910 l
    2.9528    14.2191 l
    2.9665    14.1859 l
    2.9716    14.1737 l
s
n
    3.7327    11.7100 m
    3.7369    11.7038 l
s
n
    4.5827    10.4379 m
    4.5869    10.4316 l
s
n
    4.7571    10.1769 m
    4.7613    10.1706 l
s
n
    4.6485     9.9915 m
    4.6598     9.9746 l
    4.6968     9.9192 l
    4.8002     9.7645 l
    4.8201     9.7347 l
    4.8275     9.7237 l
s
n
    4.5592     9.9319 m
    4.5705     9.9150 l
    4.6075     9.8596 l
    4.7109     9.7049 l
    4.7308     9.6750 l
    4.7382     9.6640 l
s
n
    5.0361     9.7593 m
    5.0403     9.7531 l
s
n
    2.8483    15.5215 m
    2.8561    15.5403 l
    2.8816    15.6019 l
    2.9528    15.7738 l
    2.9665    15.8069 l
    2.9716    15.8191 l
s
n
    2.8483    15.5215 m
    2.8561    15.5403 l
    2.8816    15.6019 l
    2.9528    15.7738 l
    2.9665    15.8069 l
    2.9716    15.8191 l
s
n
    3.7327    18.2828 m
    3.7369    18.2891 l
s
n
    4.5827    19.5550 m
    4.5869    19.5612 l
s
n
    4.7571    19.8160 m
    4.7613    19.8222 l
s
n
    4.6485    20.0013 m
    4.6598    20.0182 l
    4.6968    20.0736 l
    4.8002    20.2283 l
    4.8201    20.2582 l
    4.8275    20.2692 l
s
n
    4.5592    20.0610 m
    4.5705    20.0779 l
    4.6075    20.1333 l
    4.7109    20.2880 l
    4.7308    20.3178 l
    4.7382    20.3288 l
s
n
    5.0361    20.2335 m
    5.0403    20.2398 l
s
n
   10.2249    22.8981 m
   10.2061    22.8903 l
   10.1446    22.8648 l
    9.9727    22.7936 l
    9.9395    22.7799 l
    9.9273    22.7748 l
s
n
   10.2249    22.8981 m
   10.2061    22.8903 l
   10.1446    22.8648 l
    9.9727    22.7936 l
    9.9395    22.7799 l
    9.9273    22.7748 l
s
n
    7.4636    22.0137 m
    7.4573    22.0096 l
s
n
    6.1915    21.1637 m
    6.1852    21.1596 l
s
n
    5.9305    20.9893 m
    5.9242    20.9852 l
s
n
    5.7451    21.0979 m
    5.7282    21.0867 l
    5.6728    21.0496 l
    5.5181    20.9463 l
    5.4883    20.9263 l
    5.4773    20.9190 l
s
n
    5.6854    21.1872 m
    5.6685    21.1759 l
    5.6132    21.1389 l
    5.4584    21.0356 l
    5.4286    21.0156 l
    5.4176    21.0083 l
s
n
    5.5129    20.7103 m
    5.5067    20.7062 l
s
n
   11.6089    22.6362 m
   11.6037    22.6372    11.6010    22.6377    11.6010    22.6377 cu
s
n
   11.2082    22.7159 m
   11.2030    22.7169    11.2003    22.7175    11.2003    22.7175 cu
s
n
   10.8099    22.7951 m
   10.8090    22.7953    10.8082    22.7955    10.8074    22.7956 cu
s
n
   13.7754    22.1881 m
   13.7751    22.1883 l
s
n
   15.9867    20.8656 m
   15.9870    20.8654 l
s
n
   17.9417    18.0219 m
   17.9419    18.0216 l
s
n
   16.6192    20.2331 m
   16.6190    20.2334 l
s
n
   18.3898    15.8554 m
   18.3908    15.8501    18.3913    15.8475    18.3913    15.8475 cu
s
n
   18.4695    15.4546 m
   18.4705    15.4494    18.4710    15.4467    18.4710    15.4467 cu
s
n
   18.5487    15.0564 m
   18.5489    15.0555    18.5490    15.0546    18.5492    15.0538 cu
s
n
    3.1102    15.8554 m
    3.1092    15.8501     3.1087    15.8475     3.1087    15.8475 cu
s
n
    3.0305    15.4546 m
    3.0295    15.4494     3.0290    15.4467     3.0290    15.4467 cu
s
n
    2.9513    15.0564 m
    2.9511    15.0555     2.9510    15.0546     2.9508    15.0538 cu
s
n
    3.5583    18.0219 m
    3.5581    18.0216 l
s
n
    4.8808    20.2331 m
    4.8810    20.2334 l
s
n
    7.7246    22.1881 m
    7.7249    22.1883 l
s
n
    5.5133    20.8656 m
    5.5130    20.8654 l
s
n
    9.8911    22.6362 m
    9.8963    22.6372     9.8990    22.6377     9.8990    22.6377 cu
s
n
   10.2918    22.7159 m
   10.2970    22.7169    10.2997    22.7175    10.2997    22.7175 cu
s
n
   10.6901    22.7951 m
   10.6910    22.7953    10.6918    22.7955    10.6926    22.7956 cu
s
n
   18.3898    14.1375 m
   18.3908    14.1427    18.3913    14.1454    18.3913    14.1454 cu
s
n
   18.4695    14.5383 m
   18.4705    14.5435    18.4710    14.5462    18.4710    14.5462 cu
s
n
   18.5487    14.9365 m
   18.5489    14.9374    18.5490    14.9382    18.5492    14.9390 cu
s
n
   17.9417    11.9710 m
   17.9419    11.9713 l
s
n
   16.6192     9.7598 m
   16.6190     9.7595 l
s
n
   13.7754     7.8047 m
   13.7751     7.8045 l
s
n
   15.9867     9.1272 m
   15.9870     9.1274 l
s
n
   11.6089     7.3567 m
   11.6037     7.3556    11.6010     7.3551    11.6010     7.3551 cu
s
n
   11.2082     7.2770 m
   11.2030     7.2759    11.2003     7.2754    11.2003     7.2754 cu
s
n
   10.8100     7.1978 m
   10.8090     7.1976    10.8082     7.1974    10.8074     7.1972 cu
s
n
    9.8911     7.3567 m
    9.8963     7.3556     9.8990     7.3551     9.8990     7.3551 cu
s
n
   10.2918     7.2770 m
   10.2970     7.2759    10.2997     7.2754    10.2997     7.2754 cu
s
n
   10.6900     7.1978 m
   10.6910     7.1976    10.6918     7.1974    10.6926     7.1972 cu
s
n
    7.7246     7.8047 m
    7.7249     7.8045 l
s
n
    5.5133     9.1272 m
    5.5130     9.1274 l
s
n
    3.5583    11.9710 m
    3.5581    11.9713 l
s
n
    4.8808     9.7598 m
    4.8810     9.7595 l
s
n
    3.1102    14.1375 m
    3.1092    14.1427     3.1087    14.1454     3.1087    14.1454 cu
s
n
    3.0305    14.5383 m
    3.0295    14.5435     3.0290    14.5462     3.0290    14.5462 cu
s
n
    2.9513    14.9365 m
    2.9511    14.9374     2.9510    14.9382     2.9508    14.9390 cu
s
n
   10.7178     7.1524 m
   10.7822     7.1524 l
s
n
   10.7178    14.0837 m
   10.7822    14.0837 l
s
n
    2.8080    14.9964 m
    2.9394    14.9964 l
s
n
   18.5606    14.9964 m
   18.6920    14.9964 l
s
n
    3.8777    15.0179 m
    6.5837    15.0179 l
s
n
    6.6051    15.0072 m
    8.2158    15.0072 l
s
n
    9.2252    15.0072 m
    9.7729    15.0072 l
s
n
    8.2373    15.0072 m
    9.2038    15.0072 l
s
n
    3.8777    14.9750 m
    6.5837    14.9750 l
s
n
    6.6051    14.9857 m
    8.2158    14.9857 l
s
n
    9.2252    14.9857 m
    9.7729    14.9857 l
s
n
    8.2373    14.9857 m
    9.2038    14.9857 l
s
n
   14.9163    14.9750 m
   17.6223    14.9750 l
s
n
   13.2842    14.9857 m
   14.8949    14.9857 l
s
n
   11.7271    14.9857 m
   12.2748    14.9857 l
s
n
   12.2962    14.9857 m
   13.2627    14.9857 l
s
n
   14.9163    15.0179 m
   17.6223    15.0179 l
s
n
   13.2842    15.0072 m
   14.8949    15.0072 l
s
n
   11.7271    15.0072 m
   12.2748    15.0072 l
s
n
   12.2962    15.0072 m
   13.2627    15.0072 l
s
n
   10.7178    15.9092 m
   10.7822    15.9092 l
s
n
   10.7178    22.8405 m
   10.7822    22.8405 l
s
n
   10.7500     7.0544 m
   10.7500     7.1858 l
s
n
   10.7500    22.8070 m
   10.7500    22.9384 l
s
n
   10.7822     7.1265 m
   10.7822     7.1524 l
s
n
   10.7178     7.1265 m
   10.7178     7.1524 l
s
n
   10.7822    22.8405 m
   10.7822    22.8663 l
s
n
   10.7178    22.8405 m
   10.7178    22.8663 l
s
n
   10.6856    14.0214 m
   10.6856    14.0321 l
s
n
   10.6856    13.4515 m
   10.6856    13.4730 l
s
n
   10.6856    12.4631 m
   10.6856    12.4845 l
s
n
   10.6856    10.8305 m
   10.6856    10.8520 l
s
n
   10.6856     7.1996 m
   10.6856     8.1243 l
s
n
   10.6856    21.8685 m
   10.6856    22.7932 l
s
n
   10.6856    19.1408 m
   10.6856    19.1623 l
s
n
   10.6856    17.5083 m
   10.6856    17.5298 l
s
n
   10.6856    16.5199 m
   10.6856    16.5414 l
s
n
   10.6856    15.9607 m
   10.6856    15.9715 l
s
n
   10.7285     8.1241 m
   10.7285    10.8301 l
s
n
   10.7393    10.8515 m
   10.7393    12.4623 l
s
n
   10.7393    13.4717 m
   10.7393    14.0193 l
s
n
   10.7393    12.4837 m
   10.7393    13.4502 l
s
n
   10.7715     8.1241 m
   10.7715    10.8301 l
s
n
   10.7607    10.8515 m
   10.7607    12.4623 l
s
n
   10.7607    13.4717 m
   10.7607    14.0193 l
s
n
   10.7607    12.4837 m
   10.7607    13.4502 l
s
n
   10.7715    19.1628 m
   10.7715    21.8688 l
s
n
   10.7607    17.5306 m
   10.7607    19.1413 l
s
n
   10.7607    15.9735 m
   10.7607    16.5212 l
s
n
   10.7607    16.5427 m
   10.7607    17.5091 l
s
n
   10.7285    19.1628 m
   10.7285    21.8688 l
s
n
   10.7393    17.5306 m
   10.7393    19.1413 l
s
n
   10.7393    15.9735 m
   10.7393    16.5212 l
s
n
   10.7393    16.5427 m
   10.7393    17.5091 l
s
n
   10.7178    15.8549 m
   10.7178    15.9092 l
s
n
   10.7822    15.9092 m
   10.7822    15.9623 l
s
n
   10.7822    14.0305 m
   10.7822    14.0837 l
s
n
   10.7178    14.0837 m
   10.7178    14.1380 l
s
n
    2.8737    14.9964 m
    3.4733    11.9823 l
s
n
    2.8080    14.9964 m
    3.4126    11.9572 l
s
n
    2.9394    14.9964 m
    3.5339    12.0074 l
s
n
   18.0267    18.0106 m
   18.6263    14.9964 l
s
n
   18.0874    18.0357 m
   18.6920    14.9964 l
s
n
   17.9661    17.9854 m
   18.5606    14.9964 l
s
n
    9.3608    22.5307 m
    9.4027    22.3201 l
s
n
    9.1502    22.4888 m
    9.1921    22.2782 l
s
n
    3.4264    13.6491 m
    3.4683    13.4385 l
s
n
   12.0973     7.6728 m
   12.1392     7.4622 l
s
n
   12.3079     7.7147 m
   12.3498     7.5040 l
s
n
   18.0317    16.5543 m
   18.0736    16.3437 l
s
n
   13.7390     7.7804 m
   13.7893     7.6590 l
s
n
    7.7107    22.3339 m
    7.7610    22.2125 l
s
n
   12.3642    11.1555 m
   13.3998     8.6554 l
s
n
   12.3245    11.1390 m
   13.3601     8.6390 l
s
n
   11.7297    12.6593 m
   12.3461    11.1712 l
s
n
   11.7099    12.6511 m
   12.3263    11.1629 l
s
n
    8.1002    21.3374 m
    9.1358    18.8374 l
s
n
    8.1399    21.3539 m
    9.1755    18.8538 l
s
n
    9.1539    18.8217 m
    9.7703    17.3336 l
s
n
    9.1737    18.8299 m
    9.7901    17.3418 l
s
n
   10.4542    23.1391 m
   10.4953    23.0399 l
s
n
   10.3352    23.0898 m
   10.3763    22.9906 l
s
n
   10.5846    23.0769 m
   10.6502    22.9186 l
s
n
   10.2870    22.9536 m
   10.3281    22.8545 l
s
n
   10.3783    22.7331 m
   10.4021    22.6758 l
s
n
   10.6203    22.7662 m
   10.6450    22.7067 l
s
n
   10.4814    22.7087 m
   10.5061    22.6492 l
s
n
   10.0534    23.0595 m
   10.0945    22.9603 l
s
n
    9.9344    23.0102 m
    9.9755    22.9110 l
s
n
   10.1838    22.9973 m
   10.2494    22.8388 l
s
n
    9.8862    22.8740 m
    9.9273    22.7748 l
s
n
    9.9776    22.6534 m
   10.0012    22.5962 l
s
n
   10.2195    22.6867 m
   10.2442    22.6271 l
s
n
   10.0806    22.6291 m
   10.1053    22.5696 l
s
n
    9.6527    22.9797 m
    9.6938    22.8805 l
s
n
    9.5337    22.9304 m
    9.5748    22.8312 l
s
n
    9.7831    22.9175 m
    9.8487    22.7591 l
s
n
    9.4855    22.7942 m
    9.5265    22.6951 l
s
n
    9.5768    22.5737 m
    9.6005    22.5164 l
s
n
    9.8188    22.6068 m
    9.8434    22.5473 l
s
n
    9.6799    22.5493 m
    9.7045    22.4898 l
s
n
    7.7489    22.5766 m
    7.7900    22.4774 l
s
n
    7.8679    22.6259 m
    7.9090    22.5267 l
s
n
    7.7007    22.4404 m
    7.7422    22.3401 l
s
n
    7.9983    22.5637 m
    8.0643    22.4042 l
s
n
    7.7925    22.2187 m
    7.8157    22.1626 l
s
n
    7.8951    22.1955 m
    7.9197    22.1359 l
s
n
    8.0340    22.2530 m
    8.0586    22.1935 l
s
n
   11.0047     6.9530 m
   11.0458     6.8538 l
s
n
   11.1237     7.0023 m
   11.1648     6.9031 l
s
n
   10.8498     7.0743 m
   10.9154     6.9160 l
s
n
   11.1719     7.1384 m
   11.2130     7.0393 l
s
n
   11.0979     7.3170 m
   11.1217     7.2598 l
s
n
   10.8550     7.2862 m
   10.8797     7.2266 l
s
n
   10.9939     7.3437 m
   11.0186     7.2842 l
s
n
   11.4055     7.0325 m
   11.4466     6.9333 l
s
n
   11.5245     7.0819 m
   11.5656     6.9826 l
s
n
   11.2506     7.1540 m
   11.3162     6.9956 l
s
n
   11.5727     7.2180 m
   11.6138     7.1188 l
s
n
   11.4988     7.3966 m
   11.5224     7.3395 l
s
n
   11.2558     7.3657 m
   11.2805     7.3062 l
s
n
   11.3947     7.4233 m
   11.4194     7.3637 l
s
n
   11.8062     7.1123 m
   11.8473     7.0131 l
s
n
   11.9252     7.1617 m
   11.9663     7.0624 l
s
n
   11.6513     7.2337 m
   11.7169     7.0754 l
s
n
   11.9735     7.2978 m
   12.0145     7.1986 l
s
n
   11.8995     7.4764 m
   11.9232     7.4192 l
s
n
   11.6566     7.4455 m
   11.6812     7.3860 l
s
n
   11.7955     7.5031 m
   11.8201     7.4435 l
s
n
   13.7100     7.5155 m
   13.7511     7.4163 l
s
n
   13.5910     7.4662 m
   13.6321     7.3670 l
s
n
   13.7578     7.6527 m
   13.7993     7.5525 l
s
n
   13.4357     7.5887 m
   13.5017     7.4292 l
s
n
   13.6843     7.8303 m
   13.7075     7.7741 l
s
n
   13.5802     7.8569 m
   13.6049     7.7974 l
s
n
   13.4414     7.7994 m
   13.4660     7.7399 l
s
n
    2.6073    14.7007 m
    2.6566    14.5816 l
s
n
    2.6695    14.8311 m
    2.7928    14.5334 l
s
n
    2.7688    14.8721 m
    2.8918    14.5751 l
s
n
    2.9514    14.9362 m
    3.0706    14.6485 l
s
n
    3.0397    14.8914 m
    3.0973    14.7525 l
s
n
    2.6869    14.2999 m
    2.7362    14.1808 l
s
n
    2.7491    14.4302 m
    2.8724    14.1326 l
s
n
    3.0313    14.5348 m
    3.1502    14.2477 l
s
n
    3.1193    14.4906 m
    3.1768    14.3517 l
s
n
    2.7667    13.8991 m
    2.8160    13.7801 l
s
n
    2.8289    14.0295 m
    2.9522    13.7319 l
s
n
    2.9281    14.0706 m
    3.0513    13.7732 l
s
n
    3.1109    14.1344 m
    3.2300    13.8470 l
s
n
    3.1991    14.0899 m
    3.2566    13.9510 l
s
n
    3.1205    12.1143 m
    3.1699    11.9953 l
s
n
    3.1828    12.2447 m
    3.3061    11.9471 l
s
n
    3.2820    12.2858 m
    3.4053    11.9882 l
s
n
    3.4669    12.3445 m
    3.5838    12.0622 l
s
n
    3.5530    12.3051 m
    3.6105    12.1662 l
s
n
   18.8434    15.4112 m
   18.8927    15.2922 l
s
n
   18.7072    15.4594 m
   18.8305    15.1618 l
s
n
   18.6082    15.4179 m
   18.7312    15.1207 l
s
n
   18.4294    15.3444 m
   18.5526    15.0469 l
s
n
   18.4027    15.2403 m
   18.4603    15.1015 l
s
n
   18.7638    15.8120 m
   18.8131    15.6930 l
s
n
   18.6276    15.8602 m
   18.7509    15.5626 l
s
n
   18.3498    15.7452 m
   18.4731    15.4476 l
s
n
   18.3232    15.6412 m
   18.3807    15.5023 l
s
n
   18.6840    16.2128 m
   18.7333    16.0937 l
s
n
   18.5478    16.2610 m
   18.6711    15.9633 l
s
n
   18.4487    16.2195 m
   18.5719    15.9222 l
s
n
   18.2700    16.1459 m
   18.3933    15.8483 l
s
n
   18.2434    16.0419 m
   18.3009    15.9030 l
s
n
   18.3301    17.9976 m
   18.3794    17.8785 l
s
n
   18.1939    18.0458 m
   18.3172    17.7481 l
s
n
   18.0947    18.0047 m
   18.2180    17.7070 l
s
n
   17.9162    17.9307 m
   18.0394    17.6331 l
s
n
   17.8895    17.8267 m
   17.9470    17.6878 l
s
n
    3.4733    11.9823 m
    5.1806     9.4270 l
s
n
    3.4126    11.9572 m
    5.1342     9.3806 l
s
n
    3.5339    12.0074 m
    5.2271     9.4735 l
s
n
   16.3194    20.5658 m
   18.0267    18.0106 l
s
n
   16.3658    20.6123 m
   18.0874    18.0357 l
s
n
   16.2729    20.5194 m
   17.9661    17.9854 l
s
n
    6.5833    21.4256 m
    6.7026    21.2470 l
s
n
    6.4048    21.3063 m
    6.5241    21.1277 l
s
n
    4.4994    10.9491 m
    4.6187    10.7705 l
s
n
   14.7974     8.7458 m
   14.9167     8.5673 l
s
n
   14.9759     8.8652 m
   15.0952     8.6866 l
s
n
   16.8813    19.2224 m
   17.0006    19.0438 l
s
n
    5.2062    20.9961 m
    5.2658    20.9068 l
s
n
    5.0990    20.9245 m
    5.1587    20.8353 l
s
n
    5.3462    20.9605 m
    5.4416    20.8177 l
s
n
    5.0783    20.7816 m
    5.1738    20.6387 l
s
n
    5.4418    20.6628 m
    5.4776    20.6092 l
s
n
    5.3168    20.5793 m
    5.3526    20.5257 l
s
n
    5.5454    21.2228 m
    5.6051    21.1335 l
s
n
    5.4383    21.1512 m
    5.4979    21.0620 l
s
n
    5.6854    21.1872 m
    5.7809    21.0444 l
s
n
    5.4176    21.0083 m
    5.5130    20.8654 l
s
n
    5.7811    20.8895 m
    5.8169    20.8359 l
s
n
    5.6561    20.8060 m
    5.6919    20.7524 l
s
n
    5.8847    21.4495 m
    5.9444    21.3602 l
s
n
    5.7776    21.3779 m
    5.8372    21.2887 l
s
n
    6.0247    21.4139 m
    6.1202    21.2711 l
s
n
    5.7569    21.2350 m
    5.8523    21.0921 l
s
n
    6.1203    21.1162 m
    6.1561    21.0626 l
s
n
    5.9953    21.0327 m
    6.0311    20.9791 l
s
n
    7.4178    22.4739 m
    7.4775    22.3846 l
s
n
    7.3107    22.4023 m
    7.3703    22.3130 l
s
n
    7.5578    22.4383 m
    7.6533    22.2955 l
s
n
    7.2900    22.2594 m
    7.3854    22.1165 l
s
n
    7.6535    22.1406 m
    7.6892    22.0870 l
s
n
    7.5285    22.0571 m
    7.5642    22.0035 l
s
n
   16.2342     9.0860 m
   16.2938     8.9967 l
s
n
   16.3413     9.1576 m
   16.4010     9.0683 l
s
n
   16.0584     9.1752 m
   16.1538     9.0323 l
s
n
   16.3262     9.3541 m
   16.4217     9.2113 l
s
n
   16.0224     9.3836 m
   16.0582     9.3300 l
s
n
   16.1474     9.4671 m
   16.1832     9.4136 l
s
n
   15.8949     8.8593 m
   15.9546     8.7700 l
s
n
   16.0020     8.9309 m
   16.0617     8.8416 l
s
n
   15.7191     8.9485 m
   15.8146     8.8056 l
s
n
   15.9870     9.1274 m
   16.0824     8.9846 l
s
n
   15.6831     9.1569 m
   15.7189     9.1033 l
s
n
   15.8081     9.2404 m
   15.8439     9.1869 l
s
n
   15.5556     8.6326 m
   15.6153     8.5433 l
s
n
   15.6628     8.7042 m
   15.7224     8.6149 l
s
n
   15.3798     8.7218 m
   15.4753     8.5789 l
s
n
   15.6477     8.9007 m
   15.7431     8.7579 l
s
n
   15.3439     8.9302 m
   15.3797     8.8766 l
s
n
   15.4689     9.0137 m
   15.5047     8.9602 l
s
n
   14.0225     7.6082 m
   14.0822     7.5189 l
s
n
   14.1297     7.6798 m
   14.1893     7.5905 l
s
n
   13.8467     7.6974 m
   13.9422     7.5545 l
s
n
   14.1146     7.8764 m
   14.2100     7.7335 l
s
n
   13.8108     7.9058 m
   13.8465     7.8523 l
s
n
   13.9358     7.9893 m
   13.9715     7.9358 l
s
n
    4.7503     9.4526 m
    4.8219     9.3454 l
s
n
    4.7859     9.5926 m
    4.9649     9.3247 l
s
n
    4.8752     9.6523 m
    5.0542     9.3844 l
s
n
    5.1372     9.7240 m
    5.2207     9.5990 l
s
n
    4.5236     9.7919 m
    4.5952     9.6847 l
s
n
    4.6485     9.9915 m
    4.8275     9.7237 l
s
n
    4.9105    10.0633 m
    4.9940     9.9383 l
s
n
    4.2969    10.1311 m
    4.3685    10.0240 l
s
n
    4.3325    10.2712 m
    4.5115    10.0033 l
s
n
    4.4218    10.3308 m
    4.6008    10.0630 l
s
n
    4.6838    10.4026 m
    4.7673    10.2776 l
s
n
    3.2725    11.6643 m
    3.3441    11.5571 l
s
n
    3.3081    11.8043 m
    3.4871    11.5364 l
s
n
    3.3974    11.8639 m
    3.5764    11.5961 l
s
n
    3.6594    11.9357 m
    3.7429    11.8107 l
s
n
   16.6781    20.6474 m
   16.7497    20.5403 l
s
n
   16.5351    20.6681 m
   16.7141    20.4003 l
s
n
   16.4458    20.6085 m
   16.6248    20.3406 l
s
n
   16.2793    20.3939 m
   16.3628    20.2689 l
s
n
   16.9048    20.3081 m
   16.9764    20.2010 l
s
n
   16.6726    20.2692 m
   16.8515    20.0013 l
s
n
   16.5060    20.0546 m
   16.5895    19.9296 l
s
n
   17.1315    19.9689 m
   17.2031    19.8617 l
s
n
   16.9885    19.9896 m
   17.1675    19.7217 l
s
n
   16.8993    19.9299 m
   17.0782    19.6620 l
s
n
   16.7327    19.7153 m
   16.8162    19.5903 l
s
n
   18.1559    18.4357 m
   18.2275    18.3286 l
s
n
   18.0129    18.4564 m
   18.1919    18.1886 l
s
n
   17.9237    18.3968 m
   18.1026    18.1289 l
s
n
   17.7571    18.1822 m
   17.8406    18.0572 l
s
n
   16.2729     9.4735 m
   16.3658     9.3806 l
s
n
    5.1342    20.6123 m
    5.2271    20.5194 l
s
n
    5.8753    19.8407 m
    7.7888    17.9273 l
s
n
    7.8115    17.9197 m
    8.9505    16.7808 l
s
n
    9.6642    16.0670 m
   10.0515    15.6798 l
s
n
    8.9657    16.7656 m
    9.6490    16.0822 l
s
n
   13.6809    12.0352 m
   15.5943    10.1218 l
s
n
   12.5343    13.1969 m
   13.6733    12.0580 l
s
n
   11.4333    14.2979 m
   11.8206    13.9107 l
s
n
   11.8358    13.8955 m
   12.5191    13.2121 l
s
n
   13.7112    12.0656 m
   15.6247    10.1521 l
s
n
   12.5495    13.2121 m
   13.6885    12.0731 l
s
n
   11.4485    14.3131 m
   11.8358    13.9258 l
s
n
   11.8510    13.9107 m
   12.5343    13.2273 l
s
n
    5.9057    19.8711 m
    7.8191    17.9577 l
s
n
    7.8267    17.9349 m
    8.9657    16.7959 l
s
n
    9.6794    16.0822 m
   10.0667    15.6949 l
s
n
    8.9809    16.7808 m
    9.6642    16.0974 l
s
n
    5.1806     9.4270 m
    7.7359     7.7197 l
s
n
    5.1342     9.3806 m
    7.7107     7.6590 l
s
n
    5.2271     9.4735 m
    7.7610     7.7804 l
s
n
    4.4402    19.3417 m
    4.6187    19.2224 l
s
n
    4.3208    19.1631 m
    4.4994    19.0438 l
s
n
    6.5241     8.8652 m
    6.7026     8.7458 l
s
n
   16.8813    10.7705 m
   17.0598    10.6512 l
s
n
   17.0006    10.9491 m
   17.1791    10.8298 l
s
n
   14.7974    21.2470 m
   14.9759    21.1277 l
s
n
   13.7390    22.2125 m
   16.2729    20.5194 l
s
n
   13.7641    22.2732 m
   16.3194    20.5658 l
s
n
   13.7893    22.3339 m
   16.3658    20.6123 l
s
n
    4.7503    20.5403 m
    4.8396    20.4806 l
s
n
    4.8219    20.6474 m
    4.9112    20.5878 l
s
n
    4.7859    20.4003 m
    4.9287    20.3048 l
s
n
    4.9649    20.6681 m
    5.1077    20.5727 l
s
n
    5.0836    20.3046 m
    5.1372    20.2689 l
s
n
    5.1671    20.4296 m
    5.2207    20.3939 l
s
n
    4.5236    20.2010 m
    4.6129    20.1413 l
s
n
    4.5952    20.3081 m
    4.6845    20.2485 l
s
n
    4.5592    20.0610 m
    4.7020    19.9655 l
s
n
    4.7382    20.3288 m
    4.8810    20.2334 l
s
n
    4.8569    19.9654 m
    4.9105    19.9296 l
s
n
    4.9404    20.0904 m
    4.9940    20.0546 l
s
n
    4.2969    19.8617 m
    4.3862    19.8021 l
s
n
    4.3685    19.9689 m
    4.4578    19.9092 l
s
n
    4.3325    19.7217 m
    4.4753    19.6263 l
s
n
    4.5115    19.9896 m
    4.6543    19.8941 l
s
n
    4.6302    19.6261 m
    4.6838    19.5903 l
s
n
    4.7137    19.7511 m
    4.7673    19.7153 l
s
n
    3.2725    18.3286 m
    3.3618    18.2689 l
s
n
    3.3441    18.4357 m
    3.4334    18.3761 l
s
n
    3.3081    18.1886 m
    3.4509    18.0931 l
s
n
    3.4871    18.4564 m
    3.6299    18.3610 l
s
n
    3.6058    18.0930 m
    3.6594    18.0572 l
s
n
    3.6893    18.2180 m
    3.7429    18.1822 l
s
n
   16.6604     9.5122 m
   16.7497     9.4526 l
s
n
   16.5888     9.4051 m
   16.6781     9.3454 l
s
n
   16.5713     9.6880 m
   16.7141     9.5926 l
s
n
   16.3923     9.4202 m
   16.5351     9.3247 l
s
n
   16.3628     9.7240 m
   16.4164     9.6882 l
s
n
   16.2793     9.5990 m
   16.3329     9.5632 l
s
n
   16.8871     9.8515 m
   16.9764     9.7919 l
s
n
   16.8155     9.7444 m
   16.9048     9.6847 l
s
n
   16.7980    10.0273 m
   16.9408     9.9319 l
s
n
   16.6190     9.7595 m
   16.7618     9.6640 l
s
n
   16.5895    10.0633 m
   16.6431    10.0275 l
s
n
   16.5060     9.9383 m
   16.5596     9.9025 l
s
n
   17.1138    10.1908 m
   17.2031    10.1311 l
s
n
   17.0422    10.0836 m
   17.1315    10.0240 l
s
n
   17.0247    10.3666 m
   17.1675    10.2711 l
s
n
   16.8457    10.0987 m
   16.9885    10.0033 l
s
n
   16.8162    10.4026 m
   16.8698    10.3668 l
s
n
   16.7327    10.2776 m
   16.7863    10.2418 l
s
n
   18.1382    11.7239 m
   18.2275    11.6642 l
s
n
   18.0666    11.6168 m
   18.1559    11.5571 l
s
n
   18.0491    11.8997 m
   18.1919    11.8043 l
s
n
   17.8701    11.6319 m
   18.0129    11.5364 l
s
n
   17.8406    11.9357 m
   17.8942    11.8999 l
s
n
   17.7571    11.8107 m
   17.8107    11.7749 l
s
n
    5.0990     9.0683 m
    5.2061     8.9967 l
s
n
    5.0783     9.2113 m
    5.3462     9.0323 l
s
n
    5.1380     9.3006 m
    5.4058     9.1216 l
s
n
    5.3526     9.4671 m
    5.4776     9.3836 l
s
n
    5.4383     8.8416 m
    5.5454     8.7700 l
s
n
    5.4772     9.0739 m
    5.7451     8.8949 l
s
n
    5.6919     9.2404 m
    5.8168     9.1569 l
s
n
    5.7776     8.6149 m
    5.8847     8.5433 l
s
n
    5.7569     8.7579 m
    6.0247     8.5789 l
s
n
    5.8165     8.8472 m
    6.0844     8.6682 l
s
n
    6.0311     9.0137 m
    6.1561     8.9302 l
s
n
    7.3107     7.5905 m
    7.4178     7.5189 l
s
n
    7.2900     7.7335 m
    7.5578     7.5545 l
s
n
    7.3496     7.8228 m
    7.6175     7.6438 l
s
n
    7.5642     7.9893 m
    7.6892     7.9058 l
s
n
   16.2939    20.9961 m
   16.4010    20.9245 l
s
n
   16.1538    20.9605 m
   16.4217    20.7816 l
s
n
   16.0942    20.8713 m
   16.3620    20.6923 l
s
n
   16.0224    20.6092 m
   16.1474    20.5257 l
s
n
   15.9546    21.2228 m
   16.0617    21.1512 l
s
n
   15.7549    21.0980 m
   16.0228    20.9190 l
s
n
   15.6831    20.8359 m
   15.8081    20.7524 l
s
n
   15.6153    21.4495 m
   15.7224    21.3779 l
s
n
   15.4753    21.4139 m
   15.7431    21.2350 l
s
n
   15.4156    21.3247 m
   15.6835    21.1457 l
s
n
   15.3439    21.0627 m
   15.4689    20.9791 l
s
n
   14.0822    22.4739 m
   14.1893    22.4023 l
s
n
   13.9422    22.4383 m
   14.2100    22.2594 l
s
n
   13.8825    22.3491 m
   14.1504    22.1701 l
s
n
   13.8108    22.0870 m
   13.9358    22.0035 l
s
n
   17.9661    12.0074 m
   18.0874    11.9572 l
s
n
    3.4126    18.0357 m
    3.5339    17.9854 l
s
n
    4.3926    17.6065 m
    6.8926    16.5710 l
s
n
    4.4090    17.6462 m
    6.9090    16.6107 l
s
n
    6.9165    16.5727 m
    8.4046    15.9563 l
s
n
    6.9247    16.5925 m
    8.4128    15.9761 l
s
n
   14.6074    13.4219 m
   17.1074    12.3863 l
s
n
   14.5910    13.3822 m
   17.0910    12.3467 l
s
n
   13.0954    14.0366 m
   14.5835    13.4202 l
s
n
   13.0872    14.0167 m
   14.5753    13.4003 l
s
n
    2.6073    15.2922 m
    2.7065    15.2511 l
s
n
    2.6566    15.4112 m
    2.7558    15.3701 l
s
n
    2.6696    15.1618 m
    2.8279    15.0962 l
s
n
    2.7928    15.4594 m
    2.8919    15.4184 l
s
n
    3.0133    15.3681 m
    3.0706    15.3444 l
s
n
    2.9802    15.1261 m
    3.0397    15.1015 l
s
n
    3.0377    15.2650 m
    3.0973    15.2403 l
s
n
    2.6869    15.6930 m
    2.7861    15.6519 l
s
n
    2.7362    15.8120 m
    2.8354    15.7710 l
s
n
    2.7491    15.5626 m
    2.9076    15.4970 l
s
n
    2.8724    15.8602 m
    2.9716    15.8191 l
s
n
    3.0930    15.7689 m
    3.1502    15.7452 l
s
n
    3.0598    15.5269 m
    3.1193    15.5023 l
s
n
    3.1173    15.6658 m
    3.1768    15.6412 l
s
n
    2.7667    16.0937 m
    2.8659    16.0526 l
s
n
    2.8160    16.2128 m
    2.9152    16.1717 l
s
n
    2.8289    15.9633 m
    2.9873    15.8977 l
s
n
    2.9522    16.2610 m
    3.0514    16.2199 l
s
n
    3.1728    16.1696 m
    3.2300    16.1459 l
s
n
    3.1396    15.9276 m
    3.1991    15.9030 l
s
n
    3.1971    16.0665 m
    3.2566    16.0419 l
s
n
    3.1699    17.9976 m
    3.2691    17.9565 l
s
n
    3.1206    17.8785 m
    3.2198    17.8374 l
s
n
    3.3061    18.0458 m
    3.4063    18.0042 l
s
n
    3.1828    17.7481 m
    3.3422    17.6821 l
s
n
    3.5277    17.9540 m
    3.5838    17.9307 l
s
n
    3.5510    17.8513 m
    3.6105    17.8267 l
s
n
    3.4934    17.7124 m
    3.5530    17.6878 l
s
n
   18.7935    14.7418 m
   18.8927    14.7007 l
s
n
   18.7441    14.6227 m
   18.8434    14.5816 l
s
n
   18.6721    14.8966 m
   18.8304    14.8311 l
s
n
   18.6081    14.5745 m
   18.7072    14.5334 l
s
n
   18.4294    14.6485 m
   18.4867    14.6248 l
s
n
   18.4603    14.8914 m
   18.5198    14.8667 l
s
n
   18.4027    14.7525 m
   18.4623    14.7279 l
s
n
   18.7139    14.3410 m
   18.8131    14.2999 l
s
n
   18.6646    14.2219 m
   18.7638    14.1808 l
s
n
   18.5924    14.4959 m
   18.7509    14.4302 l
s
n
   18.5284    14.1737 m
   18.6276    14.1326 l
s
n
   18.3498    14.2477 m
   18.4070    14.2240 l
s
n
   18.3807    14.4906 m
   18.4402    14.4659 l
s
n
   18.3232    14.3517 m
   18.3827    14.3270 l
s
n
   18.6341    13.9402 m
   18.7333    13.8991 l
s
n
   18.5848    13.8212 m
   18.6840    13.7801 l
s
n
   18.5127    14.0951 m
   18.6711    14.0295 l
s
n
   18.4486    13.7730 m
   18.5478    13.7319 l
s
n
   18.2700    13.8470 m
   18.3272    13.8232 l
s
n
   18.3009    14.0899 m
   18.3604    14.0652 l
s
n
   18.2434    13.9510 m
   18.3029    13.9263 l
s
n
   18.2309    12.0364 m
   18.3301    11.9953 l
s
n
   18.2802    12.1554 m
   18.3794    12.1143 l
s
n
   18.0937    11.9886 m
   18.1939    11.9471 l
s
n
   18.1578    12.3108 m
   18.3172    12.2447 l
s
n
   17.9162    12.0622 m
   17.9723    12.0389 l
s
n
   17.8895    12.1662 m
   17.9490    12.1415 l
s
n
   17.9470    12.3051 m
   18.0066    12.2804 l
s
n
   10.3352     6.9031 m
   10.4542     6.8538 l
s
n
   10.2870     7.0393 m
   10.5846     6.9160 l
s
n
   10.3286     7.1383 m
   10.6257     7.0152 l
s
n
   10.4021     7.3170 m
   10.6995     7.1938 l
s
n
   10.5061     7.3437 m
   10.6450     7.2862 l
s
n
    9.9344     6.9826 m
   10.0534     6.9333 l
s
n
    9.8862     7.1188 m
   10.1838     6.9956 l
s
n
   10.0012     7.3966 m
   10.2989     7.2733 l
s
n
   10.1053     7.4233 m
   10.2442     7.3657 l
s
n
    9.5337     7.0625 m
    9.6527     7.0131 l
s
n
    9.4855     7.1986 m
    9.7831     7.0754 l
s
n
    9.5269     7.2977 m
    9.8242     7.1746 l
s
n
    9.6005     7.4764 m
    9.8981     7.3532 l
s
n
    9.7045     7.5031 m
    9.8434     7.4455 l
s
n
    7.7489     7.4163 m
    7.8679     7.3670 l
s
n
    7.7007     7.5525 m
    7.9983     7.4292 l
s
n
    7.7418     7.6517 m
    8.0394     7.5284 l
s
n
    7.8157     7.8303 m
    8.1133     7.7070 l
s
n
    7.9198     7.8569 m
    8.0586     7.7994 l
s
n
   11.0458    23.1391 m
   11.1648    23.0898 l
s
n
   10.9154    23.0769 m
   11.2130    22.9536 l
s
n
   10.8743    22.9777 m
   11.1714    22.8546 l
s
n
   10.8102    22.7950 m
   11.0979    22.6758 l
s
n
   10.8550    22.7067 m
   10.9939    22.6492 l
s
n
   11.4466    23.0595 m
   11.5656    23.0102 l
s
n
   11.3162    22.9973 m
   11.6138    22.8740 l
s
n
   11.2116    22.7152 m
   11.4988    22.5962 l
s
n
   11.2558    22.6271 m
   11.3947    22.5696 l
s
n
   11.8473    22.9797 m
   11.9663    22.9304 l
s
n
   11.7169    22.9175 m
   12.0145    22.7942 l
s
n
   11.6758    22.8183 m
   11.9732    22.6951 l
s
n
   11.6120    22.6355 m
   11.8995    22.5164 l
s
n
   11.6566    22.5473 m
   11.7955    22.4898 l
s
n
   13.6321    22.6259 m
   13.7511    22.5766 l
s
n
   13.5017    22.5636 m
   13.7993    22.4404 l
s
n
   13.4606    22.4644 m
   13.7582    22.3412 l
s
n
   13.4019    22.2795 m
   13.6843    22.1626 l
s
n
   13.4414    22.1935 m
   13.5802    22.1359 l
s
n
    7.7359     7.7197 m
   10.7500     7.1201 l
s
n
    7.7107     7.6590 m
   10.7500     7.0544 l
s
n
    7.7610     7.7804 m
   10.7500     7.1858 l
s
n
    3.2576    16.5962 m
    3.4683    16.5543 l
s
n
    3.2157    16.3856 m
    3.4264    16.3437 l
s
n
    9.1921     7.7147 m
    9.4027     7.6728 l
s
n
   18.0317    13.4385 m
   18.2424    13.3966 l
s
n
   18.0736    13.6492 m
   18.2843    13.6073 l
s
n
   12.0973    22.3201 m
   12.3079    22.2782 l
s
n
   10.7500    22.8070 m
   13.7390    22.2125 l
s
n
   10.7500    22.8727 m
   13.7641    22.2732 l
s
n
   10.7500    22.9384 m
   13.7893    22.3339 l
s
n
   10.7178    14.0858 m
   10.7500    14.0837 l
s
n
   10.6916    15.8535 m
   10.8144    15.8531 l
s
n
   10.6916    14.1394 m
   10.8144    14.1398 l
s
n
   10.7178    15.9071 m
   10.7500    15.9092 l
s
n
   10.7500     7.1201 m
   13.7641     7.7197 l
s
n
   10.7500     7.0544 m
   13.7893     7.6590 l
s
n
   10.7500     7.1858 m
   13.7390     7.7804 l
s
n
    7.7359    22.2732 m
   10.7500    22.8727 l
s
n
    7.7107    22.3339 m
   10.7500    22.9384 l
s
n
    7.7610    22.2125 m
   10.7500    22.8070 l
s
n
    9.1921    22.2782 m
    9.4027    22.3201 l
s
n
    3.2157    13.6073 m
    3.4264    13.6491 l
s
n
    3.2576    13.3966 m
    3.4683    13.4385 l
s
n
   12.0973     7.6728 m
   12.3079     7.7147 l
s
n
   18.0736    16.3437 m
   18.2843    16.3856 l
s
n
   18.0317    16.5543 m
   18.2424    16.5962 l
s
n
    3.4126    11.9572 m
    3.5339    12.0074 l
s
n
   17.9661    17.9854 m
   18.0874    18.0357 l
s
n
    4.4090    12.3467 m
    6.9090    13.3822 l
s
n
    4.3926    12.3863 m
    6.8926    13.4219 l
s
n
    6.9247    13.4003 m
    8.4128    14.0167 l
s
n
    6.9165    13.4202 m
    8.4046    14.0366 l
s
n
   14.5910    16.6107 m
   17.0910    17.6462 l
s
n
   14.6074    16.5710 m
   17.1074    17.6065 l
s
n
   13.0872    15.9761 m
   14.5753    16.5925 l
s
n
   13.0954    15.9563 m
   14.5835    16.5727 l
s
n
    2.6073    14.7007 m
    2.7065    14.7418 l
s
n
    2.6566    14.5816 m
    2.7558    14.6227 l
s
n
    2.6696    14.8311 m
    2.8279    14.8966 l
s
n
    2.7928    14.5334 m
    2.8919    14.5745 l
s
n
    3.0133    14.6248 m
    3.0706    14.6485 l
s
n
    2.9802    14.8668 m
    3.0397    14.8914 l
s
n
    3.0377    14.7279 m
    3.0973    14.7525 l
s
n
    2.6869    14.2999 m
    2.7861    14.3410 l
s
n
    2.7362    14.1808 m
    2.8354    14.2219 l
s
n
    2.7491    14.4302 m
    2.9076    14.4959 l
s
n
    2.8724    14.1326 m
    2.9716    14.1737 l
s
n
    3.0930    14.2240 m
    3.1502    14.2477 l
s
n
    3.0598    14.4659 m
    3.1193    14.4906 l
s
n
    3.1173    14.3270 m
    3.1768    14.3517 l
s
n
    2.7667    13.8991 m
    2.8659    13.9402 l
s
n
    2.8160    13.7801 m
    2.9152    13.8212 l
s
n
    2.8289    14.0295 m
    2.9873    14.0951 l
s
n
    2.9522    13.7319 m
    3.0514    13.7730 l
s
n
    3.1728    13.8232 m
    3.2300    13.8470 l
s
n
    3.1396    14.0652 m
    3.1991    14.0899 l
s
n
    3.1971    13.9263 m
    3.2566    13.9510 l
s
n
    3.1699    11.9953 m
    3.2691    12.0364 l
s
n
    3.1206    12.1143 m
    3.2198    12.1554 l
s
n
    3.3061    11.9471 m
    3.4063    11.9886 l
s
n
    3.1828    12.2447 m
    3.3422    12.3108 l
s
n
    3.5277    12.0389 m
    3.5838    12.0622 l
s
n
    3.5510    12.1415 m
    3.6105    12.1662 l
s
n
    3.4934    12.2804 m
    3.5530    12.3051 l
s
n
   18.7935    15.2511 m
   18.8927    15.2922 l
s
n
   18.7442    15.3701 m
   18.8434    15.4112 l
s
n
   18.6721    15.0962 m
   18.8304    15.1618 l
s
n
   18.6081    15.4184 m
   18.7072    15.4594 l
s
n
   18.4294    15.3444 m
   18.4867    15.3681 l
s
n
   18.4603    15.1015 m
   18.5198    15.1261 l
s
n
   18.4027    15.2403 m
   18.4623    15.2650 l
s
n
   18.7139    15.6519 m
   18.8131    15.6930 l
s
n
   18.6646    15.7710 m
   18.7638    15.8120 l
s
n
   18.5924    15.4970 m
   18.7509    15.5626 l
s
n
   18.5284    15.8191 m
   18.6276    15.8602 l
s
n
   18.3498    15.7452 m
   18.4070    15.7689 l
s
n
   18.3807    15.5023 m
   18.4402    15.5269 l
s
n
   18.3232    15.6412 m
   18.3827    15.6658 l
s
n
   18.6341    16.0526 m
   18.7333    16.0937 l
s
n
   18.5848    16.1717 m
   18.6840    16.2128 l
s
n
   18.5127    15.8977 m
   18.6711    15.9633 l
s
n
   18.4486    16.2199 m
   18.5478    16.2610 l
s
n
   18.2700    16.1459 m
   18.3272    16.1696 l
s
n
   18.3009    15.9030 m
   18.3604    15.9276 l
s
n
   18.2434    16.0419 m
   18.3029    16.0665 l
s
n
   18.2309    17.9565 m
   18.3301    17.9976 l
s
n
   18.2802    17.8374 m
   18.3794    17.8785 l
s
n
   18.0937    18.0042 m
   18.1939    18.0458 l
s
n
   18.1578    17.6821 m
   18.3172    17.7481 l
s
n
   17.9162    17.9307 m
   17.9723    17.9540 l
s
n
   17.8895    17.8267 m
   17.9490    17.8513 l
s
n
   17.9470    17.6878 m
   18.0066    17.7124 l
s
n
   10.3352    23.0898 m
   10.4542    23.1391 l
s
n
   10.2870    22.9536 m
   10.5846    23.0769 l
s
n
   10.3286    22.8546 m
   10.6257    22.9777 l
s
n
   10.4021    22.6758 m
   10.6898    22.7950 l
s
n
   10.5061    22.6492 m
   10.6450    22.7067 l
s
n
    9.9344    23.0102 m
   10.0534    23.0595 l
s
n
    9.8862    22.8740 m
   10.1838    22.9973 l
s
n
   10.0012    22.5962 m
   10.2884    22.7152 l
s
n
   10.1053    22.5696 m
   10.2442    22.6271 l
s
n
    9.5337    22.9304 m
    9.6527    22.9797 l
s
n
    9.4855    22.7942 m
    9.7831    22.9175 l
s
n
    9.5268    22.6951 m
    9.8242    22.8183 l
s
n
    9.6005    22.5164 m
    9.8880    22.6355 l
s
n
    9.7045    22.4898 m
    9.8434    22.5473 l
s
n
    7.7489    22.5766 m
    7.8679    22.6259 l
s
n
    7.7007    22.4404 m
    7.9983    22.5636 l
s
n
    7.7418    22.3412 m
    8.0394    22.4644 l
s
n
    7.8157    22.1626 m
    8.0981    22.2796 l
s
n
    7.9197    22.1359 m
    8.0586    22.1935 l
s
n
   11.0458     6.8538 m
   11.1648     6.9031 l
s
n
   10.9154     6.9160 m
   11.2130     7.0393 l
s
n
   10.8743     7.0152 m
   11.1714     7.1383 l
s
n
   10.8005     7.1938 m
   11.0979     7.3170 l
s
n
   10.8550     7.2862 m
   10.9939     7.3437 l
s
n
   11.4466     6.9333 m
   11.5656     6.9826 l
s
n
   11.3162     6.9956 m
   11.6138     7.1188 l
s
n
   11.2011     7.2733 m
   11.4988     7.3966 l
s
n
   11.2558     7.3657 m
   11.3947     7.4233 l
s
n
   11.8473     7.0131 m
   11.9663     7.0625 l
s
n
   11.7169     7.0754 m
   12.0145     7.1986 l
s
n
   11.6758     7.1746 m
   11.9731     7.2977 l
s
n
   11.6019     7.3531 m
   11.8995     7.4764 l
s
n
   11.6566     7.4455 m
   11.7955     7.5031 l
s
n
   13.6321     7.3670 m
   13.7511     7.4163 l
s
n
   13.5017     7.4292 m
   13.7993     7.5525 l
s
n
   13.4606     7.5284 m
   13.7582     7.6517 l
s
n
   13.3867     7.7070 m
   13.6843     7.8303 l
s
n
   13.4414     7.7994 m
   13.5803     7.8569 l
s
n
   13.7641     7.7197 m
   16.3194     9.4270 l
s
n
   13.7893     7.6590 m
   16.3658     9.3806 l
s
n
   13.7390     7.7804 m
   16.2729     9.4735 l
s
n
    5.1806    20.5658 m
    7.7359    22.2732 l
s
n
    5.1342    20.6123 m
    7.7107    22.3339 l
s
n
    5.2271    20.5194 m
    7.7610    22.2125 l
s
n
    6.5241    21.1277 m
    6.7026    21.2470 l
s
n
    4.3208    10.8298 m
    4.4994    10.9491 l
s
n
    4.4402    10.6512 m
    4.6187    10.7705 l
s
n
   14.7974     8.7458 m
   14.9759     8.8652 l
s
n
   17.0006    19.0438 m
   17.1792    19.1631 l
s
n
   16.8813    19.2224 m
   17.0598    19.3417 l
s
n
    4.7503     9.4526 m
    4.8396     9.5122 l
s
n
    4.8219     9.3454 m
    4.9112     9.4051 l
s
n
    4.7859     9.5926 m
    4.9287     9.6880 l
s
n
    4.9649     9.3247 m
    5.1077     9.4202 l
s
n
    5.0836     9.6882 m
    5.1372     9.7240 l
s
n
    5.1671     9.5632 m
    5.2207     9.5990 l
s
n
    4.5236     9.7919 m
    4.6129     9.8515 l
s
n
    4.5952     9.6847 m
    4.6845     9.7444 l
s
n
    4.5592     9.9319 m
    4.7020    10.0273 l
s
n
    4.7382     9.6640 m
    4.8810     9.7595 l
s
n
    4.8569    10.0275 m
    4.9105    10.0633 l
s
n
    4.9404     9.9025 m
    4.9940     9.9383 l
s
n
    4.2969    10.1311 m
    4.3862    10.1908 l
s
n
    4.3685    10.0240 m
    4.4578    10.0837 l
s
n
    4.3325    10.2712 m
    4.4753    10.3666 l
s
n
    4.5115    10.0033 m
    4.6543    10.0987 l
s
n
    4.6302    10.3668 m
    4.6838    10.4026 l
s
n
    4.7137    10.2418 m
    4.7673    10.2776 l
s
n
    3.2725    11.6643 m
    3.3618    11.7239 l
s
n
    3.3441    11.5571 m
    3.4334    11.6168 l
s
n
    3.3081    11.8043 m
    3.4510    11.8997 l
s
n
    3.4871    11.5364 m
    3.6299    11.6319 l
s
n
    3.6058    11.8999 m
    3.6594    11.9357 l
s
n
    3.6893    11.7749 m
    3.7429    11.8107 l
s
n
   16.6604    20.4806 m
   16.7497    20.5403 l
s
n
   16.5888    20.5878 m
   16.6781    20.6474 l
s
n
   16.5713    20.3048 m
   16.7141    20.4003 l
s
n
   16.3923    20.5727 m
   16.5351    20.6681 l
s
n
   16.3628    20.2689 m
   16.4164    20.3046 l
s
n
   16.2793    20.3939 m
   16.3329    20.4297 l
s
n
   16.8871    20.1413 m
   16.9764    20.2010 l
s
n
   16.8155    20.2485 m
   16.9048    20.3081 l
s
n
   16.7980    19.9655 m
   16.9408    20.0610 l
s
n
   16.6190    20.2334 m
   16.7618    20.3288 l
s
n
   16.5895    19.9296 m
   16.6431    19.9654 l
s
n
   16.5060    20.0546 m
   16.5596    20.0904 l
s
n
   17.1138    19.8021 m
   17.2031    19.8617 l
s
n
   17.0422    19.9092 m
   17.1315    19.9689 l
s
n
   17.0247    19.6263 m
   17.1675    19.7217 l
s
n
   16.8457    19.8941 m
   16.9885    19.9896 l
s
n
   16.8162    19.5903 m
   16.8698    19.6261 l
s
n
   16.7327    19.7153 m
   16.7863    19.7511 l
s
n
   18.1382    18.2689 m
   18.2275    18.3286 l
s
n
   18.0666    18.3761 m
   18.1559    18.4357 l
s
n
   18.0490    18.0931 m
   18.1919    18.1886 l
s
n
   17.8701    18.3610 m
   18.0129    18.4564 l
s
n
   17.8406    18.0572 m
   17.8942    18.0930 l
s
n
   17.7571    18.1822 m
   17.8107    18.2180 l
s
n
    5.0990    20.9245 m
    5.2062    20.9961 l
s
n
    5.0783    20.7816 m
    5.3462    20.9605 l
s
n
    5.1380    20.6923 m
    5.4058    20.8712 l
s
n
    5.3526    20.5257 m
    5.4776    20.6092 l
s
n
    5.4383    21.1512 m
    5.5454    21.2228 l
s
n
    5.4773    20.9190 m
    5.7451    21.0979 l
s
n
    5.6919    20.7524 m
    5.8169    20.8359 l
s
n
    5.7776    21.3779 m
    5.8847    21.4495 l
s
n
    5.7569    21.2350 m
    6.0247    21.4139 l
s
n
    5.8165    21.1457 m
    6.0844    21.3246 l
s
n
    6.0311    20.9791 m
    6.1561    21.0626 l
s
n
    7.3107    22.4023 m
    7.4178    22.4739 l
s
n
    7.2900    22.2593 m
    7.5578    22.4383 l
s
n
    7.3496    22.1701 m
    7.6175    22.3490 l
s
n
    7.5642    22.0035 m
    7.6892    22.0870 l
s
n
   16.2938     8.9967 m
   16.4010     9.0683 l
s
n
   16.1538     9.0323 m
   16.4217     9.2113 l
s
n
   16.0942     9.1216 m
   16.3620     9.3006 l
s
n
   16.0224     9.3836 m
   16.1474     9.4671 l
s
n
   15.9546     8.7700 m
   16.0617     8.8416 l
s
n
   15.7549     8.8949 m
   16.0227     9.0739 l
s
n
   15.6831     9.1569 m
   15.8081     9.2404 l
s
n
   15.6153     8.5433 m
   15.7224     8.6149 l
s
n
   15.4753     8.5789 m
   15.7431     8.7579 l
s
n
   15.4156     8.6682 m
   15.6835     8.8472 l
s
n
   15.3439     8.9302 m
   15.4689     9.0137 l
s
n
   14.0822     7.5189 m
   14.1893     7.5905 l
s
n
   13.9422     7.5545 m
   14.2100     7.7335 l
s
n
   13.8825     7.6438 m
   14.1504     7.8228 l
s
n
   13.8108     7.9058 m
   13.9358     7.9893 l
s
n
    5.1342     9.3806 m
    5.2271     9.4735 l
s
n
   16.2729    20.5194 m
   16.3658    20.6123 l
s
n
    5.8753    10.1521 m
    7.7888    12.0656 l
s
n
    7.8115    12.0731 m
    8.9505    13.2121 l
s
n
    9.6642    13.9258 m
   10.0515    14.3131 l
s
n
    8.9657    13.2273 m
    9.6490    13.9107 l
s
n
    5.9057    10.1218 m
    7.8191    12.0352 l
s
n
    7.8267    12.0580 m
    8.9657    13.1969 l
s
n
    9.6794    13.9107 m
   10.0667    14.2979 l
s
n
    8.9809    13.2121 m
    9.6642    13.8955 l
s
n
   13.7112    17.9273 m
   15.6247    19.8407 l
s
n
   12.5495    16.7808 m
   13.6885    17.9197 l
s
n
   11.4485    15.6798 m
   11.8358    16.0670 l
s
n
   11.8510    16.0822 m
   12.5343    16.7656 l
s
n
   13.6809    17.9577 m
   15.5943    19.8711 l
s
n
   12.5343    16.7959 m
   13.6733    17.9349 l
s
n
   11.4333    15.6949 m
   11.8206    16.0822 l
s
n
   11.8358    16.0974 m
   12.5191    16.7808 l
s
n
   16.3194     9.4270 m
   18.0267    11.9823 l
s
n
   16.3658     9.3806 m
   18.0874    11.9572 l
s
n
   16.2729     9.4735 m
   17.9661    12.0074 l
s
n
    3.4733    18.0106 m
    5.1806    20.5658 l
s
n
    3.4126    18.0357 m
    5.1342    20.6123 l
s
n
    3.5339    17.9854 m
    5.2271    20.5194 l
s
n
    4.4994    19.0438 m
    4.6187    19.2224 l
s
n
    6.4048     8.6866 m
    6.5241     8.8652 l
s
n
    6.5833     8.5673 m
    6.7026     8.7458 l
s
n
   16.8813    10.7705 m
   17.0006    10.9491 l
s
n
   14.9759    21.1277 m
   15.0952    21.3063 l
s
n
   14.7974    21.2470 m
   14.9167    21.4256 l
s
n
    5.2062     8.9967 m
    5.2658     9.0860 l
s
n
    5.0990     9.0683 m
    5.1587     9.1576 l
s
n
    5.3462     9.0323 m
    5.4416     9.1752 l
s
n
    5.0783     9.2113 m
    5.1738     9.3541 l
s
n
    5.4418     9.3300 m
    5.4776     9.3836 l
s
n
    5.3168     9.4136 m
    5.3526     9.4671 l
s
n
    5.5454     8.7700 m
    5.6051     8.8593 l
s
n
    5.4383     8.8416 m
    5.4980     8.9309 l
s
n
    5.6854     8.8056 m
    5.7809     8.9485 l
s
n
    5.4176     8.9846 m
    5.5130     9.1274 l
s
n
    5.7811     9.1033 m
    5.8169     9.1569 l
s
n
    5.6561     9.1869 m
    5.6919     9.2404 l
s
n
    5.8847     8.5433 m
    5.9444     8.6326 l
s
n
    5.7776     8.6149 m
    5.8372     8.7042 l
s
n
    6.0247     8.5789 m
    6.1202     8.7218 l
s
n
    5.7569     8.7579 m
    5.8523     8.9008 l
s
n
    6.1203     8.8766 m
    6.1561     8.9302 l
s
n
    5.9953     8.9602 m
    6.0311     9.0137 l
s
n
    7.4178     7.5189 m
    7.4775     7.6082 l
s
n
    7.3107     7.5905 m
    7.3703     7.6798 l
s
n
    7.5578     7.5545 m
    7.6533     7.6974 l
s
n
    7.2900     7.7335 m
    7.3854     7.8764 l
s
n
    7.6535     7.8523 m
    7.6892     7.9058 l
s
n
    7.5285     7.9358 m
    7.5643     7.9894 l
s
n
   16.2342    20.9068 m
   16.2938    20.9961 l
s
n
   16.3413    20.8352 m
   16.4010    20.9245 l
s
n
   16.0584    20.8177 m
   16.1538    20.9605 l
s
n
   16.3262    20.6387 m
   16.4217    20.7816 l
s
n
   16.0224    20.6092 m
   16.0582    20.6628 l
s
n
   16.1474    20.5257 m
   16.1832    20.5793 l
s
n
   15.8949    21.1335 m
   15.9546    21.2228 l
s
n
   16.0020    21.0619 m
   16.0617    21.1512 l
s
n
   15.7191    21.0444 m
   15.8146    21.1872 l
s
n
   15.9870    20.8654 m
   16.0824    21.0083 l
s
n
   15.6831    20.8359 m
   15.7189    20.8895 l
s
n
   15.8081    20.7524 m
   15.8439    20.8060 l
s
n
   15.5556    21.3602 m
   15.6153    21.4495 l
s
n
   15.6628    21.2886 m
   15.7224    21.3779 l
s
n
   15.3798    21.2711 m
   15.4753    21.4139 l
s
n
   15.6477    21.0921 m
   15.7431    21.2350 l
s
n
   15.3439    21.0626 m
   15.3797    21.1162 l
s
n
   15.4689    20.9791 m
   15.5047    21.0327 l
s
n
   14.0225    22.3846 m
   14.0822    22.4739 l
s
n
   14.1297    22.3130 m
   14.1893    22.4023 l
s
n
   13.8467    22.2955 m
   13.9422    22.4383 l
s
n
   14.1146    22.1165 m
   14.2100    22.2593 l
s
n
   13.8107    22.0870 m
   13.8465    22.1406 l
s
n
   13.9357    22.0035 m
   13.9715    22.0571 l
s
n
    4.7503    20.5403 m
    4.8219    20.6474 l
s
n
    4.7859    20.4003 m
    4.9649    20.6681 l
s
n
    4.8752    20.3406 m
    5.0542    20.6085 l
s
n
    5.1372    20.2689 m
    5.2207    20.3938 l
s
n
    4.5236    20.2010 m
    4.5952    20.3081 l
s
n
    4.6485    20.0013 m
    4.8275    20.2692 l
s
n
    4.9105    19.9296 m
    4.9940    20.0546 l
s
n
    4.2969    19.8617 m
    4.3685    19.9689 l
s
n
    4.3325    19.7217 m
    4.5115    19.9896 l
s
n
    4.4218    19.6620 m
    4.6008    19.9299 l
s
n
    4.6838    19.5903 m
    4.7673    19.7153 l
s
n
    3.2725    18.3286 m
    3.3441    18.4357 l
s
n
    3.3081    18.1886 m
    3.4871    18.4564 l
s
n
    3.3974    18.1289 m
    3.5764    18.3968 l
s
n
    3.6594    18.0572 m
    3.7429    18.1822 l
s
n
   16.6781     9.3454 m
   16.7497     9.4526 l
s
n
   16.5351     9.3247 m
   16.7141     9.5926 l
s
n
   16.4458     9.3844 m
   16.6248     9.6523 l
s
n
   16.2793     9.5990 m
   16.3628     9.7240 l
s
n
   16.9048     9.6847 m
   16.9764     9.7919 l
s
n
   16.6725     9.7237 m
   16.8515     9.9915 l
s
n
   16.5060     9.9383 m
   16.5895    10.0633 l
s
n
   17.1315    10.0240 m
   17.2031    10.1311 l
s
n
   16.9885    10.0033 m
   17.1675    10.2712 l
s
n
   16.8992    10.0630 m
   17.0782    10.3308 l
s
n
   16.7327    10.2776 m
   16.8162    10.4026 l
s
n
   18.1559    11.5571 m
   18.2275    11.6643 l
s
n
   18.0129    11.5364 m
   18.1919    11.8043 l
s
n
   17.9236    11.5961 m
   18.1026    11.8639 l
s
n
   17.7571    11.8107 m
   17.8406    11.9357 l
s
n
    7.7107     7.6590 m
    7.7610     7.7804 l
s
n
   13.7390    22.2125 m
   13.7893    22.3339 l
s
n
    8.1399     8.6390 m
    9.1755    11.1390 l
s
n
    8.1002     8.6554 m
    9.1358    11.1555 l
s
n
    9.1737    11.1629 m
    9.7901    12.6511 l
s
n
    9.1539    11.1712 m
    9.7703    12.6593 l
s
n
   12.3245    18.8538 m
   13.3601    21.3539 l
s
n
   12.3642    18.8374 m
   13.3998    21.3374 l
s
n
   11.7099    17.3418 m
   12.3263    18.8299 l
s
n
   11.7297    17.3336 m
   12.3461    18.8217 l
s
n
   10.4542     6.8538 m
   10.4953     6.9530 l
s
n
   10.3352     6.9031 m
   10.3763     7.0023 l
s
n
   10.5846     6.9160 m
   10.6502     7.0743 l
s
n
   10.2870     7.0393 m
   10.3281     7.1384 l
s
n
   10.3783     7.2598 m
   10.4021     7.3170 l
s
n
   10.6203     7.2266 m
   10.6450     7.2862 l
s
n
   10.4814     7.2842 m
   10.5061     7.3437 l
s
n
   10.0534     6.9333 m
   10.0945     7.0325 l
s
n
    9.9344     6.9826 m
    9.9755     7.0819 l
s
n
   10.1838     6.9956 m
   10.2494     7.1540 l
s
n
    9.8862     7.1188 m
    9.9273     7.2180 l
s
n
    9.9776     7.3395 m
   10.0012     7.3966 l
s
n
   10.2195     7.3062 m
   10.2442     7.3657 l
s
n
   10.0806     7.3637 m
   10.1053     7.4233 l
s
n
    9.6527     7.0131 m
    9.6938     7.1123 l
s
n
    9.5337     7.0625 m
    9.5748     7.1617 l
s
n
    9.7831     7.0754 m
    9.8487     7.2337 l
s
n
    9.4855     7.1986 m
    9.5265     7.2978 l
s
n
    9.5768     7.4192 m
    9.6005     7.4764 l
s
n
    9.8188     7.3860 m
    9.8434     7.4455 l
s
n
    9.6799     7.4435 m
    9.7045     7.5031 l
s
n
    7.7489     7.4163 m
    7.7900     7.5155 l
s
n
    7.8679     7.3670 m
    7.9090     7.4662 l
s
n
    7.7007     7.5525 m
    7.7422     7.6527 l
s
n
    7.9983     7.4292 m
    8.0643     7.5887 l
s
n
    7.7925     7.7741 m
    7.8157     7.8303 l
s
n
    7.8951     7.7974 m
    7.9198     7.8569 l
s
n
    8.0340     7.7399 m
    8.0586     7.7994 l
s
n
   11.0047    23.0399 m
   11.0458    23.1391 l
s
n
   11.1237    22.9906 m
   11.1648    23.0898 l
s
n
   10.8498    22.9186 m
   10.9154    23.0769 l
s
n
   11.1719    22.8545 m
   11.2130    22.9536 l
s
n
   11.0979    22.6758 m
   11.1217    22.7331 l
s
n
   10.8550    22.7067 m
   10.8797    22.7662 l
s
n
   10.9939    22.6492 m
   11.0186    22.7087 l
s
n
   11.4055    22.9603 m
   11.4466    23.0595 l
s
n
   11.5245    22.9110 m
   11.5656    23.0102 l
s
n
   11.2506    22.8388 m
   11.3162    22.9973 l
s
n
   11.5727    22.7748 m
   11.6138    22.8740 l
s
n
   11.4988    22.5962 m
   11.5224    22.6534 l
s
n
   11.2558    22.6271 m
   11.2805    22.6866 l
s
n
   11.3947    22.5696 m
   11.4194    22.6291 l
s
n
   11.8062    22.8805 m
   11.8473    22.9797 l
s
n
   11.9252    22.8312 m
   11.9663    22.9304 l
s
n
   11.6513    22.7591 m
   11.7169    22.9175 l
s
n
   11.9735    22.6951 m
   12.0145    22.7942 l
s
n
   11.8995    22.5164 m
   11.9232    22.5737 l
s
n
   11.6566    22.5473 m
   11.6812    22.6068 l
s
n
   11.7955    22.4898 m
   11.8201    22.5493 l
s
n
   13.7100    22.4774 m
   13.7511    22.5766 l
s
n
   13.5910    22.5267 m
   13.6321    22.6259 l
s
n
   13.7578    22.3401 m
   13.7993    22.4404 l
s
n
   13.4357    22.4042 m
   13.5017    22.5637 l
s
n
   13.6843    22.1626 m
   13.7075    22.2187 l
s
n
   13.5802    22.1359 m
   13.6049    22.1955 l
s
n
   13.4414    22.1935 m
   13.4660    22.2530 l
s
n
    2.6073    15.2922 m
    2.6566    15.4112 l
s
n
    2.6696    15.1618 m
    2.7928    15.4594 l
s
n
    2.7688    15.1207 m
    2.8918    15.4179 l
s
n
    2.9474    15.0469 m
    3.0706    15.3444 l
s
n
    3.0397    15.1014 m
    3.0973    15.2403 l
s
n
    2.6869    15.6930 m
    2.7362    15.8120 l
s
n
    2.7491    15.5626 m
    2.8724    15.8602 l
s
n
    3.0269    15.4476 m
    3.1502    15.7452 l
s
n
    3.1193    15.5023 m
    3.1768    15.6412 l
s
n
    2.7667    16.0937 m
    2.8160    16.2128 l
s
n
    2.8289    15.9633 m
    2.9522    16.2610 l
s
n
    2.9281    15.9222 m
    3.0513    16.2195 l
s
n
    3.1067    15.8483 m
    3.2300    16.1459 l
s
n
    3.1991    15.9030 m
    3.2566    16.0419 l
s
n
    3.1206    17.8785 m
    3.1699    17.9976 l
s
n
    3.1828    17.7481 m
    3.3061    18.0458 l
s
n
    3.2820    17.7070 m
    3.4053    18.0047 l
s
n
    3.4606    17.6331 m
    3.5838    17.9307 l
s
n
    3.5530    17.6878 m
    3.6105    17.8267 l
s
n
   18.8433    14.5816 m
   18.8927    14.7007 l
s
n
   18.7072    14.5334 m
   18.8304    14.8311 l
s
n
   18.6082    14.5751 m
   18.7312    14.8722 l
s
n
   18.4294    14.6485 m
   18.5486    14.9362 l
s
n
   18.4027    14.7525 m
   18.4603    14.8914 l
s
n
   18.7638    14.1808 m
   18.8131    14.2999 l
s
n
   18.6276    14.1326 m
   18.7509    14.4302 l
s
n
   18.3498    14.2477 m
   18.4687    14.5348 l
s
n
   18.3232    14.3517 m
   18.3807    14.4906 l
s
n
   18.6840    13.7801 m
   18.7333    13.8991 l
s
n
   18.5478    13.7319 m
   18.6711    14.0295 l
s
n
   18.4487    13.7732 m
   18.5719    14.0706 l
s
n
   18.2700    13.8470 m
   18.3891    14.1344 l
s
n
   18.2434    13.9510 m
   18.3009    14.0899 l
s
n
   18.3301    11.9953 m
   18.3794    12.1143 l
s
n
   18.1939    11.9471 m
   18.3172    12.2447 l
s
n
   18.0947    11.9882 m
   18.2180    12.2858 l
s
n
   17.9162    12.0622 m
   18.0331    12.3445 l
s
n
   17.8895    12.1662 m
   17.9470    12.3051 l
s
n
   18.0267    11.9823 m
   18.6263    14.9964 l
s
n
   18.0874    11.9572 m
   18.6920    14.9964 l
s
n
   17.9661    12.0074 m
   18.5606    14.9964 l
s
n
    2.8737    14.9964 m
    3.4733    18.0106 l
s
n
    2.8080    14.9964 m
    3.4126    18.0357 l
s
n
    2.9394    14.9964 m
    3.5339    17.9854 l
s
n
    3.4264    16.3437 m
    3.4683    16.5543 l
s
n
    9.1502     7.5041 m
    9.1921     7.7147 l
s
n
    9.3608     7.4622 m
    9.4027     7.6728 l
s
n
   18.0317    13.4385 m
   18.0736    13.6492 l
s
n
   12.3079    22.2782 m
   12.3498    22.4888 l
s
n
   12.0973    22.3201 m
   12.1392    22.5307 l
s
n
    9.2765    22.4044     0.0322   -90.0000   270.0000 arc
s
n
    6.5537    21.2766     0.0322   -90.0000   270.0000 arc
s
n
    4.4698    19.1927     0.0322   -90.0000   270.0000 arc
s
n
    3.3420    16.4700     0.0322   -90.0000   270.0000 arc
s
n
    3.3420    13.5229     0.0322   -90.0000   270.0000 arc
s
n
    4.4698    10.8001     0.0322   -90.0000   270.0000 arc
s
n
    6.5537     8.7162     0.0322   -90.0000   270.0000 arc
s
n
    9.2765     7.5884     0.0322   -90.0000   270.0000 arc
s
n
   12.2235     7.5884     0.0322   -90.0000   270.0000 arc
s
n
   14.9463     8.7162     0.0322   -90.0000   270.0000 arc
s
n
   17.0302    10.8001     0.0322   -90.0000   270.0000 arc
s
n
   18.1580    13.5229     0.0322   -90.0000   270.0000 arc
s
n
   18.1580    16.4700     0.0322   -90.0000   270.0000 arc
s
n
   17.0302    19.1927     0.0322   -90.0000   270.0000 arc
s
n
   14.9463    21.2766     0.0322   -90.0000   270.0000 arc
s
n
   12.2235    22.4044     0.0322   -90.0000   270.0000 arc
s
n
   14.1780    21.4436     0.1718   -90.0000   270.0000 arc
s
n
   17.7328    17.1313     0.1718   -90.0000   270.0000 arc
s
n
   17.1972    11.5684     0.1718   -90.0000   270.0000 arc
s
n
   12.8849     8.0136     0.1718   -90.0000   270.0000 arc
s
n
   10.7500    14.9964     0.8590   -90.0000   270.0000 arc
s
n
   10.7500    14.9964     6.8724   157.6790   179.8210 arc
s
n
   10.7500    14.9964     4.1664   157.7953   179.7047 arc
s
n
   10.7500    14.9964     6.8724   135.1791   157.3210 arc
s
n
   10.7500    14.9964     4.1664   135.2953   157.2046 arc
s
n
   10.7500    14.9964     2.5342   157.7429   179.7572 arc
s
n
   10.7500    14.9964     4.1449   157.6485   179.8515 arc
s
n
   10.7500    14.9964     2.5342   135.2428   157.2571 arc
s
n
   10.7500    14.9964     4.1449   135.1485   157.3515 arc
s
n
   10.7500    14.9964     0.9772   135.6297   179.3704 arc
s
n
   10.7500    14.9964     1.5248   135.4035   179.5965 arc
s
n
   10.7500    14.9964     1.5463   135.3979   179.6021 arc
s
n
   10.7500    14.9964     2.5127   135.2448   179.7551 arc
s
n
   10.7500    14.9964     6.8724   202.6790   224.8210 arc
s
n
   10.7500    14.9964     4.1664   202.7953   224.7047 arc
s
n
   10.7500    14.9964     6.8724   180.1790   202.3210 arc
s
n
   10.7500    14.9964     4.1664   180.2953   202.2047 arc
s
n
   10.7500    14.9964     2.5342   202.7428   224.7571 arc
s
n
   10.7500    14.9964     4.1449   202.6485   224.8515 arc
s
n
   10.7500    14.9964     2.5342   180.2428   202.2571 arc
s
n
   10.7500    14.9964     4.1449   180.1485   202.3515 arc
s
n
   10.7500    14.9964     0.9772   180.6297   224.3704 arc
s
n
   10.7500    14.9964     1.5248   180.4035   224.5965 arc
s
n
   10.7500    14.9964     1.5463   180.3979   224.6021 arc
s
n
   10.7500    14.9964     2.5127   180.2449   224.7551 arc
s
n
   10.7500    14.9964     6.8724   247.6790   269.8210 arc
s
n
   10.7500    14.9964     4.1664   247.7953   269.7047 arc
s
n
   10.7500    14.9964     6.8724   225.1790   247.3210 arc
s
n
   10.7500    14.9964     4.1664   225.2953   247.2046 arc
s
n
   10.7500    14.9964     2.5342   247.7429   269.7571 arc
s
n
   10.7500    14.9964     4.1449   247.6485   269.8515 arc
s
n
   10.7500    14.9964     2.5342   225.2428   247.2571 arc
s
n
   10.7500    14.9964     4.1449   225.1485   247.3515 arc
s
n
   10.7500    14.9964     0.9772   225.6296   269.3703 arc
s
n
   10.7500    14.9964     1.5248   225.4035   269.5965 arc
s
n
   10.7500    14.9964     1.5463   225.3979   269.6021 arc
s
n
   10.7500    14.9964     2.5127   225.2449   269.7551 arc
s
n
   10.7500    14.9964     6.8724   -67.3210   -45.1790 arc
s
n
   10.7500    14.9964     4.1664   -67.2047   -45.2953 arc
s
n
   10.7500    14.9964     6.8724   -89.8210   -67.6791 arc
s
n
   10.7500    14.9964     4.1664   -89.7047   -67.7953 arc
s
n
   10.7500    14.9964     2.5342   -67.2571   -45.2429 arc
s
n
   10.7500    14.9964     4.1449   -67.3516   -45.1485 arc
s
n
   10.7500    14.9964     2.5342   -89.7571   -67.7429 arc
s
n
   10.7500    14.9964     4.1449   -89.8515   -67.6485 arc
s
n
   10.7500    14.9964     0.9772   -89.3704   -45.6297 arc
s
n
   10.7500    14.9964     1.5248   -89.5965   -45.4035 arc
s
n
   10.7500    14.9964     1.5463   -89.6021   -45.3979 arc
s
n
   10.7500    14.9964     2.5127   -89.7551   -45.2449 arc
s
n
   10.7500    14.9964     6.8724   -22.3210    -0.1790 arc
s
n
   10.7500    14.9964     4.1664   -22.2047    -0.2954 arc
s
n
   10.7500    14.9964     6.8724   -44.8210   -22.6791 arc
s
n
   10.7500    14.9964     4.1664   -44.7047   -22.7953 arc
s
n
   10.7500    14.9964     2.5342   -22.2571    -0.2428 arc
s
n
   10.7500    14.9964     4.1449   -22.3515    -0.1485 arc
s
n
   10.7500    14.9964     2.5342   -44.7571   -22.7429 arc
s
n
   10.7500    14.9964     4.1449   -44.8515   -22.6485 arc
s
n
   10.7500    14.9964     0.9772   -44.3704    -0.6297 arc
s
n
   10.7500    14.9964     1.5248   -44.5965    -0.4035 arc
s
n
   10.7500    14.9964     1.5463   -44.6021    -0.3979 arc
s
n
   10.7500    14.9964     2.5127   -44.7552    -0.2448 arc
s
n
   10.7500    14.9964     6.8724    22.6790    44.8209 arc
s
n
   10.7500    14.9964     4.1664    22.7954    44.7047 arc
s
n
   10.7500    14.9964     6.8724     0.1791    22.3210 arc
s
n
   10.7500    14.9964     4.1664     0.2953    22.2047 arc
s
n
   10.7500    14.9964     2.5342    22.7429    44.7572 arc
s
n
   10.7500    14.9964     4.1449    22.6485    44.8516 arc
s
n
   10.7500    14.9964     2.5342     0.2428    22.2572 arc
s
n
   10.7500    14.9964     4.1449     0.1485    22.3515 arc
s
n
   10.7500    14.9964     0.9772     0.6297    44.3704 arc
s
n
   10.7500    14.9964     1.5248     0.4035    44.5965 arc
s
n
   10.7500    14.9964     1.5463     0.3979    44.6021 arc
s
n
   10.7500    14.9964     2.5127     0.2449    44.7552 arc
s
n
   10.7500    14.9964     6.8724    67.6790    89.8210 arc
s
n
   10.7500    14.9964     4.1664    67.7953    89.7047 arc
s
n
   10.7500    14.9964     6.8724    45.1791    67.3210 arc
s
n
   10.7500    14.9964     4.1664    45.2953    67.2047 arc
s
n
   10.7500    14.9964     2.5342    67.7429    89.7572 arc
s
n
   10.7500    14.9964     4.1449    67.6485    89.8515 arc
s
n
   10.7500    14.9964     2.5342    45.2428    67.2571 arc
s
n
   10.7500    14.9964     4.1449    45.1485    67.3515 arc
s
n
   10.7500    14.9964     0.9772    45.6297    89.3704 arc
s
n
   10.7500    14.9964     1.5248    45.4035    89.5965 arc
s
n
   10.7500    14.9964     1.5463    45.3979    89.6021 arc
s
n
   10.7500    14.9964     2.5127    45.2448    89.7551 arc
s
n
   10.7500    14.9964     6.8724   112.6790   134.8210 arc
s
n
   10.7500    14.9964     4.1664   112.7953   134.7047 arc
s
n
   10.7500    14.9964     6.8724    90.1791   112.3210 arc
s
n
   10.7500    14.9964     4.1664    90.2953   112.2047 arc
s
n
   10.7500    14.9964     2.5342   112.7429   134.7572 arc
s
n
   10.7500    14.9964     4.1449   112.6485   134.8515 arc
s
n
   10.7500    14.9964     2.5342    90.2429   112.2572 arc
s
n
   10.7500    14.9964     4.1449    90.1485   112.3515 arc
s
n
   10.7500    14.9964     0.9772    90.6297   134.3704 arc
s
n
   10.7500    14.9964     1.5248    90.4035   134.5965 arc
s
n
   10.7500    14.9964     1.5463    90.3979   134.6021 arc
s
n
   10.7500    14.9964     2.5127    90.2449   134.7552 arc
s
n
   10.7500    14.9964     0.9127    92.0226   267.9774 arc
s
n
   10.7500    14.9964     0.9664   -90.0000   270.0000 arc
s
n
   10.7500    14.9964     0.9127   -90.0000    90.0000 arc
s
n
    8.6151    21.9793     0.1718   -90.0000   270.0000 arc
s
n
    4.3028    18.4245     0.1718   -90.0000   270.0000 arc
s
n
    3.7672    12.8616     0.1718   -90.0000   270.0000 arc
s
n
    7.3220     8.5492     0.1718   -90.0000   270.0000 arc
s
0.013 w
n
    1.7166    14.9964 m
    2.0091    14.9964 l
s
n
    2.1066    14.9964 m
    2.2041    14.9964 l
s
n
    2.3016    14.9964 m
    2.8866    14.9964 l
s
n
    2.9841    14.9964 m
    3.0816    14.9964 l
s
n
    3.1791    14.9964 m
    3.7641    14.9964 l
s
n
    3.8615    14.9964 m
    3.9590    14.9964 l
s
n
    4.0565    14.9964 m
    4.6415    14.9964 l
s
n
    4.7390    14.9964 m
    4.8365    14.9964 l
s
n
    4.9340    14.9964 m
    5.5190    14.9964 l
s
n
    5.6165    14.9964 m
    5.7140    14.9964 l
s
n
    5.8115    14.9964 m
    6.3965    14.9964 l
s
n
    6.4940    14.9964 m
    6.5915    14.9964 l
s
n
    6.6890    14.9964 m
    7.2740    14.9964 l
s
n
    7.3715    14.9964 m
    7.4690    14.9964 l
s
n
    7.5665    14.9964 m
    8.1515    14.9964 l
s
n
    8.2490    14.9964 m
    8.3465    14.9964 l
s
n
    8.4440    14.9964 m
    9.0290    14.9964 l
s
n
    9.1265    14.9964 m
    9.2240    14.9964 l
s
n
    9.3215    14.9964 m
    9.9065    14.9964 l
s
n
   10.0040    14.9964 m
   10.1015    14.9964 l
s
n
   10.1990    14.9964 m
   10.7840    14.9964 l
s
n
   10.8815    14.9964 m
   10.9790    14.9964 l
s
n
   11.0765    14.9964 m
   11.6615    14.9964 l
s
n
   11.7590    14.9964 m
   11.8565    14.9964 l
s
n
   11.9540    14.9964 m
   12.5389    14.9964 l
s
n
   12.6364    14.9964 m
   12.7339    14.9964 l
s
n
   12.8314    14.9964 m
   13.4164    14.9964 l
s
n
   13.5139    14.9964 m
   13.6114    14.9964 l
s
n
   13.7089    14.9964 m
   14.2939    14.9964 l
s
n
   14.3914    14.9964 m
   14.4889    14.9964 l
s
n
   14.5864    14.9964 m
   15.1714    14.9964 l
s
n
   15.2689    14.9964 m
   15.3664    14.9964 l
s
n
   15.4639    14.9964 m
   16.0489    14.9964 l
s
n
   16.1464    14.9964 m
   16.2439    14.9964 l
s
n
   16.3414    14.9964 m
   16.9264    14.9964 l
s
n
   17.0239    14.9964 m
   17.1214    14.9964 l
s
n
   17.2189    14.9964 m
   17.8039    14.9964 l
s
n
   17.9014    14.9964 m
   17.9989    14.9964 l
s
n
   18.0964    14.9964 m
   18.6814    14.9964 l
s
n
   18.7789    14.9964 m
   18.8764    14.9964 l
s
n
   18.9739    14.9964 m
   19.2663    14.9964 l
s
n
   10.7500     6.2179 m
   10.7500     6.5088 l
s
n
   10.7500     6.6058 m
   10.7500     6.7027 l
s
n
   10.7500     6.7997 m
   10.7500     7.3816 l
s
n
   10.7500     7.4786 m
   10.7500     7.5756 l
s
n
   10.7500     7.6725 m
   10.7500     8.2544 l
s
n
   10.7500     8.3514 m
   10.7500     8.4484 l
s
n
   10.7500     8.5454 m
   10.7500     9.1272 l
s
n
   10.7500     9.2242 m
   10.7500     9.3212 l
s
n
   10.7500     9.4182 m
   10.7500    10.0000 l
s
n
   10.7500    10.0970 m
   10.7500    10.1940 l
s
n
   10.7500    10.2910 m
   10.7500    10.8728 l
s
n
   10.7500    10.9698 m
   10.7500    11.0668 l
s
n
   10.7500    11.1638 m
   10.7500    11.7457 l
s
n
   10.7500    11.8426 m
   10.7500    11.9396 l
s
n
   10.7500    12.0366 m
   10.7500    12.6185 l
s
n
   10.7500    12.7155 m
   10.7500    12.8124 l
s
n
   10.7500    12.9094 m
   10.7500    13.4913 l
s
n
   10.7500    13.5883 m
   10.7500    13.6852 l
s
n
   10.7500    13.7822 m
   10.7500    14.3641 l
s
n
   10.7500    14.4611 m
   10.7500    14.5581 l
s
n
   10.7500    14.6550 m
   10.7500    15.2369 l
s
n
   10.7500    15.3339 m
   10.7500    15.4309 l
s
n
   10.7500    15.5278 m
   10.7500    16.1097 l
s
n
   10.7500    16.2067 m
   10.7500    16.3037 l
s
n
   10.7500    16.4007 m
   10.7500    16.9825 l
s
n
   10.7500    17.0795 m
   10.7500    17.1765 l
s
n
   10.7500    17.2735 m
   10.7500    17.8553 l
s
n
   10.7500    17.9523 m
   10.7500    18.0493 l
s
n
   10.7500    18.1463 m
   10.7500    18.7282 l
s
n
   10.7500    18.8251 m
   10.7500    18.9221 l
s
n
   10.7500    19.0191 m
   10.7500    19.6010 l
s
n
   10.7500    19.6980 m
   10.7500    19.7949 l
s
n
   10.7500    19.8919 m
   10.7500    20.4738 l
s
n
   10.7500    20.5708 m
   10.7500    20.6677 l
s
n
   10.7500    20.7647 m
   10.7500    21.3466 l
s
n
   10.7500    21.4436 m
   10.7500    21.5406 l
s
n
   10.7500    21.6375 m
   10.7500    22.2194 l
s
n
   10.7500    22.3164 m
   10.7500    22.4134 l
s
n
   10.7500    22.5103 m
   10.7500    23.0922 l
s
n
   10.7500    23.1892 m
   10.7500    23.2862 l
s
n
   10.7500    23.3832 m
   10.7500    23.6741 l
s
n
   10.7500    14.9964 m
   10.6634    15.2797 l
s
n
   10.6345    15.3742 m
   10.6056    15.4686 l
s
n
   10.5768    15.5630 m
   10.4035    16.1297 l
s
n
   10.3747    16.2241 m
   10.3458    16.3185 l
s
n
   10.3169    16.4130 m
   10.1437    16.9796 l
s
n
   10.1148    17.0740 m
   10.0859    17.1685 l
s
n
   10.0571    17.2629 m
    9.8838    17.8295 l
s
n
    9.8550    17.9240 m
    9.8261    18.0184 l
s
n
    9.7972    18.1128 m
    9.6240    18.6795 l
s
n
    9.5951    18.7739 m
    9.5662    18.8683 l
s
n
    9.5374    18.9628 m
    9.3641    19.5294 l
s
n
    9.3353    19.6238 m
    9.3064    19.7183 l
s
n
    9.2775    19.8127 m
    9.1043    20.3793 l
s
n
    9.0754    20.4738 m
    9.0465    20.5682 l
s
n
    9.0177    20.6626 m
    8.8444    21.2292 l
s
n
    8.8156    21.3237 m
    8.7867    21.4181 l
s
n
    8.7578    21.5126 m
    8.5846    22.0792 l
s
n
    8.5557    22.1736 m
    8.5268    22.2681 l
s
n
    8.4980    22.3625 m
    8.4113    22.6458 l
s
n
   10.7500    14.9964 m
   10.8811    15.2430 l
s
n
   10.9248    15.3252 m
   10.9685    15.4074 l
s
n
   11.0122    15.4896 m
   11.2744    15.9827 l
s
n
   11.3181    16.0649 m
   11.3618    16.1471 l
s
n
   11.4055    16.2293 m
   11.6677    16.7224 l
s
n
   11.7114    16.8046 m
   11.7551    16.8868 l
s
n
   11.7988    16.9690 m
   12.0610    17.4621 l
s
n
   12.1047    17.5443 m
   12.1484    17.6265 l
s
n
   12.1921    17.7087 m
   12.4544    18.2019 l
s
n
   12.4981    18.2841 m
   12.5418    18.3663 l
s
n
   12.5855    18.4484 m
   12.8477    18.9416 l
s
n
   12.8914    19.0238 m
   12.9351    19.1060 l
s
n
   12.9788    19.1882 m
   13.2410    19.6813 l
s
n
   13.2847    19.7635 m
   13.3284    19.8457 l
s
n
   13.3721    19.9279 m
   13.6343    20.4210 l
s
n
   13.6780    20.5032 m
   13.7217    20.5854 l
s
n
   13.7654    20.6676 m
   14.0276    21.1607 l
s
n
   14.0713    21.2429 m
   14.1150    21.3251 l
s
n
   14.1587    21.4073 m
   14.4209    21.9005 l
s
n
   14.4646    21.9827 m
   14.5083    22.0648 l
s
n
   14.5520    22.1470 m
   14.6831    22.3936 l
s
n
   10.7500    14.9964 m
   11.0096    15.0758 l
s
n
   11.0961    15.1023 m
   11.1827    15.1287 l
s
n
   11.2692    15.1552 m
   11.7884    15.3139 l
s
n
   11.8750    15.3404 m
   11.9615    15.3668 l
s
n
   12.0481    15.3933 m
   12.5673    15.5520 l
s
n
   12.6538    15.5785 m
   12.7404    15.6049 l
s
n
   12.8269    15.6314 m
   13.3461    15.7901 l
s
n
   13.4327    15.8166 m
   13.5192    15.8431 l
s
n
   13.6057    15.8695 m
   14.1250    16.0283 l
s
n
   14.2115    16.0547 m
   14.2980    16.0812 l
s
n
   14.3846    16.1076 m
   14.9038    16.2664 l
s
n
   14.9903    16.2928 m
   15.0769    16.3193 l
s
n
   15.1634    16.3457 m
   15.6826    16.5045 l
s
n
   15.7692    16.5309 m
   15.8557    16.5574 l
s
n
   15.9422    16.5839 m
   16.4615    16.7426 l
s
n
   16.5480    16.7690 m
   16.6345    16.7955 l
s
n
   16.7211    16.8220 m
   17.2403    16.9807 l
s
n
   17.3268    17.0072 m
   17.4134    17.0336 l
s
n
   17.4999    17.0601 m
   18.0191    17.2188 l
s
n
   18.1057    17.2453 m
   18.1922    17.2717 l
s
n
   18.2787    17.2982 m
   18.5383    17.3776 l
s
n
   10.7500    23.6741 m
   10.7500    24.5834 l
s
n
    8.4114    22.6458 m
    7.9470    24.1645 l
s
n
   10.7500    14.9964     9.3917    90.0000   107.0000 arc
s
n
   10.3595    24.4858 m
   10.7500    24.3882 l
   10.3595    24.2905 l
s
n
    8.4061    23.9986 m
    8.0041    23.9778 l
    8.3490    24.1853 l
s
gs
    8.5896    24.5048 m
    8.5000 rotate
pol1 [    0.4271 0 0    1.2432 0 0 ] mf
(17) h gr
n
    9.6320    25.4986 m
    9.6916    25.4944 l
    9.7402    25.4755 l
    9.7726    25.4345 l
    9.7940    25.3787 l
    9.7888    25.3256 l
    9.7699    25.2769 l
    9.7299    25.2382 l
    9.6732    25.2232 l
    9.6210    25.2220 l
    9.5714    25.2473 l
    9.5327    25.2873 l
    9.5186    25.3376 l
    9.5164    25.3962 l
    9.5417    25.4458 l
    9.5827    25.4781 l
    9.6320    25.4986 l
s
n
   14.6831    22.3936 m
   15.2642    23.4863 l
s
n
   10.7500    23.6741 m
   10.7500    24.6118 l
s
n
   10.7500    14.9964     9.4202    62.0000    90.0000 arc
s
n
   14.8736    23.5835 m
   15.1725    23.3139 l
   14.7819    23.4111 l
s
n
   11.1405    24.3190 m
   10.7500    24.4166 l
   11.1405    24.5142 l
s
gs
   12.2739    24.6667 m
  346.0000 rotate
pol1 [    0.5566 0 0    1.2432 0 0 ] mf
(28) h gr
n
   13.8687    25.1232 m
   13.9221    25.0966 l
   13.9598    25.0605 l
   13.9740    25.0102 l
   13.9724    24.9506 l
   13.9473    24.9034 l
   13.9112    24.8657 l
   13.8594    24.8453 l
   13.8013    24.8531 l
   13.7526    24.8719 l
   13.7165    24.9143 l
   13.6960    24.9661 l
   13.7023    25.0179 l
   13.7227    25.0729 l
   13.7650    25.1090 l
   13.8153    25.1232 l
   13.8687    25.1232 l
s
n
   18.5384    17.3776 m
   19.9523    17.8099 l
s
n
   14.6831    22.3936 m
   15.2676    23.4928 l
s
n
   10.7500    14.9964     9.4275    17.0000    62.0000 arc
s
n
   19.7448    18.1547 m
   19.7656    17.7528 l
   19.5581    18.0976 l
s
n
   15.4749    23.0509 m
   15.1760    23.3204 l
   15.5666    23.2233 l
s
gs
   17.7328    21.8681 m
  309.5000 rotate
pol1 [    0.5566 0 0    1.2432 0 0 ] mf
(45) h gr
n
   19.2863    21.2866 m
   19.3134    21.2334 l
   19.3222    21.1819 l
   19.3037    21.1331 l
   19.2670    21.0860 l
   19.2188    21.0631 l
   19.1673    21.0542 l
   19.1135    21.0686 l
   19.0715    21.1095 l
   19.0435    21.1535 l
   19.0397    21.2091 l
   19.0540    21.2629 l
   19.0899    21.3009 l
   19.1390    21.3329 l
   19.1945    21.3368 l
   19.2434    21.3183 l
   19.2863    21.2866 l
s
n
   10.7500     7.6945 m
   11.0496     7.7056 l
s
n
   11.1495     7.7093 m
   11.2493     7.7130 l
s
n
   11.2893     7.7145 m
n
   11.3489     7.7211 m
   11.6468     7.7543 l
   11.8256     7.7742 l
   11.9435     7.7962 l
s
n
   12.0417     7.8146 m
   12.1399     7.8329 l
s
n
   12.2381     7.8513 m
   12.3560     7.8733 l
   12.8197     7.9961 l
s
n
   12.8777     8.0114 m
n
   12.9155     8.0244 m
   13.0099     8.0571 l
s
n
   13.1044     8.0897 m
   13.3878     8.1876 l
   13.6631     8.3062 l
s
n
   13.7549     8.3457 m
   13.8467     8.3852 l
s
n
   13.8834     8.4010 m
n
   13.9366     8.4287 m
   14.2024     8.5673 l
   14.3619     8.6504 l
   14.4639     8.7136 l
s
n
   14.5488     8.7662 m
   14.6338     8.8188 l
s
n
   14.7188     8.8714 m
   14.8207     8.9345 l
   15.2088     9.2164 l
s
n
   15.2573     9.2517 m
n
   15.2878     9.2775 m
   15.3641     9.3421 l
s
n
   15.4404     9.4066 m
   15.6693     9.6003 l
   15.6693     9.6003 l
   15.8832     9.8103 l
s
n
   15.9545     9.8803 m
   16.0258     9.9503 l
s
n
   16.0543     9.9783 m
n
   16.0939    10.0233 m
   16.2918    10.2486 l
   16.4105    10.3837 l
   16.4827    10.4794 l
s
n
   16.5430    10.5592 m
   16.6032    10.6389 l
s
n
   16.6634    10.7187 m
   16.7357    10.8144 l
   16.9957    11.2175 l
s
n
   17.0282    11.2678 m
n
   17.0473    11.3029 m
   17.0951    11.3907 l
s
n
   17.1429    11.4784 m
   17.2864    11.7417 l
   17.2864    11.7417 l
   17.4100    12.0148 l
s
n
   17.4512    12.1059 m
   17.4924    12.1969 l
s
n
   17.5089    12.2333 m
n
   17.5295    12.2896 m
   17.6327    12.5711 l
   17.6945    12.7400 l
   17.7273    12.8554 l
s
n
   17.7547    12.9515 m
   17.7820    13.0476 l
s
n
   17.8094    13.1437 m
   17.8422    13.2590 l
   17.9390    13.7288 l
s
n
   17.9511    13.7876 m
n
   17.9563    13.8272 m
   17.9692    13.9263 l
s
n
   17.9821    14.0254 m
   18.0208    14.3227 l
   18.0208    14.3227 l
   18.0374    14.6220 l
s
n
   18.0429    14.7218 m
   18.0484    14.8216 l
s
n
   18.0507    14.8615 m
n
   18.0495    14.9214 m
   18.0440    15.2212 l
   18.0407    15.4010 l
   18.0296    15.5204 l
s
n
   18.0204    15.6199 m
   18.0112    15.7195 l
s
n
   18.0020    15.8190 m
   17.9909    15.9384 l
   17.9115    16.4114 l
s
n
   17.9016    16.4706 m
n
   17.8920    16.5094 m
   17.8683    16.6064 l
s
n
   17.8445    16.7035 m
   17.7732    16.9947 l
   17.6805    17.2798 l
s
n
   17.6496    17.3749 m
   17.6187    17.4699 l
s
n
   17.6064    17.5079 m
n
   17.5837    17.5634 m
   17.4703    17.8409 l
   17.4022    18.0074 l
   17.3487    18.1148 l
s
n
   17.3042    18.2042 m
   17.2597    18.2937 l
s
n
   17.2151    18.3831 m
   17.1617    18.4905 l
   16.9167    18.9029 l
s
n
   16.8861    18.9544 m
n
   16.8632    18.9872 m
   16.8060    19.0691 l
s
n
   16.7487    19.1511 m
   16.5770    19.3968 l
   16.5770    19.3968 l
   16.3877    19.6292 l
s
n
   16.3245    19.7067 m
   16.2614    19.7841 l
s
n
   16.2361    19.8151 m
n
   16.1949    19.8587 m
   15.9889    20.0765 l
   15.8653    20.2071 l
   15.7767    20.2879 l
s
n
   15.7028    20.3552 m
   15.6290    20.4226 l
s
n
   15.5551    20.4899 m
   15.4665    20.5707 l
   15.0891    20.8668 l
s
n
   15.0419    20.9038 m
n
   15.0088    20.9261 m
   14.9258    20.9818 l
s
n
   14.8428    21.0375 m
   14.5940    21.2046 l
   14.5940    21.2046 l
   14.3334    21.3529 l
s
n
   14.2466    21.4024 m
   14.1597    21.4518 l
s
n
   14.1250    21.4716 m
n
   14.0708    21.4973 m
   13.8000    21.6259 l
   13.6375    21.7031 l
   13.5257    21.7464 l
s
n
   13.4325    21.7825 m
   13.3394    21.8186 l
s
n
   13.2462    21.8547 m
   13.1344    21.8981 l
   12.6755    22.0378 l
s
n
   12.6181    22.0553 m
n
   12.5791    22.0641 m
   12.4817    22.0861 l
s
n
   12.3842    22.1081 m
   12.0917    22.1740 l
   11.7952    22.2182 l
s
n
   11.6964    22.2329 m
   11.5975    22.2476 l
s
n
   11.5580    22.2535 m
n
   11.4982    22.2579 m
   11.1992    22.2801 l
   11.0198    22.2933 l
   10.8999    22.2933 l
s
n
   10.8000    22.2933 m
   10.7000    22.2933 l
s
n
   10.6001    22.2933 m
   10.4802    22.2933 l
   10.0018    22.2579 l
s
n
    9.9420    22.2535 m
n
    9.9025    22.2476 m
    9.8036    22.2329 l
s
n
    9.7048    22.2182 m
    9.4083    22.1740 l
    9.4083    22.1740 l
    9.1158    22.1081 l
s
n
    9.0183    22.0861 m
    8.9209    22.0641 l
s
n
    8.8819    22.0553 m
n
    8.8245    22.0378 m
    8.5377    21.9505 l
    8.3656    21.8981 l
    8.2538    21.8547 l
s
n
    8.1606    21.8186 m
    8.0675    21.7825 l
s
n
    7.9743    21.7464 m
    7.8625    21.7031 l
    7.4292    21.4973 l
s
n
    7.3750    21.4716 m
n
    7.3403    21.4518 m
    7.2534    21.4024 l
s
n
    7.1666    21.3529 m
    6.9060    21.2046 l
    6.9060    21.2046 l
    6.6572    21.0375 l
s
n
    6.5742    20.9818 m
    6.4912    20.9261 l
s
n
    6.4581    20.9038 m
n
    6.4109    20.8668 m
    6.1750    20.6817 l
    6.0335    20.5707 l
    5.9449    20.4899 l
s
n
    5.8710    20.4226 m
s
n
    5.8710    20.4226 m
    5.7972    20.3552 l
s
n
    5.7233    20.2879 m
    5.6347    20.2071 l
    5.3051    19.8587 l
s
n
    5.2639    19.8151 m
n
    5.2386    19.7841 m
    5.1755    19.7067 l
s
n
    5.1123    19.6292 m
    4.9230    19.3968 l
    4.9230    19.3968 l
    4.7513    19.1510 l
s
n
    4.6940    19.0691 m
    4.6368    18.9872 l
s
n
    4.6139    18.9544 m
n
    4.5833    18.9029 m
    4.4302    18.6451 l
    4.3383    18.4905 l
    4.2849    18.3831 l
s
n
    4.2403    18.2937 m
    4.1958    18.2042 l
s
n
    4.1513    18.1148 m
    4.0978    18.0074 l
    3.9163    17.5634 l
s
n
    3.8936    17.5079 m
n
    3.8813    17.4699 m
    3.8504    17.3748 l
s
n
    3.8195    17.2798 m
    3.7268    16.9947 l
    3.6555    16.7035 l
s
n
    3.6317    16.6064 m
    3.6080    16.5094 l
s
n
    3.5985    16.4706 m
n
    3.5885    16.4114 m
    3.5389    16.1158 l
    3.5091    15.9384 l
    3.4980    15.8190 l
s
n
    3.4888    15.7195 m
    3.4796    15.6199 l
s
n
    3.4704    15.5204 m
    3.4593    15.4010 l
    3.4505    14.9214 l
s
n
    3.4494    14.8615 m
n
    3.4516    14.8216 m
    3.4571    14.7218 l
s
n
    3.4626    14.6220 m
    3.4793    14.3227 l
    3.4793    14.3227 l
    3.5179    14.0254 l
s
n
    3.5308    13.9263 m
    3.5437    13.8272 l
s
n
    3.5489    13.7876 m
n
    3.5610    13.7288 m
    3.6215    13.4352 l
    3.6578    13.2590 l
    3.6906    13.1437 l
s
n
    3.7180    13.0476 m
    3.7453    12.9515 l
s
n
    3.7727    12.8554 m
    3.8055    12.7400 l
    3.9705    12.2896 l
s
n
    3.9911    12.2333 m
n
    4.0076    12.1969 m
    4.0488    12.1059 l
s
n
    4.0900    12.0148 m
    4.2136    11.7417 l
    4.2136    11.7417 l
    4.3571    11.4784 l
s
n
    4.4049    11.3907 m
    4.4527    11.3030 l
s
n
    4.4718    11.2679 m
n
    4.5043    11.2175 m
    4.6668    10.9655 l
    4.7643    10.8144 l
    4.8366    10.7187 l
s
n
    4.8968    10.6389 m
    4.9571    10.5592 l
s
n
    5.0173    10.4794 m
    5.0895    10.3837 l
    5.4061    10.0233 l
s
n
    5.4457     9.9783 m
n
    5.4742     9.9503 m
    5.5455     9.8803 l
s
n
    5.6168     9.8103 m
    5.8307     9.6003 l
    5.8307     9.6003 l
    6.0596     9.4066 l
s
n
    6.1359     9.3421 m
    6.2122     9.2775 l
s
n
    6.2427     9.2517 m
n
    6.2912     9.2165 m
    6.5338     9.0402 l
    6.6793     8.9345 l
    6.7812     8.8714 l
s
n
    6.8662     8.8188 m
    6.9512     8.7662 l
s
n
    7.0361     8.7136 m
    7.1381     8.6504 l
    7.5634     8.4287 l
s
n
    7.6166     8.4010 m
n
    7.6533     8.3852 m
    7.7451     8.3457 l
s
n
    7.8369     8.3062 m
    8.1123     8.1876 l
    8.1123     8.1876 l
    8.3956     8.0897 l
s
n
    8.4901     8.0571 m
    8.5845     8.0245 l
s
n
    8.6223     8.0114 m
n
    8.6803     7.9961 m
    8.9701     7.9194 l
    9.1440     7.8733 l
    9.2619     7.8513 l
s
n
    9.3601     7.8329 m
    9.4583     7.8146 l
s
n
    9.5565     7.7962 m
    9.6744     7.7742 l
   10.1511     7.7211 l
s
n
   10.2107     7.7145 m
n
   10.2507     7.7130 m
   10.3505     7.7093 l
s
n
   10.4504     7.7056 m
   10.7500     7.6945 l
s
n
    7.3885    21.4786 m
    7.2986    21.6519 l
s
n
    7.2986    21.6519 m
    6.5825    23.0329 l
    1.9476    23.0588 l
s
n
    7.2955    21.8702 m
    7.3885    21.4786 l
    7.1221    21.7803 l
s
n
    3.1656    24.3483 m
    3.2756    24.3412 l
    3.3790    24.3082 l
    3.4759    24.2559 l
    3.5596    24.1842 l
    3.6239    24.0997 l
    3.6752    24.0023 l
    3.7070    23.8985 l
    3.7193    23.7948 l
    3.7058    23.6848 l
    3.6728    23.5814 l
    3.6205    23.4846 l
    3.5553    23.4008 l
    3.4707    23.3300 l
    3.3733    23.2788 l
    3.2695    23.2534 l
    3.1594    23.2411 l
    3.0494    23.2547 l
    2.9459    23.2811 l
    2.8491    23.3335 l
    2.7653    23.4052 l
    2.7011    23.4897 l
    2.6498    23.5871 l
    2.6180    23.6909 l
    2.6057    23.8010 l
    2.6192    23.9046 l
    2.6521    24.0080 l
    2.7045    24.1048 l
    2.7697    24.1886 l
    2.8543    24.2594 l
    2.9517    24.3106 l
    3.0555    24.3424 l
    3.1656    24.3483 l
s
n
    2.6083    23.1082 m
    3.4298    24.1331 l
    3.7167    24.4812 l
s
gs
    4.3707    23.3768 m
  359.6803 rotate
pol1 [    0.5652 0 0    1.2432 0 0 ] mf
(680) h gr
n
    7.3121     8.3777 m
    7.3008     8.1828 l
s
n
    7.3008     8.1828 m
    7.1372     5.3434 l
   14.9043     5.3900 l
s
n
    7.1921     7.9935 m
    7.3121     8.3777 l
    7.3871     7.9823 l
s
gs
    7.6532     5.6780 m
    0.3443 rotate
pol1 [    0.4937 0 0    1.2432 0 0 ] mf
(8 holes) h gr
n
   12.3139     6.6708 m
   12.4240     6.6649 l
   12.5278     6.6332 l
   12.6252     6.5820 l
   12.7098     6.5113 l
   12.7751     6.4275 l
   12.8274     6.3307 l
   12.8604     6.2273 l
   12.8740     6.1238 l
   12.8617     6.0136 l
   12.8300     5.9098 l
   12.7788     5.8124 l
   12.7145     5.7278 l
   12.6308     5.6561 l
   12.5340     5.6037 l
   12.4305     5.5772 l
   12.3205     5.5636 l
   12.2104     5.5759 l
   12.1066     5.6011 l
   12.0092     5.6524 l
   11.9246     5.7231 l
   11.8593     5.8069 l
   11.8070     5.9037 l
   11.7740     6.0071 l
   11.7604     6.1171 l
   11.7727     6.2207 l
   11.8044     6.3245 l
   11.8556     6.4220 l
   11.9199     6.5065 l
   12.0036     6.5782 l
   12.1004     6.6306 l
   12.2038     6.6636 l
   12.3139     6.6708 l
s
n
   11.7710     5.4243 m
   12.5806     6.4587 l
   12.8634     6.8100 l
s
gs
   13.5302     5.7133 m
    0.3443 rotate
pol1 [    0.4271 0 0    1.2432 0 0 ] mf
(16) h gr

sp
%%Trailer
%%Pages:   1
%%EOF

%%EndDocument
%%Trailer
