%!PS-Adobe-3.0 EPSF-3.0
%%BoundingBox: 158 355 432 612
%%Title: C:\users\essertaize\LASER_A4_A4FCONNE9B.PS
%%Creator: GSview from C:\users\essertaize\LASER_A4_A4FCONNE9B.PS
%%CreationDate: Tue Mar 15 09:08:05 2005
%%Pages: 1
%%EndComments
%%Page: 1 1
%%BeginDocument: C:\users\essertaize\LASER_A4_A4FCONNE9B.PS
%![PS-Adobe-1.0]%%
%%[Status: Busy;Source: Serial 9]%%
%%[Creator: ]%%
%%[Title: Fichier Postscript]%%
%%[Creation Date: mon may 28 10:00:00 1990]%%
%%[DocumentFonts: Courier]%%
%%BoundingBox:         28         28        610        851
%%Pages: (atend)
%%[EndComments]%%
/c { setrgbcolor } def
/w { setlinewidth } def
/m { moveto } def
/l { lineto } def
/n { newpath } def
/h { show } def
/r { rotate } def
/e { ellipse } def
/cu { curveto } def
/sc { scale } def
/rc { rectclip } def
/ic { initclip } def
/cc { closepath clip } def
/sp { showpage } def
/tr { translate } def
/mf { makefont setfont } def
/gs { gsave } def
/gr { grestore } def
/s { stroke } def
/ISOdict 12 dict def
/ISOcode
{ ISOdict begin
/newcodes exch def/newfontname exch def/basefontname exch def
/basefontdict basefontname findfont def
/newfont basefontdict maxlength dict def
basefontdict {exch dup /FID ne {dup/Encoding eq
{exch dup length array copy newfont 3 1 roll put}
{exch newfont 3 1 roll put}ifelse}{pop pop}ifelse}forall 
newfont/FontName newfontname put
newcodes aload pop
newcodes length 2 idiv 
{newfont/Encoding get 3 1 roll put} repeat
newfontname newfont definefont pop end } def
/scandvec[
8#202/Ccedilla 8#203/Eacute 8#205/Odieresis 8#206/Udieresis
8#210/agrave 8#211/acircumflex 8#212/adieresis 8#215/ccedilia
8#216/eacute 8#217/egrave 8#220/ecircumflex 8#221/edieresis
8#224/icircumflex 8#225/idieresis 8#231/ocircumflex
8#232/odieresis 8#235/ugrave 8#236/ucircumflex
8#237/udieresis 8#251/copyright 8#313/Agrave
8#344/Acircumflex 8#345/Adieresis
8#346/Ecircumflex 8#350/Edieresis 8#351/Egrave
8#353/Icircumflex 8#354/Idieresis 8#357/Ocircumflex 
8#363/Ugrave 8#364/Ucircumflex ] def

%%[Definition d'une ellipse]%%
/ellipsedict 8 dict def
ellipsedict/mtrx matrix put
/ellipse { ellipsedict begin
/endangle exch def /startangle exch def
/yrad exch def /xrad exch def
/y exch def /x exch def
/savematrix mtrx currentmatrix def
x y translate xrad yrad scale
0 0 1 startangle endangle arc
savematrix setmatrix end } def

%%[Definition de la police de caracteres]%%
/Courier /Courier_ISO scandvec ISOcode
/pol1 /Courier_ISO findfont def
2 setlinejoin
[] 0 setdash

%%[c:/users/essertaize/A4FCONNE9B              Name of the drawi]%%
%%[                                            User name        ]%%
%%[     10                                     Category         ]%%

%%[scale transformation in cm]%%
   28.3465    28.3465 sc
0 0 tr
0.013 w
%%Page:  0   1
    0.5000     0.5000    20.5000    28.9929 rc
0.049 w
n
    5.6413    13.9289 m
    5.6992    13.7925 l
    5.8010    13.6408 l
    5.9508    13.4774 l
    6.1503    13.3079 l
    6.4064    13.1346 l
    6.7251    12.9648 l
    7.0715    12.8246 l
    7.3936    12.7321 l
    7.6779    12.6830 l
    7.9171    12.6705 l
    8.1157    12.6879 l
    8.2265    12.7140 l
    8.3229    12.7517 l
s
n
    8.5891    13.3381 m
    8.5856    13.3504 l
s
n
    9.1442    15.1103 m
    9.0459    15.2549 l
    8.8989    15.4129 l
    8.7005    15.5780 l
    8.4318    15.7537 l
    8.1165    15.9134 l
    7.7915    16.0365 l
    7.5159    16.1099 l
    7.2571    16.1502 l
    7.0415    16.1578 l
    6.8691    16.1400 l
    6.7253    16.0995 l
    6.6135    16.0377 l
    6.5361    15.9567 l
    6.4949    15.8587 l
    6.4906    15.7464 l
    6.5232    15.6229 l
    6.5917    15.4915 l
    6.7052    15.3430 l
    6.8558    15.1938 l
    7.0556    15.0366 l
    7.3244    14.8686 l
    7.6426    14.7144 l
    7.9760    14.5951 l
    8.2652    14.5258 l
    8.5194    14.4946 l
    8.7323    14.4963 l
    8.9017    14.5246 l
    9.0291    14.5724 l
    9.1269    14.6410 l
    9.1862    14.7197 l
    9.2159    14.8134 l
    9.2139    14.9207 l
    9.1894    15.0124 l
    9.1442    15.1103 l
s
n
    7.3182    15.8717 m
    7.2669    15.9234 l
    7.1652    15.9694 l
    7.0940    15.9752 l
    7.0574    15.9564 l
    7.0571    15.9206 l
    7.0973    15.8734 l
    7.1922    15.8230 l
    7.2743    15.8101 l
    7.3171    15.8255 l
    7.3256    15.8454 l
    7.3182    15.8717 l
s
n
    7.3079    15.1977 m
    7.2566    15.2494 l
    7.1550    15.2954 l
    7.0837    15.3012 l
    7.0472    15.2824 l
    7.0468    15.2466 l
    7.0870    15.1994 l
    7.1819    15.1490 l
    7.2641    15.1361 l
    7.3069    15.1514 l
    7.3154    15.1714 l
    7.3079    15.1977 l
s
n
    8.6469    14.7356 m
    8.5956    14.7873 l
    8.4939    14.8333 l
    8.4227    14.8391 l
    8.3861    14.8203 l
    8.3857    14.7845 l
    8.4260    14.7373 l
    8.5209    14.6869 l
    8.6030    14.6740 l
    8.6458    14.6894 l
    8.6543    14.7093 l
    8.6469    14.7356 l
s
n
    8.6571    15.4096 m
    8.6058    15.4613 l
    8.5041    15.5073 l
    8.4329    15.5131 l
    8.3964    15.4944 l
    8.3960    15.4585 l
    8.4362    15.4113 l
    8.5311    15.3610 l
    8.6133    15.3480 l
    8.6561    15.3634 l
    8.6646    15.3833 l
    8.6571    15.4096 l
s
n
    8.2078    15.0814 m
    8.1625    15.1230 l
    8.0848    15.1504 l
    8.0418    15.1450 l
    8.0312    15.1217 l
    8.0573    15.0851 l
    8.1336    15.0460 l
    8.1921    15.0425 l
    8.2111    15.0565 l
    8.2078    15.0814 l
s
n
    8.2126    15.2166 m
    8.1673    15.2581 l
    8.0897    15.2856 l
    8.0466    15.2802 l
    8.0360    15.2569 l
    8.0622    15.2203 l
    8.1385    15.1811 l
    8.1969    15.1776 l
    8.2159    15.1917 l
    8.2126    15.2166 l
s
n
    8.2119    15.3536 m
    8.1667    15.3952 l
    8.0890    15.4226 l
    8.0459    15.4172 l
    8.0354    15.3939 l
    8.0615    15.3573 l
    8.1378    15.3182 l
    8.1963    15.3147 l
    8.2153    15.3287 l
    8.2119    15.3536 l
s
n
    7.9416    15.4483 m
    7.8963    15.4899 l
    7.8186    15.5173 l
    7.7756    15.5119 l
    7.7650    15.4886 l
    7.7911    15.4520 l
    7.8674    15.4129 l
    7.9259    15.4094 l
    7.9449    15.4234 l
    7.9416    15.4483 l
s
n
    7.9395    15.3108 m
    7.8942    15.3524 l
    7.8166    15.3798 l
    7.7735    15.3745 l
    7.7629    15.3511 l
    7.7890    15.3145 l
    7.8654    15.2754 l
    7.9238    15.2719 l
    7.9428    15.2859 l
    7.9395    15.3108 l
s
n
    7.9374    15.1733 m
    7.8921    15.2149 l
    7.8145    15.2424 l
    7.7714    15.2370 l
    7.7608    15.2136 l
    7.7870    15.1771 l
    7.8633    15.1379 l
    7.9217    15.1344 l
    7.9408    15.1484 l
    7.9374    15.1733 l
s
n
    7.6671    15.2680 m
    7.6218    15.3096 l
    7.5441    15.3370 l
    7.5011    15.3317 l
    7.4905    15.3083 l
    7.5166    15.2718 l
    7.5929    15.2326 l
    7.6514    15.2291 l
    7.6704    15.2431 l
    7.6671    15.2680 l
s
n
    7.6664    15.4051 m
    7.6211    15.4466 l
    7.5434    15.4741 l
    7.5004    15.4687 l
    7.4898    15.4454 l
    7.5159    15.4088 l
    7.5922    15.3696 l
    7.6507    15.3662 l
    7.6697    15.3802 l
    7.6664    15.4051 l
s
n
    7.6712    15.5402 m
    7.6259    15.5818 l
    7.5483    15.6092 l
    7.5052    15.6039 l
    7.4946    15.5805 l
    7.5208    15.5439 l
    7.5971    15.5048 l
    7.6555    15.5013 l
    7.6746    15.5153 l
    7.6712    15.5402 l
s
n
    8.0183    14.8199 m
    7.9659    14.8771 l
    7.8536    14.9380 l
    7.7544    14.9594 l
    7.6922    14.9502 l
    7.6652    14.9203 l
    7.6747    14.8762 l
    7.7260    14.8204 l
    7.8325    14.7613 l
    7.9378    14.7376 l
    8.0003    14.7469 l
    8.0269    14.7754 l
    8.0273    14.7960 l
    8.0183    14.8199 l
s
n
    8.9723    14.9697 m
    8.9199    15.0270 l
    8.8076    15.0879 l
    8.7084    15.1093 l
    8.6462    15.1001 l
    8.6192    15.0702 l
    8.6287    15.0260 l
    8.6800    14.9702 l
    8.7865    14.9112 l
    8.8918    14.8875 l
    8.9543    14.8967 l
    8.9809    14.9253 l
    8.9814    14.9458 l
    8.9723    14.9697 l
s
n
    8.0328    15.7731 m
    7.9804    15.8303 l
    7.8681    15.8912 l
    7.7688    15.9126 l
    7.7067    15.9034 l
    7.6797    15.8735 l
    7.6892    15.8294 l
    7.7405    15.7736 l
    7.8470    15.7145 l
    7.9523    15.6908 l
    8.0148    15.7001 l
    8.0414    15.7286 l
    8.0418    15.7492 l
    8.0328    15.7731 l
s
n
    7.0788    15.6232 m
    7.0264    15.6805 l
    6.9141    15.7414 l
    6.8148    15.7628 l
    6.7527    15.7536 l
    6.7257    15.7237 l
    6.7351    15.6795 l
    6.7864    15.6237 l
    6.8930    15.5647 l
    6.9983    15.5410 l
    7.0608    15.5502 l
    7.0873    15.5788 l
    7.0878    15.5993 l
    7.0788    15.6232 l
s
n
    7.1469    17.3585 m
    7.1229    17.2584 l
    7.1337    17.1420 l
    7.1829    17.0113 l
    7.2727    16.8690 l
    7.4109    16.7124 l
    7.6014    16.5467 l
    7.8446    16.3797 l
    8.1469    16.2170 l
    8.4786    16.0820 l
    8.7913    15.9926 l
    9.0609    15.9471 l
    9.2905    15.9370 l
    9.4768    15.9559 l
    9.6263    15.9998 l
    9.7376    16.0651 l
    9.7909    16.1187 l
    9.8285    16.1813 l
s
n
    9.8130    17.7253 m
    9.6138    17.8779 l
s
n
    8.5412    18.3488 m
    8.2894    18.3928 l
    8.0795    18.4060 l
    7.8962    18.3940 l
    7.7432    18.3584 l
    7.6232    18.3013 l
    7.5380    18.2251 l
    7.4885    18.1324 l
    7.4747    18.0261 l
    7.4960    17.9092 l
    7.5568    17.7742 l
    7.6543    17.6345 l
    7.7962    17.4832 l
    7.9987    17.3154 l
    8.2511    17.1501 l
    8.5639    16.9900 l
    8.8919    16.8643 l
    9.1829    16.7867 l
    9.4425    16.7468 l
    9.6640    16.7403 l
    9.8442    16.7616 l
    9.9835    16.8046 l
   10.0917    16.8691 l
   10.1609    16.9464 l
   10.1987    17.0393 l
   10.2035    17.1458 l
   10.1746    17.2637 l
   10.1118    17.3903 l
   10.0064    17.5339 l
    9.9172    17.6296 l
    9.8130    17.7253 l
s
n
    8.3038    17.8080 m
    8.2952    17.7393 l
    8.3239    17.6583 l
    8.3960    17.5631 l
    8.5198    17.4579 l
    8.7004    17.3530 l
    8.9100    17.2745 l
    9.0823    17.2421 l
    9.2147    17.2435 l
    9.3077    17.2701 l
    9.3496    17.2990 l
    9.3764    17.3371 l
s
n
    8.4956    18.2451 m
    8.4717    18.2135 l
    8.4650    18.1754 l
s
n
   10.1482    17.1856 m
   10.0837    17.2664 l
    9.9656    17.3558 l
    9.7937    17.4369 l
    9.6415    17.4743 l
    9.5322    17.4770 l
    9.4556    17.4554 l
    9.4138    17.4156 l
    9.4056    17.3607 l
    9.4335    17.2923 l
    9.5036    17.2124 l
    9.6229    17.1269 l
    9.7918    17.0506 l
    9.9466    17.0155 l
   10.0554    17.0164 l
   10.1280    17.0420 l
   10.1637    17.0845 l
   10.1680    17.1308 l
   10.1482    17.1856 l
s
n
    9.1942    17.0358 m
    9.1297    17.1165 l
    9.0116    17.2059 l
    8.8397    17.2870 l
    8.6875    17.3245 l
    8.5782    17.3272 l
    8.5016    17.3056 l
    8.4598    17.2657 l
    8.4516    17.2109 l
    8.4795    17.1425 l
    8.5496    17.0626 l
    8.6689    16.9771 l
    8.8378    16.9008 l
    8.9926    16.8656 l
    9.1014    16.8666 l
    9.1740    16.8922 l
    9.2097    16.9347 l
    9.2140    16.9809 l
    9.1942    17.0358 l
s
n
    8.2547    17.8391 m
    8.1902    17.9199 l
    8.0721    18.0093 l
    7.9002    18.0904 l
    7.7480    18.1278 l
    7.6387    18.1305 l
    7.5620    18.1089 l
    7.5203    18.0691 l
    7.5121    18.0142 l
    7.5400    17.9458 l
    7.6101    17.8659 l
    7.7293    17.7804 l
    7.8983    17.7041 l
    8.0530    17.6690 l
    8.1619    17.6699 l
    8.2345    17.6955 l
    8.2702    17.7381 l
    8.2745    17.7843 l
    8.2547    17.8391 l
s
n
    9.7087    18.2892 m
    9.6392    18.3817 l
    9.5168    18.4869 l
    9.3320    18.5948 l
    9.1333    18.6701 l
    8.9615    18.7044 l
    8.8287    18.7055 l
    8.7321    18.6810 l
    8.6725    18.6373 l
    8.6471    18.5769 l
    8.6569    18.5035 l
    8.7047    18.4171 l
    8.7934    18.3226 l
    8.9361    18.2185 l
    9.1329    18.1207 l
    9.3327    18.0602 l
    9.4883    18.0419 l
    9.6060    18.0535 l
    9.6838    18.0868 l
    9.7274    18.1369 l
    9.7379    18.2034 l
    9.7287    18.2447 l
    9.7087    18.2892 l
s
n
    9.5468    18.1314 m
    9.5015    18.1730 l
    9.4238    18.2005 l
    9.3808    18.1951 l
    9.3702    18.1717 l
    9.3963    18.1352 l
    9.4726    18.0960 l
    9.5311    18.0925 l
    9.5501    18.1066 l
    9.5468    18.1314 l
s
n
    9.5516    18.2666 m
    9.5063    18.3082 l
    9.4286    18.3356 l
    9.3856    18.3302 l
    9.3750    18.3069 l
    9.4011    18.2703 l
    9.4774    18.2312 l
    9.5359    18.2277 l
    9.5549    18.2417 l
    9.5516    18.2666 l
s
n
    9.5509    18.4036 m
    9.5056    18.4452 l
    9.4280    18.4727 l
    9.3849    18.4673 l
    9.3743    18.4439 l
    9.4005    18.4074 l
    9.4768    18.3682 l
    9.5353    18.3647 l
    9.5543    18.3788 l
    9.5509    18.4036 l
s
n
    9.2764    18.2234 m
    9.2311    18.2649 l
    9.1534    18.2924 l
    9.1104    18.2870 l
    9.0998    18.2637 l
    9.1259    18.2271 l
    9.2022    18.1880 l
    9.2607    18.1845 l
    9.2797    18.1985 l
    9.2764    18.2234 l
s
n
    9.2785    18.3608 m
    9.2332    18.4024 l
    9.1555    18.4299 l
    9.1125    18.4245 l
    9.1019    18.4012 l
    9.1280    18.3646 l
    9.2043    18.3254 l
    9.2628    18.3219 l
    9.2818    18.3360 l
    9.2785    18.3608 l
s
n
    9.2806    18.4983 m
    9.2353    18.5399 l
    9.1576    18.5673 l
    9.1146    18.5620 l
    9.1040    18.5386 l
    9.1301    18.5021 l
    9.2064    18.4629 l
    9.2649    18.4594 l
    9.2839    18.4734 l
    9.2806    18.4983 l
s
n
    9.0060    18.3180 m
    8.9608    18.3596 l
    8.8831    18.3871 l
    8.8401    18.3817 l
    8.8295    18.3584 l
    8.8556    18.3218 l
    8.9319    18.2826 l
    8.9904    18.2791 l
    9.0094    18.2932 l
    9.0060    18.3180 l
s
n
    9.0054    18.4551 m
    8.9601    18.4967 l
    8.8824    18.5241 l
    8.8394    18.5187 l
    8.8288    18.4954 l
    8.8549    18.4588 l
    8.9312    18.4197 l
    8.9897    18.4162 l
    9.0087    18.4302 l
    9.0054    18.4551 l
s
n
    9.0102    18.5902 m
    8.9649    18.6318 l
    8.8872    18.6593 l
    8.8442    18.6539 l
    8.8336    18.6306 l
    8.8597    18.5940 l
    8.9360    18.5548 l
    8.9945    18.5514 l
    9.0135    18.5654 l
    9.0102    18.5902 l
s
n
    8.5804    19.9967 m
    8.5901    19.9729 l
    8.6431    19.9318 l
    8.7863    19.8640 l
    8.8849    19.8370 l
    8.9223    19.8352 l
    8.9399    19.8444 l
s
n
    8.8466    21.1248 m
    8.8533    21.0935 l
    8.8981    21.0468 l
    8.9944    20.9814 l
    9.1815    20.8892 l
    9.3708    20.8235 l
    9.4779    20.8023 l
    9.5372    20.8028 l
    9.5656    20.8200 l
s
n
    9.6061    21.2896 m
    9.4445    21.3775 l
    9.2402    21.4573 l
    9.1172    21.4883 l
    9.0399    21.4946 l
    9.0002    21.4825 l
    8.9966    21.4544 l
    9.0307    21.4114 l
    9.1074    21.3540 l
    9.2512    21.2750 l
    9.4817    21.1850 l
    9.6033    21.1560 l
    9.6772    21.1522 l
    9.7120    21.1667 l
    9.7109    21.1961 l
    9.6754    21.2378 l
    9.6061    21.2896 l
s
n
    9.5429    19.8185 m
    9.5423    19.8121 l
s
n
    9.8091    20.9466 m
    9.8122    20.9216 l
s
n
    9.8090    20.9465 m
    9.8122    20.9216 l
s
n
   10.5104    20.6275 m
   10.5281    20.6418 l
s
n
   10.5685    21.1113 m
   10.4069    21.1993 l
   10.2027    21.2791 l
   10.0796    21.3100 l
   10.0024    21.3163 l
    9.9627    21.3042 l
    9.9590    21.2762 l
    9.9932    21.2332 l
   10.0698    21.1758 l
   10.2137    21.0968 l
   10.4441    21.0067 l
   10.5657    20.9778 l
   10.6397    20.9739 l
   10.6744    20.9884 l
   10.6734    21.0178 l
   10.6379    21.0595 l
   10.5685    21.1113 l
s
n
    9.3797    19.4285 m
    9.3894    19.4047 l
    9.4424    19.3637 l
    9.5856    19.2958 l
    9.6842    19.2688 l
    9.7216    19.2670 l
    9.7392    19.2762 l
s
n
    9.6459    20.5566 m
    9.6526    20.5254 l
    9.6974    20.4787 l
    9.7937    20.4133 l
    9.9808    20.3210 l
   10.1701    20.2554 l
   10.2772    20.2342 l
   10.3365    20.2346 l
   10.3649    20.2518 l
s
n
   10.4053    20.7214 m
   10.2438    20.8094 l
   10.0395    20.8891 l
    9.9164    20.9201 l
    9.8392    20.9264 l
    9.7995    20.9143 l
    9.7959    20.8863 l
    9.8300    20.8432 l
    9.9066    20.7858 l
   10.0505    20.7069 l
   10.2809    20.6168 l
   10.4026    20.5878 l
   10.4765    20.5840 l
   10.5113    20.5984 l
   10.5102    20.6278 l
   10.4747    20.6695 l
   10.4053    20.7214 l
s
n
   10.3421    19.2503 m
   10.3518    19.2265 l
   10.4048    19.1854 l
   10.5480    19.1175 l
   10.6466    19.0906 l
   10.6840    19.0888 l
   10.7017    19.0980 l
s
n
   10.6083    20.3784 m
   10.6151    20.3471 l
   10.6599    20.3004 l
   10.7562    20.2350 l
   10.9433    20.1427 l
   11.1326    20.0771 l
   11.2397    20.0559 l
   11.2989    20.0564 l
   11.3273    20.0736 l
s
n
   11.3678    20.5431 m
   11.2062    20.6311 l
   11.0020    20.7109 l
   10.8789    20.7418 l
   10.8017    20.7482 l
   10.7620    20.7360 l
   10.7583    20.7080 l
   10.7924    20.6650 l
   10.8691    20.6076 l
   11.0130    20.5286 l
   11.2434    20.4386 l
   11.3650    20.4096 l
   11.4389    20.4057 l
   11.4737    20.4202 l
   11.4726    20.4496 l
   11.4372    20.4913 l
   11.3678    20.5431 l
s
n
   10.6083    20.3784 m
   10.7570    20.7290 l
s
n
   11.3273    20.0736 m
   11.4760    20.4242 l
s
n
   10.3421    19.2503 m
   10.7589    20.2334 l
s
n
   10.7017    19.0980 m
   11.1184    20.0810 l
s
n
    9.6459    20.5566 m
    9.7945    20.9073 l
s
n
   10.3649    20.2518 m
   10.5135    20.6024 l
s
n
    9.3797    19.4285 m
    9.7965    20.4116 l
s
n
    9.7392    19.2762 m
   10.1560    20.2592 l
s
n
   10.5281    20.6418 m
   10.6767    20.9924 l
s
n
    9.8091    20.9466 m
    9.9577    21.2972 l
s
n
    9.5429    19.8185 m
    9.7948    20.4127 l
s
n
    9.5656    20.8200 m
    9.7143    21.1706 l
s
n
    8.8466    21.1248 m
    8.9953    21.4754 l
s
n
    8.9399    19.8444 m
    9.3567    20.8274 l
s
n
    8.5804    19.9967 m
    8.9972    20.9798 l
s
n
    8.3038    17.8080 m
    8.6561    18.6106 l
s
n
    9.3764    17.3371 m
    9.7287    18.1397 l
s
n
    7.1469    17.3585 m
    7.4993    18.1611 l
s
n
    9.8285    16.1813 m
   10.1808    16.9839 l
s
n
    5.6413    13.9289 m
    6.5127    15.9138 l
s
n
    8.3229    12.7517 m
    9.1942    14.7365 l
s
n
    8.7497    13.7239 m
    9.3005    12.6084 l
   13.3289    12.6084 l
s
n
    8.8350    13.3306 m
    8.7497    13.7239 l
    9.0101    13.4170 l
s
n
   10.7698    13.9047 m
   10.8782    13.8982 l
   10.9731    13.8658 l
   11.0563    13.8140 l
   11.1214    13.7428 l
   11.1636    13.6586 l
   11.1894    13.5615 l
   11.1940    13.4579 l
   11.1792    13.3543 l
   11.1368    13.2442 l
   11.0766    13.1406 l
   10.9988    13.0435 l
   10.9115    12.9593 l
   10.8082    12.8881 l
   10.6972    12.8363 l
   10.5867    12.8104 l
   10.4732    12.7975 l
   10.3666    12.8104 l
   10.2699    12.8363 l
   10.1867    12.8881 l
   10.1216    12.9593 l
   10.0794    13.0435 l
   10.0536    13.1406 l
   10.0490    13.2442 l
   10.0655    13.3543 l
   10.1062    13.4579 l
   10.1664    13.5615 l
   10.2442    13.6586 l
   10.3315    13.7428 l
   10.4348    13.8140 l
   10.5458    13.8658 l
   10.6580    13.8982 l
   10.7698    13.9047 l
s
n
    9.8864    12.6615 m
   10.9781    13.6910 l
   11.3566    14.0406 l
s
gs
   11.3695    12.9399 m
    0.0000 rotate
pol1 [    0.4805 0    0.1287     1.2432 0 0 ] mf
( 15) h gr
gs
   10.5733    16.0006 m
    0.0000 rotate
pol1 [    0.5090 0    0.1364     1.2432 0 0 ] mf
(reference pin) h gr
n
   15.1736    15.6691 m
    9.6737    15.6691 l
s
n
    9.6737    15.6691 m
    8.5366    14.7649 l
s
n
    8.5366    14.7649 m
    8.6498    14.9324 l
s
n
    8.5366    14.7649 m
    8.7272    14.8431 l
s

sp
%%Trailer
%%Pages:   1
%%EOF

%%EndDocument
%%Trailer
