%!PS-Adobe-3.0 EPSF-3.0
%%BoundingBox: 86 313 527 584
%%HiResBoundingBox: 86.171875 313.229688 526.539453 583.500000
%...................................
%%Creator: ESP Ghostscript 81500 (epswrite)
%%CreationDate: 2005/08/12 14:20:06
%%DocumentData: Clean7Bit
%%LanguageLevel: 2
%%EndComments
%%BeginProlog
% This copyright applies to everything between here and the %%EndProlog:
% Copyright (C) 2004 artofcode LLC, Benicia, CA.  All rights reserved.
%%BeginResource: procset GS_epswrite_2_0_1001
/GS_epswrite_2_0_1001 80 dict dup begin
/PageSize 2 array def/setpagesize{ PageSize aload pop 3 index eq exch
4 index eq and{ pop pop pop}{ PageSize dup  1
5 -1 roll put 0 4 -1 roll put dup null eq {false} {dup where} ifelse{ exch get exec}
{ pop/setpagedevice where
{ pop 1 dict dup /PageSize PageSize put setpagedevice}
{ /setpage where{ pop PageSize aload pop pageparams 3 {exch pop} repeat
setpage}if}ifelse}ifelse}ifelse} bind def
/!{bind def}bind def/#{load def}!/N/counttomark #
/rG{3{3 -1 roll 255 div}repeat setrgbcolor}!/G{255 div setgray}!/K{0 G}!
/r6{dup 3 -1 roll rG}!/r5{dup 3 1 roll rG}!/r3{dup rG}!
/w/setlinewidth #/J/setlinecap #
/j/setlinejoin #/M/setmiterlimit #/d/setdash #/i/setflat #
/m/moveto #/l/lineto #/c/rcurveto #
/p{N 2 idiv{N -2 roll rlineto}repeat}!
/P{N 0 gt{N -2 roll moveto p}if}!
/h{p closepath}!/H{P closepath}!
/lx{0 rlineto}!/ly{0 exch rlineto}!/v{0 0 6 2 roll c}!/y{2 copy c}!
/re{4 -2 roll m exch dup lx exch ly neg lx h}!
/^{3 index neg 3 index neg}!
/f{P fill}!/f*{P eofill}!/s{H stroke}!/S{P stroke}!
/q/gsave #/Q/grestore #/rf{re fill}!
/Y{P clip newpath}!/Y*{P eoclip newpath}!/rY{re Y}!
/|={pop exch 4 1 roll 1 array astore cvx 3 array astore cvx exch 1 index def exec}!
/|{exch string readstring |=}!
/+{dup type/nametype eq{2 index 7 add -3 bitshift 2 index mul}if}!
/@/currentfile #/${+ @ |}!
/B{{2 copy string{readstring pop}aload pop 4 array astore cvx
3 1 roll}repeat pop pop true}!
/Ix{[1 0 0 1 11 -2 roll exch neg exch neg]exch}!
/,{true exch Ix imagemask}!/If{false exch Ix imagemask}!/I{exch Ix image}!
/Ic{exch Ix false 3 colorimage}!
/F{/Columns counttomark 3 add -2 roll/Rows exch/K -1/BlackIs1 true>>
/CCITTFaxDecode filter}!/FX{<</EndOfBlock false F}!
/X{/ASCII85Decode filter}!/@X{@ X}!/&2{2 index 2 index}!
/@F{@ &2<<F}!/@C{@X &2 FX}!
/$X{+ @X |}!/&4{4 index 4 index}!/$F{+ @ &4<<F |}!/$C{+ @X &4 FX |}!
/IC{3 1 roll 10 dict begin 1{/ImageType/Interpolate/Decode/DataSource
/ImageMatrix/BitsPerComponent/Height/Width}{exch def}forall
currentdict end image}!
/~{@ read {pop} if}!
end def
%%EndResource
/pagesave null def
%%EndProlog
%%Page: 1 1
%%BeginPageSetup
GS_epswrite_2_0_1001 begin
/pagesave save store 197 dict begin
0.1 0.1 scale
%%EndPageSetup
gsave mark
Q q
141.73 141.73 5811.03 8218.47 re
Y
13.8898 w
2 j
K
2357.38 5310.71 1.56 8.08 S
2357.38 5319.76 1.56 8.08 S
2357.41 5328.8 1.53 8.05 S
2357.35 5337.84 1.61 8.05 S
2357.35 5346.89 1.61 8.02 S
2357.32 5355.93 1.64 8.02 S
2357.35 5364.94 1.61 8.05 S
2357.32 5374.01 1.64 8 S
2357.35 5383.03 3 9.52 S
1520.48 4835.32 -2.64 -5.02 2.69 -3.09 S
1130.34 5225.5 -2.55 -3.88 0.77 -3.37 S
1520.45 4844.36 -2.61 -5.02 2.66 -3.09 S
1130.34 5234.52 -2.55 -3.86 0.77 -3.37 S
1520.48 4853.4 -2.64 -5.02 2.66 -3.09 S
1130.34 5243.56 -2.55 -3.86 0.77 -3.4 S
1520.48 4862.41 -2.64 -5.02 2.66 -3.06 S
1130.34 5252.61 -2.55 -3.86 0.77 -3.4 S
1520.5 4871.46 -2.66 -4.99 2.66 -3.09 S
1130.34 5261.65 -2.55 -3.89 0.77 -3.37 S
1520.48 4880.44 -2.61 -4.99 2.64 -3.03 S
1130.34 5270.69 -2.55 -3.88 0.77 -3.37 S
1520.48 4889.52 -2.64 -4.99 2.64 -3.06 S
1130.34 5279.7 -2.55 -3.86 0.77 -3.37 S
1520.48 4898.53 -2.64 -4.99 2.64 -3.03 S
1130.34 5288.75 -2.55 -3.86 0.77 -3.4 S
1525.24 4908.93 -6.92 -4.14 -0.23 -3.49 2.38 -1.76 S
1128.84 5296.17 -0.28 -5.64 S
2259.41 3988.32 -11.09 18.54 -2.1 25.26 8.93 29.31 20.58 29.02 28.43 21.66 29.25 10.23 25.68 -0.77 
11.71 -4.54 9.89 -7.4 S
2284.02 3971.54 -19.07 11.25 -11.31 19.25 -1.81 25.09 8.98 28.97 20.18 28.49 28.46 21.86 28.68 10.23 
25.74 -0.43 19.79 -9.72 8.39 -9.55 5.44 -11.9 S
2268.85 3986.71 -10.8 18.77 -1.25 24.46 9.61 28.15 20.98 27.38 28.18 19.5 28.21 7.79 21.32 -2.24 
17.23 -10.32 S
2326.62 3933.81 -13.52 8.67 S
2326.62 3933.81 -16.95 12.41 -8.93 19.96 0.99 26.28 12.59 29 22.76 25.57 28.18 16.78 27.55 5.41 
21.97 -4.79 12.27 -8.99 8.19 -13.01 S
2320.39 3950.82 -9.53 17.09 -0.25 23.58 11.14 26.73 21.49 23.67 26.05 14.31 24.35 3.26 13.49 -3.32 
11.11 -7.51 S
2323.05 3954.22 -1.3 22.9 9.75 26.42 21.01 24.83 25.91 15.34 18.96 4.2 17.46 -1.93 S
3805.69 4972.43 -13.78 -1.45 -16.73 -13.46 -18.05 -27.21 -16.33 -43.82 -5.13 -37.36 3.34 -24.75 5.13 -9.53 
7.29 -5.16 S
3761.01 4806.49 12.36 0.85 S
3762.94 4805.98 11.57 1.84 S
3825.27 4960.07 -9.95 9.16 -13.78 -1.41 -15.93 -12.56 -18.29 -26.99 -16.64 -43.77 -5.42 -36.62 2.81 -25.09 
5.27 -10.71 7.65 -5.58 S
3813.54 4963.98 -13.1 -1.45 -15.96 -13.1 -17.91 -27.95 -14.91 -42.91 -3.6 -33.87 3.94 -21.4 4.57 -7.43 
6.21 -4.14 S
3851.46 4787.89 6.29 3.86 S
3901.5 4922.99 -7.54 13.07 -11.88 3.15 -14.8 -7.88 -17.26 -21.06 -17.6 -38.41 -8.22 -39.04 0.94 -26.08 
6.55 -15.45 8.76 -5.3 11.03 1.9 S
3885.77 4928.23 -12.33 -1.79 -15.08 -13.58 -16.36 -28.37 -11.45 -40.17 -0.48 -27.35 4.2 -13.15 7.74 -6.83 S
3905.89 4921.55 -12.33 -1.79 -15.05 -13.61 -16.38 -28.37 -11.45 -40.16 -0.48 -27.36 4.2 -13.15 7.74 -6.83 S
2362.79 5263.75 -94.93 -86.12 -106.36 -82.15 -119.28 -78.83 -132.29 -74.78 -141.96 -68.57 -149.87 -61.51 S
1557.21 4789.54 -39.21 -13.52 S
2362.79 5444.51 -93.66 -85.07 -106.95 -82.71 -118.35 -78.32 -131.67 -74.64 -144.96 -70.04 -122.2 -50.88 -127 -46.09 S
1127.82 5346.94 124.07 46.83 114.41 52.58 102.95 56.95 92.78 61.48 65.82 51.36 59.13 53.63 S
2414.84 4045.98 -22.9 1.33 -26.42 -9.75 -24.8 -21 -15.36 -25.91 -4.2 -18.96 1.9 -17.46 S
2449.3 4033.22 -18.77 10.8 -24.46 1.25 -28.15 -9.61 -27.38 -20.98 -19.47 -28.18 -7.82 -28.18 2.24 -21.34 
10.32 -17.23 S
2430.09 3905.3 5.5 3.74 S
2464.87 3940.73 11.62 28.23 0.71 24.92 -8.59 19.64 -16.89 12.67 -23.19 3.66 -27.55 -6.83 -28.52 -18.68 
-21.66 -26.79 -10.54 -28.09 0.25 -24.83 9.75 -19.25 17.27 -11.48 24.09 -2.66 19.11 4.39 19.36 9.67 S
2428.95 3980.78 -11.62 4.57 -16.33 -5.07 -13.58 -14.52 -3.74 -14.03 4.56 -11.65 S
2441.82 3986.11 13.27 10.07 4.42 13.63 -5.11 8.98 -11.82 0.99 -13.92 -10.12 -4.54 -13.92 5.3 -9.02 
12.39 -0.62 S
2459.03 3949.91 -6.29 7.11 S
2375.41 3901.33 13.27 10.06 4.42 13.66 -5.1 8.96 -11.82 0.99 -13.92 -10.09 -4.54 -13.95 5.27 -9.02 
12.41 -0.62 S
2375.41 3963.97 13.27 10.04 4.42 13.66 -5.1 8.98 -11.82 0.99 -13.92 -10.12 -4.54 -13.95 5.27 -8.98 
12.41 -0.62 S
2436.27 3909.27 2.38 0.91 S
2461.16 3942.46 -5.56 11.59 -13.09 3.54 -16.89 -7.14 -12.19 -15.93 -1.47 -14.91 7.79 -9.92 7.66 -1.84 
8.87 1.42 S
2431.68 3914.59 1.64 -1.73 S
2439.84 3924.97 1.19 -1.48 S
2448 3935.31 1.19 -1.45 S
2423.57 3919.5 1.64 -1.64 S
2431.7 3929.93 1.61 -1.7 S
2439.81 3940.33 1.64 -1.73 S
2420.76 3932.05 -5.19 -4.45 1.47 -4.82 S
2428.93 3942.43 -5.19 -4.42 1.47 -4.82 S
2437.03 3952.86 -5.19 -4.45 1.47 -4.82 S
2364.32 3982.71 -5.02 -0.34 S
2373.71 3996.77 -2.04 -8.39 -7.34 -5.67 S
2430.74 4004.85 -4.99 -0.34 S
2440.12 4018.91 -2.04 -8.39 -7.34 -5.67 S
2364.32 3920.09 -5.02 -0.34 S
2373.71 3934.13 -2.04 -8.36 -7.34 -5.67 S
2448.46 4020.55 -4.88 -13.95 -9.12 -7.82 -10.35 -2.61 S
2382.04 3935.77 -4.9 -13.92 -9.13 -7.85 -10.32 -2.58 S
2382.04 3998.39 -4.9 -13.92 -9.13 -7.82 -10.32 -2.61 S
3905.89 4921.55 -12.33 -1.79 -15.05 -13.61 -16.38 -28.37 -11.45 -40.16 -0.48 -27.36 4.2 -13.15 7.74 -6.83 S
3929.5 4925.32 -13.07 -1.45 -15.96 -13.1 -17.95 -27.92 -14.88 -42.95 -3.6 -33.87 3.94 -21.4 4.56 -7.43 
6.21 -4.14 S
3944.33 4790.02 7.51 12.95 S
3970.04 4857.57 1.73 29.88 -4.62 19.11 -9.36 9.36 -13.15 -1.11 -15.93 -12.79 -17.95 -27.58 -15.19 -43.2 
-3.71 -34.55 4.08 -21.66 9.16 -10.6 12.59 0 13.15 8.87 13.49 16.73 S
3941.04 4867.23 -8.05 -2.81 -10.15 -15.39 -5.27 -24.41 1.45 -7.96 3.82 -4.03 S
3951.1 4873.7 9.1 18.17 0.39 14.29 -4.93 3.8 -7.66 -6.69 -7.05 -21.03 2.29 -10.37 3.43 -0.94 
4.42 2.78 S
3912.75 4772.73 9.1 18.17 0.4 14.29 -4.93 3.8 -7.65 -6.72 -7.09 -21.03 2.32 -10.37 3.43 -0.93 
4.42 2.8 S
3912.75 4835.34 9.1 18.17 0.4 14.29 -4.93 3.8 -7.65 -6.69 -7.09 -21.04 2.32 -10.37 3.43 -0.93 
4.42 2.78 S
3979.88 4800.45 0.43 0.45 S
3986.88 4810.43 0.57 1.14 S
3991.78 4822.67 0.34 1.28 S
3994.22 4836.62 -2.07 11.85 -6.18 2.86 -9.3 -7.65 -10.01 -23.61 -0.43 -17.27 4.88 -6.26 4.11 0.54 
4.65 3.37 S
3982.14 4813.43 -0.62 0.45 S
3986.88 4825.79 -0.71 0.48 S
3991.61 4838.12 -0.79 0.54 S
3977.49 4816.35 -0.76 0.54 S
3982.17 4828.77 -0.71 0.48 S
3986.82 4841.18 -0.62 0.43 S
3972.68 4819.47 -2.21 -0.39 S
3970.46 4819.07 -0.45 -0.51 S
3977.38 4831.86 -2.21 -0.39 S
3975.17 4831.46 -0.45 -0.51 S
3982.09 4844.25 -2.21 -0.4 S
3979.88 4843.85 -0.45 -0.51 S
5180.27 3149.35 29.25 23.44 26.93 36.45 16.89 40.28 5.19 34.95 -3.97 26.53 -11.51 18.91 -17.69 9.7 
-22.02 -0.23 -26.59 -11.43 -28.35 -24.07 -25.65 -36.08 -16.41 -41.07 -4.31 -35.43 5.16 -26.16 12.61 -17.72 
18.29 -8.19 19.87 0.96 22.31 9.16 S
4922.54 3516.32 -19.7 5.19 -24.55 -5.19 -27.27 -16.78 -28.46 -30.61 -21.94 -39.34 -10.6 -38.52 0.23 -31.46 
7.51 -20.95 14.09 -14.03 S
4512.45 4048.56 m
-5.5 17.94 -10.8 35.91 -16.02 53.89 c
S
4496.43 4102.45 m
-5.61 19.28 -11.14 38.55 -16.81 57.83 c
S
4862.21 3507.79 m
-19.27 17.63 -38.1 35.4 -56.32 53.4 c
S
4805.89 3561.2 m
-17.37 17.18 -34.21 34.55 -50.37 52.13 c
S
4755.52 3613.33 m
-15.9 17.32 -31.15 34.81 -45.7 52.52 c
S
4709.82 3665.85 m
-14.34 17.46 -27.98 35.12 -40.85 52.98 c
S
4668.98 3718.83 m
-12.73 17.66 -24.71 35.49 -35.97 53.49 c
S
4633.01 3772.32 m
-11.17 17.86 -21.6 35.89 -31.35 54.03 c
S
4601.66 3826.35 m
-9.7 18.08 -18.71 36.31 -27.1 54.59 c
S
4574.55 3880.95 m
-8.39 18.34 -16.16 36.77 -23.41 55.25 c
S
4551.14 3936.19 m
-7.29 18.57 -14.06 37.19 -20.44 55.84 c
S
4530.7 3992.04 m
-6.41 18.82 -12.44 37.64 -18.25 56.52 c
S
4478.63 4163.56 m
-5.7 19.5 -11.54 39.01 -17.63 58.48 c
S
4461 4222.04 m
-6.21 19.76 -12.7 39.49 -19.67 59.16 c
S
4441.33 4281.2 m
-7.06 19.98 -14.63 39.94 -22.82 59.78 c
S
4418.51 4340.98 m
-8.33 20.24 -17.35 40.39 -27.12 60.41 c
S
4391.38 4401.39 m
-10.04 20.5 -20.89 40.88 -32.66 61.06 c
S
4358.73 4462.45 m
-12.11 20.75 -25.2 41.3 -39.29 61.63 c
S
4319.44 4524.07 m
-14.6 21 -30.27 41.75 -47.03 62.22 c
S
4272.41 4586.29 m
-17.43 21.26 -36.05 42.21 -55.79 62.79 c
S
4216.63 4649.08 m
-20.61 21.49 -42.46 42.61 -65.45 63.33 c
S
4151.17 4712.41 m
-49.61 44.67 -104.46 87.42 -163.19 128.24 c
S
4479.63 4160.27 -0.99 3.29 S
3987.98 4840.64 -1.25 0.59 S
4560.18 3879.93 m
-8.42 18.39 -16.21 36.88 -23.5 55.45 c
S
4536.68 3935.37 m
-7.29 18.59 -14.06 37.28 -20.46 56.01 c
S
4516.22 3991.38 m
-6.43 18.82 -12.47 37.7 -18.29 56.61 c
S
4497.93 4047.99 m
-5.87 19.08 -11.48 38.15 -17.04 57.23 c
S
4480.9 4105.22 m
-5.61 19.28 -11.17 38.55 -16.81 57.83 c
S
4464.09 4163.05 m
-5.7 19.47 -11.54 38.98 -17.63 58.42 c
S
4446.46 4221.47 m
-6.18 19.7 -12.67 39.4 -19.61 59.02 c
S
4426.84 4280.49 m
-7.06 19.93 -14.57 39.8 -22.73 59.61 c
S
4404.11 4340.1 m
-8.34 20.16 -17.29 40.22 -27.04 60.18 c
S
4852.32 3500.59 m
-20.07 18.28 -39.63 36.73 -58.54 55.39 c
S
4793.79 3555.98 m
-17.43 17.27 -34.33 34.7 -50.54 52.33 c
S
4743.25 3608.31 m
-15.96 17.38 -31.29 34.95 -45.86 52.73 c
S
4697.38 3661.04 m
-14.4 17.54 -28.09 35.29 -41.02 53.2 c
S
4656.36 3714.24 m
-12.79 17.72 -24.83 35.63 -36.11 53.69 c
S
4620.25 3767.93 m
-11.22 17.94 -21.71 36.03 -31.49 54.25 c
S
4588.76 3822.18 m
-9.72 18.17 -18.77 36.43 -27.18 54.82 c
S
4385.46 4382.65 m
-2.3 4.9 -4.65 9.8 -7.03 14.71 c
S
4378.43 4397.36 m
-10 20.41 -20.8 40.7 -32.54 60.8 c
S
4345.89 4458.16 m
-12.05 20.66 -25.06 41.13 -39.12 61.37 c
S
4306.77 4519.54 m
-14.51 20.92 -30.1 41.59 -46.8 61.94 c
S
4259.96 4581.47 m
-17.35 21.18 -35.89 42.01 -55.53 62.5 c
S
4204.44 4643.98 m
-20.55 21.4 -42.29 42.43 -65.17 63.04 c
S
4139.27 4707.02 m
-49.15 44.28 -103.46 86.66 -161.6 127.08 c
S
4507.74 4051.56 m
-5.5 17.95 -10.77 35.91 -16.02 53.89 c
S
4491.73 4105.45 m
-5.61 19.28 -11.14 38.55 -16.78 57.83 c
S
4861.42 3507.25 m
-20.66 18.77 -40.79 37.73 -60.21 56.95 c
S
4801.21 3564.2 m
-17.41 17.18 -34.21 34.55 -50.37 52.13 c
S
4750.84 3616.33 m
-15.93 17.29 -31.18 34.81 -45.72 52.52 c
S
4705.12 3668.86 m
-14.34 17.46 -27.95 35.12 -40.82 52.98 c
S
4664.3 3721.84 m
-12.75 17.66 -24.75 35.49 -36 53.49 c
S
4628.3 3775.33 m
-11.17 17.86 -21.6 35.89 -31.35 54.03 c
S
4596.95 3829.36 m
-9.7 18.09 -18.71 36.28 -27.1 54.59 c
S
4569.85 3883.95 m
-8.39 18.34 -16.16 36.74 -23.41 55.25 c
S
4546.44 3939.2 m
-7.29 18.54 -14.03 37.19 -20.41 55.84 c
S
4526.03 3995.04 m
-6.43 18.79 -12.47 37.64 -18.25 56.52 c
S
4473.95 4166.57 m
-5.72 19.5 -11.54 39 -17.66 58.48 c
S
4456.29 4225.04 m
-6.21 19.76 -12.7 39.49 -19.64 59.16 c
S
4436.65 4284.2 m
-7.09 19.98 -14.65 39.91 -22.82 59.78 c
S
4413.83 4343.98 m
-8.36 20.24 -17.35 40.39 -27.16 60.41 c
S
4386.68 4404.39 m
-10.04 20.5 -20.89 40.85 -32.66 61.03 c
S
4354.02 4465.42 m
-12.1 20.75 -25.17 41.33 -39.29 61.65 c
S
4314.73 4527.07 m
-14.57 21.01 -30.24 41.76 -47.02 62.22 c
S
4267.71 4589.3 m
-17.43 21.26 -36.03 42.18 -55.76 62.76 c
S
4211.95 4652.05 m
-20.64 21.52 -42.49 42.63 -65.48 63.33 c
S
4146.47 4715.38 m
-49.58 44.67 -104.43 87.45 -163.16 128.27 c
S
4560.18 3879.93 1.39 -2.92 S
4474.95 4163.28 -0.99 3.29 S
3980.24 4844.02 -0.37 -0.17 S
3983.3 4843.65 -3.06 0.37 S
4555.51 3867.54 m
-8.42 18.39 -16.21 36.88 -23.5 55.45 c
S
4532.01 3922.98 m
-7.31 18.59 -14.09 37.27 -20.5 56.01 c
S
4511.51 3979 m
-6.43 18.82 -12.47 37.7 -18.28 56.61 c
S
4493.23 4035.61 m
-5.87 19.05 -11.48 38.15 -17.04 57.23 c
S
4476.2 4092.84 m
-5.61 19.28 -11.14 38.55 -16.81 57.83 c
S
4459.38 4150.66 m
-5.7 19.47 -11.51 38.98 -17.63 58.42 c
S
4441.75 4209.09 m
-6.18 19.7 -12.67 39.37 -19.62 59.02 c
S
4422.14 4268.1 m
-7.03 19.93 -14.57 39.8 -22.73 59.61 c
S
4399.4 4327.71 m
-8.3 20.15 -17.29 40.22 -27.04 60.18 c
S
4843 3492.43 m
-18.45 16.89 -36.45 33.93 -53.89 51.16 c
S
4789.11 3543.59 m
-17.46 17.26 -34.33 34.7 -50.54 52.33 c
S
4738.57 3595.92 m
-15.99 17.38 -31.3 34.95 -45.89 52.72 c
S
4692.68 3648.64 m
-14.4 17.55 -28.06 35.29 -40.99 53.21 c
S
4651.69 3701.85 m
-12.81 17.72 -24.86 35.63 -36.14 53.69 c
S
4615.55 3755.54 m
-11.23 17.95 -21.69 36.03 -31.46 54.26 c
S
4584.08 3809.8 m
-9.75 18.14 -18.8 36.43 -27.21 54.82 c
S
4380.75 4370.26 m
-2.29 4.91 -4.62 9.81 -7.03 14.71 c
S
4373.72 4384.98 m
-9.98 20.41 -20.81 40.68 -32.52 60.8 c
S
4341.21 4445.78 m
-12.07 20.66 -25.09 41.13 -39.14 61.37 c
S
4302.06 4507.15 m
-14.52 20.92 -30.11 41.55 -46.8 61.94 c
S
4255.26 4569.09 m
-17.35 21.18 -35.89 42.01 -55.53 62.5 c
S
4199.73 4631.59 m
-20.52 21.4 -42.29 42.43 -65.17 63.04 c
S
4134.56 4694.63 m
-49.12 44.25 -103.44 86.66 -161.57 127.08 c
S
4851.3 3499.8 m
-18.74 17.15 -37.08 34.47 -54.8 51.99 c
S
4796.51 3551.79 m
-17.37 17.21 -34.21 34.55 -50.37 52.16 c
S
4746.14 3603.95 m
-15.9 17.29 -31.18 34.81 -45.7 52.52 c
S
4700.44 3656.47 m
-14.34 17.46 -27.98 35.12 -40.85 52.98 c
S
4659.59 3709.45 m
-1.33 1.84 -2.66 3.71 -4 5.59 c
S
4623.63 3762.91 m
5.21 -8.36 10.6 -16.67 16.16 -24.97 c
S
4316.04 4505.93 m
-1.98 2.92 -3.97 5.84 -6.01 8.76 c
S
4310.03 4514.69 m
-14.57 21 -30.25 41.75 -47.03 62.19 c
S
4263 4576.88 m
-17.41 21.29 -36.03 42.21 -55.76 62.79 c
S
4207.24 4639.67 m
-20.64 21.52 -42.49 42.63 -65.45 63.33 c
S
4141.79 4703 m
-49.61 44.67 -104.46 87.45 -163.19 128.27 c
S
4555.51 3867.54 1.36 -2.92 S
3975.57 4831.63 -0.4 -0.17 S
3978.6 4831.26 -3.03 0.37 S
4550.8 3855.15 m
-8.45 18.4 -16.24 36.88 -23.5 55.45 c
S
4527.3 3910.6 m
-7.31 18.59 -14.09 37.27 -20.49 56.01 c
S
4506.81 3966.61 m
-6.43 18.85 -12.47 37.73 -18.29 56.61 c
S
4488.52 4023.21 m
-5.87 19.08 -11.48 38.16 -17.04 57.23 c
S
4471.49 4080.45 m
-5.61 19.27 -11.17 38.55 -16.81 57.82 c
S
4454.68 4138.27 m
-5.7 19.5 -11.54 38.98 -17.63 58.43 c
S
4437.05 4196.7 m
-6.18 19.7 -12.67 39.4 -19.62 59.02 c
S
4417.43 4255.71 m
-7.05 19.93 -14.57 39.83 -22.73 59.61 c
S
4394.7 4315.33 m
-8.34 20.15 -17.29 40.22 -27.04 60.18 c
S
4834.41 3483.61 m
-17.09 15.73 -33.79 31.58 -50 47.62 c
S
4784.41 3531.23 m
-17.46 17.23 -34.36 34.67 -50.57 52.3 c
S
4733.84 3583.54 m
-15.96 17.38 -31.27 34.95 -45.87 52.72 c
S
4687.97 3636.26 m
-14.4 17.55 -28.09 35.29 -41.02 53.21 c
S
4646.95 3689.46 m
-12.79 17.72 -24.83 35.63 -36.11 53.69 c
S
4610.84 3743.15 m
-11.23 17.95 -21.71 36.06 -31.49 54.26 c
S
4579.35 3797.41 m
-9.72 18.17 -18.77 36.45 -27.18 54.82 c
S
4376.05 4357.9 m
-2.3 4.91 -4.65 9.81 -7.03 14.68 c
S
4369.02 4372.59 m
-9.98 20.41 -20.8 40.71 -32.54 60.8 c
S
4336.47 4433.39 m
-12.05 20.66 -25.06 41.13 -39.12 61.37 c
S
4297.36 4494.76 m
-14.51 20.92 -30.11 41.58 -46.8 61.94 c
S
4250.55 4556.7 m
-17.35 21.17 -35.89 42.01 -55.53 62.5 c
S
4195.02 4619.2 m
-20.55 21.4 -42.29 42.43 -65.17 63.04 c
S
4129.86 4682.25 m
-49.15 44.28 -103.46 86.65 -161.6 127.07 c
S
4842.09 3491.55 m
-17.21 15.82 -33.99 31.75 -50.29 47.88 c
S
4791.8 3539.43 m
-17.41 17.18 -34.21 34.55 -50.37 52.13 c
S
4741.43 3591.55 m
-15.93 17.32 -31.18 34.81 -45.73 52.53 c
S
4695.71 3644.08 m
-14.31 17.46 -27.95 35.12 -40.82 52.98 c
S
4654.89 3697.06 m
-7.12 9.86 -14 19.79 -20.66 29.76 c
S
4312.07 4492.46 m
-2.21 3.29 -4.48 6.55 -6.75 9.84 c
S
4305.32 4502.3 m
-14.57 21 -30.25 41.75 -47.03 62.22 c
S
4258.29 4564.52 m
-17.43 21.26 -36.03 42.21 -55.76 62.76 c
S
4202.54 4627.28 m
-20.63 21.52 -42.49 42.63 -65.48 63.32 c
S
4137.05 4690.61 m
-49.58 44.7 -104.43 87.45 -163.16 128.27 c
S
4550.8 3855.15 1.36 -2.92 S
3970.83 4819.24 -0.37 -0.17 S
3973.89 4818.88 -3.06 0.37 S
4842.83 3492.26 m
-11.79 10.91 -23.39 21.86 -34.75 32.88 c
S
4170.82 4660.7 m
-9.47 9.07 -19.13 18.05 -29.03 26.96 c
S
4141.79 4687.66 m
-49.61 44.67 -104.46 87.45 -163.19 128.24 c
S
3978.6 4815.9 -1.36 0.63 S
4852.1 3500.42 m
-14.23 13.07 -28.15 26.19 -41.79 39.46 c
S
4176.66 4671.95 m
-9.81 9.44 -19.9 18.8 -30.19 28.07 c
S
4146.47 4700.02 m
-49.58 44.67 -104.43 87.45 -163.16 128.27 c
S
3983.3 4828.29 -1.33 0.6 S
4105.93 4736.1 m
-37.08 30.7 -76.54 60.44 -117.95 89.21 c
S
3987.98 4825.31 -1.3 0.63 S
4101.23 4723.71 m
-37.08 30.7 -76.54 60.43 -117.92 89.21 c
S
3983.3 4812.92 -1.28 0.59 S
4517.16 4045.61 m
-5.5 17.95 -10.77 35.92 -16.02 53.89 c
S
4501.14 4099.5 m
-5.61 19.28 -11.14 38.55 -16.78 57.83 c
S
4863.09 3508.36 m
-17.94 16.47 -35.49 33.08 -52.47 49.86 c
S
4810.63 3558.22 m
-17.4 17.2 -34.21 34.58 -50.37 52.16 c
S
4760.25 3610.38 m
-15.93 17.29 -31.18 34.81 -45.72 52.53 c
S
4714.53 3662.91 m
-14.34 17.46 -27.95 35.12 -40.82 52.98 c
S
4673.71 3715.88 m
-12.75 17.66 -24.75 35.49 -36 53.46 c
S
4637.71 3769.34 m
-11.17 17.89 -21.6 35.89 -31.35 54.06 c
S
4606.36 3823.4 m
-9.69 18.09 -18.71 36.29 -27.1 54.59 c
S
4579.26 3878 m
-8.39 18.34 -16.16 36.74 -23.41 55.22 c
S
4555.85 3933.21 m
-7.29 18.57 -14.03 37.19 -20.41 55.87 c
S
4535.44 3989.09 m
-6.43 18.8 -12.47 37.64 -18.25 56.52 c
S
4483.37 4160.61 m
-5.73 19.5 -11.57 39 -17.66 58.48 c
S
4465.71 4219.09 m
-6.21 19.76 -12.7 39.49 -19.68 59.16 c
S
4446.03 4278.25 m
-7.05 19.98 -14.62 39.91 -22.79 59.78 c
S
4423.24 4338.03 m
-8.36 20.24 -17.37 40.39 -27.16 60.41 c
S
4396.09 4398.44 m
-10.04 20.5 -20.89 40.85 -32.66 61.03 c
S
4363.43 4459.47 m
-12.1 20.75 -25.17 41.33 -39.29 61.65 c
S
4324.14 4521.12 m
-14.57 21.01 -30.25 41.76 -47.03 62.22 c
S
4277.12 4583.34 m
-17.43 21.26 -36.03 42.18 -55.79 62.76 c
S
4221.33 4646.1 m
-20.61 21.52 -42.46 42.63 -65.45 63.33 c
S
4155.88 4709.43 m
-49.58 44.67 -104.43 87.45 -163.16 128.27 c
S
4484.36 4157.32 -0.99 3.29 S
3992.71 4837.7 -1.36 0.63 S
4789.91 3390.04 m
-45.92 17.35 -92.47 34.13 -139.86 50.12 c
S
4650.04 3440.16 m
-29.77 10.04 -59.87 19.76 -90.34 29.11 c
S
4559.7 3469.27 m
-29.99 9.18 -60.32 18 -91.02 26.39 c
S
4468.68 3495.66 m
-30.28 8.28 -60.89 16.16 -91.82 23.59 c
S
4376.87 3519.25 m
-30.59 7.37 -61.51 14.29 -92.66 20.78 c
S
4284.2 3540.02 m
-30.98 6.46 -62.19 12.5 -93.63 18.11 c
S
4190.57 3558.14 m
-31.35 5.61 -62.93 10.83 -94.65 15.64 c
S
4095.93 3573.78 m
-31.75 4.85 -63.67 9.36 -95.7 13.52 c
S
4000.23 3587.3 m
-32.14 4.22 -64.43 8.14 -96.77 11.82 c
S
3903.45 3599.13 m
-32.57 3.68 -65.23 7.17 -97.91 10.54 c
S
3805.54 3609.67 m
-32.96 3.38 -65.99 6.61 -99.04 9.81 c
S
3706.5 3619.48 m
-33.36 3.23 -66.78 6.44 -100.15 9.7 c
S
3606.35 3629.17 m
-33.79 3.32 -67.58 6.66 -101.31 10.2 c
S
3505.04 3639.38 m
-34.19 3.57 -68.34 7.32 -102.42 11.34 c
S
3402.63 3650.71 m
-34.61 4.08 -69.14 8.45 -103.52 13.18 c
S
3299.11 3663.89 m
-35.04 4.82 -69.93 10.01 -104.6 15.65 c
S
3194.51 3679.54 m
-35.46 5.79 -70.73 12.05 -105.65 18.85 c
S
3088.86 3698.39 m
-35.94 6.97 -71.52 14.54 -106.7 22.68 c
S
2982.16 3721.07 m
-36.37 8.42 -72.31 17.46 -107.72 27.13 c
S
2874.45 3748.2 m
-36.79 10.06 -73.05 20.8 -108.68 32.17 c
S
2765.77 3780.37 m
-37.22 11.91 -73.79 24.52 -109.62 37.79 c
S
2656.15 3818.16 m
-77.36 28.63 -151.4 60.27 -222.01 94.17 c
S
2434.14 3912.32 -1.3 1.7 S
4790.13 3391.86 m
-48.64 18.45 -97.97 36.34 -148.2 53.29 c
S
4641.94 3445.15 m
-29.79 10.03 -59.9 19.75 -90.37 29.08 c
S
4551.57 3474.23 m
-29.99 9.21 -60.32 18.03 -91.02 26.42 c
S
4460.55 3500.65 m
-30.27 8.28 -60.89 16.16 -91.82 23.59 c
S
4368.73 3524.23 m
-30.59 7.37 -61.51 14.29 -92.66 20.78 c
S
4276.07 3545.01 m
-30.98 6.46 -62.19 12.5 -93.63 18.11 c
S
4182.44 3563.13 m
-31.35 5.61 -62.93 10.8 -94.65 15.65 c
S
4087.79 3578.77 m
-31.75 4.85 -63.66 9.35 -95.7 13.52 c
S
3992.09 3592.29 m
-32.14 4.22 -64.43 8.11 -96.78 11.79 c
S
3895.32 3604.09 m
-32.57 3.71 -65.22 7.2 -97.91 10.54 c
S
3797.41 3614.63 m
-32.97 3.4 -65.99 6.63 -99.04 9.84 c
S
3698.37 3624.46 m
-33.36 3.23 -66.79 6.44 -100.15 9.7 c
S
3598.22 3634.16 m
-33.79 3.32 -67.58 6.66 -101.31 10.21 c
S
3496.91 3644.37 m
-34.18 3.57 -68.34 7.31 -102.41 11.34 c
S
3394.49 3655.7 m
-34.61 4.08 -69.14 8.45 -103.52 13.15 c
S
3290.97 3668.86 m
-35.04 4.82 -69.93 10.04 -104.6 15.68 c
S
3186.37 3684.53 m
-35.46 5.79 -70.72 12.05 -105.65 18.85 c
S
3080.72 3703.38 m
-35.94 6.97 -71.52 14.54 -106.7 22.68 c
S
2974.03 3726.06 m
-36.37 8.42 -72.31 17.46 -107.71 27.13 c
S
2866.31 3753.19 m
-36.8 10.06 -73.05 20.81 -108.68 32.17 c
S
2757.63 3785.36 m
-37.22 11.91 -73.79 24.52 -109.61 37.79 c
S
2648.02 3823.15 m
-77.33 28.6 -151.4 60.26 -222.01 94.16 c
S
2426 3917.31 -1.3 1.64 S
2545.6 3877.38 m
-38.04 16.1 -75.2 32.91 -111.46 50.31 c
S
2434.14 3927.69 -1.3 1.68 S
2441.48 3923.27 -0.51 1.14 S
2449.64 3933.64 -0.51 1.14 S
2599.71 3868.79 m
-54.23 21.74 -106.72 44.93 -157.43 69.28 c
S
2442.28 3938.06 -1.3 1.73 S
4800.28 3428.68 m
-48.13 18.23 -96.91 35.89 -146.61 52.67 c
S
4653.67 3481.34 m
-29.88 10.06 -60.07 19.82 -90.6 29.17 c
S
4563.07 3510.51 m
-30.1 9.21 -60.55 18.06 -91.33 26.48 c
S
4471.74 3536.99 m
-30.36 8.34 -61.09 16.21 -92.12 23.67 c
S
4379.62 3560.66 m
-30.7 7.4 -61.71 14.34 -93 20.86 c
S
4286.61 3581.52 m
-31.07 6.49 -62.39 12.53 -93.94 18.17 c
S
4192.67 3599.69 m
-31.44 5.64 -63.1 10.86 -94.93 15.7 c
S
4097.74 3615.39 m
-31.83 4.85 -63.81 9.36 -95.92 13.55 c
S
4001.82 3628.95 m
-32.23 4.22 -64.57 8.14 -96.97 11.82 c
S
3904.84 3640.77 m
-32.63 3.71 -65.31 7.2 -98.05 10.57 c
S
3806.79 3651.34 m
-33 3.37 -66.05 6.63 -99.1 9.84 c
S
3707.69 3661.18 m
-33.36 3.23 -66.79 6.43 -100.15 9.7 c
S
3607.54 3670.87 m
-33.76 3.29 -67.52 6.66 -101.22 10.18 c
S
3506.32 3681.05 m
-34.13 3.57 -68.23 7.31 -102.25 11.34 c
S
3404.07 3692.38 m
-34.55 4.05 -69 8.42 -103.3 13.13 c
S
3300.78 3705.51 m
-34.95 4.82 -69.76 9.98 -104.32 15.62 c
S
3196.46 3721.13 m
-35.37 5.78 -70.5 12.02 -105.33 18.79 c
S
3091.13 3739.92 m
-35.8 6.95 -71.27 14.48 -106.33 22.59 c
S
2984.8 3762.52 m
-36.23 8.39 -72 17.38 -107.29 27.04 c
S
2877.51 3789.55 m
-36.68 10.01 -72.79 20.7 -108.25 32.06 c
S
2769.25 3821.62 m
-37.11 11.85 -73.53 24.41 -109.25 37.61 c
S
2660 3859.23 m
-76.7 28.41 -150.15 59.79 -220.22 93.38 c
S
4796.45 3418.3 m
-48.05 18.2 -96.78 35.86 -146.41 52.59 c
S
4650.04 3470.89 m
-29.77 10.03 -59.87 19.76 -90.34 29.11 c
S
4559.7 3500 m
-29.99 9.18 -60.32 18 -91.02 26.39 c
S
4468.68 3526.39 m
-30.28 8.28 -60.89 16.16 -91.82 23.59 c
S
4376.87 3549.97 m
-30.59 7.37 -61.51 14.29 -92.66 20.78 c
S
4284.2 3570.75 m
-30.98 6.46 -62.19 12.5 -93.63 18.11 c
S
4190.57 3588.86 m
-31.35 5.61 -62.93 10.83 -94.65 15.65 c
S
4095.93 3604.51 m
-31.75 4.85 -63.67 9.35 -95.7 13.52 c
S
4000.23 3618.03 m
-32.14 4.22 -64.43 8.14 -96.77 11.82 c
S
3903.45 3629.85 m
-32.57 3.69 -65.23 7.17 -97.91 10.55 c
S
3805.54 3640.4 m
-32.96 3.37 -65.99 6.61 -99.04 9.81 c
S
3706.5 3650.21 m
-33.36 3.23 -66.78 6.43 -100.15 9.69 c
S
3606.35 3659.9 m
-33.79 3.32 -67.58 6.66 -101.31 10.21 c
S
3505.04 3670.11 m
-34.19 3.57 -68.34 7.31 -102.42 11.34 c
S
3402.63 3681.44 m
-34.61 4.08 -69.14 8.45 -103.52 13.18 c
S
3299.11 3694.63 m
-35.04 4.82 -69.93 10 -104.6 15.64 c
S
3194.51 3710.27 m
-35.46 5.79 -70.73 12.05 -105.65 18.85 c
S
3088.86 3729.12 m
-35.94 6.97 -71.52 14.54 -106.7 22.68 c
S
2982.16 3751.8 m
-36.37 8.42 -72.31 17.46 -107.72 27.13 c
S
2874.45 3778.93 m
-36.79 10.06 -73.05 20.81 -108.68 32.18 c
S
2765.77 3811.1 m
-37.22 11.9 -73.79 24.52 -109.62 37.79 c
S
2656.15 3848.89 m
-77.36 28.63 -151.4 60.26 -222.01 94.17 c
S
2435.95 3952.41 0.31 0.26 S
2434.14 3943.05 -1.25 4.05 3.06 5.3 S
4795.97 3416.83 m
-49.38 18.74 -99.41 36.91 -150.43 54.11 c
S
4645.54 3470.94 m
-29.87 10.06 -60.07 19.82 -90.59 29.17 c
S
4554.94 3500.11 m
-30.11 9.21 -60.55 18.06 -91.33 26.48 c
S
4463.61 3526.59 m
-30.36 8.3 -61.09 16.21 -92.13 23.67 c
S
4371.48 3550.25 m
-30.7 7.4 -61.71 14.34 -93 20.86 c
S
4278.48 3571.12 m
-31.07 6.49 -62.39 12.53 -93.94 18.17 c
S
4184.54 3589.29 m
-31.43 5.61 -63.1 10.86 -94.93 15.7 c
S
4089.61 3604.99 m
-31.84 4.85 -63.81 9.36 -95.93 13.55 c
S
3993.68 3618.54 m
-32.23 4.22 -64.57 8.13 -96.97 11.82 c
S
3896.71 3630.36 m
-32.63 3.71 -65.31 7.2 -98.05 10.57 c
S
3798.66 3640.94 m
-33 3.37 -66.05 6.63 -99.1 9.84 c
S
3699.55 3650.77 m
-33.36 3.23 -66.75 6.43 -100.15 9.69 c
S
3599.41 3660.46 m
-33.76 3.29 -67.52 6.66 -101.22 10.18 c
S
3498.18 3670.64 m
-34.13 3.57 -68.23 7.31 -102.25 11.34 c
S
3395.94 3681.98 m
-34.55 4.05 -69 8.42 -103.3 13.13 c
S
3292.64 3695.11 m
-34.95 4.82 -69.73 9.98 -104.31 15.62 c
S
3188.33 3710.73 m
-35.38 5.78 -70.5 12.02 -105.34 18.79 c
S
3082.99 3729.52 m
-35.8 6.95 -71.27 14.48 -106.33 22.59 c
S
2976.66 3752.11 m
-36.23 8.36 -72 17.38 -107.29 27.02 c
S
2869.37 3779.13 m
-36.65 10.04 -72.77 20.72 -108.25 32.09 c
S
2761.12 3811.21 m
-37.11 11.85 -73.53 24.41 -109.25 37.61 c
S
2651.87 3848.83 m
-76.71 28.4 -150.15 59.79 -220.23 93.35 c
S
4792.94 3406.14 m
-49.55 18.82 -99.81 37.08 -151 54.34 c
S
4641.94 3460.48 m
-29.79 10.04 -59.9 19.76 -90.37 29.09 c
S
4551.57 3489.57 m
-29.99 9.21 -60.32 18.03 -91.02 26.42 c
S
4460.55 3515.98 m
-30.27 8.28 -60.89 16.16 -91.82 23.59 c
S
4368.73 3539.57 m
-30.59 7.37 -61.51 14.29 -92.66 20.78 c
S
4276.07 3560.35 m
-30.98 6.46 -62.19 12.5 -93.63 18.11 c
S
4182.44 3578.46 m
-31.35 5.61 -62.93 10.8 -94.65 15.65 c
S
4087.79 3594.11 m
-31.75 4.84 -63.66 9.35 -95.7 13.52 c
S
3992.09 3607.63 m
-32.14 4.22 -64.43 8.14 -96.78 11.79 c
S
3895.32 3619.42 m
-32.57 3.71 -65.22 7.2 -97.91 10.54 c
S
3797.41 3629.96 m
-32.97 3.4 -65.99 6.63 -99.04 9.84 c
S
3698.37 3639.8 m
-33.36 3.23 -66.79 6.44 -100.15 9.7 c
S
3598.22 3649.5 m
-33.79 3.32 -67.58 6.66 -101.31 10.2 c
S
3496.91 3659.7 m
-34.18 3.57 -68.34 7.32 -102.41 11.34 c
S
3394.49 3671.04 m
-34.61 4.08 -69.14 8.45 -103.52 13.18 c
S
3290.97 3684.22 m
-35.04 4.79 -69.93 10 -104.6 15.64 c
S
3186.37 3699.87 m
-35.46 5.79 -70.72 12.05 -105.65 18.85 c
S
3080.72 3718.72 m
-35.94 6.97 -71.52 14.54 -106.7 22.68 c
S
2974.03 3741.39 m
-36.37 8.42 -72.31 17.46 -107.71 27.13 c
S
2866.31 3768.52 m
-36.8 10.06 -73.05 20.8 -108.68 32.17 c
S
2757.63 3800.7 m
-37.22 11.91 -73.79 24.52 -109.61 37.79 c
S
2648.02 3838.48 m
-77.33 28.6 -151.4 60.26 -222.01 94.16 c
S
2427.82 3942 0.31 0.23 S
2426 3932.65 -1.25 4.05 3.06 5.3 S
4792.57 3404.61 m
-50.91 19.39 -102.56 38.18 -155.2 55.93 c
S
4637.37 3460.54 m
-29.87 10.06 -60.07 19.81 -90.59 29.17 c
S
4546.78 3489.71 m
-30.11 9.24 -60.55 18.09 -91.33 26.5 c
S
4455.45 3516.21 m
-30.36 8.3 -61.09 16.21 -92.13 23.67 c
S
4363.32 3539.88 m
-30.7 7.37 -61.71 14.34 -93 20.86 c
S
4270.31 3560.74 m
-31.04 6.46 -62.39 12.5 -93.94 18.14 c
S
4176.37 3578.89 m
-31.43 5.64 -63.1 10.86 -94.9 15.7 c
S
4081.47 3594.59 m
-31.83 4.88 -63.84 9.38 -95.95 13.58 c
S
3985.52 3608.17 m
-32.23 4.2 -64.57 8.11 -96.97 11.82 c
S
3888.54 3619.99 m
-32.63 3.71 -65.31 7.2 -98.05 10.54 c
S
3790.49 3630.53 m
-33 3.38 -66.05 6.63 -99.1 9.84 c
S
3691.39 3640.37 m
-33.37 3.23 -66.76 6.44 -100.15 9.7 c
S
3591.25 3650.06 m
-33.76 3.32 -67.52 6.66 -101.2 10.18 c
S
3490.05 3660.24 m
-34.16 3.6 -68.26 7.34 -102.27 11.34 c
S
3387.77 3671.58 m
-34.55 4.08 -69 8.42 -103.29 13.15 c
S
3284.48 3684.73 m
-34.95 4.79 -69.73 9.98 -104.32 15.62 c
S
3180.16 3700.35 m
-35.38 5.75 -70.5 11.99 -105.34 18.77 c
S
3074.83 3719.12 m
-35.77 6.97 -71.26 14.48 -106.3 22.59 c
S
2968.53 3741.71 m
-36.25 8.39 -72.03 17.41 -107.32 27.04 c
S
2861.21 3768.75 m
-36.65 10.01 -72.77 20.72 -108.25 32.06 c
S
2752.95 3800.81 m
-37.11 11.85 -73.53 24.44 -109.25 37.64 c
S
2643.71 3838.45 m
-76.71 28.38 -150.15 59.75 -220.23 93.35 c
S
4790.41 3393.61 m
-51.39 19.59 -103.49 38.55 -156.64 56.46 c
S
4633.77 3450.08 m
-29.79 10.06 -59.9 19.79 -90.37 29.11 c
S
4543.4 3479.19 m
-29.99 9.18 -60.32 18 -91.02 26.39 c
S
4452.38 3505.58 m
-30.27 8.28 -60.89 16.16 -91.82 23.61 c
S
4360.57 3529.2 m
-30.58 7.34 -61.48 14.29 -92.66 20.78 c
S
4267.9 3549.97 m
-30.95 6.43 -62.19 12.47 -93.63 18.11 c
S
4174.27 3568.09 m
-31.35 5.58 -62.93 10.8 -94.65 15.65 c
S
4079.63 3583.73 m
-31.75 4.84 -63.66 9.32 -95.7 13.52 c
S
3983.93 3597.25 m
-32.14 4.2 -64.43 8.11 -96.78 11.79 c
S
3887.15 3609.05 m
-32.57 3.71 -65.22 7.2 -97.91 10.54 c
S
3789.25 3619.59 m
-32.97 3.38 -65.99 6.63 -99.02 9.84 c
S
3690.23 3629.43 m
-33.39 3.23 -66.79 6.44 -100.18 9.7 c
S
3590.05 3639.12 m
-33.79 3.29 -67.58 6.66 -101.28 10.18 c
S
3488.77 3649.3 m
-34.21 3.6 -68.37 7.34 -102.42 11.37 c
S
3386.36 3660.66 m
-34.64 4.08 -69.16 8.42 -103.52 13.15 c
S
3282.84 3673.82 m
-35.07 4.82 -69.96 10.01 -104.63 15.68 c
S
3178.21 3689.49 m
-35.46 5.79 -70.72 12.05 -105.65 18.82 c
S
3072.56 3708.32 m
-35.91 7 -71.52 14.54 -106.7 22.68 c
S
2965.86 3730.99 m
-36.37 8.42 -72.31 17.46 -107.71 27.13 c
S
2858.15 3758.12 m
-36.79 10.06 -73.05 20.8 -108.68 32.2 c
S
2749.47 3790.32 m
-37.22 11.91 -73.79 24.49 -109.62 37.76 c
S
2639.85 3828.08 m
-77.33 28.63 -151.4 60.29 -222.01 94.17 c
S
2419.66 3931.6 0.34 0.25 S
2417.84 3922.25 -1.25 4.08 3.06 5.27 S
1127.82 5166.2 0 49.69 S
1127.82 5297.22 0 49.72 S
1518.01 4776.02 0 49.69 S
1518.01 4907.06 0 49.69 S
1527.54 4907.18 0 3.12 S
2357.18 5307.94 0 81.36 S
2362.79 5263.75 0 44.81 S
2362.79 5394.79 0 49.72 S
1526.63 4908.11 763.94 -804.67 S
1518.66 4900.43 763.32 -803.99 S
2103.45 4300.53 188.79 -195.87 S
1518.69 4891.38 576.79 -598.5 S
1883.45 4513.78 397.08 -418.68 S
1518.66 4882.37 754.07 -795.15 S
2388.25 3940.08 27.7 -27.67 S
2428.95 3980.78 27.66 -27.66 S
2335.8 3919.75 16.05 -16.05 S
2449.3 4033.22 16.05 -16.04 S
1127.82 5215.89 390.19 -390.19 S
1127.82 5297.22 390.19 -390.16 S
1127.82 5346.94 390.19 -390.19 S
1127.82 5166.2 390.19 -390.19 S
2418.24 4048.64 2.89 -2.89 S
2320.39 3950.82 2.92 -2.92 S
2382.32 4100.21 43.74 -43.74 S
2268.85 3986.71 43.71 -43.71 S
2380.71 4109.64 5.55 -5.53 S
2259.41 3988.32 5.53 -5.53 S
1525.24 4909.53 1.36 -1.36 S
1128.56 5290.53 390.16 -390.13 S
1128.56 5281.49 390.16 -390.16 S
1128.56 5272.48 390.16 -390.16 S
1128.56 5263.43 390.16 -390.19 S
2207.63 4192.45 85.92 -86.86 S
1518.72 4873.27 208.46 -210.78 S
2077.63 4308.13 83.43 -84.33 S
1128.56 5254.39 390.16 -390.16 S
2190.98 4189.5 90.79 -93.23 S
1518.69 4864.26 664.36 -682.47 S
1128.56 5245.35 390.16 -390.16 S
2162.38 4219.66 87.2 -88.21 S
1518.72 4855.19 285.76 -289.14 S
1805.25 4565.26 298.86 -302.37 S
1128.56 5236.3 390.16 -390.16 S
1804.96 4566.54 466.07 -481.24 S
1518.69 4846.17 745.48 -769.69 S
1128.56 5227.29 390.16 -390.19 S
2096.48 4265.55 175.86 -178.81 S
1518.72 4837.13 569.88 -579.34 S
1128.56 5218.25 390.19 -390.19 S
2111.41 4250.36 147.86 -148.05 S
1518.75 4828.06 577.22 -577.93 S
4922.54 3516.32 313.06 -180.74 S
4811.84 3324.62 313.09 -180.77 S
3922.84 4812.64 47.94 -15.98 S
3941.04 4867.23 47.93 -15.99 S
3878.76 4773.07 27.81 -9.27 S
3929.5 4925.32 27.81 -9.24 S
3842 4796.99 24.52 -8.16 S
3885.77 4928.23 24.49 -8.16 S
1686.98 5669.78 675.81 -225.27 S
3813.54 4963.98 75.71 -25.23 S
3762.77 4811.73 75.74 -25.23 S
3805.69 4972.43 9.58 -3.17 S
3751.43 4809.69 9.58 -3.2 S
2360.98 5393.03 0.57 -0.2 S
2357.18 5382.63 0.85 -0.28 S
2361.55 5392.84 1391.13 -471.8 S
3045.86 5148.83 702.59 -238.03 S
2358 5382.35 688.37 -233.72 S
2357.18 5373.59 0.82 -0.28 S
2937.63 5186.41 810.09 -277.57 S
2358 5373.3 1386.12 -474.95 S
2357.18 5364.54 0.85 -0.28 S
2955.8 5180.18 5.44 -1.79 S
3679.83 4931.47 68 -22.28 S
2358.06 5364.26 594.25 -194.57 S
2357.18 5355.5 0.82 -0.29 S
2522.16 5311.17 1221.31 -414.94 S
2358 5355.25 1382.55 -469.73 S
2357.18 5346.49 0.88 -0.31 S
2950.53 5153.93 94.37 -30.87 S
2357.18 5337.45 0.85 -0.28 S
2935.28 5159.52 20.01 -6.58 S
2358.03 5337.13 1382.14 -453.2 S
2357.18 5328.4 0.91 -0.31 S
2357.18 5319.36 0.91 -0.31 S
2357.18 5310.32 0.91 -0.28 S
2953.96 5164.45 291.86 -94.7 S
3675.21 4918.77 68.37 -22.17 S
2358.06 5346.18 687.12 -223.2 S
3206.81 5082.41 1.82 -0.57 S
2358.11 5328.09 364.25 -110.41 S
3040.56 5109.91 159.84 -48.98 S
2358.11 5319.05 682.3 -209.34 S
2927.74 5145.11 323.91 -100.37 S
2358.09 5310.01 1381.64 -428.06 S
1127.82 5215.89 2.3 0.79 S
1518.01 4825.71 2.3 0.79 S
1518.01 4907.06 9.53 3.23 S
2357.18 5389.29 5.61 5.5 S
2357.18 5307.94 1.81 1.81 S
3825.27 4960.07 -9.7 9.07 -13.04 -0.91 -15.68 -11.65 -17.97 -25.43 -17.09 -42.44 -6.46 -39.4 1.05 -19.08 
4.65 -14.6 S
0.2 i
2424.34 5749.68 m
-3.37 11 -8.56 16.32 -15.79 16.32 c
-12.43 0 -23.33 -16.99 -25.56 -39.98 c
-1.1 -11.32 -0.07 -21.57 2.45 -27.94 c
3.06 -6.01 6.46 -8.49 15.84 -10.96 c
7.04 -2.47 10.18 -4.95 13.09 -9.9 c
2.87 -5.3 4.22 -14.15 3.43 -22.28 c
-1.82 -18.75 -11.45 -32.54 -22.54 -32.54 c
-10.84 0 -18.49 13.17 -16.9 29.54 c
0.24 2.49 p
0.41 4.27 -0.26 7.84 -1.79 7.84 c
-2.24 0 -3.7 -3.53 -4.28 -9.52 c
-2.84 -29.23 p
-0.65 -6.69 0.2 -9.51 2.43 -9.51 c
1.17 0 2.07 2.82 2.72 9.52 c
0.38 3.88 p
4.18 -13.28 9.96 -19.38 18.55 -19.38 c
14.71 0 27.57 19.81 30.21 47.04 c
1.13 11.67 -0.31 23.7 -3.58 31.48 c
-3.44 7.43 -7.99 11.32 -15.54 13.8 c
-11.12 3.18 -11.83 3.89 -14.24 8.49 c
-2.28 4.6 -3.12 10.61 -2.54 16.62 c
1.44 14.86 9.74 26.19 19.25 26.19 c
9.77 0 15.42 -10.65 14.55 -26.26 c
-0.29 -5.68 0.33 -8.52 1.88 -8.52 c
1.67 0 2.93 3.55 3.54 9.94 c
2.41 24.84 p
0.61 6.25 0.02 9.37 -1.63 9.37 c
-1.52 0 -3 -3.47 -3.57 -9.37 c
h
f
2504.86 5746.5 m
-4.14 12.4 -10.21 19.49 -17.97 19.49 c
-17.06 0 -32.55 -33.58 -37.07 -80.23 c
-4.39 -45.24 4.43 -77.76 21.11 -77.76 c
8.41 0 17.5 7.11 25.2 19.54 c
4.09 6.75 6.76 13.14 7.21 17.76 c
0.31 3.2 -0.66 6.4 -1.81 6.4 c
-1.02 0 -1.31 -0.36 -2.64 -3.58 c
-8.17 -17.16 -17.16 -25.74 -26.34 -25.74 c
-14.02 0 -21.13 26.55 -17.53 63.73 c
3.81 39.3 16.04 65.52 30.07 65.52 c
10.58 0 18.32 -14.82 17.02 -33.5 c
-0.33 -6 0.2 -8.46 1.98 -8.46 c
1.53 0 2.73 3.17 3.39 9.87 c
3.11 32.09 p
0.61 6.25 0.02 9.37 -1.51 9.37 c
-1.91 0 -3.11 -3.12 -3.71 -9.37 c
h
f
2564 5761 -20.21 0 P
-2.29 0 -3.79 -2.46 -4.24 -7.01 c
-0.47 -4.91 0.56 -7.36 2.86 -7.36 c
15.04 0 -11.47 -118.25 -20.4 0 p
-2.29 0 -3.68 -2.45 -4.12 -7.01 c
-0.48 -4.91 0.43 -7.36 2.73 -7.36 c
46.21 0 p
2.17 0 3.68 2.45 4.16 7.36 c
0.44 4.56 -0.48 7.01 -2.79 7.01 c
-20.64 0 h
2565.51 5835 m
-1.51 0 -2.67 -2.84 -3.29 -9.22 c
-1.96 -20.21 p
-0.66 -6.74 -0.05 -9.57 1.46 -9.57 c
3.15 0 p
1.64 0 2.8 2.84 3.45 9.57 c
1.96 20.21 p
0.62 6.38 0.02 9.22 -1.62 9.22 c
h
f
2620.33 5761 -9.39 0 P
-2.25 0 -3.5 -2.46 -3.94 -7.01 c
-0.48 -4.91 0.29 -7.36 2.53 -7.36 c
4.25 0 -11.47 -118.25 -5.64 0 p
-2.38 0 -3.75 -2.45 -4.19 -7.01 c
-0.48 -4.91 0.43 -7.36 2.86 -7.36 c
16.72 0 p
2.42 0 3.68 2.45 4.16 7.36 c
0.44 4.56 -0.37 7.01 -2.86 7.01 c
-5.89 0 8.66 89.33 p
5.53 14.48 7.19 18.36 9.63 22.25 c
4.27 8.12 8.48 11.68 13.25 11.68 c
5.02 0 7.23 -2.5 9.54 -9.2 c
2.63 -7.41 3.46 -16.24 2.43 -26.84 c
-8.46 -87.21 -4.39 0 p
-2.32 0 -3.85 -2.45 -4.29 -7.01 c
-0.48 -4.91 0.56 -7.36 2.86 -7.36 c
14.04 0 p
2.17 0 3.55 2.45 4.03 7.36 c
0.44 4.56 -0.48 7.01 -2.69 7.01 c
-4.41 0 8.7 89.62 p
2.67 27.52 -4.31 48 -15.58 48 c
-7.94 0 -13.23 -7.08 -22.82 -29.36 c
h
f
2701.12 5761 4.07 41.89 P
0.65 6.69 0.18 9.51 -1.66 9.51 c
-1.84 0 -2.92 -3.53 -3.5 -9.51 c
-4.06 -41.89 -9.39 0 p
-2.41 0 -3.79 -2.46 -4.23 -7.01 c
-0.48 -4.91 0.43 -7.36 2.84 -7.36 c
9.39 0 -9.23 -95.12 p
-2.57 -26.52 3.58 -43.5 15.47 -43.5 c
10.87 0 26.76 13.54 27.76 23.88 c
0.35 3.57 -0.3 7.49 -1.59 7.49 c
-0.64 0 -1.1 -0.73 -2.14 -2.18 c
-6.11 -8.67 -15.7 -14.82 -22.9 -14.82 c
-8.87 0 -13.14 11.68 -11.39 29.73 c
9.17 94.51 28.2 0 p
2.32 0 3.72 2.45 4.2 7.36 c
0.44 4.55 -0.48 7.01 -2.8 7.01 c
h
f
2794 5761 -20.21 0 P
-2.29 0 -3.79 -2.46 -4.24 -7.01 c
-0.47 -4.91 0.56 -7.36 2.86 -7.36 c
15.04 0 -11.47 -118.25 -20.4 0 p
-2.29 0 -3.68 -2.45 -4.12 -7.01 c
-0.48 -4.91 0.43 -7.36 2.73 -7.36 c
46.21 0 p
2.17 0 3.68 2.45 4.16 7.36 c
0.44 4.56 -0.48 7.01 -2.79 7.01 c
-20.64 0 h
2795.51 5835 m
-1.51 0 -2.67 -2.84 -3.29 -9.22 c
-1.96 -20.21 p
-0.66 -6.74 -0.05 -9.57 1.46 -9.57 c
3.15 0 p
1.64 0 2.8 2.84 3.45 9.57 c
1.96 20.21 p
0.62 6.38 0.02 9.22 -1.62 9.22 c
h
f
2876.44 5825.99 -20.32 0 P
-2.17 0 -3.55 -2.39 -3.98 -6.82 c
-0.46 -4.77 0.46 -7.16 2.64 -7.16 c
15.15 0 -17.82 -183.64 -20.51 0 p
-2.31 0 -3.7 -2.45 -4.14 -7.01 c
-0.48 -4.91 0.43 -7.36 2.73 -7.36 c
46.21 0 p
2.17 0 3.68 2.45 4.16 7.36 c
0.44 4.56 -0.47 7.01 -2.77 7.01 c
-20.52 0 h
f
2953.44 5825.99 -20.32 0 P
-2.17 0 -3.55 -2.39 -3.98 -6.82 c
-0.46 -4.77 0.46 -7.16 2.64 -7.16 c
15.15 0 -17.82 -183.64 -20.51 0 p
-2.31 0 -3.7 -2.45 -4.14 -7.01 c
-0.48 -4.91 0.43 -7.36 2.73 -7.36 c
46.21 0 p
2.17 0 3.68 2.45 4.16 7.36 c
0.44 4.56 -0.47 7.01 -2.77 7.01 c
-20.52 0 h
f
3021.85 5614 12.17 0 P
2.16 0 3.54 2.45 4.01 7.36 c
0.45 4.56 -0.46 7.01 -2.63 7.01 c
-7.01 0 9.14 94.21 p
2.43 25.05 -4.53 43.42 -16.47 43.42 c
-4.75 0 -13.58 -4.96 -21.27 -11.33 c
-1.59 -1.77 -2.56 -3.89 -2.94 -7.79 c
-0.34 -3.54 0.38 -6.72 1.79 -6.72 c
0.26 0 0.81 0.36 1.36 0.71 c
10.85 8.24 14.7 10.75 19.34 10.75 c
9.41 0 14.71 -11.67 13.04 -29 c
-2.43 -25.11 p
-7.07 5.35 -10.85 7.49 -16.77 7.49 c
-16.07 0 -29.16 -20.9 -32.14 -51.69 c
-2.61 -26.9 3.71 -45.31 15.66 -45.31 c
9.13 0 17.61 9.27 27.45 29.6 c
h
3025.31 5653.47 m
-10.71 -22.2 -18.29 -30.66 -27.48 -30.66 c
-8.8 0 -13.39 11.98 -11.64 29.96 c
2.19 22.55 12.72 37.71 26.38 37.71 c
5.62 0 11.54 -2.12 15.79 -5.64 c
h
f
3084.12 5761 4.07 41.89 P
0.65 6.69 0.18 9.51 -1.66 9.51 c
-1.84 0 -2.92 -3.53 -3.5 -9.51 c
-4.06 -41.89 -9.39 0 p
-2.41 0 -3.79 -2.46 -4.23 -7.01 c
-0.48 -4.91 0.43 -7.36 2.84 -7.36 c
9.39 0 -9.23 -95.12 p
-2.57 -26.52 3.58 -43.5 15.47 -43.5 c
10.87 0 26.76 13.54 27.76 23.88 c
0.35 3.57 -0.3 7.49 -1.59 7.49 c
-0.64 0 -1.1 -0.73 -2.14 -2.18 c
-6.11 -8.67 -15.7 -14.82 -22.9 -14.82 c
-8.87 0 -13.14 11.68 -11.39 29.73 c
9.17 94.51 28.2 0 p
2.32 0 3.72 2.45 4.2 7.36 c
0.44 4.55 -0.48 7.01 -2.8 7.01 c
h
f
3174.79 5766 m
-16.09 0 -32.55 -35.34 -36.77 -78.82 c
-4.29 -44.18 5.35 -79.17 21.44 -79.17 c
16.1 0 32.52 34.99 36.7 78.11 c
4.39 45.24 -5.03 79.88 -21.37 79.88 c
h
3173.39 5751.63 m
13.45 0 21.19 -28.7 17.62 -65.52 c
-3.4 -35.05 -16.96 -63.73 -30.16 -63.73 c
-13.2 0 -21.18 28.68 -17.68 64.79 c
3.47 35.76 17.02 64.45 30.21 64.45 c
h
f
3239.33 5761 -14.4 0 P
-2.11 0 -3.62 -2.8 -4.03 -7.01 c
-0.48 -4.91 0.52 -7.36 2.62 -7.36 c
9.27 0 -11.47 -118.25 -11.93 0 p
-2.11 0 -3.62 -2.8 -4.03 -7.01 c
-0.44 -4.55 0.56 -7.36 2.73 -7.36 c
40.21 0 p
2.17 0 3.84 2.8 4.22 6.66 c
0.48 4.91 -0.69 7.71 -2.9 7.71 c
-23.14 0 7.53 77.66 p
17.66 35.49 24.27 43.59 30.08 43.59 c
2.84 0 5.06 -3.77 7.4 -11.66 c
0.67 -2.4 1 -3.09 1.77 -3.09 c
1.55 0 3.06 3.46 3.46 7.62 c
0.3 3.12 -0.21 5.89 -1.94 10.75 c
-2.65 7.28 -5.16 10.75 -8.91 10.75 c
-6.59 0 -15.16 -9.75 -29.99 -38.63 c
h
f
3296.41 5128 9.13 0 33.41 140.96 0.57 -140.96 9.73 0 30.17 183.57 3 0 P
2.69 0 4.32 2.46 4.84 7.04 c
0.56 4.93 -0.5 7.4 -3.2 7.4 c
-21.7 0 p
-2.84 0 -4.32 -2.47 -4.88 -7.4 c
-0.52 -4.58 0.39 -7.04 3.24 -7.04 c
12.87 0 -27.58 -167.36 -0.63 137.79 -9.28 0 -32.45 -137.79 10.67 167.36 12.42 0 p
2.84 0 4.47 2.46 4.99 7.04 c
0.56 4.93 -0.5 7.4 -3.35 7.4 c
-21.55 0 p
-2.7 0 -4.32 -2.47 -4.88 -7.4 c
-0.52 -4.58 0.54 -7.04 3.24 -7.04 c
2.99 0 h
f
3420.02 5311.57 11.23 0 P
2.7 0 4.17 2.46 4.69 7.04 c
0.56 4.93 -0.36 7.4 -3.05 7.4 c
-28.89 0 p
-2.7 0 -4.32 -2.47 -4.88 -7.4 c
-0.52 -4.58 0.54 -7.04 3.24 -7.04 c
11.38 0 -19.25 -169.12 ^ p
-2.7 0 -4.32 -2.47 -4.84 -7.05 c
-0.56 -4.93 0.51 -7.39 3.2 -7.39 c
65.11 0 8.06 70.83 p
0.68 5.99 0.18 9.52 -1.76 9.52 c
-2.1 0 -3.55 -3.53 -4.23 -9.52 c
-6.42 -56.38 -41.46 0 h
f
3545.34 5310.19 m
-4.64 14.46 -10.65 20.82 -19.48 20.82 c
-15.72 0 -30.27 -24.02 -33.77 -54.73 c
-1.69 -14.83 -0.56 -28.6 3.6 -36.72 c
3.61 -7.77 8.51 -12 18.51 -16.24 c
10.1 -4.59 12.86 -6.71 15.99 -12 c
3.51 -6 4.77 -17.3 3.36 -29.66 c
-2.97 -26.13 -15.62 -45.2 -29.54 -45.2 c
-13.62 0 -22.62 18.21 -20.39 41.77 c
0.5 5.71 -0.07 8.57 -2.02 8.57 c
-1.95 0 -3.51 -3.2 -4.19 -9.21 c
-4.55 -40.02 p
-0.77 -6.73 0.11 -9.56 1.9 -9.56 c
2.1 0 3.46 2.82 4.23 9.52 c
1.16 10.22 p
4.18 -17.15 12.04 -25.73 22.37 -25.73 c
17.96 0 33.61 24.36 37.5 58.61 c
2.05 18.01 0.38 33.54 -4.35 42.02 c
-3.88 6.71 -7.75 9.53 -18.75 14.12 c
-8.87 3.53 -12.19 6 -15.55 12.01 c
-2.91 6 -3.95 16.59 -2.74 27.19 c
2.61 22.95 13.75 40.61 26.03 40.61 c
11.67 0 18.99 -15.91 17.18 -37.1 c
-0.34 -5.65 0.27 -8.12 2.22 -8.12 c
1.95 0 3.16 2.8 3.88 9.11 c
4.11 36.09 p
0.68 5.96 0.18 9.46 -1.77 9.46 c
-2.25 0 -3.54 -3.44 -4.2 -9.29 c
h
f
3690.66 5260.55 29.78 0 P
2.7 0 4.32 2.46 4.88 7.39 c
0.52 4.58 -0.54 7.05 -3.24 7.05 c
-29.79 0 2.45 21.48 p
2 17.61 10.14 29.93 20.02 29.93 c
3.14 0 9.12 -1.41 12.93 -2.11 c
6.94 -2.11 6.94 -2.11 7.24 -2.11 c
1.8 0 3.46 2.82 3.98 7.39 c
0.36 3.17 -0.22 5.98 -2.08 6.69 c
-4.4 2.11 -14.45 4.58 -20.13 4.58 c
-13.47 0 -25.18 -18.67 -28.1 -44.37 c
-2.45 -21.48 -13.02 0 p
-2.84 0 -4.47 -2.47 -4.99 -7.05 c
-0.56 -4.93 0.5 -7.39 3.35 -7.39 c
13.02 0 -13.45 -118.11 -14.67 0 p
-2.84 0 -4.32 -2.47 -4.84 -7.05 c
-0.56 -4.93 0.36 -7.39 3.2 -7.39 c
48.94 0 p
2.55 0 4.32 2.46 4.88 7.39 c
0.52 4.58 -0.39 7.05 -3.24 7.05 c
-28.14 0 h
f
3791.63 5275 -23.8 0 P
-2.7 0 -4.47 -2.47 -4.99 -7.05 c
-0.56 -4.93 0.66 -7.39 3.35 -7.39 c
17.66 0 -13.44 -118.11 -23.95 0 p
-2.69 0 -4.32 -2.47 -4.84 -7.05 c
-0.56 -4.93 0.51 -7.39 3.2 -7.39 c
54.18 0 p
2.54 0 4.32 2.46 4.88 7.39 c
0.52 4.58 -0.55 7.05 -3.24 7.05 c
-24.09 0 h
3793.31 5349 m
-1.8 0 -3.17 -2.86 -3.9 -9.27 c
-2.31 -20.31 p
-0.77 -6.77 -0.05 -9.62 1.75 -9.62 c
3.74 0 p
1.95 0 3.32 2.85 4.09 9.62 c
2.31 20.31 p
0.73 6.41 0.01 9.27 -1.94 9.27 c
h
f
3865.68 5339.99 -14.22 0 P
-2.7 0 -4.31 -2.39 -4.82 -6.82 c
-0.54 -4.77 0.54 -7.16 3.23 -7.16 c
8.08 0 -20.89 -183.57 ^ p
-2.7 0 -4.32 -2.47 -4.84 -7.05 c
-0.56 -4.93 0.5 -7.39 3.2 -7.39 c
14.22 0 3.57 31.36 p
4.16 -25.26 11.76 -37.36 22.54 -37.36 c
18.11 0 36.69 35.7 41.72 79.88 c
4.99 43.82 -5.33 78.11 -23.74 78.11 c
-11.07 0 -20.59 -11.31 -30.93 -36.41 c
h
3883.83 5265.44 m
14.96 0 23.24 -28.54 19.07 -65.2 c
-3.93 -34.54 -19.2 -63.43 -33.71 -63.43 c
-14.82 0 -23.36 28.9 -19.3 64.49 c
4.05 35.59 19.12 64.14 33.94 64.14 c
h
f
3956.06 5275 -17.36 0 P
-2.55 0 -4.36 -2.82 -4.84 -7.05 c
-0.56 -4.93 0.66 -7.39 3.2 -7.39 c
11.23 0 -13.45 -118.11 -14.37 0 p
-2.55 0 -4.36 -2.82 -4.84 -7.05 c
-0.52 -4.58 0.66 -7.39 3.2 -7.39 c
47.14 0 p
2.55 0 4.51 2.82 4.95 6.69 c
0.56 4.93 -0.77 7.75 -3.31 7.75 c
-26.64 0 8.83 77.57 p
20.5 35.46 28.16 43.54 34.89 43.54 c
3.29 0 5.86 -3.75 8.56 -11.61 c
0.77 -2.39 1.14 -3.07 2.04 -3.07 c
1.8 0 3.54 3.46 4.01 7.62 c
0.36 3.12 -0.23 5.89 -2.22 10.75 c
-3.06 7.28 -5.96 10.75 -10.3 10.75 c
-7.63 0 -17.57 -9.75 -34.78 -38.63 c
h
f
4082.64 5198 m
1.85 16.26 2.36 23.33 1.4 34.64 c
-1.9 29.34 -11.82 47.36 -26.19 47.36 c
-19.16 0 -37.83 -32.52 -42.73 -75.64 c
-5.23 -45.95 6.64 -82.35 26.85 -82.35 c
13.62 0 33.52 17.08 34.9 29.18 c
0.41 3.56 -0.54 7.12 -1.88 7.12 c
-0.9 0 -1.58 -0.72 -2.83 -2.52 c
-7.29 -11.46 -19.12 -19.34 -28.39 -19.34 c
-16.16 0 -25.4 24.05 -23.23 61.55 c
h
4022.18 5212.44 m
6.59 32.93 19.52 53.12 34.04 53.12 c
14.52 0 23.21 -20.89 21.94 -53.12 c
h
f
4167.1 5263.68 m
-3.99 11 -10.12 16.32 -18.65 16.32 c
-14.67 0 -27.53 -16.99 -30.14 -39.96 c
-1.29 -11.31 0.24 -21.57 3.71 -27.93 c
3.51 -6.01 7.42 -8.48 18.21 -10.96 c
8.1 -2.48 11.71 -4.95 15.04 -9.9 c
3.29 -5.3 4.83 -14.14 3.9 -22.27 c
-2.13 -18.74 -13.43 -32.52 -26.45 -32.52 c
-12.72 0 -21.7 13.22 -19.82 29.66 c
0.29 2.5 p
0.49 4.29 -0.3 7.87 -2.1 7.87 c
-2.1 0 -3.55 -3.55 -4.23 -9.57 c
-3.34 -29.36 p
-0.77 -6.72 -0.04 -9.55 2.05 -9.55 c
1.95 0 3.32 2.82 4.08 9.52 c
0.44 3.88 p
4.77 -13.28 11.41 -19.38 21.29 -19.38 c
16.91 0 31.74 19.8 34.84 47.02 c
1.32 11.66 -0.3 23.68 -4.05 31.46 c
-3.95 7.42 -9.19 11.31 -17.89 13.79 c
-12.81 3.18 -13.62 3.89 -16.39 8.48 c
-2.62 4.6 -3.59 10.61 -2.9 16.62 c
1.69 14.85 11.36 26.18 22.43 26.18 c
11.38 0 17.94 -10.69 16.91 -26.36 c
-0.35 -5.7 0.38 -8.55 2.17 -8.55 c
1.95 0 3.4 3.56 4.13 9.97 c
2.84 24.94 p
0.72 6.29 0.03 9.44 -1.92 9.44 c
-1.8 0 -3.54 -3.5 -4.22 -9.44 c
h
f
932.12 3992.5 m
-4.91 12.4 -12.1 19.49 -21.3 19.49 c
-20.22 0 -38.55 -33.58 -43.91 -80.23 c
-5.19 -45.24 5.27 -77.76 25.03 -77.76 c
9.96 0 20.73 7.11 29.86 19.54 c
4.85 6.75 7.99 13.14 8.52 17.76 c
0.37 3.2 -0.77 6.4 -2.13 6.4 c
-1.21 0 -1.55 -0.36 -3.12 -3.57 c
-9.66 -17.12 -20.3 -25.68 -31.16 -25.68 c
-16.6 0 -25.02 26.52 -20.76 63.65 c
4.5 39.25 18.97 65.45 35.57 65.45 c
12.52 0 21.68 -14.87 20.13 -33.64 c
-0.39 -6.02 0.23 -8.5 2.34 -8.5 c
1.81 0 3.23 3.19 4 9.91 c
3.7 32.23 p
0.72 6.3 0.03 9.45 -1.79 9.45 c
-2.26 0 -3.68 -3.15 -4.4 -9.45 c
h
f
998.7 4012 m
-19.02 0 -38.46 -35.34 -43.45 -78.82 c
-5.07 -44.18 6.31 -79.17 25.32 -79.17 c
19.01 0 38.42 34.99 43.36 78.11 c
5.19 45.24 -5.93 79.88 -25.24 79.88 c
h
997.04 3997.55 m
15.84 0 24.93 -28.67 20.71 -65.45 c
-4.02 -35.01 -19.98 -63.65 -35.52 -63.65 c
-15.54 0 -24.93 28.64 -20.79 64.71 c
4.1 35.71 20.06 64.39 35.6 64.39 c
h
f
1069.06 4007 -11.32 0 P
-2.71 0 -4.21 -2.47 -4.73 -7.05 c
-0.57 -4.93 0.36 -7.4 3.07 -7.4 c
5.13 0 -13.55 -118.11 -6.79 0 p
-2.87 0 -4.51 -2.47 -5.04 -7.05 c
-0.56 -4.93 0.51 -7.39 3.38 -7.39 c
19.77 0 p
2.87 0 4.36 2.46 4.92 7.39 c
0.53 4.58 -0.4 7.05 -3.27 7.05 c
-6.79 0 10.23 89.22 p
6.49 14.46 8.44 18.34 11.3 22.22 c
5 8.11 9.94 11.66 15.52 11.66 c
5.89 0 8.46 -2.5 11.17 -9.2 c
3.07 -7.4 4.02 -16.22 2.81 -26.8 c
-9.99 -87.11 -5.13 0 p
-2.71 0 -4.51 -2.47 -5.03 -7.05 c
-0.57 -4.93 0.66 -7.39 3.38 -7.39 c
16.6 0 p
2.57 0 4.21 2.46 4.77 7.39 c
0.52 4.58 -0.55 7.05 -3.12 7.05 c
-5.13 0 10.27 89.57 p
3.16 27.51 -5.06 47.98 -18.34 47.98 c
-9.36 0 -15.6 -7.08 -26.91 -29.36 c
h
f
1159.06 4007 -11.32 0 P
-2.71 0 -4.21 -2.47 -4.73 -7.05 c
-0.57 -4.93 0.36 -7.4 3.07 -7.4 c
5.13 0 -13.55 -118.11 -6.79 0 p
-2.87 0 -4.51 -2.47 -5.04 -7.05 c
-0.56 -4.93 0.51 -7.39 3.38 -7.39 c
19.77 0 p
2.87 0 4.36 2.46 4.92 7.39 c
0.53 4.58 -0.4 7.05 -3.27 7.05 c
-6.79 0 10.23 89.22 p
6.49 14.46 8.44 18.34 11.3 22.22 c
5 8.11 9.94 11.66 15.52 11.66 c
5.89 0 8.46 -2.5 11.17 -9.2 c
3.07 -7.4 4.02 -16.22 2.81 -26.8 c
-9.99 -87.11 -5.13 0 p
-2.71 0 -4.51 -2.47 -5.03 -7.05 c
-0.57 -4.93 0.66 -7.39 3.38 -7.39 c
16.6 0 p
2.57 0 4.21 2.46 4.77 7.39 c
0.52 4.58 -0.55 7.05 -3.12 7.05 c
-5.13 0 10.27 89.57 p
3.16 27.51 -5.06 47.98 -18.34 47.98 c
-9.36 0 -15.6 -7.08 -26.91 -29.36 c
h
f
1294.34 3930 m
1.86 16.26 2.38 23.33 1.41 34.64 c
-1.91 29.34 -11.92 47.36 -26.4 47.36 c
-19.31 0 -38.13 -32.52 -43.08 -75.64 c
-5.27 -45.95 6.7 -82.35 27.07 -82.35 c
13.73 0 33.8 17.08 35.19 29.18 c
0.41 3.56 -0.54 7.12 -1.9 7.12 c
-0.9 0 -1.59 -0.72 -2.85 -2.52 c
-7.35 -11.46 -19.27 -19.34 -28.62 -19.34 c
-16.3 0 -25.61 24.05 -23.42 61.54 c
h
1233.38 3944.44 m
6.64 32.93 19.67 53.11 34.31 53.11 c
14.64 0 23.4 -20.89 22.12 -53.11 c
h
f
1385.12 3992.5 m
-4.91 12.4 -12.1 19.49 -21.3 19.49 c
-20.22 0 -38.55 -33.58 -43.91 -80.23 c
-5.19 -45.24 5.27 -77.76 25.03 -77.76 c
9.96 0 20.73 7.11 29.86 19.54 c
4.85 6.75 7.99 13.14 8.52 17.76 c
0.37 3.2 -0.77 6.4 -2.13 6.4 c
-1.21 0 -1.55 -0.36 -3.12 -3.57 c
-9.66 -17.12 -20.3 -25.68 -31.16 -25.68 c
-16.6 0 -25.02 26.52 -20.76 63.65 c
4.5 39.25 18.97 65.45 35.57 65.45 c
12.52 0 21.68 -14.87 20.13 -33.64 c
-0.39 -6.02 0.23 -8.5 2.34 -8.5 c
1.81 0 3.23 3.19 4 9.91 c
3.7 32.23 p
0.72 6.3 0.03 9.45 -1.79 9.45 c
-2.26 0 -3.68 -3.15 -4.4 -9.45 c
h
f
1435.59 4007 4.8 41.89 P
0.77 6.69 0.19 9.51 -2.08 9.51 c
-2.26 0 -3.57 -3.53 -4.26 -9.51 c
-4.8 -41.89 -11.17 0 p
-2.87 0 -4.51 -2.47 -5.03 -7.05 c
-0.57 -4.93 0.51 -7.4 3.38 -7.4 c
11.17 0 -10.91 -95.08 p
-3.04 -26.5 4.22 -43.46 18.25 -43.46 c
12.82 0 31.58 13.54 32.77 23.88 c
0.41 3.57 -0.35 7.49 -1.86 7.49 c
-0.76 0 -1.29 -0.72 -2.51 -2.16 c
-7.18 -8.64 -18.44 -14.76 -26.89 -14.76 c
-10.41 0 -15.41 11.66 -13.34 29.7 c
10.83 94.4 33.04 0 p
2.72 0 4.36 2.46 4.92 7.4 c
0.53 4.58 -0.55 7.05 -3.27 7.05 c
h
f
1542.7 4012 m
-19.02 0 -38.46 -35.34 -43.45 -78.82 c
-5.07 -44.18 6.31 -79.17 25.32 -79.17 c
19.01 0 38.42 34.99 43.36 78.11 c
5.19 45.24 -5.93 79.88 -25.24 79.88 c
h
1541.04 3997.55 m
15.84 0 24.93 -28.67 20.71 -65.45 c
-4.02 -35.01 -19.98 -63.65 -35.52 -63.65 c
-15.54 0 -24.93 28.64 -20.79 64.71 c
4.1 35.71 20.06 64.39 35.6 64.39 c
h
f
1619.45 4007 -17.5 0 P
-2.56 0 -4.4 -2.82 -4.88 -7.05 c
-0.56 -4.93 0.66 -7.4 3.23 -7.4 c
11.32 0 -13.55 -118.11 -14.48 0 p
-2.57 0 -4.4 -2.82 -4.88 -7.05 c
-0.53 -4.58 0.66 -7.39 3.23 -7.39 c
47.53 0 p
2.57 0 4.55 2.82 4.99 6.69 c
0.57 4.93 -0.77 7.75 -3.34 7.75 c
-26.86 0 8.89 77.56 p
20.66 35.44 28.38 43.54 35.17 43.54 c
3.32 0 5.91 -3.75 8.63 -11.6 c
0.78 -2.39 1.16 -3.07 2.06 -3.07 c
1.81 0 3.57 3.46 4.04 7.62 c
0.36 3.12 -0.23 5.89 -2.24 10.75 c
-3.09 7.28 -6.01 10.75 -10.39 10.75 c
-7.7 0 -17.71 -9.75 -35.06 -38.63 c
h
f
2358.54 3402 m
-17.14 0 -34.67 -35.34 -39.17 -78.82 c
-4.57 -44.18 5.69 -79.17 22.83 -79.17 c
17.14 0 34.64 34.99 39.09 78.11 c
4.68 45.24 -5.34 79.88 -22.75 79.88 c
h
2357.04 3387.6 m
14.29 0 22.47 -28.69 18.66 -65.49 c
-3.62 -35.04 -18.02 -63.7 -32.03 -63.7 c
-14.01 0 -22.47 28.66 -18.74 64.76 c
3.7 35.74 18.09 64.43 32.1 64.43 c
h
f
2417.8 3397 -12.93 0 P
-2.31 0 -3.93 -2.46 -4.4 -7.03 c
-0.51 -4.91 0.6 -7.37 2.91 -7.37 c
7.34 0 -18.95 -183.18 ^ p
-2.31 0 -3.98 -2.94 -4.47 -7.71 c
-0.49 -4.77 0.56 -7.71 2.88 -7.71 c
26.26 0 p
2.45 0 3.98 2.94 4.47 7.71 c
0.5 4.77 -0.43 7.71 -2.87 7.71 c
-13.33 0 9.1 87.94 p
4.02 -22.93 10.43 -33.35 20.9 -33.35 c
16.87 0 33 32.33 37.32 74.16 c
4.33 41.82 -5.15 73.83 -22.02 73.83 c
-10.2 0 -18.13 -9.55 -27.86 -33.94 c
h
2441.02 3387.44 m
13.88 0 21.52 -26.08 17.95 -60.61 c
-3.36 -32.42 -16.97 -58.85 -30.3 -58.85 c
-13.47 0 -21.48 26.43 -18.02 59.91 c
3.46 33.48 16.91 59.55 30.38 59.55 c
h
f
2507 3397 4.34 41.89 P
0.69 6.69 0.17 9.51 -1.87 9.51 c
-2.04 0 -3.22 -3.53 -3.84 -9.51 c
-4.33 -41.89 -10.07 0 p
-2.59 0 -4.07 -2.46 -4.54 -7.03 c
-0.51 -4.91 0.46 -7.37 3.05 -7.37 c
10.07 0 -9.84 -95.11 p
-2.74 -26.52 3.8 -43.48 16.45 -43.48 c
11.56 0 28.47 13.54 29.54 23.88 c
0.37 3.57 -0.32 7.49 -1.68 7.49 c
-0.68 0 -1.16 -0.73 -2.27 -2.17 c
-6.47 -8.66 -16.63 -14.8 -24.25 -14.8 c
-9.39 0 -13.89 11.68 -12.03 29.72 c
9.77 94.47 29.79 0 p
2.45 0 3.93 2.46 4.43 7.37 c
0.47 4.57 -0.5 7.03 -2.95 7.03 c
h
f
2604.74 3397 -21.63 0 P
-2.45 0 -4.07 -2.46 -4.54 -7.03 c
-0.51 -4.91 0.6 -7.37 3.05 -7.37 c
16.05 0 -12.23 -118.2 -21.77 0 p
-2.45 0 -3.93 -2.46 -4.4 -7.03 c
-0.51 -4.91 0.46 -7.37 2.91 -7.37 c
49.25 0 p
2.31 0 3.93 2.46 4.43 7.37 c
0.47 4.57 -0.5 7.03 -2.95 7.03 c
-21.9 0 h
2606.27 3471 m
-1.63 0 -2.88 -2.85 -3.54 -9.24 c
-2.09 -20.25 p
-0.7 -6.75 -0.04 -9.59 1.59 -9.59 c
3.4 0 p
1.77 0 3.02 2.84 3.71 9.59 c
2.1 20.25 p
0.66 6.39 0 9.24 -1.77 9.24 c
h
f
2705.64 3382.5 m
-4.43 12.4 -10.91 19.49 -19.21 19.49 c
-18.23 0 -34.76 -33.58 -39.59 -80.23 c
-4.68 -45.24 4.74 -77.76 22.56 -77.76 c
8.98 0 18.69 7.11 26.92 19.54 c
4.37 6.75 7.21 13.14 7.68 17.76 c
0.33 3.2 -0.7 6.4 -1.92 6.4 c
-1.09 0 -1.4 -0.36 -2.82 -3.58 c
-8.71 -17.15 -18.3 -25.72 -28.1 -25.72 c
-14.96 0 -22.55 26.54 -18.71 63.7 c
4.06 39.28 17.11 65.49 32.07 65.49 c
11.29 0 19.55 -14.84 18.16 -33.55 c
-0.35 -6 0.21 -8.47 2.12 -8.47 c
1.63 0 2.91 3.18 3.61 9.89 c
3.32 32.14 p
0.65 6.27 0.02 9.4 -1.61 9.4 c
-2.04 0 -3.32 -3.13 -3.96 -9.4 c
h
f
2767 3250 13.06 0 P
2.31 0 3.79 2.46 4.3 7.37 c
0.47 4.57 -0.5 7.03 -2.81 7.03 c
-7.48 0 9.74 94.18 p
2.59 25.05 -4.76 43.41 -17.41 43.41 c
-5.04 0 -14.39 -4.96 -22.53 -11.33 c
-1.68 -1.77 -2.71 -3.89 -3.12 -7.79 c
-0.37 -3.54 0.39 -6.72 1.89 -6.72 c
0.27 0 0.85 0.36 1.43 0.71 c
11.46 8.22 15.53 10.72 20.43 10.72 c
9.93 0 15.53 -11.66 13.73 -28.98 c
-2.6 -25.09 p
-7.47 5.35 -11.47 7.49 -17.72 7.49 c
-17.01 0 -30.87 -20.9 -34.05 -51.69 c
-2.79 -26.9 3.88 -45.31 16.53 -45.31 c
9.66 0 18.64 9.27 29.05 29.6 c
h
2771.08 3289.47 m
-11.41 -22.2 -19.5 -30.66 -29.29 -30.66 c
-9.39 0 -14.27 11.98 -12.41 29.96 c
2.33 22.55 13.56 37.71 28.11 37.71 c
5.98 0 12.3 -2.12 16.83 -5.64 c
h
f
2856.46 3461.99 -21.63 0 P
-2.31 0 -3.79 -2.39 -4.24 -6.82 c
-0.5 -4.77 0.48 -7.16 2.79 -7.16 c
16.05 0 -19 -183.61 -21.77 0 p
-2.45 0 -3.93 -2.46 -4.4 -7.03 c
-0.51 -4.91 0.46 -7.37 2.91 -7.37 c
49.25 0 p
2.31 0 3.93 2.46 4.43 7.37 c
0.47 4.57 -0.5 7.03 -2.95 7.03 c
-21.9 0 h
f
3001.86 3382.6 27.07 0 P
2.45 0 3.93 2.46 4.43 7.37 c
0.47 4.57 -0.5 7.03 -2.95 7.03 c
-27.07 0 2.22 21.48 p
1.82 17.61 9.21 29.93 18.2 29.93 c
2.86 0 8.29 -1.41 11.75 -2.11 c
6.31 -2.11 6.31 -2.11 6.59 -2.11 c
1.63 0 3.15 2.82 3.62 7.39 c
0.33 3.17 -0.2 5.98 -1.89 6.69 c
-4 2.11 -13.13 4.58 -18.3 4.58 c
-12.24 0 -22.88 -18.67 -25.54 -44.37 c
-2.22 -21.48 -11.84 0 p
-2.58 0 -4.06 -2.46 -4.54 -7.03 c
-0.51 -4.91 0.46 -7.37 3.05 -7.37 c
11.84 0 -12.23 -118.2 -13.33 0 p
-2.59 0 -3.93 -2.46 -4.4 -7.03 c
-0.51 -4.91 0.33 -7.37 2.91 -7.37 c
44.48 0 p
2.31 0 3.93 2.46 4.44 7.37 c
0.47 4.57 -0.36 7.03 -2.95 7.03 c
-25.57 0 h
f
3094.74 3397 -21.63 0 P
-2.45 0 -4.07 -2.46 -4.54 -7.03 c
-0.51 -4.91 0.6 -7.37 3.05 -7.37 c
16.05 0 -12.23 -118.2 -21.77 0 p
-2.45 0 -3.93 -2.46 -4.4 -7.03 c
-0.51 -4.91 0.46 -7.37 2.91 -7.37 c
49.25 0 p
2.31 0 3.93 2.46 4.43 7.37 c
0.47 4.57 -0.5 7.03 -2.95 7.03 c
-21.9 0 h
3096.27 3471 m
-1.63 0 -2.88 -2.85 -3.54 -9.24 c
-2.09 -20.25 p
-0.7 -6.75 -0.04 -9.59 1.59 -9.59 c
3.4 0 p
1.77 0 3.02 2.84 3.71 9.59 c
2.1 20.25 p
0.66 6.39 0 9.24 -1.77 9.24 c
h
f
3162.24 3461.99 -12.92 0 P
-2.45 0 -3.92 -2.39 -4.38 -6.82 c
-0.5 -4.77 0.48 -7.16 2.93 -7.16 c
7.35 0 -18.99 -183.61 ^ p
-2.45 0 -3.93 -2.46 -4.4 -7.03 c
-0.51 -4.91 0.46 -7.37 2.91 -7.37 c
12.92 0 3.25 31.36 p
3.78 -25.26 10.69 -37.36 20.48 -37.36 c
16.46 0 33.35 35.7 37.92 79.88 c
4.54 43.82 -4.84 78.11 -21.57 78.11 c
-10.07 0 -18.72 -11.31 -28.12 -36.41 c
h
3178.74 3387.44 m
13.6 0 21.13 -28.54 17.33 -65.2 c
-3.57 -34.54 -17.45 -63.43 -30.64 -63.43 c
-13.46 0 -21.22 28.9 -17.54 64.49 c
3.68 35.59 17.38 64.14 30.85 64.14 c
h
f
3243.59 3397 -15.78 0 P
-2.31 0 -3.96 -2.81 -4.4 -7.03 c
-0.51 -4.91 0.6 -7.37 2.91 -7.37 c
10.2 0 -12.23 -118.2 -13.06 0 p
-2.31 0 -3.96 -2.81 -4.4 -7.03 c
-0.47 -4.56 0.6 -7.37 2.91 -7.37 c
42.85 0 p
2.31 0 4.1 2.81 4.5 6.67 c
0.51 4.91 -0.7 7.73 -3.01 7.73 c
-24.21 0 8.03 77.63 p
18.64 35.48 25.59 43.56 31.71 43.56 c
2.99 0 5.32 -3.77 7.77 -11.64 c
0.7 -2.39 1.04 -3.08 1.86 -3.08 c
1.63 0 3.21 3.46 3.64 7.62 c
0.32 3.12 -0.21 5.89 -2.02 10.75 c
-2.79 7.28 -5.42 10.75 -9.36 10.75 c
-6.94 0 -15.97 -9.75 -31.61 -38.63 c
h
f
3358.84 3320 m
1.68 16.26 2.14 23.33 1.27 34.64 c
-1.73 29.34 -10.75 47.36 -23.8 47.36 c
-17.41 0 -34.38 -32.52 -38.84 -75.64 c
-4.75 -45.95 6.04 -82.35 24.4 -82.35 c
12.38 0 30.47 17.08 31.72 29.18 c
0.37 3.56 -0.49 7.12 -1.71 7.12 c
-0.82 0 -1.43 -0.72 -2.57 -2.52 c
-6.63 -11.48 -17.38 -19.38 -25.81 -19.38 c
-14.69 0 -23.09 24.07 -21.11 61.59 c
h
3303.88 3334.39 m
6 32.98 17.75 53.2 30.94 53.2 c
13.2 0 21.1 -20.93 19.93 -53.2 c
h
f
3435.8 3385.68 m
-3.62 11 -9.19 16.32 -16.95 16.32 c
-13.33 0 -25.02 -17 -27.39 -39.98 c
-1.17 -11.32 0.21 -21.57 3.37 -27.94 c
3.19 -6.01 6.74 -8.48 16.55 -10.96 c
7.36 -2.47 10.64 -4.95 13.67 -9.9 c
2.99 -5.3 4.39 -14.14 3.54 -22.28 c
-1.94 -18.74 -12.21 -32.53 -24.04 -32.53 c
-11.56 0 -19.72 13.2 -18.02 29.59 c
0.26 2.5 p
0.45 4.28 -0.28 7.84 -1.91 7.84 c
-1.9 0 -3.22 -3.53 -3.84 -9.53 c
-3.03 -29.29 p
-0.69 -6.71 -0.03 -9.53 1.87 -9.53 c
1.77 0 3.01 2.82 3.71 9.52 c
0.4 3.88 p
4.34 -13.28 10.38 -19.38 19.36 -19.38 c
15.37 0 28.85 19.8 31.66 47.03 c
1.21 11.67 -0.27 23.69 -3.68 31.47 c
-3.59 7.42 -8.35 11.31 -16.26 13.79 c
-11.64 3.18 -12.39 3.89 -14.9 8.48 c
-2.38 4.6 -3.26 10.61 -2.63 16.62 c
1.54 14.85 10.32 26.19 20.39 26.19 c
10.34 0 16.31 -10.66 15.38 -26.3 c
-0.32 -5.69 0.34 -8.53 1.97 -8.53 c
1.77 0 3.09 3.55 3.75 9.95 c
2.57 24.88 p
0.65 6.27 0.02 9.4 -1.75 9.4 c
-1.63 0 -3.21 -3.48 -3.83 -9.4 c
h
f
4983.46 3703.47 30.69 0 P
20.83 0 40.51 25.97 45.05 58.61 c
4.58 32.99 -7.3 57.93 -26.48 57.93 c
-50.42 0 p
-3.29 0 -5.46 -2.48 -6.15 -7.45 c
-0.64 -4.61 0.84 -7.09 4.13 -7.09 c
9.87 0 -23.46 -168.93 ^ p
-3.29 0 -5.46 -2.48 -6.1 -7.09 c
-0.69 -4.97 0.79 -7.45 4.08 -7.45 c
42.57 0 p
3.47 0 5.46 2.48 6.15 7.45 c
0.64 4.61 -0.66 7.09 -4.13 7.09 c
-25.21 0 h
4985.48 3718.01 12.15 87.46 33.8 0 P
14.25 0 23.59 -19.59 20.28 -43.38 c
-3.35 -24.14 -19.28 -44.08 -35.17 -44.08 c
h
f
5119.83 3681.55 45.89 123.91 1.64 0 -23.46 -168.93 -13.7 0 P
-3.29 0 -5.28 -2.48 -5.92 -7.09 c
-0.69 -4.97 0.61 -7.45 3.9 -7.45 c
27.22 0 p
3.29 0 5.28 2.48 5.96 7.45 c
0.64 4.61 -0.66 7.09 -3.95 7.09 c
-6.21 0 23.46 168.93 4.57 0 p
3.29 0 5.28 2.48 5.92 7.09 c
0.69 4.96 -0.61 7.45 -3.9 7.45 c
-18.09 0 -45.3 -122.24 -11.7 122.24 -18.09 0 p
-3.29 0 -5.46 -2.48 -6.15 -7.45 c
-0.64 -4.61 0.84 -7.09 4.13 -7.09 c
4.57 0 -23.46 -168.93 -6.21 0 p
-3.47 0 -5.28 -2.48 -5.92 -7.09 c
-0.69 -4.97 0.43 -7.45 3.9 -7.45 c
27.22 0 p
3.29 0 5.46 2.48 6.15 7.45 c
0.64 4.61 -0.66 7.09 -4.13 7.09 c
-13.52 0 23.47 168.93 1.46 0 11.83 -123.91 h
f
cleartomark end end pagesave restore showpage
%%PageTrailer
%%Trailer
%%Pages: 1
