%!PS-Adobe-3.0 EPSF-3.0
%%BoundingBox: 39 224 572 563
%%Title: C:\users\essertaize\LASER_A4_A4ENFIBRES.PS
%%Creator: GSview from C:\users\essertaize\LASER_A4_A4ENFIBRES.PS
%%CreationDate: Thu Sep 09 09:11:16 2004
%%Pages: 1
%%EndComments
%%Page: 1 1
%%BeginDocument: C:\users\essertaize\LASER_A4_A4ENFIBRES.PS
%![PS-Adobe-1.0]%%
%%[Status: Busy;Source: Serial 9]%%
%%[Creator: ]%%
%%[Title: Fichier Postscript]%%
%%[Creation Date: mon may 28 10:00:00 1990]%%
%%[DocumentFonts: Courier]%%
%%BoundingBox:         28         28        610        851
%%Pages: (atend)
%%[EndComments]%%
/c { setrgbcolor } def
/w { setlinewidth } def
/m { moveto } def
/l { lineto } def
/n { newpath } def
/h { show } def
/r { rotate } def
/e { ellipse } def
/cu { curveto } def
/sc { scale } def
/rc { rectclip } def
/ic { initclip } def
/cc { closepath clip } def
/sp { showpage } def
/tr { translate } def
/mf { makefont setfont } def
/gs { gsave } def
/gr { grestore } def
/s { stroke } def
/ISOdict 12 dict def
/ISOcode
{ ISOdict begin
/newcodes exch def/newfontname exch def/basefontname exch def
/basefontdict basefontname findfont def
/newfont basefontdict maxlength dict def
basefontdict {exch dup /FID ne {dup/Encoding eq
{exch dup length array copy newfont 3 1 roll put}
{exch newfont 3 1 roll put}ifelse}{pop pop}ifelse}forall 
newfont/FontName newfontname put
newcodes aload pop
newcodes length 2 idiv 
{newfont/Encoding get 3 1 roll put} repeat
newfontname newfont definefont pop end } def
/scandvec[
8#202/Ccedilla 8#203/Eacute 8#205/Odieresis 8#206/Udieresis
8#210/agrave 8#211/acircumflex 8#212/adieresis 8#215/ccedilia
8#216/eacute 8#217/egrave 8#220/ecircumflex 8#221/edieresis
8#224/icircumflex 8#225/idieresis 8#231/ocircumflex
8#232/odieresis 8#235/ugrave 8#236/ucircumflex
8#237/udieresis 8#251/copyright 8#313/Agrave
8#344/Acircumflex 8#345/Adieresis
8#346/Ecircumflex 8#350/Edieresis 8#351/Egrave
8#353/Icircumflex 8#354/Idieresis 8#357/Ocircumflex 
8#363/Ugrave 8#364/Ucircumflex ] def

%%[Definition d'une ellipse]%%
/ellipsedict 8 dict def
ellipsedict/mtrx matrix put
/ellipse { ellipsedict begin
/endangle exch def /startangle exch def
/yrad exch def /xrad exch def
/y exch def /x exch def
/savematrix mtrx currentmatrix def
x y translate xrad yrad scale
0 0 1 startangle endangle arc
savematrix setmatrix end } def

%%[Definition de la police de caracteres]%%
/Courier /Courier_ISO scandvec ISOcode
/pol1 /Courier_ISO findfont def
2 setlinejoin
[] 0 setdash

%%[c:/users/essertaize/A4ENFIBRES              Name of the drawi]%%
%%[                                            User name        ]%%
%%[     10                                     Category         ]%%

%%[scale transformation in cm]%%
   28.3465    28.3465 sc
0 0 tr
0.013 w
%%Page:  0   1
    0.5000     0.5000    20.5000    28.9929 rc
0.049 w
n
   17.6123    16.0881 m
   17.6334    16.1348 l
s
n
   16.4739    16.6031 m
   16.4950    16.6498 l
s
n
   17.5979    16.1509 m
   17.8092    16.6180 l
s
n
   16.5306    16.6337 m
   16.7419    17.1008 l
s
n
   16.9359    16.8863 m
   16.9594    16.9188 l
   16.9473    16.9635 l
   16.8966    16.9986 l
   16.8421    16.9980 l
   16.8120    16.9678 l
   16.8184    16.9233 l
   16.8635    16.8853 l
   16.9010    16.8776 l
   16.9359    16.8863 l
s
n
   17.3420    17.1208 m
   17.3655    17.1532 l
   17.3534    17.1979 l
   17.3027    17.2331 l
   17.2482    17.2324 l
   17.2181    17.2022 l
   17.2245    17.1578 l
   17.2695    17.1198 l
   17.3071    17.1121 l
   17.3420    17.1208 l
s
n
   17.7172    16.7247 m
   17.7407    16.7572 l
   17.7286    16.8019 l
   17.6779    16.8370 l
   17.6234    16.8364 l
   17.5933    16.8062 l
   17.5997    16.7617 l
   17.6447    16.7237 l
   17.6822    16.7160 l
   17.7172    16.7247 l
s
n
   17.3111    16.4903 m
   17.3346    16.5227 l
   17.3225    16.5674 l
   17.2718    16.6025 l
   17.2173    16.6019 l
   17.1872    16.5717 l
   17.1936    16.5272 l
   17.2386    16.4892 l
   17.2761    16.4815 l
   17.3111    16.4903 l
s
n
   17.1939    16.9456 m
   17.2054    16.9713 l
   17.1797    16.9997 l
   17.1429    16.9994 l
   17.1312    16.9746 l
   17.1544    16.9466 l
   17.1939    16.9456 l
s
n
   17.1884    16.8558 m
   17.1999    16.8815 l
   17.1742    16.9099 l
   17.1374    16.9096 l
   17.1257    16.8848 l
   17.1488    16.8568 l
   17.1884    16.8558 l
s
n
   17.1851    16.7655 m
   17.1966    16.7913 l
   17.1709    16.8196 l
   17.1341    16.8194 l
   17.1224    16.7945 l
   17.1456    16.7665 l
   17.1851    16.7655 l
s
n
   17.2966    16.7415 m
   17.3081    16.7673 l
   17.2824    16.7957 l
   17.2456    16.7954 l
   17.2339    16.7705 l
   17.2571    16.7425 l
   17.2966    16.7415 l
s
n
   17.3011    16.8325 m
   17.3126    16.8582 l
   17.2869    16.8866 l
   17.2500    16.8863 l
   17.2384    16.8615 l
   17.2615    16.8335 l
   17.3011    16.8325 l
s
n
   17.3055    16.9234 m
   17.3170    16.9492 l
   17.2913    16.9775 l
   17.2545    16.9773 l
   17.2428    16.9524 l
   17.2660    16.9244 l
   17.3055    16.9234 l
s
n
   17.4170    16.8994 m
   17.4285    16.9252 l
   17.4028    16.9536 l
   17.3660    16.9533 l
   17.3543    16.9284 l
   17.3775    16.9004 l
   17.4170    16.8994 l
s
n
   17.4137    16.8092 m
   17.4253    16.8349 l
   17.3995    16.8633 l
   17.3627    16.8630 l
   17.3510    16.8382 l
   17.3742    16.8102 l
   17.4137    16.8092 l
s
n
   17.4082    16.7194 m
   17.4197    16.7451 l
   17.3940    16.7735 l
   17.3572    16.7732 l
   17.3455    16.7484 l
   17.3687    16.7204 l
   17.4082    16.7194 l
s
n
   17.6010    16.9848 m
   17.6191    17.0136 l
   17.6015    17.0517 l
   17.5537    17.0721 l
   17.5149    17.0579 l
   17.5080    17.0236 l
   17.5385    16.9880 l
   17.5703    16.9784 l
   17.6010    16.9848 l
s
n
   17.5791    16.5389 m
   17.5972    16.5678 l
   17.5797    16.6058 l
   17.5318    16.6262 l
   17.4930    16.6120 l
   17.4861    16.5778 l
   17.5166    16.5421 l
   17.5484    16.5325 l
   17.5791    16.5389 l
s
n
   17.0267    16.6532 m
   17.0447    16.6821 l
   17.0272    16.7201 l
   16.9794    16.7405 l
   16.9406    16.7263 l
   16.9337    16.6921 l
   16.9642    16.6564 l
   16.9960    16.6468 l
   17.0267    16.6532 l
s
n
   17.0485    17.0991 m
   17.0666    17.1279 l
   17.0491    17.1659 l
   17.0013    17.1863 l
   16.9625    17.1721 l
   16.9555    17.1379 l
   16.9861    17.1022 l
   17.0178    17.0927 l
   17.0485    17.0991 l
s
n
   17.6582    16.4555 m
   17.7475    16.5258 l
   17.8102    16.6203 l
   17.8379    16.7276 l
   17.8296    16.8481 l
   17.7811    16.9743 l
   17.6915    17.0966 l
   17.5636    17.2037 l
   17.4129    17.2805 l
   17.2523    17.3220 l
   17.0945    17.3257 l
   16.9589    17.2944 l
   16.8517    17.2361 l
   16.7718    17.1535 l
   16.7242    17.0517 l
   16.7123    16.9368 l
   16.7375    16.8160 l
   16.7992    16.6969 l
   16.9010    16.5817 l
   17.0341    16.4868 l
   17.1896    16.4208 l
   17.3561    16.3911 l
   17.5111    16.4013 l
   17.5878    16.4227 l
   17.6582    16.4555 l
s
n
   16.5306    16.6337 m
   16.5016    16.5212 l
   16.5113    16.3990 l
   16.5619    16.2715 l
   16.6517    16.1515 l
   16.7796    16.0458 l
   16.9353    15.9680 l
   17.0982    15.9282 l
   17.2552    15.9271 l
   17.3912    15.9613 l
   17.5018    16.0264 l
   17.5571    16.0833 l
   17.5979    16.1509 l
s
n
   16.5982    16.7831 m
   16.5197    16.6953 l
   16.4736    16.5879 l
   16.4639    16.4670 l
   16.4927    16.3395 l
   16.5629    16.2094 l
   16.6748    16.0872 l
   16.8198    15.9877 l
   16.9876    15.9201 l
   17.1551    15.8925 l
   17.3101    15.9026 l
   17.4429    15.9458 l
   17.5471    16.0161 l
   17.5966    16.0716 l
   17.6334    16.1348 l
s
n
   17.6541    16.1936 m
   17.6655    16.3003 l
s
n
   17.6334    16.1348 m
   17.6590    16.2157 l
   17.6655    16.3003 l
s
n
   16.4739    16.6031 m
   16.4436    16.4898 l
   16.4511    16.3626 l
   16.4985    16.2329 l
   16.5873    16.1057 l
   16.7124    15.9944 l
   16.8664    15.9085 l
   17.0347    15.8576 l
   17.2001    15.8456 l
   17.3470    15.8701 l
   17.4710    15.9269 l
   17.5538    15.9978 l
   17.6123    16.0881 l
s
0.024 w
n
   14.2575    10.1313 m
   16.7337    15.6137 l
s
n
   14.5690    11.0106 m
   16.6625    15.6458 l
s
n
   14.4231    10.2269 m
   16.8453    15.5915 l
s
n
   14.7288    11.0938 m
   16.7741    15.6236 l
s
n
   16.8285    15.6319 m
   16.8508    15.6813 l
s
n
   14.3679    10.1950 m
   16.8038    15.5774 l
s
n
   15.7847    13.5149 m
   16.7797    15.7135 l
s
n
   14.3127    10.1631 m
   14.7335    11.0917 l
s
n
   16.8319    15.7224 m
   16.8541    15.7715 l
s
n
   16.7153    15.6545 m
   16.7830    15.8037 l
s
n
   14.2022    10.0994 m
   16.6910    15.6004 l
s
n
   16.7154    15.6544 m
   16.7381    15.7046 l
s
n
   15.6379    13.4621 m
   16.6670    15.7368 l
s
n
   16.7197    15.7449 m
   16.7426    15.7955 l
s
n
   14.1470    10.0675 m
   14.5735    11.0086 l
s
n
   16.6036    15.6780 m
   16.6714    15.8277 l
s
n
   14.0918    10.0356 m
   16.6222    15.6376 l
s
n
   15.5368    13.4244 m
   16.5510    15.6698 l
s
n
   16.6031    15.6784 m
   16.6255    15.7279 l
s
n
   14.0366    10.0037 m
   16.5910    15.6517 l
s
n
   13.9324     9.9628 m
   16.5543    15.7601 l
s
n
   13.9813     9.9718 m
   15.5446    13.4209 l
s
n
   16.6080    15.7670 m
   16.6310    15.8176 l
s
n
   13.9102    10.0041 m
   16.5599    15.8499 l
s
n
   13.9102    10.0041 m
   13.9171     9.9743 l
   13.9521     9.9575 l
   13.9813     9.9718 l
s
n
   16.6211    15.8073 m
   16.6322    15.8325 l
   16.6054    15.8605 l
   16.5686    15.8596 l
   16.5588    15.8346 l
   16.5828    15.8083 l
   16.6211    15.8073 l
s
n
   16.6166    15.7179 m
   16.6265    15.7438 l
   16.5996    15.7713 l
   16.5632    15.7701 l
   16.5530    15.7450 l
   16.5774    15.7178 l
   16.6166    15.7179 l
s
n
   13.9908     9.9927 m
   14.0266     9.9931 l
s
n
   14.0266     9.9931 m
   14.0366    10.0037 l
s
n
   14.0458    10.0241 m
   14.0737    10.0216 l
   14.0918    10.0356 l
s
n
   16.6121    15.6268 m
   16.6236    15.6526 l
   16.5979    15.6809 l
   16.5611    15.6806 l
   16.5494    15.6558 l
   16.5726    15.6277 l
   16.6121    15.6268 l
s
n
   16.7338    15.7856 m
   16.7436    15.8115 l
   16.7166    15.8390 l
   16.6803    15.8376 l
   16.6702    15.8126 l
   16.6947    15.7854 l
   16.7338    15.7856 l
s
n
   14.1012    10.0565 m
   14.1370    10.0569 l
s
n
   14.1370    10.0569 m
   14.1470    10.0675 l
s
n
   14.1563    10.0879 m
   14.1841    10.0853 l
   14.2022    10.0994 l
s
n
   16.7281    15.6937 m
   16.7396    15.7195 l
   16.7139    15.7479 l
   16.6770    15.7476 l
   16.6654    15.7227 l
   16.6885    15.6947 l
   16.7281    15.6937 l
s
n
   14.2667    10.1517 m
   14.2945    10.1491 l
   14.3127    10.1631 l
s
n
   16.8440    15.7607 m
   16.8555    15.7864 l
   16.8298    15.8148 l
   16.7930    15.8145 l
   16.7813    15.7897 l
   16.8045    15.7617 l
   16.8440    15.7607 l
s
n
   16.8396    15.6696 m
   16.8526    15.6948 l
   16.8290    15.7239 l
   16.7898    15.7245 l
   16.7779    15.6996 l
   16.8002    15.6714 l
   16.8396    15.6696 l
s
n
   14.3217    10.1831 m
   14.3577    10.1840 l
s
n
   14.3577    10.1840 m
   14.3679    10.1950 l
s
n
   14.3768    10.2146 m
   14.4047    10.2123 l
   14.4231    10.2269 l
s
n
   16.8350    15.5802 m
   16.8470    15.6064 l
   16.8223    15.6352 l
   16.7855    15.6355 l
   16.7721    15.6110 l
   16.7943    15.5813 l
   16.8151    15.5756 l
   16.8350    15.5802 l
s
n
   16.7224    15.6020 m
   16.7355    15.6271 l
   16.7120    15.6563 l
   16.6727    15.6569 l
   16.6607    15.6320 l
   16.6830    15.6038 l
   16.7224    15.6020 l
s
n
   14.2113    10.1193 m
   14.2473    10.1202 l
s
n
   14.2473    10.1202 m
   14.2575    10.1313 l
s
n
    6.5880    12.7158 m
    7.5912     9.7675 l
s
n
    4.7273    18.1840 m
    4.7697    18.0592 l
s
n
    6.2603    13.4363 m
    6.5110    12.6996 l
s
n
    4.6533    18.1588 m
    4.6612    18.1356 l
s
n
    4.7220    18.1442 m
    4.9035    17.5752 l
s
n
    6.4882    12.6093 m
    7.4258     9.6711 l
s
n
    4.6476    18.1204 m
    4.6554    18.0960 l
s
n
    6.1709    13.3466 m
    6.4099    12.5975 l
s
n
    4.8391    18.2118 m
    4.8868    18.0618 l
s
n
    6.5905    12.7073 m
    7.5362     9.7349 l
s
n
    4.7647    18.1881 m
    4.7725    18.1636 l
s
n
    6.2480    13.5259 m
    6.5158    12.6843 l
s
n
    4.9508    18.2388 m
    7.4812     9.7022 l
s
n
    4.9190    18.0713 m
    7.1999    10.3764 l
s
n
    4.8760    18.2166 m
    4.8834    18.1914 l
s
n
    6.4913    12.5981 m
    7.3708     9.6385 l
s
n
    4.8349    18.1719 m
    5.0040    17.6029 l
s
n
    6.1536    13.4601 m
    6.4162    12.5765 l
s
n
    4.7600    18.1496 m
    4.7675    18.1245 l
s
n
    6.3763    12.5420 m
    7.2603     9.5748 l
s
n
    4.7189    18.1050 m
    5.2572    16.2982 l
s
n
    4.6441    18.0827 m
    6.2971    12.5341 l
s
n
    4.9478    18.1996 m
    7.3158     9.6059 l
s
n
    4.8725    18.1788 m
    4.8794    18.1536 l
s
n
    4.8700    18.1877 m
    7.0428    10.3024 l
s
n
    4.8306    18.1320 m
    5.3372    16.2996 l
s
n
    6.3798    12.5281 m
    7.2053     9.5421 l
s
n
    4.7553    18.1112 m
    6.0504    13.4266 l
s
n
    6.0504    13.4266 m
    6.3044    12.5080 l
s
n
    4.9424    18.1598 m
    7.1503     9.5095 l
s
n
    6.0914    13.3425 m
    7.0746     9.4902 l
s
n
    4.8667    18.1405 m
    6.0914    13.3425 l
s
n
    7.1503     9.5095 m
    7.1352     9.4952 l
    7.0975     9.4851 l
    7.0746     9.4902 l
s
n
    4.8789    18.1533 m
    4.9347    18.1646 l
    4.9411    18.1553 l
    4.9040    18.1377 l
    4.8684    18.1381 l
    4.8678    18.1446 l
    4.8789    18.1533 l
s
n
    4.7685    18.1250 m
    4.8208    18.1369 l
    4.8294    18.1273 l
    4.7933    18.1092 l
    4.7576    18.1085 l
    4.7563    18.1154 l
    4.7685    18.1250 l
s
n
    7.2053     9.5421 m
    7.1879     9.5262 l
    7.1486     9.5162 l
s
n
    7.2603     9.5748 m
    7.2424     9.5580 l
    7.2038     9.5476 l
s
n
    4.6560    18.0963 m
    4.7107    18.1096 l
    4.7171    18.0992 l
    4.6758    18.0798 l
    4.6454    18.0806 l
    4.6451    18.0873 l
    4.6560    18.0963 l
s
n
    4.8857    18.1927 m
    4.9380    18.2045 l
    4.9465    18.1949 l
    4.9104    18.1768 l
    4.8746    18.1761 l
    4.8734    18.1831 l
    4.8857    18.1927 l
s
n
    7.3158     9.6059 m
    7.2983     9.5899 l
    7.2588     9.5800 l
s
n
    7.3708     9.6385 m
    7.3528     9.6217 l
    7.3142     9.6114 l
s
n
    4.7719    18.1633 m
    4.8267    18.1765 l
    4.8330    18.1661 l
    4.7918    18.1468 l
    4.7614    18.1476 l
    4.7610    18.1543 l
    4.7719    18.1633 l
s
n
    7.4812     9.7022 m
    7.4632     9.6855 l
    7.4245     9.6752 l
s
n
    4.8879    18.2302 m
    4.9426    18.2434 l
    4.9490    18.2331 l
    4.9078    18.2137 l
    4.8774    18.2146 l
    4.8770    18.2213 l
    4.8879    18.2302 l
s
n
    4.7755    18.2015 m
    4.8300    18.2164 l
    4.8377    18.2064 l
    4.7978    18.1860 l
    4.7665    18.1858 l
    4.7654    18.1923 l
    4.7755    18.2015 l
s
n
    7.5362     9.7349 m
    7.5192     9.7180 l
    7.4799     9.7066 l
s
n
    7.5912     9.7675 m
    7.5737     9.7497 l
    7.5352     9.7379 l
s
n
    4.6650    18.1733 m
    4.7166    18.1886 l
    4.7265    18.1794 l
    4.6923    18.1589 l
    4.6560    18.1560 l
    4.6538    18.1629 l
    4.6650    18.1733 l
s
n
    4.6583    18.1338 m
    4.7128    18.1488 l
    4.7206    18.1389 l
    4.6807    18.1184 l
    4.6494    18.1180 l
    4.6482    18.1246 l
    4.6583    18.1338 l
s
n
    7.4258     9.6711 m
    7.4088     9.6542 l
    7.3695     9.6428 l
s
0.049 w
n
    2.8423    18.5162 m
    5.5792     9.3065 l
s
n
    2.7627    18.5101 m
    5.5043     9.2842 l
s
n
    2.8563    18.5186 m
    5.5825     9.3450 l
s
n
    2.8702    18.5213 m
    5.5858     9.3835 l
s
n
    2.9539    18.5437 m
    5.6907     9.3343 l
s
n
    2.8786    18.5230 m
    5.6158     9.3120 l
s
n
    2.9673    18.5483 m
    5.6940     9.3727 l
s
n
    2.9805    18.5531 m
    5.6973     9.4112 l
s
n
    3.0603    18.5898 m
    5.8023     9.3628 l
s
n
    2.9888    18.5563 m
    5.7274     9.3406 l
s
n
    3.0728    18.5971 m
    5.8056     9.4013 l
s
n
    3.0852    18.6051 m
    5.8089     9.4398 l
s
n
    2.8181    19.7402 m
    3.1351    18.6735 l
s
n
    2.3689    19.6067 m
    2.6859    18.5401 l
s
n
    3.1351    18.6735 m
    3.1239    18.6390 l
    3.0692    18.5950 l
    2.9490    18.5421 l
    2.8046    18.5115 l
    2.7275    18.5137 l
    2.6996    18.5238 l
    2.6859    18.5401 l
s
n
    2.4405    19.6886 m
    2.5792    19.7456 l
    2.7068    19.7694 l
    2.7803    19.7658 l
    2.8151    19.7467 l
    2.8140    19.7161 l
    2.7740    19.6759 l
    2.6810    19.6267 l
    2.5193    19.5820 l
    2.4247    19.5782 l
    2.3785    19.5934 l
    2.3692    19.6220 l
    2.3913    19.6534 l
    2.4405    19.6886 l
s
n
    5.8089     9.4376 m
    5.7980     9.4268 l
s
n
    5.8089     9.4398 m
    5.7980     9.4268 l
s
n
    5.8056     9.3992 m
    5.7947     9.3883 l
s
n
    5.8056     9.4013 m
    5.7947     9.3883 l
s
n
    5.8023     9.3628 m
    5.7878     9.3478 l
    5.7505     9.3362 l
    5.7274     9.3406 l
s
n
    5.6973     9.4091 m
    5.6864     9.3982 l
s
n
    5.6973     9.4112 m
    5.6864     9.3982 l
s
n
    5.6940     9.3706 m
    5.6831     9.3597 l
s
n
    5.6940     9.3727 m
    5.6831     9.3597 l
s
n
    5.6907     9.3343 m
    5.6755     9.3188 l
    5.6386     9.3076 l
    5.6158     9.3120 l
s
n
    5.5858     9.3813 m
    5.5749     9.3705 l
s
n
    5.5857     9.3835 m
    5.5749     9.3705 l
s
n
    5.5825     9.3428 m
    5.5716     9.3320 l
s
n
    5.5825     9.3450 m
    5.5716     9.3320 l
s
n
    5.5792     9.3065 m
    5.5647     9.2914 l
    5.5274     9.2798 l
    5.5043     9.2842 l
s
0.013 w
gs
    9.6319    16.4607 m
    0.0000 rotate
pol1 [    0.4141 0    0.1110     1.2432 0 0 ] mf
(scintillator) h gr
gs
   15.0217    17.7544 m
    0.0000 rotate
pol1 [    0.4961 0    0.1329     1.2432 0 0 ] mf
(connector) h gr
gs
    5.7204    17.4626 m
    0.0000 rotate
pol1 [    0.5825 0    0.1561     1.2432 0 0 ] mf
(WLS) h gr
gs
    5.7204    16.0702 m
    0.0000 rotate
pol1 [    0.4400 0    0.1179     1.2432 0 0 ] mf
(fibres) h gr
gs
    1.3706    11.3889 m
    0.0000 rotate
pol1 [    0.4345 0    0.1164     1.2432 0 0 ] mf
(optical) h gr
gs
    1.3706     9.9966 m
    0.0000 rotate
pol1 [    0.4400 0    0.1179     1.2432 0 0 ] mf
(fibres) h gr
gs
   10.9973     9.0417 m
    0.0000 rotate
pol1 [    0.4582 0    0.1228     1.2432 0 0 ] mf
(Al coating) h gr
0.049 w
n
    6.4743     8.7378 m
    6.5800     8.3823 l
s
n
    5.3514     8.4041 m
    5.4571     8.0486 l
s
n
    6.0318     8.9933 m
    6.1374     8.6377 l
s
n
    5.5826     8.8598 m
    5.6883     8.5042 l
s
n
    5.8888     8.9184 m
    5.9435     8.9317 l
    5.9499     8.9213 l
    5.9087     8.9019 l
    5.8783     8.9027 l
    5.8779     8.9094 l
    5.8888     8.9184 l
s
n
    5.7772     8.8899 m
    5.8319     8.9031 l
    5.8383     8.8927 l
    5.7971     8.8733 l
    5.7667     8.8742 l
    5.7663     8.8808 l
    5.7772     8.8899 l
s
n
    5.6657     8.8621 m
    5.7204     8.8753 l
    5.7268     8.8650 l
    5.6856     8.8456 l
    5.6552     8.8464 l
    5.6548     8.8531 l
    5.6657     8.8621 l
s
n
    5.8944     8.9575 m
    5.9491     8.9707 l
    5.9555     8.9604 l
    5.9142     8.9410 l
    5.8838     8.9418 l
    5.8835     8.9485 l
    5.8944     8.9575 l
s
n
    5.7817     8.9291 m
    5.8364     8.9423 l
    5.8428     8.9319 l
    5.8016     8.9125 l
    5.7712     8.9133 l
    5.7708     8.9200 l
    5.7817     8.9291 l
s
n
    5.6690     8.9006 m
    5.7237     8.9138 l
    5.7301     8.9034 l
    5.6889     8.8840 l
    5.6585     8.8849 l
    5.6581     8.8916 l
    5.6690     8.9006 l
s
n
    5.8977     8.9960 m
    5.9524     9.0092 l
    5.9587     8.9989 l
    5.9175     8.9795 l
    5.8871     8.9803 l
    5.8868     8.9870 l
    5.8977     8.9960 l
s
n
    5.7861     8.9682 m
    5.8409     8.9815 l
    5.8472     8.9711 l
    5.8060     8.9517 l
    5.7756     8.9525 l
    5.7753     8.9592 l
    5.7861     8.9682 l
s
n
    5.6745     8.9397 m
    5.7293     8.9529 l
    5.7356     8.9425 l
    5.6944     8.9231 l
    5.6640     8.9240 l
    5.6637     8.9306 l
    5.6745     8.9397 l
s
n
    5.6541     8.9417 m
    5.7929     8.9986 l
    5.9205     9.0224 l
    5.9940     9.0188 l
    6.0287     8.9997 l
    6.0277     8.9691 l
    5.9877     8.9289 l
    5.8947     8.8797 l
    5.7330     8.8350 l
    5.6384     8.8312 l
    5.5922     8.8464 l
    5.5829     8.8750 l
    5.6050     8.9064 l
    5.6541     8.9417 l
s
n
    5.7903     8.4458 m
    5.9152     8.4928 l
    6.0042     8.5028 l
    6.0474     8.4916 l
    6.0532     8.4680 l
    6.0198     8.4341 l
    5.9291     8.3914 l
    5.8097     8.3676 l
    5.7545     8.3745 l
    5.7397     8.3956 l
    5.7537     8.4190 l
    5.7903     8.4458 l
s
n
    5.4151     8.4829 m
    5.5400     8.5299 l
    5.6290     8.5399 l
    5.6723     8.5288 l
    5.6780     8.5052 l
    5.6447     8.4713 l
    5.5539     8.4286 l
    5.4345     8.4047 l
    5.3794     8.4117 l
    5.3645     8.4327 l
    5.3785     8.4561 l
    5.4151     8.4829 l
s
n
    6.1964     8.6802 m
    6.3213     8.7272 l
    6.4102     8.7372 l
    6.4535     8.7261 l
    6.4593     8.7024 l
    6.4259     8.6686 l
    6.3352     8.6259 l
    6.2158     8.6020 l
    6.1606     8.6090 l
    6.1458     8.6300 l
    6.1597     8.6534 l
    6.1964     8.6802 l
s
n
    6.1374     8.6377 m
    6.1263     8.6031 l
    6.0716     8.5591 l
    5.9514     8.5063 l
    5.8070     8.4757 l
    5.7299     8.4779 l
    5.7019     8.4880 l
    5.6883     8.5042 l
s
n
    6.0897     8.7985 m
    6.2441     8.8129 l
    6.3541     8.8066 l
    6.4304     8.7840 l
    6.4704     8.7476 l
    6.4737     8.7003 l
    6.4392     8.6427 l
    6.3610     8.5747 l
    6.2304     8.4983 l
    6.0207     8.4131 l
    5.7743     8.3499 l
    5.6001     8.3296 l
    5.4790     8.3342 l
    5.3996     8.3558 l
    5.3573     8.3908 l
    5.3511     8.4379 l
    5.3825     8.4945 l
    5.4424     8.5507 l
    5.5302     8.6089 l
s
n
    5.5302     8.6089 m
    5.6405     8.6650 l
s
n
    6.5800     8.3823 m
    6.5744     8.3314 l
    6.5302     8.2716 l
    6.4402     8.2013 l
    6.2908     8.1213 l
    6.0588     8.0365 l
    5.8249     7.9854 l
    5.6635     7.9733 l
    5.5522     7.9846 l
    5.4884     8.0097 l
    5.4571     8.0486 l
s
n
    5.2591    18.9518 m
    5.2802    18.8807 l
s
n
    4.0613    18.5958 m
    4.0824    18.5247 l
s
n
    5.0103    19.6518 m
    5.2216    18.9406 l
s
n
    3.8874    19.3181 m
    4.0987    18.6069 l
s
n
    4.3824    19.3541 m
    4.4712    19.3811 l
    4.5047    19.3761 l
    4.5033    19.3583 l
    4.4591    19.3321 l
    4.3816    19.3169 l
    4.3584    19.3273 l
    4.3632    19.3395 l
    4.3824    19.3541 l
s
n
    4.7885    19.5886 m
    4.8773    19.6155 l
    4.9108    19.6106 l
    4.9094    19.5928 l
    4.8652    19.5666 l
    4.7877    19.5514 l
    4.7645    19.5617 l
    4.7693    19.5739 l
    4.7885    19.5886 l
s
n
    4.4133    19.6258 m
    4.5021    19.6527 l
    4.5356    19.6477 l
    4.5342    19.6299 l
    4.4900    19.6037 l
    4.4125    19.5886 l
    4.3893    19.5989 l
    4.3941    19.6111 l
    4.4133    19.6258 l
s
n
    4.0072    19.3913 m
    4.0960    19.4182 l
    4.1295    19.4133 l
    4.1281    19.3955 l
    4.0839    19.3693 l
    4.0064    19.3541 l
    3.9833    19.3644 l
    3.9880    19.3766 l
    4.0072    19.3913 l
s
n
    4.5305    19.4768 m
    4.5852    19.4900 l
    4.5916    19.4797 l
    4.5504    19.4603 l
    4.5200    19.4611 l
    4.5196    19.4678 l
    4.5305    19.4768 l
s
n
    4.4189    19.4483 m
    4.4736    19.4615 l
    4.4800    19.4511 l
    4.4388    19.4317 l
    4.4084    19.4325 l
    4.4080    19.4392 l
    4.4189    19.4483 l
s
n
    4.3074    19.4205 m
    4.3621    19.4337 l
    4.3685    19.4233 l
    4.3273    19.4039 l
    4.2969    19.4048 l
    4.2965    19.4115 l
    4.3074    19.4205 l
s
n
    4.3107    19.4590 m
    4.3654    19.4722 l
    4.3718    19.4618 l
    4.3305    19.4424 l
    4.3001    19.4433 l
    4.2998    19.4499 l
    4.3107    19.4590 l
s
n
    4.4234    19.4874 m
    4.4781    19.5006 l
    4.4844    19.4903 l
    4.4432    19.4709 l
    4.4128    19.4717 l
    4.4125    19.4784 l
    4.4234    19.4874 l
s
n
    4.5360    19.5159 m
    4.5908    19.5291 l
    4.5971    19.5187 l
    4.5559    19.4993 l
    4.5255    19.5002 l
    4.5252    19.5069 l
    4.5360    19.5159 l
s
n
    4.5393    19.5544 m
    4.5940    19.5676 l
    4.6004    19.5572 l
    4.5592    19.5378 l
    4.5288    19.5387 l
    4.5284    19.5454 l
    4.5393    19.5544 l
s
n
    4.4278    19.5266 m
    4.4825    19.5398 l
    4.4889    19.5295 l
    4.4477    19.5101 l
    4.4173    19.5109 l
    4.4169    19.5176 l
    4.4278    19.5266 l
s
n
    4.3162    19.4980 m
    4.3709    19.5113 l
    4.3773    19.5009 l
    4.3361    19.4815 l
    4.3057    19.4823 l
    4.3053    19.4890 l
    4.3162    19.4980 l
s
n
    4.6978    19.6545 m
    4.7701    19.6749 l
    4.7921    19.6676 l
    4.7769    19.6485 l
    4.7016    19.6265 l
    4.6798    19.6343 l
    4.6833    19.6435 l
    4.6978    19.6545 l
s
n
    4.1453    19.5150 m
    4.2176    19.5354 l
    4.2396    19.5281 l
    4.2245    19.5090 l
    4.1491    19.4870 l
    4.1273    19.4948 l
    4.1309    19.5040 l
    4.1453    19.5150 l
s
n
    4.1234    19.3229 m
    4.1958    19.3433 l
    4.2178    19.3360 l
    4.2026    19.3169 l
    4.1273    19.2949 l
    4.1055    19.3027 l
    4.1090    19.3119 l
    4.1234    19.3229 l
s
n
    4.6759    19.4624 m
    4.7482    19.4828 l
    4.7702    19.4755 l
    4.7551    19.4564 l
    4.6797    19.4344 l
    4.6579    19.4423 l
    4.6615    19.4514 l
    4.6759    19.4624 l
s
n
    4.0662    19.5228 m
    4.2489    19.6095 l
    4.4983    19.6874 l
    4.6903    19.7209 l
    4.8300    19.7263 l
    4.9298    19.7120 l
    4.9894    19.6827 l
    5.0125    19.6406 l
    4.9984    19.5885 l
    4.9448    19.5263 l
    4.8497    19.4578 l
    4.6924    19.3782 l
    4.4551    19.2965 l
    4.2301    19.2515 l
    4.0766    19.2431 l
    3.9738    19.2562 l
    3.9101    19.2856 l
    3.8855    19.3273 l
    3.8969    19.3770 l
    3.9433    19.4347 l
    3.9965    19.4782 l
    4.0662    19.5228 l
s
n
    5.2216    18.9406 m
    5.2161    18.8897 l
    5.1719    18.8300 l
    5.0819    18.7597 l
    4.9325    18.6797 l
    4.7005    18.5949 l
    4.4666    18.5438 l
    4.3051    18.5317 l
    4.1938    18.5429 l
    4.1301    18.5680 l
    4.0987    18.6069 l
s
n
    5.2023    19.0058 m
    5.2501    18.9702 l
    5.2609    18.9237 l
    5.2351    18.8670 l
    5.1686    18.8006 l
    5.0502    18.7231 l
    4.8601    18.6357 l
    4.5937    18.5546 l
    4.3901    18.5208 l
    4.2461    18.5166 l
    4.1438    18.5325 l
    4.0830    18.5633 l
    4.0592    18.6057 l
    4.0624    18.6373 l
    4.0794    18.6721 l
s
n
    5.2802    18.8807 m
    5.2748    18.8276 l
    5.2299    18.7654 l
    5.1385    18.6925 l
    4.9922    18.6117 l
    4.7635    18.5237 l
    4.5102    18.4628 l
    4.3329    18.4448 l
    4.2096    18.4515 l
    4.1275    18.4764 l
    4.0982    18.4979 l
    4.0824    18.5247 l
s
n
   16.9500     8.7297 m
   17.0556     8.9633 l
s
n
   15.8827     9.2126 m
   15.9884     9.4462 l
s
n
   16.7355     9.1081 m
   16.8411     9.3417 l
s
n
   16.3085     9.3013 m
   16.4142     9.5348 l
s
n
   15.9742     9.3003 m
   15.9820     9.3052 l
s
n
   15.9820     9.3052 m
   16.0527     9.3235 l
   16.1391     9.3053 l
   16.2094     9.2543 l
   16.2344     9.2171 l
   16.2462     9.1773 l
s
n
   16.3494     8.9043 m
   16.3571     8.9091 l
s
n
   16.3571     8.9091 m
   16.4279     8.9274 l
   16.5143     8.9092 l
   16.5846     8.8583 l
   16.6095     8.8210 l
   16.6214     8.7812 l
s
n
   16.7555     9.1387 m
   16.7632     9.1436 l
s
n
   16.7632     9.1436 m
   16.8340     9.1619 l
   16.9204     9.1437 l
   16.9907     9.0927 l
   17.0156     9.0555 l
   17.0275     9.0157 l
s
n
   16.3803     9.5348 m
   16.3881     9.5397 l
s
n
   16.3881     9.5397 m
   16.4248     9.5539 l
s
n
   16.7970     9.0566 m
   16.8247     9.0871 l
   16.8806     9.0893 l
   16.9274     9.0604 l
   16.9455     9.0150 l
s
n
   16.9455     9.0150 m
   16.9384     8.9926 l
s
n
   16.3909     8.8222 m
   16.4186     8.8526 l
   16.4745     8.8549 l
   16.5213     8.8260 l
   16.5394     8.7805 l
s
n
   16.5394     8.7805 m
   16.5323     8.7582 l
s
n
   16.0157     9.2182 m
   16.0434     9.2487 l
   16.0993     9.2509 l
   16.1461     9.2220 l
   16.1642     9.1766 l
s
n
   16.1642     9.1766 m
   16.1572     9.1542 l
s
n
   16.5460     9.5244 m
   16.5575     9.5502 l
   16.5318     9.5786 l
   16.4950     9.5783 l
   16.4833     9.5534 l
   16.5065     9.5254 l
   16.5460     9.5244 l
s
n
   16.5405     9.4346 m
   16.5520     9.4604 l
   16.5263     9.4888 l
   16.4895     9.4885 l
   16.4778     9.4637 l
   16.5009     9.4356 l
   16.5405     9.4346 l
s
n
   16.5372     9.3444 m
   16.5487     9.3701 l
   16.5230     9.3985 l
   16.4862     9.3982 l
   16.4745     9.3734 l
   16.4977     9.3454 l
   16.5372     9.3444 l
s
n
   16.6576     9.5023 m
   16.6691     9.5280 l
   16.6434     9.5564 l
   16.6066     9.5561 l
   16.5949     9.5313 l
   16.6181     9.5033 l
   16.6576     9.5023 l
s
n
   16.6532     9.4113 m
   16.6647     9.4371 l
   16.6390     9.4655 l
   16.6021     9.4652 l
   16.5905     9.4403 l
   16.6136     9.4123 l
   16.6532     9.4113 l
s
n
   16.6487     9.3204 m
   16.6602     9.3462 l
   16.6345     9.3745 l
   16.5977     9.3743 l
   16.5860     9.3494 l
   16.6092     9.3214 l
   16.6487     9.3204 l
s
n
   16.7691     9.4783 m
   16.7806     9.5040 l
   16.7549     9.5324 l
   16.7181     9.5322 l
   16.7064     9.5073 l
   16.7296     9.4793 l
   16.7691     9.4783 l
s
n
   16.7659     9.3880 m
   16.7774     9.4138 l
   16.7517     9.4422 l
   16.7148     9.4419 l
   16.7031     9.4170 l
   16.7263     9.3890 l
   16.7659     9.3880 l
s
n
   16.7603     9.2982 m
   16.7718     9.3240 l
   16.7461     9.3524 l
   16.7093     9.3521 l
   16.6976     9.3272 l
   16.7208     9.2992 l
   16.7603     9.2982 l
s
n
   16.7807     9.2767 m
   16.8332     9.3267 l
   16.8531     9.3945 l
   16.8358     9.4726 l
   16.7792     9.5478 l
   16.6892     9.6041 l
   16.5847     9.6260 l
   16.4955     9.6101 l
   16.4326     9.5645 l
   16.4037     9.4994 l
   16.4114     9.4238 l
   16.4580     9.3469 l
   16.5409     9.2839 l
   16.6450     9.2522 l
   16.7166     9.2540 l
   16.7807     9.2767 l
s
n
   16.2385     9.1724 m
   16.2801     9.2165 l
   16.2877     9.2761 l
   16.2558     9.3429 l
   16.1870     9.3960 l
   16.1007     9.4169 l
   16.0287     9.4011 l
   15.9841     9.3577 l
   15.9747     9.2966 l
   16.0039     9.2319 l
   16.0696     9.1780 l
   16.1559     9.1543 l
   16.1995     9.1577 l
   16.2385     9.1724 l
s
n
   16.6137     8.7764 m
   16.6553     8.8204 l
   16.6629     8.8800 l
   16.6310     8.9468 l
   16.5622     9.0000 l
   16.4759     9.0209 l
   16.4039     9.0050 l
   16.3593     8.9616 l
   16.3499     8.9005 l
   16.3791     8.8358 l
   16.4448     8.7820 l
   16.5311     8.7582 l
   16.5747     8.7616 l
   16.6137     8.7764 l
s
n
   16.7548     9.1508 m
   16.7748     9.0854 l
   16.8353     9.0254 l
   16.9188     8.9944 l
   16.9956     9.0001 l
   17.0485     9.0347 l
   17.0703     9.0893 l
   17.0551     9.1545 l
   17.0016     9.2146 l
   16.9190     9.2512 l
   16.8589     9.2541 l
   16.8055     9.2370 l
s
n
   16.8055     9.2370 m
   16.7882     9.2247 l
s
n
   16.6038     9.6250 m
   16.5223     9.6505 l
   16.4476     9.6414 l
   16.3964     9.6023 l
   16.3808     9.5631 l
   16.3835     9.5185 l
s
n
   16.3835     9.5185 m
   16.3943     9.4908 l
s
n
   16.3085     9.3013 m
   16.2970     9.2309 l
   16.3239     9.1515 l
   16.3919     9.0775 l
   16.4901     9.0285 l
   16.5917     9.0180 l
   16.6738     9.0425 l
   16.7102     9.0707 l
   16.7355     9.1081 l
s
n
   16.9046     8.8008 m
   16.9939     8.8711 l
   17.0567     8.9656 l
   17.0843     9.0729 l
   17.0760     9.1934 l
   17.0276     9.3196 l
   16.9380     9.4419 l
   16.8100     9.5490 l
   16.6594     9.6259 l
   16.4987     9.6673 l
   16.3410     9.6710 l
   16.2053     9.6398 l
   16.0982     9.5815 l
   16.0182     9.4989 l
   15.9706     9.3970 l
   15.9587     9.2821 l
   15.9840     9.1613 l
   16.0457     9.0423 l
   16.1474     8.9271 l
   16.2805     8.8321 l
   16.4361     8.7661 l
   16.6026     8.7364 l
   16.7576     8.7466 l
   16.8343     8.7680 l
   16.9046     8.8008 l
s
n
   15.8827     9.2126 m
   15.8537     9.1000 l
   15.8634     8.9779 l
   15.9140     8.8504 l
   16.0038     8.7304 l
   16.1317     8.6247 l
   16.2874     8.5469 l
   16.4503     8.5071 l
   16.6073     8.5060 l
   16.7433     8.5402 l
   16.8539     8.6053 l
   16.9092     8.6621 l
   16.9500     8.7297 l
s
n
   16.7381    10.0114 m
   19.4583    16.0241 l
s
n
   16.6669    10.0436 m
   19.3959    16.0756 l
s
n
   16.8496     9.9874 m
   19.5624    15.9838 l
s
n
   16.7784    10.0196 m
   19.4877    16.0081 l
s
n
   16.9611     9.9635 m
   19.6882    15.9912 l
s
n
   16.8899     9.9956 m
   19.5971    15.9795 l
s
n
   16.6702    10.1339 m
   19.3722    16.1062 l
s
n
   16.7817    10.1099 m
   19.4576    16.0245 l
s
n
   16.8932    10.0859 m
   19.5616    15.9839 l
s
n
   16.6758    10.2237 m
   19.3533    16.1420 l
s
n
   19.7791    16.0702 m
   20.0961    16.7708 l
s
n
   19.3522    16.2633 m
   19.6692    16.9640 l
s
n
   19.3522    16.2633 m
   19.3407    16.1929 l
   19.3676    16.1136 l
   19.4356    16.0395 l
   19.5338    15.9906 l
   19.6354    15.9800 l
   19.7175    16.0045 l
   19.7539    16.0327 l
   19.7791    16.0702 l
s
n
   20.0357    16.7058 m
   20.0882    16.7559 l
   20.1081    16.8236 l
   20.0908    16.9017 l
   20.0342    16.9769 l
   19.9442    17.0333 l
   19.8397    17.0551 l
   19.7505    17.0393 l
   19.6876    16.9936 l
   19.6587    16.9286 l
   19.6665    16.8529 l
   19.7130    16.7761 l
   19.7959    16.7131 l
   19.9000    16.6814 l
   19.9716    16.6832 l
   20.0357    16.7058 l
s
n
   16.9167    10.1356 m
   16.9161    10.1361 l
s
n
   16.8052    10.1596 m
   16.8045    10.1601 l
s
n
   16.6758    10.2237 m
   16.6763    10.2026 l
   16.6930    10.1840 l
s
n
   16.8932    10.0859 m
   16.8940    10.0644 l
   16.9124    10.0451 l
s
n
   16.7817    10.1099 m
   16.7824    10.0884 l
   16.8009    10.0691 l
s
n
   16.6702    10.1339 m
   16.6709    10.1124 l
   16.6894    10.0931 l
s
n
   16.8899     9.9956 m
   16.8965     9.9651 l
   16.9315     9.9483 l
   16.9611     9.9635 l
s
n
   16.7784    10.0196 m
   16.7850     9.9891 l
   16.8200     9.9723 l
   16.8496     9.9874 l
s
n
   16.6669    10.0436 m
   16.6735    10.0131 l
   16.7085     9.9963 l
   16.7381    10.0114 l
s
n
   12.7713    10.1901 m
   12.4065    10.5513 l
   12.0361    10.8735 l
   11.6708    11.1504 l
   11.3053    11.3887 l
   10.9419    11.5878 l
   10.5907    11.7441 l
   10.2457    11.8620 l
    9.9608    11.9315 l
    9.6829    11.9732 l
s
n
    8.6844    15.3332 m
    9.1050    15.2720 l
    9.5438    15.1698 l
    9.9995    15.0246 l
   10.4573    14.8405 l
   10.9285    14.6123 l
   11.4113    14.3383 l
   11.9034    14.0174 l
   12.4024    13.6483 l
   12.8931    13.2413 l
   13.3368    12.8336 l
   13.7699    12.3971 l
s
n
    9.3747    15.7317 m
    9.7953    15.6706 l
   10.2341    15.5683 l
   10.6897    15.4232 l
   11.1475    15.2391 l
   11.6188    15.0108 l
   12.1016    14.7368 l
   12.5937    14.4159 l
   13.0927    14.0469 l
   13.5834    13.6398 l
   14.0271    13.2322 l
   14.4601    12.7956 l
s
n
    9.1849    15.6221 m
    9.1909    15.6017 l
s
n
    8.6844    15.3332 m
    9.6829    11.9732 l
s
n
   13.9245    12.5436 m
   13.9597    12.5067 l
s
n
   14.2352    12.7229 m
   14.2703    12.6860 l
s
n
   13.2366    10.5158 m
   13.2718    10.4790 l
s
n
    9.1849    15.6221 m
    9.2200    15.6185 l
s
n
    8.8742    15.4428 m
    8.9094    15.4391 l
s
n
   13.7699    12.3971 m
   13.9597    12.5067 l
s
n
    8.9094    15.4391 m
    9.2200    15.6185 l
s
n
    8.6844    15.3332 m
    8.8742    15.4428 l
s
n
   13.2718    10.4790 m
   13.4616    10.5886 l
s
n
   12.9962    10.3770 m
   13.2366    10.5158 l
s
n
   12.7713    10.1901 m
   12.9612    10.2997 l
s
n
   13.9245    12.5436 m
   14.2352    12.7229 l
s
n
   14.2703    12.6860 m
   14.4601    12.7956 l
s
n
    9.1849    15.6221 m
    9.3747    15.7317 l
s
n
   13.2366    10.5158 m
   14.2352    12.7229 l
s
n
   12.9612    10.2997 m
   13.9597    12.5067 l
s
n
   13.2718    10.4790 m
   14.2703    12.6860 l
s
n
   13.4616    10.5886 m
   14.4601    12.7956 l
s
n
   12.7713    10.1901 m
   13.7699    12.3971 l
s

sp
%%Trailer
%%Pages:   1
%%EOF

%%EndDocument
%%Trailer
