%!PS-Adobe-3.0 EPSF-3.0
%%BoundingBox: 207 277 420 655
%%Title: C:\users\essertaize\LASER_A4_A4RINGTEST.PS
%%Creator: GSview from C:\users\essertaize\LASER_A4_A4RINGTEST.PS
%%CreationDate: Mon Aug 30 11:23:17 2004
%%Pages: 1
%%EndComments
%%Page: 1 1
%%BeginDocument: C:\users\essertaize\LASER_A4_A4RINGTEST.PS
%![PS-Adobe-1.0]%%
%%[Status: Busy;Source: Serial 9]%%
%%[Creator: ]%%
%%[Title: Fichier Postscript]%%
%%[Creation Date: mon may 28 10:00:00 1990]%%
%%[DocumentFonts: Courier]%%
%%BoundingBox:         28         28        610        851
%%Pages: (atend)
%%[EndComments]%%
/c { setrgbcolor } def
/w { setlinewidth } def
/m { moveto } def
/l { lineto } def
/n { newpath } def
/h { show } def
/r { rotate } def
/e { ellipse } def
/cu { curveto } def
/sc { scale } def
/rc { rectclip } def
/ic { initclip } def
/cc { closepath clip } def
/sp { showpage } def
/tr { translate } def
/mf { makefont setfont } def
/gs { gsave } def
/gr { grestore } def
/s { stroke } def
/ISOdict 12 dict def
/ISOcode
{ ISOdict begin
/newcodes exch def/newfontname exch def/basefontname exch def
/basefontdict basefontname findfont def
/newfont basefontdict maxlength dict def
basefontdict {exch dup /FID ne {dup/Encoding eq
{exch dup length array copy newfont 3 1 roll put}
{exch newfont 3 1 roll put}ifelse}{pop pop}ifelse}forall 
newfont/FontName newfontname put
newcodes aload pop
newcodes length 2 idiv 
{newfont/Encoding get 3 1 roll put} repeat
newfontname newfont definefont pop end } def
/scandvec[
8#202/Ccedilla 8#203/Eacute 8#205/Odieresis 8#206/Udieresis
8#210/agrave 8#211/acircumflex 8#212/adieresis 8#215/ccedilia
8#216/eacute 8#217/egrave 8#220/ecircumflex 8#221/edieresis
8#224/icircumflex 8#225/idieresis 8#231/ocircumflex
8#232/odieresis 8#235/ugrave 8#236/ucircumflex
8#237/udieresis 8#251/copyright 8#313/Agrave
8#344/Acircumflex 8#345/Adieresis
8#346/Ecircumflex 8#350/Edieresis 8#351/Egrave
8#353/Icircumflex 8#354/Idieresis 8#357/Ocircumflex 
8#363/Ugrave 8#364/Ucircumflex ] def

%%[Definition d'une ellipse]%%
/ellipsedict 8 dict def
ellipsedict/mtrx matrix put
/ellipse { ellipsedict begin
/endangle exch def /startangle exch def
/yrad exch def /xrad exch def
/y exch def /x exch def
/savematrix mtrx currentmatrix def
x y translate xrad yrad scale
0 0 1 startangle endangle arc
savematrix setmatrix end } def

%%[Definition de la police de caracteres]%%
/Courier /Courier_ISO scandvec ISOcode
/pol1 /Courier_ISO findfont def
2 setlinejoin
[] 0 setdash

%%[c:/users/essertaize/A4RINGTEST              Name of the drawi]%%
%%[                                            User name        ]%%
%%[     10                                     Category         ]%%

%%[scale transformation in cm]%%
   28.3465    28.3465 sc
0 0 tr
0.013 w
%%Page:  0   1
    0.5000     0.5000    20.5000    28.9929 rc
0.049 w
n
    7.3599    19.9279 m
    8.6068    15.2745 l
s
0.013 w
n
   13.4225    15.2914 m
   13.4887    15.2745 l
s
n
   14.6694    19.9451 m
   14.7356    19.9279 l
s
n
    8.6068    15.2745 m
    8.6730    15.2914 l
s
n
    7.3599    19.9279 m
    7.4261    19.9451 l
s
0.049 w
n
   11.0477     5.8479     9.7375    75.4825   104.5175 arc
s
n
   11.0478     5.8479    14.5550    75.3228   104.6772 arc
s
0.013 w
n
   11.0477    14.4583 m
   11.0477    14.6886 l
s
n
   11.0477    14.7654 m
   11.0477    14.8422 l
s
n
   11.0477    14.9189 m
   11.0477    15.3796 l
s
n
   11.0477    15.4564 m
   11.0477    15.5332 l
s
n
   11.0477    15.6099 m
   11.0477    16.0706 l
s
n
   11.0477    16.1474 m
   11.0477    16.2242 l
s
n
   11.0477    16.3009 m
   11.0477    16.5313 l
s
n
   11.0477    17.8780 m
   11.0477    18.1277 l
s
n
   11.0477    18.2109 m
   11.0477    18.2942 l
s
n
   11.0477    18.3774 m
   11.0477    18.8767 l
s
n
   11.0477    18.9599 m
   11.0477    19.0431 l
s
n
   11.0477    19.1264 m
   11.0477    19.6257 l
s
n
   11.0477    19.7089 m
   11.0477    19.7921 l
s
n
   11.0477    19.8754 m
   11.0477    20.3747 l
s
n
   11.0477    20.4579 m
   11.0477    20.5411 l
s
n
   11.0477    20.6244 m
   11.0477    20.8740 l
s
0.049 w
n
   13.4887    15.2745 m
   14.7356    19.9279 l
s
0.013 w
n
    7.3599    19.9279 m
    7.3599    23.0681 l
s
n
   14.7356    19.9279 m
   14.7356    23.0681 l
s
n
    7.3599    21.6039 m
   14.7356    21.6039 l
s
n
    7.7504    21.5062 m
    7.3599    21.6039 l
    7.7504    21.7015 l
s
n
   14.3451    21.7015 m
   14.7356    21.6039 l
   14.3451    21.5062 l
s
gs
    9.9023    21.9354 m
    0.0000 rotate
pol1 [    0.4582 0 0    1.2432 0 0 ] mf
(107,9) h gr
n
   13.8651    20.1276 m
   13.8273    19.9361 l
s
n
   13.8273    19.9361 m
   13.1481    16.4938 l
s
n
   13.6934    19.7635 m
   13.8651    20.1276 l
   13.8850    19.7256 l
s
gs
   12.9231    17.0662 m
   78.8392 rotate
pol1 [    0.5180 0 0    1.2432 0 0 ] mf
(R) h gr
gs
   13.1237    18.0826 m
   78.8392 rotate
pol1 [    0.4789 0 0    1.2432 0 0 ] mf
(213) h gr
n
   11.0477     6.1647    10.2941    75.0000   105.0000 arc
s
n
   13.3602    16.3034 m
   13.7121    16.1080 l
   13.3096    16.1148 l
s
n
    8.7859    16.1148 m
    8.3834    16.1080 l
    8.7353    16.3034 l
s
gs
   10.1870    16.7903 m
    0.0000 rotate
pol1 [    0.5566 0 0    1.2432 0 0 ] mf
(30) h gr
n
   11.6239    17.6191 m
   11.6822    17.6061 l
   11.7275    17.5802 l
   11.7534    17.5349 l
   11.7663    17.4766 l
   11.7534    17.4248 l
   11.7275    17.3795 l
   11.6822    17.3471 l
   11.6239    17.3407 l
   11.5721    17.3471 l
   11.5268    17.3795 l
   11.4944    17.4248 l
   11.4879    17.4766 l
   11.4944    17.5349 l
   11.5268    17.5802 l
   11.5721    17.6061 l
   11.6239    17.6191 l
s
n
   13.0267    15.3822 m
   12.9871    15.1910 l
s
n
   12.9871    15.1910 m
   12.2080    11.4377 l
s
n
   12.8808    15.0808 m
   13.0267    15.3822 l
   13.0424    14.9800 l
s
gs
   11.8811    11.4938 m
   78.2739 rotate
pol1 [    0.5180 0 0    1.2432 0 0 ] mf
(R) h gr
gs
   12.0916    12.5082 m
   78.2739 rotate
pol1 [    0.4582 0 0    1.2432 0 0 ] mf
(142,5) h gr
n
    8.6068    15.2745 m
    8.6068     9.8232 l
s
n
   13.4887    15.2745 m
   13.4887     9.8232 l
s
n
    8.6068    10.0184 m
   13.4887    10.0184 l
s
n
    8.9973     9.9208 m
    8.6068    10.0184 l
    8.9973    10.1161 l
s
n
   13.0982    10.1161 m
   13.4887    10.0184 l
   13.0982     9.9208 l
s
gs
   10.1936    10.3500 m
    0.0000 rotate
pol1 [    0.4271 0 0    1.2432 0 0 ] mf
(71,4) h gr

sp
%%Trailer
%%Pages:   1
%%EOF

%%EndDocument
%%Trailer
