%!PS-Adobe-3.0 EPSF-3.0
%%BoundingBox: 24 279 587 746
%%Title: C:\users\essertaize\LASER_A4_A4SECT45D.PS
%%Creator: GSview from C:\users\essertaize\LASER_A4_A4SECT45D.PS
%%CreationDate: Tue Mar 15 09:05:52 2005
%%Pages: 1
%%EndComments
%%Page: 1 1
%%BeginDocument: C:\users\essertaize\LASER_A4_A4SECT45D.PS
%![PS-Adobe-1.0]%%
%%[Status: Busy;Source: Serial 9]%%
%%[Creator: ]%%
%%[Title: Fichier Postscript]%%
%%[Creation Date: mon may 28 10:00:00 1990]%%
%%[DocumentFonts: Courier]%%
%%BoundingBox:         28         28        610        851
%%Pages: (atend)
%%[EndComments]%%
/c { setrgbcolor } def
/w { setlinewidth } def
/m { moveto } def
/l { lineto } def
/n { newpath } def
/h { show } def
/r { rotate } def
/e { ellipse } def
/cu { curveto } def
/sc { scale } def
/rc { rectclip } def
/ic { initclip } def
/cc { closepath clip } def
/sp { showpage } def
/tr { translate } def
/mf { makefont setfont } def
/gs { gsave } def
/gr { grestore } def
/s { stroke } def
/ISOdict 12 dict def
/ISOcode
{ ISOdict begin
/newcodes exch def/newfontname exch def/basefontname exch def
/basefontdict basefontname findfont def
/newfont basefontdict maxlength dict def
basefontdict {exch dup /FID ne {dup/Encoding eq
{exch dup length array copy newfont 3 1 roll put}
{exch newfont 3 1 roll put}ifelse}{pop pop}ifelse}forall 
newfont/FontName newfontname put
newcodes aload pop
newcodes length 2 idiv 
{newfont/Encoding get 3 1 roll put} repeat
newfontname newfont definefont pop end } def
/scandvec[
8#202/Ccedilla 8#203/Eacute 8#205/Odieresis 8#206/Udieresis
8#210/agrave 8#211/acircumflex 8#212/adieresis 8#215/ccedilia
8#216/eacute 8#217/egrave 8#220/ecircumflex 8#221/edieresis
8#224/icircumflex 8#225/idieresis 8#231/ocircumflex
8#232/odieresis 8#235/ugrave 8#236/ucircumflex
8#237/udieresis 8#251/copyright 8#313/Agrave
8#344/Acircumflex 8#345/Adieresis
8#346/Ecircumflex 8#350/Edieresis 8#351/Egrave
8#353/Icircumflex 8#354/Idieresis 8#357/Ocircumflex 
8#363/Ugrave 8#364/Ucircumflex ] def

%%[Definition d'une ellipse]%%
/ellipsedict 8 dict def
ellipsedict/mtrx matrix put
/ellipse { ellipsedict begin
/endangle exch def /startangle exch def
/yrad exch def /xrad exch def
/y exch def /x exch def
/savematrix mtrx currentmatrix def
x y translate xrad yrad scale
0 0 1 startangle endangle arc
savematrix setmatrix end } def

%%[Definition de la police de caracteres]%%
/Courier /Courier_ISO scandvec ISOcode
/pol1 /Courier_ISO findfont def
2 setlinejoin
[] 0 setdash

%%[c:/users/essertaize/A4SECT45D               Name of the drawi]%%
%%[                                            User name        ]%%
%%[     10                                     Category         ]%%

%%[scale transformation in cm]%%
   28.3465    28.3465 sc
0 0 tr
0.013 w
%%Page:  0   1
    0.5000     0.5000    20.5000    28.9929 rc
0.034 w
n
    1.2883    12.1756     6.8529     0.2449    44.7551 arc
s
n
    1.2883    12.1756     4.2171     0.3979    44.6021 arc
s
n
    1.2883    12.1756     4.1586     0.4035    44.5965 arc
s
n
    3.9532    12.2049 m
    3.9501    12.3066 l
    3.9432    12.4081 l
    3.9324    12.5092 l
    3.9177    12.6099 l
    3.8992    12.7099 l
    3.8769    12.8091 l
    3.8509    12.9075 l
    3.8211    13.0047 l
    3.7876    13.1008 l
    3.7505    13.1955 l
    3.7312    13.2397 l
s
n
    1.2883    12.1756    11.3043    22.6484    44.8516 arc
s
n
    1.2883    12.1756     6.9114    22.7428    44.7572 arc
s
n
    1.2883    12.1756    11.3043     0.1484    22.3516 arc
s
n
    1.2883    12.1756     6.9114     0.2428    22.2572 arc
s
n
    1.2883    12.1756    11.3629    22.7953    44.7047 arc
s
n
    1.2883    12.1756    18.7429    22.6790    44.8210 arc
s
n
    1.2883    12.1756    11.3629     0.2953    22.2047 arc
s
n
    1.2883    12.1756    18.7429     0.1790    22.3210 arc
s
n
    4.2909    15.1368 m
    6.1547    17.0006 l
s
n
    3.2043    14.0502 m
    4.2495    15.0954 l
s
n
    6.1961    17.0420 m
    9.3023    20.1482 l
s
n
    9.3644    20.1689 m
   14.5829    25.3873 l
s
n
    7.6624    14.8475 m
   11.7209    16.5286 l
s
n
    7.6848    14.7934 m
   11.7433    16.4745 l
s
n
   11.7637    16.5781 m
   13.5340    17.3114 l
s
n
   14.4119    17.6750 m
   18.5820    19.4023 l
s
n
   11.8085    16.4698 m
   13.5789    17.2031 l
s
n
   14.4568    17.5668 m
   18.6268    19.2941 l
s
n
   14.5829    25.3873 m
   14.6282    25.3416 l
s
n
    5.5054    12.2049 m
    8.1411    12.2049 l
s
n
    3.9532    12.2049 m
    5.4468    12.2049 l
s
n
    8.1997    12.2049 m
   12.5926    12.2049 l
s
n
   12.6510    12.2342 m
   20.0311    12.2342 l
s
0.013 w
n
    1.2883    12.1756 m
    1.5819    12.1756 l
s
n
    1.6797    12.1756 m
    1.7776    12.1756 l
s
n
    1.8754    12.1756 m
    2.4625    12.1756 l
s
n
    2.5604    12.1756 m
    2.6582    12.1756 l
s
n
    2.7561    12.1756 m
    3.3432    12.1756 l
s
n
    3.4410    12.1756 m
    3.5389    12.1756 l
s
n
    3.6367    12.1756 m
    4.2238    12.1756 l
s
n
    4.3217    12.1756 m
    4.4195    12.1756 l
s
n
    4.5174    12.1756 m
    5.1045    12.1756 l
s
n
    5.2023    12.1756 m
    5.3002    12.1756 l
s
n
    5.3980    12.1756 m
    5.9851    12.1756 l
s
n
    6.0830    12.1756 m
    6.1808    12.1756 l
s
n
    6.2787    12.1756 m
    6.8658    12.1756 l
s
n
    6.9636    12.1756 m
    7.0615    12.1756 l
s
n
    7.1593    12.1756 m
    7.7465    12.1756 l
s
n
    7.8443    12.1756 m
    7.9422    12.1756 l
s
n
    8.0400    12.1756 m
    8.6271    12.1756 l
s
n
    8.7250    12.1756 m
    8.8228    12.1756 l
s
n
    8.9207    12.1756 m
    9.5078    12.1756 l
s
n
    9.6056    12.1756 m
    9.7035    12.1756 l
s
n
    9.8013    12.1756 m
   10.3884    12.1756 l
s
n
   10.4863    12.1756 m
   10.5841    12.1756 l
s
n
   10.6820    12.1756 m
   11.2691    12.1756 l
s
n
   11.3669    12.1756 m
   11.4648    12.1756 l
s
n
   11.5626    12.1756 m
   12.1497    12.1756 l
s
n
   12.2476    12.1756 m
   12.3454    12.1756 l
s
n
   12.4433    12.1756 m
   13.0304    12.1756 l
s
n
   13.1282    12.1756 m
   13.2261    12.1756 l
s
n
   13.3239    12.1756 m
   13.9110    12.1756 l
s
n
   14.0089    12.1756 m
   14.1067    12.1756 l
s
n
   14.2046    12.1756 m
   14.7917    12.1756 l
s
n
   14.8895    12.1756 m
   14.9874    12.1756 l
s
n
   15.0852    12.1756 m
   15.6723    12.1756 l
s
n
   15.7702    12.1756 m
   15.8680    12.1756 l
s
n
   15.9659    12.1756 m
   16.5530    12.1756 l
s
n
   16.6509    12.1756 m
   16.7487    12.1756 l
s
n
   16.8466    12.1756 m
   17.4337    12.1756 l
s
n
   17.5315    12.1756 m
   17.6294    12.1756 l
s
n
   17.7272    12.1756 m
   18.3143    12.1756 l
s
n
   18.4122    12.1756 m
   18.5100    12.1756 l
s
n
   18.6079    12.1756 m
   19.1950    12.1756 l
s
n
   19.2928    12.1756 m
   19.3907    12.1756 l
s
n
   19.4885    12.1756 m
   20.0756    12.1756 l
s
n
   20.1735    12.1756 m
   20.2713    12.1756 l
s
n
   20.3692    12.1756 m
   20.6627    12.1756 l
s
n
    1.2883    12.1756 m
    1.3490    12.2363 l
s
n
    2.4736    13.3609 m
    2.5846    13.4718 l
s
n
    2.6215    13.5088 m
    2.6585    13.5458 l
s
n
    2.6955    13.5828 m
    2.8064    13.6937 l
s
n
    3.1337    14.0210 m
    3.3377    14.2250 l
s
n
    3.4058    14.2931 m
    3.4738    14.3611 l
s
n
    3.5418    14.4291 m
    3.9500    14.8373 l
s
n
    4.0180    14.9053 m
    4.0860    14.9733 l
s
n
    4.1540    15.0413 m
    4.5622    15.4495 l
s
n
    4.6302    15.5175 m
    4.6982    15.5855 l
s
n
    4.7663    15.6536 m
    5.1744    16.0617 l
s
n
    5.2425    16.1297 m
    5.3105    16.1978 l
s
n
    5.3785    16.2658 m
    5.7867    16.6740 l
s
n
    5.8547    16.7420 m
    5.9227    16.8100 l
s
n
    5.9907    16.8780 m
    6.3989    17.2862 l
s
n
    6.4669    17.3542 m
    6.5349    17.4222 l
s
n
    6.6030    17.4903 m
    7.0111    17.8984 l
s
n
    7.0791    17.9664 m
    7.1472    18.0345 l
s
n
    7.2152    18.1025 m
    7.6233    18.5106 l
s
n
    7.6914    18.5787 m
    7.7594    18.6467 l
s
n
    7.8274    18.7147 m
    8.2356    19.1229 l
s
n
    8.3036    19.1909 m
    8.3716    19.2589 l
s
n
    8.4397    19.3270 m
    8.8478    19.7351 l
s
n
    8.9158    19.8031 m
    8.9839    19.8712 l
s
n
    9.0519    19.9392 m
    9.4600    20.3473 l
s
n
    9.5281    20.4154 m
    9.5961    20.4834 l
s
n
    9.6641    20.5514 m
   10.0723    20.9596 l
s
n
   10.1403    21.0276 m
   10.2083    21.0956 l
s
n
   10.2763    21.1636 m
   10.6845    21.5718 l
s
n
   10.7525    21.6398 m
   10.8206    21.7078 l
s
n
   10.8886    21.7759 m
   11.2967    22.1840 l
s
n
   11.3648    22.2521 m
   11.4328    22.3201 l
s
n
   11.5008    22.3881 m
   11.9090    22.7963 l
s
n
   11.9770    22.8643 m
   12.0450    22.9323 l
s
n
   12.1130    23.0003 m
   12.5212    23.4085 l
s
n
   12.5892    23.4765 m
   12.6572    23.5445 l
s
n
   12.7253    23.6126 m
   13.1334    24.0207 l
s
n
   13.2014    24.0887 m
   13.2695    24.1568 l
s
n
   13.3375    24.2248 m
   13.7457    24.6329 l
s
n
   13.8137    24.7010 m
   13.8817    24.7690 l
s
n
   13.9497    24.8370 m
   14.3579    25.2452 l
s
n
   14.4259    25.3132 m
   14.4939    25.3812 l
s
n
   14.5620    25.4493 m
   14.9701    25.8574 l
s
n
   15.0381    25.9254 m
   15.1062    25.9935 l
s
n
   15.1742    26.0615 m
   15.3783    26.2656 l
s
n
   16.7802    22.7254 m
   16.6188    22.6155 l
s
n
   16.6188    22.6155 m
   14.4124    21.1130 l
s
n
   16.4024    22.5866 m
   16.7802    22.7254 l
   16.5121    22.4251 l
s
gs
   14.5828    21.5120 m
   34.2543 rotate
pol1 [    0.3655 0 0    0.8771 0 0 ] mf
(R) h gr
gs
   15.1870    21.9234 m
   34.2543 rotate
pol1 [    0.4025 0 0    0.8771 0 0 ] mf
(320) h gr
n
   10.4332    18.8208 m
   10.2753    18.7060 l
s
n
   10.2753    18.7060 m
    8.2636    17.2442 l
s
n
   10.0599    18.6702 m
   10.4332    18.8208 l
   10.1747    18.5123 l
s
gs
    8.4218    17.6483 m
   36.0041 rotate
pol1 [    0.3655 0 0    0.8771 0 0 ] mf
(R) h gr
gs
    9.0131    18.0779 m
   36.0041 rotate
pol1 [    0.3416 0 0    0.8771 0 0 ] mf
(193) h gr
n
    7.0168    15.9368 m
    6.8536    15.8297 l
s
n
    6.8536    15.8297 m
    4.9277    14.5652 l
s
n
    6.6366    15.8047 m
    7.0168    15.9368 l
    6.7435    15.6413 l
s
gs
    5.1048    14.9613 m
   33.2883 rotate
pol1 [    0.3655 0 0    0.8771 0 0 ] mf
(R) h gr
gs
    5.7158    15.3624 m
   33.2883 rotate
pol1 [    0.2807 0 0    0.8771 0 0 ] mf
(117) h gr
n
    3.9253    12.5612 m
    3.7321    12.5329 l
s
n
    3.7321    12.5329 m
    0.8974    12.1185 l
s
n
    3.6313    12.5907 m
    3.9253    12.5612 l
    3.5530    12.4082 l
s
gs
    1.2252    12.4028 m
    8.3188 rotate
pol1 [    0.3655 0 0    0.8771 0 0 ] mf
(R) h gr
gs
    1.9484    12.5085 m
    8.3188 rotate
pol1 [    0.3507 0 0    0.8771 0 0 ] mf
(45,5) h gr
n
    6.2849    12.7906 m
    6.2849    11.5899 l
s
n
    6.2849    11.5899 m
    6.2849     9.8707 l
s
n
    6.3825    12.5954 m
    6.2849    12.2049 l
    6.1873    12.5954 l
s
n
    6.1873    11.7851 m
    6.2849    12.1756 l
    6.3825    11.7851 l
s
gs
    6.0510    10.2362 m
   90.0000 rotate
pol1 [    0.3294 0 0    0.8771 0 0 ] mf
(0,5) h gr
n
    6.3506    16.3681 m
    5.5015    17.2172 l
s
n
    5.5015    17.2172 m
    4.2859    18.4328 l
s
n
    6.1435    16.4372 m
    5.9364    16.7823 l
    6.2816    16.5752 l
s
n
    5.7086    17.1481 m
    5.9157    16.8030 l
    5.5706    17.0101 l
s
gs
    4.7097    18.3398 m
  315.0000 rotate
pol1 [    0.3294 0 0    0.8771 0 0 ] mf
(0,5) h gr
n
    4.5354    12.7906 m
    4.5354    11.5899 l
s
n
    4.5354    11.5899 m
    4.5354     9.8707 l
s
n
    4.6330    12.5954 m
    4.5354    12.2049 l
    4.4378    12.5954 l
s
n
    4.4378    11.7851 m
    4.5354    12.1756 l
    4.6330    11.7851 l
s
gs
    4.3015    10.2362 m
   90.0000 rotate
pol1 [    0.3294 0 0    0.8771 0 0 ] mf
(0,5) h gr
n
    4.3916    14.5404 m
    3.6082    15.3238 l
s
n
    3.6082    15.3238 m
    2.3925    16.5395 l
s
n
    4.2502    14.5438 m
    4.0431    14.8890 l
    4.3882    14.6819 l
s
n
    3.8153    15.2548 m
    4.0224    14.9097 l
    3.6772    15.1167 l
s
gs
    2.8164    16.4464 m
  315.0003 rotate
pol1 [    0.3294 0 0    0.8771 0 0 ] mf
(0,5) h gr
n
    8.3790    18.3965 m
    7.5300    19.2456 l
s
n
    7.5300    19.2456 m
    6.3143    20.4612 l
s
n
    8.1719    18.4656 m
    7.9648    18.8107 l
    8.3100    18.6036 l
s
n
    7.7370    19.1765 m
    7.9441    18.8314 l
    7.5990    19.0385 l
s
gs
    6.7381    20.3682 m
  315.0000 rotate
pol1 [    0.3294 0 0    0.8771 0 0 ] mf
(0,5) h gr
n
   12.6178    22.5939 m
   11.7481    23.4637 l
s
n
   11.7481    23.4637 m
   10.9021    24.3096 l
s
n
   12.4101    22.6626 m
   12.2036    23.0081 l
   12.5484    22.8004 l
s
n
   11.9557    23.3950 m
   12.1622    23.0495 l
   11.8174    23.2572 l
s
gs
   11.4214    24.1211 m
  314.9993 rotate
pol1 [    0.1954 0 0    0.8771 0 0 ] mf
(1) h gr
n
   15.9188    17.5384 m
   15.4257    18.7289 l
s
n
   15.4257    18.7289 m
   15.0012    19.7535 l
s
n
   15.7539    17.6814 m
   15.6946    18.0795 l
   15.9342    17.7561 l
s
n
   15.5906    18.5858 m
   15.6498    18.1877 l
   15.4102    18.5111 l
s
gs
   15.3572    19.5054 m
  292.5001 rotate
pol1 [    0.3782 0 0    0.8771 0 0 ] mf
(2) h gr
n
   10.2901    15.2386 m
    9.8194    16.3750 l
s
n
    9.8194    16.3750 m
    9.4649    17.2308 l
s
n
   10.1252    15.3816 m
   10.0660    15.7798 l
   10.3056    15.4564 l
s
n
    9.9843    16.2320 m
   10.0436    15.8339 l
    9.8040    16.1573 l
s
gs
    9.8209    16.9827 m
  292.5002 rotate
pol1 [    0.1954 0 0    0.8771 0 0 ] mf
(1) h gr
n
    1.4297    12.2342    13.0747     0.0000    45.0000 arc
s
n
   14.6021    12.6247 m
   14.5044    12.2342 l
   14.4068    12.6247 l
s
n
   10.8820    21.1343 m
   10.6749    21.4794 l
   11.0201    21.2723 l
s
gs
   13.4907    17.8934 m
  292.5000 rotate
pol1 [    0.3964 0 0    0.8771 0 0 ] mf
(45) h gr
n
   14.4218    17.1737 m
   14.4291    17.1322 l
   14.4244    17.0957 l
   14.4019    17.0665 l
   14.3674    17.0424 l
   14.3301    17.0368 l
   14.2936    17.0415 l
   14.2602    17.0623 l
   14.2403    17.0985 l
   14.2305    17.1340 l
   14.2394    17.1723 l
   14.2602    17.2056 l
   14.2922    17.2238 l
   14.3319    17.2354 l
   14.3702    17.2265 l
   14.3993    17.2039 l
   14.4218    17.1737 l
s
n
   11.5882    15.1423 m
   12.7701    15.4828 l
s
n
   12.7701    15.4828 m
   13.6603    15.7391 l
s
n
   11.7487    15.2906 m
   12.1510    15.3044 l
   11.8025    15.1030 l
s
n
   12.6095    15.3344 m
   12.2073    15.3206 l
   12.5557    15.5221 l
s
gs
   13.0566    15.8087 m
   16.0681 rotate
pol1 [    0.1954 0 0    0.8771 0 0 ] mf
(1) h gr
n
    7.4322    13.4124 m
    8.6380    13.6551 l
s
n
    8.6380    13.6551 m
    9.5462    13.8379 l
s
n
    7.6044    13.5472 m
    8.0064    13.5280 l
    7.6426    13.3557 l
s
n
    8.4659    13.5203 m
    8.0638    13.5395 l
    8.4276    13.7118 l
s
gs
    8.9502    13.9565 m
   11.3816 rotate
pol1 [    0.1954 0 0    0.8771 0 0 ] mf
(1) h gr
n
   18.1008    12.8199 m
   18.1007    11.5899 l
s
n
   18.1007    11.5899 m
   18.1007    10.6636 l
s
n
   18.1984    12.6247 m
   18.1007    12.2342 l
   18.0031    12.6247 l
s
n
   18.0031    11.7851 m
   18.1007    12.1756 l
   18.1984    11.7851 l
s
gs
   17.8668    11.0290 m
   90.0000 rotate
pol1 [    0.1954 0 0    0.8771 0 0 ] mf
(1) h gr
n
   10.0580    12.7906 m
   10.0580    11.5899 l
s
n
   10.0580    11.5899 m
   10.0581     9.8707 l
s
n
   10.1556    12.5954 m
   10.0580    12.2049 l
    9.9604    12.5954 l
s
n
    9.9604    11.7851 m
   10.0580    12.1756 l
   10.1556    11.7851 l
s
gs
    9.8242    10.2362 m
   90.0000 rotate
pol1 [    0.3294 0 0    0.8771 0 0 ] mf
(0,5) h gr
n
    4.8102    12.7771 m
    6.0226    12.9842 l
s
n
    6.0226    12.9842 m
    6.9357    13.1402 l
s
n
    4.9863    12.9069 m
    5.3875    12.8757 l
    5.0188    12.7144 l
s
n
    5.8466    12.8545 m
    5.4453    12.8856 l
    5.8140    13.0470 l
s
gs
    6.3435    13.2763 m
    9.6923 rotate
pol1 [    0.1954 0 0    0.8771 0 0 ] mf
(1) h gr
n
    5.1321    13.7628 m
    4.9516    13.6883 l
s
n
    4.9516    13.6883 m
    3.5552    13.1117 l
s
n
    4.8398    13.7199 m
    5.1321    13.7628 l
    4.8083    13.5238 l
s
gs
    3.2850    13.2532 m
   22.4373 rotate
pol1 [    0.3655 0 0    0.8771 0 0 ] mf
(R) h gr
gs
    3.9606    13.5322 m
   22.4373 rotate
pol1 [    0.3051 0 0    0.8771 0 0 ] mf
(71) h gr

sp
%%Trailer
%%Pages:   1
%%EOF

%%EndDocument
%%Trailer
