%!PS-Adobe-2.0 EPSF-2.0
%%BoundingBox:  0 0 567 550
%%Title: ./c2.eps: c2
%%Creator: ROOT Version 4.01/04
%%CreationDate: Fri Mar 25 10:55:09 2005
%%EndComments
%%BeginProlog
80 dict begin
/s {stroke} def /l {lineto} def /m {moveto} def /t {translate} def
/sw {stringwidth} def /r {rotate} def /rl {roll}  def /R {repeat} def
/d {rlineto} def /rm {rmoveto} def /gr {grestore} def /f {eofill} def
/c {setrgbcolor} def /lw {setlinewidth} def /sd {setdash} def
/cl {closepath} def /sf {scalefont setfont} def /black {0 setgray} def
/box {m dup 0 exch d exch 0 d 0 exch neg d cl} def
/NC{systemdict begin initclip end}def/C{NC box clip newpath}def
/bl {box s} def /bf {box f} def /Y { 0 exch d} def /X { 0 d} def 
/mp {newpath /y exch def /x exch def} def
/side {[w .77 mul w .23 mul] .385 w mul sd w 0 l currentpoint t -144 r} def
/mr {mp x y w2 0 360 arc} def /m24 {mr s} def /m20 {mr f} def
/mb {mp x y w2 add m w2 neg 0 d 0 w neg d w 0 d 0 w d cl} def
/mt {mp x y w2 add m w2 neg w neg d w 0 d cl} def
/m21 {mb f} def /m25 {mb s} def /m22 {mt f} def /m26{mt s} def
/m23 {mp x y w2 sub m w2 w d w neg 0 d cl f} def
/m27 {mp x y w2 add m w3 neg w2 neg d w3 w2 neg d w3 w2 d cl s} def
/m28 {mp x w2 sub y w2 sub w3 add m w3 0 d  0 w3 neg d w3 0 d 0 w3 d w3 0 d  0 w3 d w3 neg 0 d 0 w3 d w3 neg 0 d
 0 w3 neg d w3 neg 0 d cl s } def
/m29 {mp gsave x w2 sub y w2 add w3 sub m currentpoint t
 4 {side} repeat cl fill gr} def
/m30 {mp gsave x w2 sub y w2 add w3 sub m currentpoint t
 4 {side} repeat cl s gr} def
/m31 {mp x y w2 sub m 0 w d x w2 sub y m w 0 d x w2 sub y w2 add m w w neg d x w2 sub y w2
 sub m w w d s} def
/m2 {mp x y w2 sub m 0 w d x w2 sub y m w 0 d s} def
/m5 {mp x w2 sub y w2 sub m w w d x w2 sub y w2 add m w w neg d s} def
/reencdict 24 dict def /ReEncode {reencdict begin /nco&na exch def
/nfnam exch def /basefontname exch def /basefontdict basefontname findfont def
/newfont basefontdict maxlength dict def basefontdict {exch dup /FID ne
{dup /Encoding eq {exch dup length array copy newfont 3 1 roll put} {exch 
newfont 3 1 roll put} ifelse} {pop pop} ifelse } forall newfont
/FontName nfnam put nco&na aload pop nco&na length 2 idiv {newfont
/Encoding get 3 1 roll put} repeat nfnam newfont definefont pop end } def
/accvec [ 176 /agrave 181 /Agrave 190 /acircumflex 192 /Acircumflex
201 /adieresis 204 /Adieresis 209 /ccedilla 210 /Ccedilla 211 /eacute
212 /Eacute 213 /egrave 214 /Egrave 215 /ecircumflex 216 /Ecircumflex
217 /edieresis 218 /Edieresis 219 /icircumflex 220 /Icircumflex
221 /idieresis 222 /Idieresis 223 /ntilde 224 /Ntilde 226 /ocircumflex
228 /Ocircumflex 229 /odieresis 230 /Odieresis 231 /ucircumflex 236 /Ucircumflex
237 /udieresis 238 /Udieresis 239 /aring 242 /Aring 243 /ydieresis
244 /Ydieresis 246 /aacute 247 /Aacute 252 /ugrave 253 /Ugrave] def
/Times-Roman /Times-Roman accvec ReEncode
/Times-Italic /Times-Italic accvec ReEncode
/Times /Times accvec ReEncode
/TimesItalic /TimesItalic accvec ReEncode
/Times /Times accvec ReEncode
/Times-Oblique /Times-Oblique accvec ReEncode
/Times /Times accvec ReEncode
/TimesOblique /TimesOblique  accvec ReEncode
/Courier /Courier accvec ReEncode
/Courier-Oblique /Courier-Oblique accvec ReEncode
/Courier-Bold /Courier-Bold accvec ReEncode
/Courier-BoldOblique /Courier-BoldOblique accvec ReEncode
/oshow {gsave [] 0 sd true charpath stroke gr} def
/stwn { /fs exch def /fn exch def /text exch def fn findfont fs sf
 text sw pop xs add /xs exch def} def
/stwb { /fs exch def /fn exch def /nbas exch def /textf exch deftextf length /tlen exch def nbas tlen gt {/nbas tlendef} iffn findfont fs sf textf dup length nbas sub nbas getinterval sw
pop neg xs add /xs exch def} def
/accspe [ 65 /plusminus  66 /bar  67 /existential  68 /universal 
69 /exclam  70 /numbersign 71 /greater  72 /question  73 /integral 
74 /colon  75 /semicolon  76 /less  77 /bracketleft  78 /bracketright
79 /greaterequal 80 /braceleft 81 /braceright 82 /radical
83 /spade 84 /heart 85 /diamond 86 /club 87 /lessequal
88 /multiply 89 /percent 90 /infinity 48 /circlemultiply 49 /circleplus
50 /emptyset  51 /lozenge 52 /bullet 53 /arrowright 54 /arrowup
55 /arrowleft 56 /arrowdown 57 /arrowboth 48 /degree 44 /comma 43 /plus 45 /angle 42 /angleleft 47 /divide 61 /notequal 40 /equivalence 41 /second 97 /approxequal 98 /congruent 99 /perpendicular 100 /partialdiff 101 /florin 102 /intersection
 103 /union 104 /propersuperset 105 /reflexsuperset 106 /notsubset 107 /propersubset 108 /reflexsubset 109 /element 110 /notelement 111 /gradient 112 /logicaland 113 /logicalor 114 /arrowdblboth 115 /arrowdblleft 116 /arrowdblup 117 /arrowdblright
 118 /arrowdbldown 119 /ampersand 120 /omega1 121 /similar 122 /aleph ] def
/Symbol /Special accspe ReEncode
%%EndProlog
%%BeginSetup
newpath  gsave  .25 .25 scale 
%%EndSetup
 gsave  0 0 t black [] 0 sd 3 lw 1 1 1 c 2268 2199 0 0 bf black 1 1 1 c 1843 1738 311 353 bf black 1843 1738 311 353 bl 1 1 1 c 1843 1738 311 353 bf black 1843 1738 311 353 bl 311 353 m 1843 X s
 gsave  875 140
 t 0 r 0 0 m /Times findfont 102.56 sf 0 0 m (Number of photoelectrons) show  gr  311 407 m -54 Y s 464 380 m -27 Y s 618 407 m -54 Y s 771 380 m -27 Y s 925 407 m -54 Y s 1079 380 m -27 Y s 1232 407 m -54 Y s 1386 380 m -27 Y s 1539 407 m
 -54 Y s 1693 380 m -27 Y s 1847 407 m -54 Y s 2000 380 m -27 Y s 2154 407 m -54 Y s
 gsave  282 256
 t 0 r 0 0 m /Times findfont 102.56 sf 0 0 m (0) show  gr 
 gsave  558 256
 t 0 r 0 0 m /Times findfont 102.56 sf 0 0 m (10) show  gr 
 gsave  866 256
 t 0 r 0 0 m /Times findfont 102.56 sf 0 0 m (20) show  gr 
 gsave  1174 256
 t 0 r 0 0 m /Times findfont 102.56 sf 0 0 m (30) show  gr 
 gsave  1481 256
 t 0 r 0 0 m /Times findfont 102.56 sf 0 0 m (40) show  gr 
 gsave  1789 256
 t 0 r 0 0 m /Times findfont 102.56 sf 0 0 m (50) show  gr 
 gsave  2097 256
 t 0 r 0 0 m /Times findfont 102.56 sf 0 0 m (60) show  gr  311 353 m 1738 Y s
 gsave  100 1877
 t 90 r 0 0 m /Times findfont 102.56 sf 0 0 m ( \(ns\)) show  gr 
 gsave  131 1738
 t 90 r 0 0 m /Times findfont 68.3734 sf 0 0 m (time) show  gr 
 gsave  100 1678
 t 90 r 0 0 m /Symbol findfont 102.56 sf 0 0 m (s) show  gr  364 445 m -53 X s 337 536 m -26 X s 364 628 m -53 X s 337 719 m -26 X s 364 811 m -53 X s 337 902 m -26 X s 364 994 m -53 X s 337 1085 m -26 X s 364 1176 m -53 X s 337 1268 m -26 X s 364
 1359 m -53 X s 337 1451 m -26 X s 364 1542 m -53 X s 337 1634 m -26 X s 364 1725 m -53 X s 337 1817 m -26 X s 364 1908 m -53 X s 337 2000 m -26 X s 364 2091 m -53 X s 364 445 m -53 X s 337 353 m -26 X s
 gsave  160 419
 t 0 r 0 0 m /Times findfont 102.56 sf 0 0 m (0.6) show  gr 
 gsave  160 601
 t 0 r 0 0 m /Times findfont 102.56 sf 0 0 m (0.8) show  gr 
 gsave  256 783
 t 0 r 0 0 m /Times findfont 102.56 sf 0 0 m (1) show  gr 
 gsave  160 966
 t 0 r 0 0 m /Times findfont 102.56 sf 0 0 m (1.2) show  gr 
 gsave  157 1148
 t 0 r 0 0 m /Times findfont 102.56 sf 0 0 m (1.4) show  gr 
 gsave  160 1333
 t 0 r 0 0 m /Times findfont 102.56 sf 0 0 m (1.6) show  gr 
 gsave  160 1516
 t 0 r 0 0 m /Times findfont 102.56 sf 0 0 m (1.8) show  gr 
 gsave  245 1698
 t 0 r 0 0 m /Times findfont 102.56 sf 0 0 m (2) show  gr 
 gsave  160 1880
 t 0 r 0 0 m /Times findfont 102.56 sf 0 0 m (2.2) show  gr 
 gsave  157 2063
 t 0 r 0 0 m /Times findfont 102.56 sf 0 0 m (2.4) show  gr  0 0 1 c 1656 705 m 17 Y s 1650 722 m 12 X s 1656 660 m -17 Y s 1650 643 m 12 X s 999 971 m 29 Y s 993 1000 m 11 X s 999 925 m -30 Y s 993 895 m 11 X s 612 1446 m 54 Y s 606 1500 m
 11 X s 612 1401 m -54 Y s 606 1347 m 11 X s 461 2013 m 78 Y s 455 2091 m 12 X s 461 1968 m -82 Y s 455 1886 m 12 X s black 0 0 1 c /w 52 def /w2 {w 2 div} def /w3 {w 3 div} def 1656 683 999 948 612 1423 461 1990 4 { m21} R 9 lw 0.95 0.95 0.95 c
 black 0 0 1 c 433 2091 m 19 -30 d 18 -121 d 18 -102 d 19 -87 d 18 -75 d 19 -67 d 18 -59 d 18 -53 d 19 -48 d 18 -43 d 19 -40 d 18 -36 d 18 -34 d 19 -31 d 18 -29 d 19 -27 d 18 -25 d 18 -24 d 19 -23 d 18 -21 d 19 -20 d 18 -18 d 18 -18 d 19 -17 d 18 -17
 d 19 -15 d 18 -15 d 18 -14 d 19 -13 d 18 -13 d 19 -13 d 18 -12 d 18 -11 d 19 -11 d 18 -11 d 19 -10 d 18 -10 d 18 -10 d 19 -9 d 18 -9 d 19 -9 d 18 -8 d 18 -9 d 19 -8 d 18 -7 d 19 -8 d 18 -7 d 18 -7 d 19 -7 d s 1335 780 m 18 -7 d 19 -6 d 18 -7 d 18 -6
 d 19 -6 d 18 -6 d 19 -5 d 18 -6 d 19 -6 d 18 -5 d 18 -5 d 19 -5 d 18 -5 d 19 -5 d 18 -5 d 18 -5 d 19 -4 d 18 -5 d 19 -4 d 18 -5 d 18 -4 d 19 -4 d 18 -4 d 19 -4 d 18 -4 d 18 -4 d 19 -4 d 18 -3 d 19 -4 d 18 -4 d 18 -3 d 19 -4 d 18 -3 d 19 -3 d 18 -4 d
 18 -3 d 19 -3 d 18 -3 d 19 -3 d 18 -3 d 18 -3 d 19 -3 d 18 -3 d 19 -3 d s 1 0 0 c 3 lw 1349 458 m 5 Y s 1343 463 m 12 X s 1349 413 m -4 Y s 1343 409 m 12 X s 1263 431 m 3 Y s 1257 434 m 12 X s 1263 385 m -2 Y s 1257 383 m 12 X s 894 696 m 16 Y s 889
 712 m 11 X s 894 651 m -16 Y s 889 635 m 11 X s 578 1080 m 36 Y s 572 1116 m 11 X s 578 1035 m -36 Y s 572 999 m 11 X s 430 1519 m 58 Y s 425 1577 m 11 X s 430 1474 m -57 Y s 425 1417 m 11 X s black 1 0 0 c 1349 436 1263 408 894 673 578 1058 430
 1497 5 { m20} R 9 lw 0.95 0.95 0.95 c black 1 0 0 c 378 2091 m 18 -192 d 19 -192 d 18 -147 d 19 -117 d 18 -96 d 18 -81 d 19 -69 d 18 -60 d 19 -53 d 18 -47 d 18 -42 d 19 -38 d 18 -35 d 19 -31 d 18 -29 d 18 -27 d 19 -25 d 18 -23 d 19 -21 d 18 -20 d 18
 -19 d 19 -18 d 18 -17 d 19 -16 d 18 -15 d 18 -14 d 19 -13 d 18 -13 d 19 -13 d 18 -11 d 18 -12 d 19 -10 d 18 -11 d 19 -10 d 18 -9 d 18 -9 d 19 -9 d 18 -9 d 19 -8 d 18 -8 d 18 -7 d 19 -8 d 18 -7 d 19 -7 d 18 -6 d 18 -7 d 19 -6 d 18 -6 d 19 -6 d s 1280
 442 m 18 -6 d 18 -6 d 19 -5 d 18 -5 d 19 -6 d 18 -5 d 18 -5 d 19 -4 d 18 -5 d 19 -5 d 18 -4 d 19 -5 d 18 -4 d 18 -4 d 19 -4 d 18 -4 d 19 -4 d 18 -4 d 18 -3 d 19 -1 d s black 3 lw 1 1 1 c 1613 242 615 1903 bf black 615 1903 m 1613 X s 2228 1903 m 242
 Y s 2228 2145 m -1613 X s 615 2145 m -242 Y s
 gsave  1017 2057
 t 0 r 0 0 m /Times findfont 71.2223 sf 0 0 m (BC408/Y11 \(d.c.\)/BCF98 \(d.c.\)) show  gr  0 0 1 c 817 2085 m21 black
 gsave  1017 1937
 t 0 r 0 0 m /Times findfont 71.2223 sf 0 0 m (BC408/BCF9929A \(s.c.\)/BCF98 \(d.c.\)) show  gr  1 0 0 c 817 1964 m20 black [12 12] 0 sd 311 811 m 1843 X s [] 0 sd 544 1934 m 217 -162 d s 536 1920 m -43 54 d 63 -25 d f 536 1920 m -43 54 d 63 -25
 d -20 -29 d cl s 516 1555 m 245 217 d s 527 1541 m -63 -25 d 37 54 d f 527 1541 m -63 -25 d 37 54 d 26 -29 d cl s 661 1117 m 333 288 d s 672 1103 m -62 -26 d 40 54 d f 672 1103 m -62 -26 d 40 54 d 22 -28 d cl s 715 1427 m 279 -22 d s 715 1410 m -65
 23 d 68 9 d f 715 1410 m -65 23 d 68 9 d -3 -32 d cl s 1100 974 m 302 91 d s 1105 957 m -68 X 57 34 d f 1105 957 m -68 X 57 34 d 11 -34 d cl s 983 726 m 419 339 d s 994 715 m -62 -26 d 39 52 d f 994 715 m -62 -26 d 39 52 d 23 -26 d cl s 1450 450 m
 370 29 d s 1453 433 m -68 14 d 65 20 d f 1453 433 m -68 14 d 65 20 d 3 -34 d cl s 1724 598 m 94 -117 d s 1709 587 m -28 63 d 54 -40 d f 1709 587 m -28 63 d 54 -40 d -26 -23 d cl s
 gsave  789 1741
 t 0 r 0 0 m /Times findfont 102.56 sf 0 0 m (16 m) show  gr 
 gsave  1020 1379
 t 0 r 0 0 m /Times findfont 102.56 sf 0 0 m (10 m) show  gr 
 gsave  1424 1043
 t 0 r 0 0 m /Times findfont 102.56 sf 0 0 m (5 m) show  gr 
 gsave  1840 444
 t 0 r 0 0 m /Times findfont 102.56 sf 0 0 m (1 m) show  gr 
 gsave  1316 1379
 t 0 r 0 0 m /Times findfont 85.4667 sf 0 0 m (optical fibre length) show  gr 
 gr  gr 
showpage
end
%%EOF
