%!PS-Adobe-2.0 EPSF-2.0
%%BoundingBox:  0 0 567 537
%%Title: /afs/in2p3.fr/group/alice/brapp/TestV0/test_octobre_2004/Sigma_time-HT.eps: Sigma_time-HT
%%Creator: ROOT Version 4.01/04
%%CreationDate: Tue Mar 15 15:03:40 2005
%%EndComments
%%BeginProlog
80 dict begin
/s {stroke} def /l {lineto} def /m {moveto} def /t {translate} def
/sw {stringwidth} def /r {rotate} def /rl {roll}  def /R {repeat} def
/d {rlineto} def /rm {rmoveto} def /gr {grestore} def /f {eofill} def
/c {setrgbcolor} def /lw {setlinewidth} def /sd {setdash} def
/cl {closepath} def /sf {scalefont setfont} def /black {0 setgray} def
/box {m dup 0 exch d exch 0 d 0 exch neg d cl} def
/NC{systemdict begin initclip end}def/C{NC box clip newpath}def
/bl {box s} def /bf {box f} def /Y { 0 exch d} def /X { 0 d} def 
/mp {newpath /y exch def /x exch def} def
/side {[w .77 mul w .23 mul] .385 w mul sd w 0 l currentpoint t -144 r} def
/mr {mp x y w2 0 360 arc} def /m24 {mr s} def /m20 {mr f} def
/mb {mp x y w2 add m w2 neg 0 d 0 w neg d w 0 d 0 w d cl} def
/mt {mp x y w2 add m w2 neg w neg d w 0 d cl} def
/m21 {mb f} def /m25 {mb s} def /m22 {mt f} def /m26{mt s} def
/m23 {mp x y w2 sub m w2 w d w neg 0 d cl f} def
/m27 {mp x y w2 add m w3 neg w2 neg d w3 w2 neg d w3 w2 d cl s} def
/m28 {mp x w2 sub y w2 sub w3 add m w3 0 d  0 w3 neg d w3 0 d 0 w3 d w3 0 d  0 w3 d w3 neg 0 d 0 w3 d w3 neg 0 d
 0 w3 neg d w3 neg 0 d cl s } def
/m29 {mp gsave x w2 sub y w2 add w3 sub m currentpoint t
 4 {side} repeat cl fill gr} def
/m30 {mp gsave x w2 sub y w2 add w3 sub m currentpoint t
 4 {side} repeat cl s gr} def
/m31 {mp x y w2 sub m 0 w d x w2 sub y m w 0 d x w2 sub y w2 add m w w neg d x w2 sub y w2
 sub m w w d s} def
/m2 {mp x y w2 sub m 0 w d x w2 sub y m w 0 d s} def
/m5 {mp x w2 sub y w2 sub m w w d x w2 sub y w2 add m w w neg d s} def
/reencdict 24 dict def /ReEncode {reencdict begin /nco&na exch def
/nfnam exch def /basefontname exch def /basefontdict basefontname findfont def
/newfont basefontdict maxlength dict def basefontdict {exch dup /FID ne
{dup /Encoding eq {exch dup length array copy newfont 3 1 roll put} {exch 
newfont 3 1 roll put} ifelse} {pop pop} ifelse } forall newfont
/FontName nfnam put nco&na aload pop nco&na length 2 idiv {newfont
/Encoding get 3 1 roll put} repeat nfnam newfont definefont pop end } def
/accvec [ 176 /agrave 181 /Agrave 190 /acircumflex 192 /Acircumflex
201 /adieresis 204 /Adieresis 209 /ccedilla 210 /Ccedilla 211 /eacute
212 /Eacute 213 /egrave 214 /Egrave 215 /ecircumflex 216 /Ecircumflex
217 /edieresis 218 /Edieresis 219 /icircumflex 220 /Icircumflex
221 /idieresis 222 /Idieresis 223 /ntilde 224 /Ntilde 226 /ocircumflex
228 /Ocircumflex 229 /odieresis 230 /Odieresis 231 /ucircumflex 236 /Ucircumflex
237 /udieresis 238 /Udieresis 239 /aring 242 /Aring 243 /ydieresis
244 /Ydieresis 246 /aacute 247 /Aacute 252 /ugrave 253 /Ugrave] def
/Times-Roman /Times-Roman accvec ReEncode
/Times-Italic /Times-Italic accvec ReEncode
/Times-Bold /Times-Bold accvec ReEncode
/Times-BoldItalic /Times-BoldItalic accvec ReEncode
/Times /Times accvec ReEncode
/Times-Oblique /Times-Oblique accvec ReEncode
/Times /Times accvec ReEncode
/TimesOblique /TimesOblique  accvec ReEncode
/Courier /Courier accvec ReEncode
/Courier-Oblique /Courier-Oblique accvec ReEncode
/Courier-Bold /Courier-Bold accvec ReEncode
/Courier-BoldOblique /Courier-BoldOblique accvec ReEncode
/oshow {gsave [] 0 sd true charpath stroke gr} def
/stwn { /fs exch def /fn exch def /text exch def fn findfont fs sf
 text sw pop xs add /xs exch def} def
/stwb { /fs exch def /fn exch def /nbas exch def /textf exch deftextf length /tlen exch def nbas tlen gt {/nbas tlendef} iffn findfont fs sf textf dup length nbas sub nbas getinterval sw
pop neg xs add /xs exch def} def
/accspe [ 65 /plusminus  66 /bar  67 /existential  68 /universal 
69 /exclam  70 /numbersign 71 /greater  72 /question  73 /integral 
74 /colon  75 /semicolon  76 /less  77 /bracketleft  78 /bracketright
79 /greaterequal 80 /braceleft 81 /braceright 82 /radical
83 /spade 84 /heart 85 /diamond 86 /club 87 /lessequal
88 /multiply 89 /percent 90 /infinity 48 /circlemultiply 49 /circleplus
50 /emptyset  51 /lozenge 52 /bullet 53 /arrowright 54 /arrowup
55 /arrowleft 56 /arrowdown 57 /arrowboth 48 /degree 44 /comma 43 /plus 45 /angle 42 /angleleft 47 /divide 61 /notequal 40 /equivalence 41 /second 97 /approxequal 98 /congruent 99 /perpendicular 100 /partialdiff 101 /florin 102 /intersection
 103 /union 104 /propersuperset 105 /reflexsuperset 106 /notsubset 107 /propersubset 108 /reflexsubset 109 /element 110 /notelement 111 /gradient 112 /logicaland 113 /logicalor 114 /arrowdblboth 115 /arrowdblleft 116 /arrowdblup 117 /arrowdblright
 118 /arrowdbldown 119 /ampersand 120 /omega1 121 /similar 122 /aleph ] def
/Symbol /Special accspe ReEncode
%%EndProlog
%%BeginSetup
newpath  gsave  .25 .25 scale 
%%EndSetup
 gsave  0 0 t black [] 0 sd 3 lw 1 1 1 c 2268 2148 0 0 bf black 1 1 1 c 1856 1695 296 346 bf black 1856 1695 296 346 bl 1 1 1 c 1856 1695 296 346 bf black 1856 1695 296 346 bl 296 346 m 1856 X s
 gsave  1864 140
 t 0 r 0 0 m /Times findfont 98.7753 sf 0 0 m (HT \(V\)) show  gr  420 398 m -52 Y s [4 8] 0 sd 420 2041 m -1695 Y s [] 0 sd 544 372 m -26 Y s 668 398 m -52 Y s [4 8] 0 sd 668 2041 m -1695 Y s [] 0 sd 791 372 m -26 Y s 915 398 m -52 Y s
 [4 8] 0 sd 915 2041 m -1695 Y s [] 0 sd 1039 372 m -26 Y s 1163 398 m -52 Y s [4 8] 0 sd 1163 2041 m -1695 Y s [] 0 sd 1286 372 m -26 Y s 1410 398 m -52 Y s [4 8] 0 sd 1410 2041 m -1695 Y s [] 0 sd 1534 372 m -26 Y s 1658 398 m -52 Y s [4 8] 0 sd
 1658 2041 m -1695 Y s [] 0 sd 1781 372 m -26 Y s 1905 398 m -52 Y s [4 8] 0 sd 1905 2041 m -1695 Y s [] 0 sd 2029 372 m -26 Y s 2152 398 m -52 Y s [4 8] 0 sd 2152 2041 m -1695 Y s [] 0 sd 420 398 m -52 Y s [4 8] 0 sd 420 2041 m -1695 Y s
 gsave  309 251
 t 0 r 0 0 m /Times findfont 98.7753 sf 0 0 m (1300) show  gr 
 gsave  556 251
 t 0 r 0 0 m /Times findfont 98.7753 sf 0 0 m (1400) show  gr 
 gsave  803 251
 t 0 r 0 0 m /Times findfont 98.7753 sf 0 0 m (1500) show  gr 
 gsave  1049 251
 t 0 r 0 0 m /Times findfont 98.7753 sf 0 0 m (1600) show  gr 
 gsave  1296 251
 t 0 r 0 0 m /Times findfont 98.7753 sf 0 0 m (1700) show  gr 
 gsave  1543 251
 t 0 r 0 0 m /Times findfont 98.7753 sf 0 0 m (1800) show  gr 
 gsave  1790 251
 t 0 r 0 0 m /Times findfont 98.7753 sf 0 0 m (1900) show  gr 
 gsave  2041 251
 t 0 r 0 0 m /Times findfont 98.7753 sf 0 0 m (2000) show  gr  [] 0 sd 296 346 m 1695 Y s
 gsave  115 1103
 t 90 r 0 0 m /Times findfont 98.7753 sf 0 0 m (Time resolution \(ns\)) show  gr  350 346 m -54 X s [4 8] 0 sd 2152 346 m -1856 X s [] 0 sd 323 388 m -27 X s 323 430 m -27 X s 323 473 m -27 X s 323 515 m -27 X s 350 558 m -54 X s [4 8] 0 sd
 2152 558 m -1856 X s [] 0 sd 323 600 m -27 X s 323 642 m -27 X s 323 685 m -27 X s 323 727 m -27 X s 350 770 m -54 X s [4 8] 0 sd 2152 770 m -1856 X s [] 0 sd 323 812 m -27 X s 323 854 m -27 X s 323 897 m -27 X s 323 939 m -27 X s 350 982 m -54 X s
 [4 8] 0 sd 2152 982 m -1856 X s [] 0 sd 323 1024 m -27 X s 323 1066 m -27 X s 323 1109 m -27 X s 323 1151 m -27 X s 350 1194 m -54 X s [4 8] 0 sd 2152 1194 m -1856 X s [] 0 sd 323 1236 m -27 X s 323 1278 m -27 X s 323 1321 m -27 X s 323 1363 m -27 X
 s 350 1405 m -54 X s [4 8] 0 sd 2152 1405 m -1856 X s [] 0 sd 323 1448 m -27 X s 323 1490 m -27 X s 323 1533 m -27 X s 323 1575 m -27 X s 350 1617 m -54 X s [4 8] 0 sd 2152 1617 m -1856 X s [] 0 sd 323 1660 m -27 X s 323 1702 m -27 X s 323 1745 m
 -27 X s 323 1787 m -27 X s 350 1829 m -54 X s [4 8] 0 sd 2152 1829 m -1856 X s [] 0 sd 323 1872 m -27 X s 323 1914 m -27 X s 323 1957 m -27 X s 323 1999 m -27 X s 350 2041 m -54 X s [4 8] 0 sd 2152 2041 m -1856 X s
 gsave  148 317
 t 0 r 0 0 m /Times findfont 98.7753 sf 0 0 m (0.4) show  gr 
 gsave  148 531
 t 0 r 0 0 m /Times findfont 98.7753 sf 0 0 m (0.5) show  gr 
 gsave  148 741
 t 0 r 0 0 m /Times findfont 98.7753 sf 0 0 m (0.6) show  gr 
 gsave  148 955
 t 0 r 0 0 m /Times findfont 98.7753 sf 0 0 m (0.7) show  gr 
 gsave  148 1165
 t 0 r 0 0 m /Times findfont 98.7753 sf 0 0 m (0.8) show  gr 
 gsave  148 1379
 t 0 r 0 0 m /Times findfont 98.7753 sf 0 0 m (0.9) show  gr 
 gsave  243 1589
 t 0 r 0 0 m /Times findfont 98.7753 sf 0 0 m (1) show  gr 
 gsave  161 1803
 t 0 r 0 0 m /Times findfont 98.7753 sf 0 0 m (1.1) show  gr 
 gsave  148 2013
 t 0 r 0 0 m /Times findfont 98.7753 sf 0 0 m (1.2) show  gr  1 0 0 c [] 0 sd 6 lw 420 1409 m 41 Y s 412 1450 m 16 X s 420 1360 m -42 Y s 412 1318 m 16 X s 544 1290 m 37 Y s 536 1327 m 16 X s 544 1241 m -37 Y s 536 1204 m 16 X s 668 1339 m
 39 Y s 659 1378 m 17 X s 668 1290 m -39 Y s 659 1251 m 17 X s 915 1136 m 31 Y s 907 1167 m 16 X s 915 1086 m -32 Y s 907 1054 m 16 X s 1163 1040 m 29 Y s 1154 1069 m 17 X s 1163 991 m -29 Y s 1154 962 m 17 X s 1410 847 m 22 Y s 1402 869 m 16 X s
 1410 798 m -22 Y s 1402 776 m 16 X s 1658 945 m 25 Y s 1649 970 m 17 X s 1658 895 m -25 Y s 1649 870 m 17 X s 1658 835 m 21 Y s 1649 856 m 17 X s 1658 785 m -21 Y s 1649 764 m 17 X s 1905 818 m 20 Y s 1897 838 m 16 X s 1905 768 m -20 Y s 1897 748 m
 16 X s black 1 0 0 c 3 lw /w 39 def /w2 {w 2 div} def /w3 {w 3 div} def 420 1384 544 1266 668 1314 915 1111 1163 1015 1410 823 1658 920 1658 810 1905 793 9 { m20} R black 0.999 0.999 0.999 c 1519 469 613 1552 bf black 613 1552 m 1519 X s 2132 1552 m
 469 Y s 2132 2021 m -1519 X s 613 2021 m -469 Y s
 gsave  992 1943
 t 0 r 0 0 m /Times findfont 57.6189 sf 0 0 m (BC404/BCF9929A\(d.c.\)/BCF98\(d.c.\) \(5 m\)) show  gr  1 0 0 c 803 1962 m20 black
 gsave  992 1827
 t 0 r 0 0 m /Times findfont 57.6189 sf 0 0 m (PM HAMAMATSU R5946 16 dynodes) show  gr 
 gsave  992 1708
 t 0 r 0 0 m /Times findfont 57.6189 sf 0 0 m (MIP = 22 p.e., signal amplification = 10) show  gr 
 gsave  992 1597
 t 0 r 0 0 m /Times findfont 57.6189 sf 0 0 m (discrimination threshold = 20 mV) show  gr 
 gr  gr 
showpage
end
%%EOF
