%!PS-Adobe-2.0 EPSF-2.0
%%BoundingBox:  0 0 466 737
%%Title: /afs/in2p3.fr/group/alice/brapp/ppMb2004/effV0CellNSD2004_32channels.eps: 
%%Creator: ROOT Version 3.10/02
%%CreationDate: Thu Jul  8 10:37:24 2004
%%EndComments
%%BeginProlog
80 dict begin
/s {stroke} def /l {lineto} def /m {moveto} def /t {translate} def
/sw {stringwidth} def /r {rotate} def /rl {roll}  def /R {repeat} def
/d {rlineto} def /rm {rmoveto} def /gr {grestore} def /f {eofill} def
/c {setrgbcolor} def /lw {setlinewidth} def /sd {setdash} def
/cl {closepath} def /sf {scalefont setfont} def /black {0 setgray} def
/box {m dup 0 exch d exch 0 d 0 exch neg d cl} def
/NC{systemdict begin initclip end}def/C{NC box clip newpath}def
/bl {box s} def /bf {box f} def /Y { 0 exch d} def /X { 0 d} def 
/mp {newpath /y exch def /x exch def} def
/side {[w .77 mul w .23 mul] .385 w mul sd w 0 l currentpoint t -144 r} def
/mr {mp x y w2 0 360 arc} def /m24 {mr s} def /m20 {mr f} def
/mb {mp x y w2 add m w2 neg 0 d 0 w neg d w 0 d 0 w d cl} def
/mt {mp x y w2 add m w2 neg w neg d w 0 d cl} def
/m21 {mb f} def /m25 {mb s} def /m22 {mt f} def /m26{mt s} def
/m23 {mp x y w2 sub m w2 w d w neg 0 d cl f} def
/m27 {mp x y w2 add m w3 neg w2 neg d w3 w2 neg d w3 w2 d cl s} def
/m28 {mp x w2 sub y w2 sub w3 add m w3 0 d  0 w3 neg d w3 0 d 0 w3 d w3 0 d  0 w3 d w3 neg 0 d 0 w3 d w3 neg 0 d
 0 w3 neg d w3 neg 0 d cl s } def
/m29 {mp gsave x w2 sub y w2 add w3 sub m currentpoint t
 4 {side} repeat cl fill gr} def
/m30 {mp gsave x w2 sub y w2 add w3 sub m currentpoint t
 4 {side} repeat cl s gr} def
/m31 {mp x y w2 sub m 0 w d x w2 sub y m w 0 d x w2 sub y w2 add m w w neg d x w2 sub y w2
 sub m w w d s} def
/m2 {mp x y w2 sub m 0 w d x w2 sub y m w 0 d s} def
/m5 {mp x w2 sub y w2 sub m w w d x w2 sub y w2 add m w w neg d s} def
/reencdict 24 dict def /ReEncode {reencdict begin /nco&na exch def
/nfnam exch def /basefontname exch def /basefontdict basefontname findfont def
/newfont basefontdict maxlength dict def basefontdict {exch dup /FID ne
{dup /Encoding eq {exch dup length array copy newfont 3 1 roll put} {exch 
newfont 3 1 roll put} ifelse} {pop pop} ifelse } forall newfont
/FontName nfnam put nco&na aload pop nco&na length 2 idiv {newfont
/Encoding get 3 1 roll put} repeat nfnam newfont definefont pop end } def
/accvec [ 176 /agrave 181 /Agrave 190 /acircumflex 192 /Acircumflex
201 /adieresis 204 /Adieresis 209 /ccedilla 210 /Ccedilla 211 /eacute
212 /Eacute 213 /egrave 214 /Egrave 215 /ecircumflex 216 /Ecircumflex
217 /edieresis 218 /Edieresis 219 /icircumflex 220 /Icircumflex
221 /idieresis 222 /Idieresis 223 /ntilde 224 /Ntilde 226 /ocircumflex
228 /Ocircumflex 229 /odieresis 230 /Odieresis 231 /ucircumflex 236 /Ucircumflex
237 /udieresis 238 /Udieresis 239 /aring 242 /Aring 243 /ydieresis
244 /Ydieresis 246 /aacute 247 /Aacute 252 /ugrave 253 /Ugrave] def
/Times-Roman /Times-Roman accvec ReEncode
/Times-Italic /Times-Italic accvec ReEncode
/Times-Bold /Times-Bold accvec ReEncode
/Times-BoldItalic /Times-BoldItalic accvec ReEncode
/Helvetica /Helvetica accvec ReEncode
/Helvetica-Oblique /Helvetica-Oblique accvec ReEncode
/Helvetica-Bold /Helvetica-Bold accvec ReEncode
/Helvetica-BoldOblique /Helvetica-BoldOblique  accvec ReEncode
/Courier /Courier accvec ReEncode
/Courier-Oblique /Courier-Oblique accvec ReEncode
/Courier-Bold /Courier-Bold accvec ReEncode
/Courier-BoldOblique /Courier-BoldOblique accvec ReEncode
/oshow {gsave [] 0 sd true charpath stroke gr} def
/stwn { /fs exch def /fn exch def /text exch def fn findfont fs sf
 text sw pop xs add /xs exch def} def
/stwb { /fs exch def /fn exch def /nbas exch def /textf exch deftextf length /tlen exch def nbas tlen gt {/nbas tlendef} iffn findfont fs sf textf dup length nbas sub nbas getinterval sw
pop neg xs add /xs exch def} def
/accspe [ 65 /plusminus  66 /bar  67 /existential  68 /universal 
69 /exclam  70 /numbersign 71 /greater  72 /question  73 /integral 
74 /colon  75 /semicolon  76 /less  77 /bracketleft  78 /bracketright
79 /greaterequal 80 /braceleft 81 /braceright 82 /radical
83 /spade 84 /heart 85 /diamond 86 /club 87 /lessequal
88 /multiply 89 /percent 90 /infinity 48 /circlemultiply 49 /circleplus
50 /emptyset  51 /lozenge 52 /bullet 53 /arrowright 54 /arrowup
55 /arrowleft 56 /arrowdown 57 /arrowboth 48 /degree 44 /comma 43 /plus 45 /angle 42 /angleleft 47 /divide 61 /notequal 40 /equivalence 41 /second 97 /approxequal 98 /congruent 99 /perpendicular 100 /partialdiff 101 /florin 102 /intersection
 103 /union 104 /propersuperset 105 /reflexsuperset 106 /notsubset 107 /propersubset 108 /reflexsubset 109 /element 110 /notelement 111 /gradient 112 /logicaland 113 /logicalor 114 /arrowdblboth 115 /arrowdblleft 116 /arrowdblup 117 /arrowdblright
 118 /arrowdbldown 119 /ampersand 120 /omega1 121 /similar 122 /aleph ] def
/Symbol /Special accspe ReEncode
%%EndProlog
%%BeginSetup
newpath  gsave  .25 .25 scale 
%%EndSetup
 gsave  0 0 t black [] 0 sd 3 lw 1 1 1 c 1865 2948 0 0 bf black 1 1 1 c 1824 925 18 1997 bf black 1 1 1 c 1513 731 237 2145 bf black 1513 731 237 2145 bl 1 1 1 c 1513 731 237 2145 bf black 1513 731 237 2145 bl 0.5 0.5 0.5 c black 0.5 0.5 0.5 c 237
 2145 m 46 X 537 Y 46 X 11 Y 46 X 18 Y 46 X 12 Y 45 X 3 Y 46 X 3 Y 92 X 11 Y 46 X -2 Y 46 X -7 Y 46 X -1 Y 45 X -10 Y 46 X 2 Y 46 X -2 Y 46 X -18 Y 46 X -3 Y 46 X -11 Y 46 X -8 Y 45 X -15 Y 46 X 2 Y 46 X -1 Y 46 X -6 Y 92 X -11 Y 46 X 7 Y 45 X 8 Y 46
 X -9 Y 46 X 12 Y 46 X -6 Y 46 X -3 Y 46 X -6 Y 46 X -19 Y 45 X -488 Y f black 0.5 0.5 0.5 c black 237 2145 m 46 X 537 Y 46 X 11 Y 46 X 18 Y 46 X 12 Y 45 X 3 Y 46 X 3 Y 92 X 11 Y 46 X -2 Y 46 X -7 Y 46 X -1 Y 45 X -10 Y 46 X 2 Y 46 X -2 Y 46 X -18 Y
 46 X -3 Y 46 X -11 Y 46 X -8 Y 45 X -15 Y 46 X 2 Y 46 X -1 Y 46 X -6 Y 92 X -11 Y 46 X 7 Y 45 X 8 Y 46 X -9 Y 46 X 12 Y 46 X -6 Y 46 X -3 Y 46 X -6 Y 46 X -19 Y 45 X s 237 2145 m 1513 X s
 gsave  1230 2029
 t 0 r 0 0 m /Times-Roman findfont 69.1809 sf 0 0 m (Number of cells) show  gr  237 2168 m -23 Y s 283 2156 m -11 Y s 329 2156 m -11 Y s 375 2156 m -11 Y s 421 2156 m -11 Y s 466 2168 m -23 Y s 512 2156 m -11 Y s 558 2156 m -11 Y s 604 2156 m -11
 Y s 650 2156 m -11 Y s 696 2168 m -23 Y s 742 2156 m -11 Y s 787 2156 m -11 Y s 833 2156 m -11 Y s 879 2156 m -11 Y s 925 2168 m -23 Y s 971 2156 m -11 Y s 1017 2156 m -11 Y s 1063 2156 m -11 Y s 1108 2156 m -11 Y s 1154 2168 m -23 Y s 1200 2156 m
 -11 Y s 1246 2156 m -11 Y s 1292 2156 m -11 Y s 1338 2156 m -11 Y s 1384 2168 m -23 Y s 1429 2156 m -11 Y s 1475 2156 m -11 Y s 1521 2156 m -11 Y s 1567 2156 m -11 Y s 1613 2168 m -23 Y s 1613 2168 m -23 Y s 1659 2156 m -11 Y s 1705 2156 m -11 Y s
 gsave  211 2085
 t 0 r 0 0 m /Times-Roman findfont 69.1809 sf 0 0 m (0) show  gr 
 gsave  445 2085
 t 0 r 0 0 m /Times-Roman findfont 69.1809 sf 0 0 m (5) show  gr 
 gsave  656 2085
 t 0 r 0 0 m /Times-Roman findfont 69.1809 sf 0 0 m (10) show  gr 
 gsave  885 2085
 t 0 r 0 0 m /Times-Roman findfont 69.1809 sf 0 0 m (15) show  gr 
 gsave  1114 2085
 t 0 r 0 0 m /Times-Roman findfont 69.1809 sf 0 0 m (20) show  gr 
 gsave  1342 2085
 t 0 r 0 0 m /Times-Roman findfont 69.1809 sf 0 0 m (25) show  gr 
 gsave  1571 2085
 t 0 r 0 0 m /Times-Roman findfont 69.1809 sf 0 0 m (30) show  gr  237 2145 m 731 Y s 259 2204 m -22 X s 259 2239 m -22 X s 259 2264 m -22 X s 259 2283 m -22 X s 259 2299 m -22 X s 259 2312 m -22 X s 259 2323 m -22 X s 259 2334 m -22 X s 280 2343
 m -43 X s
 gsave  190 2352
 t 0 r 0 0 m /Times-Roman findfont 47.5619 sf 0 0 m (2) show  gr 
 gsave  112 2318
 t 0 r 0 0 m /Times-Roman findfont 69.1809 sf 0 0 m (10) show  gr  259 2402 m -22 X s 259 2437 m -22 X s 259 2462 m -22 X s 259 2481 m -22 X s 259 2496 m -22 X s 259 2510 m -22 X s 259 2521 m -22 X s 259 2531 m -22 X s 280 2540 m -43 X s
 gsave  190 2551
 t 0 r 0 0 m /Times-Roman findfont 47.5619 sf 0 0 m (3) show  gr 
 gsave  112 2516
 t 0 r 0 0 m /Times-Roman findfont 69.1809 sf 0 0 m (10) show  gr  259 2600 m -22 X s 259 2634 m -22 X s 259 2659 m -22 X s 259 2678 m -22 X s 259 2694 m -22 X s 259 2707 m -22 X s 259 2719 m -22 X s 259 2729 m -22 X s 280 2738 m -43 X s
 gsave  190 2749
 t 0 r 0 0 m /Times-Roman findfont 47.5619 sf 0 0 m (4) show  gr 
 gsave  112 2715
 t 0 r 0 0 m /Times-Roman findfont 69.1809 sf 0 0 m (10) show  gr  259 2797 m -22 X s 259 2832 m -22 X s 259 2857 m -22 X s 0.8 0.8 0.8 c black 0.8 0.8 0.8 c 237 2145 m 46 X 605 Y 46 X 13 Y 46 X 9 Y 46 X -16 Y 45 X -8 Y 46 X 1 Y 46 X -17 Y 46 X
 -15 Y 46 X -28 Y 92 X -19 Y 45 X -6 Y 46 X -18 Y 46 X -8 Y 46 X -4 Y 46 X -13 Y 46 X -6 Y 46 X 5 Y 45 X -1 Y 46 X -10 Y 46 X 8 Y 46 X -40 Y 46 X 22 Y 46 X -11 Y 46 X -6 Y 45 X -16 Y 46 X -8 Y 46 X -49 Y 46 X -3 Y 46 X -97 Y 46 X -264 Y 46 X 135 Y 45
 X -135 Y f black 0.8 0.8 0.8 c black 237 2145 m 46 X 605 Y 46 X 13 Y 46 X 9 Y 46 X -16 Y 45 X -8 Y 46 X 1 Y 46 X -17 Y 46 X -15 Y 46 X -28 Y 92 X -19 Y 45 X -6 Y 46 X -18 Y 46 X -8 Y 46 X -4 Y 46 X -13 Y 46 X -6 Y 46 X 5 Y 45 X -1 Y 46 X -10 Y 46 X
 8 Y 46 X -40 Y 46 X 22 Y 46 X -11 Y 46 X -6 Y 45 X -16 Y 46 X -8 Y 46 X -49 Y 46 X -3 Y 46 X -97 Y 46 X -264 Y 46 X 135 Y 45 X s 0.999 0.999 0.999 c 267 86 783 2828 bf black 783 2828 m 267 X s 1050 2828 m 86 Y s 1050 2914 m -267 X s 783 2914 m -86 Y
 s 1 1 1 c black
 gsave  842 2849
 t 0 r 0 0 m /Times-Roman findfont 69.1809 sf 0 0 m (V0A) show  gr  1 1 1 c 1827 924 19 1012 bf black 1 1 1 c 1517 730 238 1160 bf black 1517 730 238 1160 bl 1 1 1 c 1517 730 238 1160 bf black 1517 730 238 1160 bl 0.5 0.5 0.5 c black 0.5 0.5 0.5 c
 238 1160 m 46 X 546 Y 46 X 4 Y 46 X 16 Y 46 X -2 Y 92 X 9 Y 46 X -1 Y 46 X -2 Y 46 X 2 Y 46 X 5 Y 45 X -9 Y 46 X -7 Y 46 X 6 Y 46 X -6 Y 46 X -1 Y 46 X -23 Y 46 X 16 Y 46 X -35 Y 46 X 16 Y 46 X -15 Y 46 X -8 Y 46 X -5 Y 46 X 12 Y 46 X 3 Y 46 X -6 Y
 92 X -3 Y 46 X 13 Y 46 X -3 Y 46 X 16 Y 46 X 21 Y 46 X 16 Y 46 X -575 Y f black 0.5 0.5 0.5 c black 238 1160 m 46 X 546 Y 46 X 4 Y 46 X 16 Y 46 X -2 Y 92 X 9 Y 46 X -1 Y 46 X -2 Y 46 X 2 Y 46 X 5 Y 45 X -9 Y 46 X -7 Y 46 X 6 Y 46 X -6 Y 46 X -1 Y 46
 X -23 Y 46 X 16 Y 46 X -35 Y 46 X 16 Y 46 X -15 Y 46 X -8 Y 46 X -5 Y 46 X 12 Y 46 X 3 Y 46 X -6 Y 92 X -3 Y 46 X 13 Y 46 X -3 Y 46 X 16 Y 46 X 21 Y 46 X 16 Y 46 X s 238 1160 m 1517 X s
 gsave  1234 1045
 t 0 r 0 0 m /Times-Roman findfont 69.0629 sf 0 0 m (Number of cells) show  gr  238 1183 m -23 Y s 284 1171 m -11 Y s 330 1171 m -11 Y s 376 1171 m -11 Y s 422 1171 m -11 Y s 468 1183 m -23 Y s 514 1171 m -11 Y s 560 1171 m -11 Y s 606 1171 m -11
 Y s 652 1171 m -11 Y s 698 1183 m -23 Y s 743 1171 m -11 Y s 789 1171 m -11 Y s 835 1171 m -11 Y s 881 1171 m -11 Y s 927 1183 m -23 Y s 973 1171 m -11 Y s 1019 1171 m -11 Y s 1065 1171 m -11 Y s 1111 1171 m -11 Y s 1157 1183 m -23 Y s 1203 1171 m
 -11 Y s 1249 1171 m -11 Y s 1295 1171 m -11 Y s 1341 1171 m -11 Y s 1387 1183 m -23 Y s 1433 1171 m -11 Y s 1479 1171 m -11 Y s 1525 1171 m -11 Y s 1571 1171 m -11 Y s 1617 1183 m -23 Y s 1617 1183 m -23 Y s 1663 1171 m -11 Y s 1709 1171 m -11 Y s
 gsave  216 1096
 t 0 r 0 0 m /Times-Roman findfont 69.0629 sf 0 0 m (0) show  gr 
 gsave  445 1096
 t 0 r 0 0 m /Times-Roman findfont 69.0629 sf 0 0 m (5) show  gr 
 gsave  656 1096
 t 0 r 0 0 m /Times-Roman findfont 69.0629 sf 0 0 m (10) show  gr 
 gsave  885 1096
 t 0 r 0 0 m /Times-Roman findfont 69.0629 sf 0 0 m (15) show  gr 
 gsave  1118 1096
 t 0 r 0 0 m /Times-Roman findfont 69.0629 sf 0 0 m (20) show  gr 
 gsave  1347 1096
 t 0 r 0 0 m /Times-Roman findfont 69.0629 sf 0 0 m (25) show  gr 
 gsave  1575 1096
 t 0 r 0 0 m /Times-Roman findfont 69.0629 sf 0 0 m (30) show  gr  238 1160 m 730 Y s 260 1219 m -22 X s 260 1254 m -22 X s 260 1279 m -22 X s 260 1298 m -22 X s 260 1313 m -22 X s 260 1327 m -22 X s 260 1338 m -22 X s 260 1348 m -22 X s 281 1357
 m -43 X s
 gsave  190 1368
 t 0 r 0 0 m /Times-Roman findfont 47.4808 sf 0 0 m (2) show  gr 
 gsave  112 1334
 t 0 r 0 0 m /Times-Roman findfont 69.0629 sf 0 0 m (10) show  gr  260 1417 m -22 X s 260 1451 m -22 X s 260 1476 m -22 X s 260 1495 m -22 X s 260 1511 m -22 X s 260 1524 m -22 X s 260 1535 m -22 X s 260 1545 m -22 X s 281 1555 m -43 X s
 gsave  190 1567
 t 0 r 0 0 m /Times-Roman findfont 47.4808 sf 0 0 m (3) show  gr 
 gsave  112 1532
 t 0 r 0 0 m /Times-Roman findfont 69.0629 sf 0 0 m (10) show  gr  260 1614 m -22 X s 260 1649 m -22 X s 260 1673 m -22 X s 260 1692 m -22 X s 260 1708 m -22 X s 260 1721 m -22 X s 260 1733 m -22 X s 260 1743 m -22 X s 281 1752 m -43 X s
 gsave  190 1761
 t 0 r 0 0 m /Times-Roman findfont 47.4808 sf 0 0 m (4) show  gr 
 gsave  112 1727
 t 0 r 0 0 m /Times-Roman findfont 69.0629 sf 0 0 m (10) show  gr  260 1811 m -22 X s 260 1846 m -22 X s 260 1871 m -22 X s 0.8 0.8 0.8 c black 0.8 0.8 0.8 c 238 1160 m 46 X 613 Y 46 X 7 Y 46 X -9 Y 46 X 4 Y 46 X -15 Y 46 X -6 Y 46 X -17 Y 46 X
 -12 Y 46 X -20 Y 46 X 3 Y 45 X -28 Y 46 X -20 Y 46 X 1 Y 46 X -18 Y 46 X -1 Y 46 X -7 Y 46 X 9 Y 46 X -7 Y 46 X -27 Y 46 X 31 Y 46 X -38 Y 46 X 19 Y 46 X 3 Y 92 X -18 Y 46 X 3 Y 46 X -7 Y 46 X -25 Y 46 X -49 Y 46 X -9 Y 46 X -47 Y 46 X -41 Y 46 X
 -272 Y f black 0.8 0.8 0.8 c black 238 1160 m 46 X 613 Y 46 X 7 Y 46 X -9 Y 46 X 4 Y 46 X -15 Y 46 X -6 Y 46 X -17 Y 46 X -12 Y 46 X -20 Y 46 X 3 Y 45 X -28 Y 46 X -20 Y 46 X 1 Y 46 X -18 Y 46 X -1 Y 46 X -7 Y 46 X 9 Y 46 X -7 Y 46 X -27 Y 46 X 31 Y
 46 X -38 Y 46 X 19 Y 46 X 3 Y 92 X -18 Y 46 X 3 Y 46 X -7 Y 46 X -25 Y 46 X -49 Y 46 X -9 Y 46 X -47 Y 46 X -41 Y 46 X s 0.999 0.999 0.999 c 267 86 785 1841 bf black 785 1841 m 267 X s 1052 1841 m 86 Y s 1052 1927 m -267 X s 785 1927 m -86 Y s 1 1 1
 c black
 gsave  846 1860
 t 0 r 0 0 m /Times-Roman findfont 69.0629 sf 0 0 m (V0C) show  gr  1 1 1 c 1827 924 19 29 bf black 1 1 1 c 1517 730 238 177 bf black 1517 730 238 177 bl 1 1 1 c 1517 730 238 177 bf black 1517 730 238 177 bl 0.5 0.5 0.5 c black 0.5 0.5 0.5 c 238
 177 m 47 X 307 Y 23 X 100 Y 23 X 2 Y 24 X 60 Y 23 X 9 Y 23 X -13 Y 24 X 31 Y 23 X 3 Y 23 X 1 Y 24 X 24 Y 23 X -4 Y 23 X 11 Y 24 X -7 Y 23 X 1 Y 23 X 6 Y 24 X 9 Y 23 X -9 Y 23 X 8 Y 24 X -9 Y 23 X -2 Y 23 X 2 Y 24 X -2 Y 23 X -1 Y 23 X -7 Y 24 X -4 Y
 23 X -5 Y 23 X 11 Y 24 X -7 Y 23 X -14 Y 23 X -13 Y 24 X 1 Y 23 X 3 Y 23 X 1 Y 24 X -13 Y 46 X -14 Y 24 X 6 Y 23 X -17 Y 23 X 11 Y 24 X -25 Y 23 X 33 Y 23 X -42 Y 24 X 24 Y 23 X -4 Y 23 X -9 Y 24 X -10 Y 23 X -3 Y 23 X 36 Y 24 X 1 Y 23 X -25 Y 23 X
 19 Y 24 X 6 Y 23 X -2 Y 23 X -5 Y 24 X -8 Y 23 X 10 Y 23 X -16 Y 24 X 44 Y 23 X -7 Y 23 X -17 Y 24 X 9 Y 23 X -26 Y 23 X -30 Y 24 X -419 Y f black 0.5 0.5 0.5 c black 238 177 m 47 X 307 Y 23 X 100 Y 23 X 2 Y 24 X 60 Y 23 X 9 Y 23 X -13 Y 24 X 31 Y
 23 X 3 Y 23 X 1 Y 24 X 24 Y 23 X -4 Y 23 X 11 Y 24 X -7 Y 23 X 1 Y 23 X 6 Y 24 X 9 Y 23 X -9 Y 23 X 8 Y 24 X -9 Y 23 X -2 Y 23 X 2 Y 24 X -2 Y 23 X -1 Y 23 X -7 Y 24 X -4 Y 23 X -5 Y 23 X 11 Y 24 X -7 Y 23 X -14 Y 23 X -13 Y 24 X 1 Y 23 X 3 Y 23 X 1
 Y 24 X -13 Y 46 X -14 Y 24 X 6 Y 23 X -17 Y 23 X 11 Y 24 X -25 Y 23 X 33 Y 23 X -42 Y 24 X 24 Y 23 X -4 Y 23 X -9 Y 24 X -10 Y 23 X -3 Y 23 X 36 Y 24 X 1 Y 23 X -25 Y 23 X 19 Y 24 X 6 Y 23 X -2 Y 23 X -5 Y 24 X -8 Y 23 X 10 Y 23 X -16 Y 24 X 44 Y 23
 X -7 Y 23 X -17 Y 24 X 9 Y 23 X -26 Y 23 X -30 Y 24 X s 238 177 m 1517 X s
 gsave  1234 65
 t 0 r 0 0 m /Times-Roman findfont 69.0629 sf 0 0 m (Number of cells) show  gr  238 200 m -23 Y s 285 189 m -12 Y s 331 189 m -12 Y s 378 189 m -12 Y s 425 189 m -12 Y s 471 200 m -23 Y s 518 189 m -12 Y s 565 189 m -12 Y s 611 189 m -12 Y s 658
 189 m -12 Y s 705 200 m -23 Y s 751 189 m -12 Y s 798 189 m -12 Y s 845 189 m -12 Y s 891 189 m -12 Y s 938 200 m -23 Y s 985 189 m -12 Y s 1031 189 m -12 Y s 1078 189 m -12 Y s 1125 189 m -12 Y s 1171 200 m -23 Y s 1218 189 m -12 Y s 1265 189 m -12
 Y s 1311 189 m -12 Y s 1358 189 m -12 Y s 1405 200 m -23 Y s 1451 189 m -12 Y s 1498 189 m -12 Y s 1545 189 m -12 Y s 1591 189 m -12 Y s 1638 200 m -23 Y s 1638 200 m -23 Y s 1685 189 m -12 Y s 1731 189 m -12 Y s
 gsave  216 117
 t 0 r 0 0 m /Times-Roman findfont 69.0629 sf 0 0 m (0) show  gr 
 gsave  432 117
 t 0 r 0 0 m /Times-Roman findfont 69.0629 sf 0 0 m (10) show  gr 
 gsave  665 117
 t 0 r 0 0 m /Times-Roman findfont 69.0629 sf 0 0 m (20) show  gr 
 gsave  898 117
 t 0 r 0 0 m /Times-Roman findfont 69.0629 sf 0 0 m (30) show  gr 
 gsave  1131 117
 t 0 r 0 0 m /Times-Roman findfont 69.0629 sf 0 0 m (40) show  gr 
 gsave  1364 117
 t 0 r 0 0 m /Times-Roman findfont 69.0629 sf 0 0 m (50) show  gr 
 gsave  1597 117
 t 0 r 0 0 m /Times-Roman findfont 69.0629 sf 0 0 m (60) show  gr  238 177 m 730 Y s 260 237 m -22 X s 260 271 m -22 X s 260 296 m -22 X s 260 315 m -22 X s 260 331 m -22 X s 260 344 m -22 X s 260 355 m -22 X s 260 366 m -22 X s 281 375 m -43 X s
 gsave  190 384
 t 0 r 0 0 m /Times-Roman findfont 47.4808 sf 0 0 m (2) show  gr 
 gsave  112 350
 t 0 r 0 0 m /Times-Roman findfont 69.0629 sf 0 0 m (10) show  gr  260 434 m -22 X s 260 469 m -22 X s 260 493 m -22 X s 260 512 m -22 X s 260 528 m -22 X s 260 541 m -22 X s 260 553 m -22 X s 260 563 m -22 X s 281 572 m -43 X s
 gsave  190 583
 t 0 r 0 0 m /Times-Roman findfont 47.4808 sf 0 0 m (3) show  gr 
 gsave  112 548
 t 0 r 0 0 m /Times-Roman findfont 69.0629 sf 0 0 m (10) show  gr  260 631 m -22 X s 260 666 m -22 X s 260 691 m -22 X s 260 710 m -22 X s 260 725 m -22 X s 260 739 m -22 X s 260 750 m -22 X s 260 760 m -22 X s 281 769 m -43 X s
 gsave  190 781
 t 0 r 0 0 m /Times-Roman findfont 47.4808 sf 0 0 m (4) show  gr 
 gsave  112 747
 t 0 r 0 0 m /Times-Roman findfont 69.0629 sf 0 0 m (10) show  gr  260 829 m -22 X s 260 863 m -22 X s 260 888 m -22 X s 0.8 0.8 0.8 c black 0.8 0.8 0.8 c 238 177 m 47 X 429 Y 23 X 56 Y 23 X 38 Y 24 X 22 Y 23 X 4 Y 23 X -1 Y 24 X 8 Y 23 X -7 Y 23
 X 14 Y 24 X -6 Y 23 X -13 Y 23 X -12 Y 47 X -8 Y 23 X -8 Y 24 X -17 Y 23 X -10 Y 23 X 2 Y 24 X -28 Y 23 X 12 Y 23 X -18 Y 24 X -12 Y 23 X 12 Y 23 X -28 Y 24 X 31 Y 23 X -53 Y 23 X 22 Y 24 X -9 Y 23 X 16 Y 23 X -13 Y 24 X -6 Y 23 X -8 Y 23 X 10 Y 24
 X -12 Y 23 X 7 Y 23 X -2 Y 24 X 3 Y 23 X -22 Y 23 X 33 Y 24 X -25 Y 23 X -16 Y 23 X 40 Y 24 X 7 Y 23 X -32 Y 23 X 5 Y 24 X -73 Y 23 X 68 Y 23 X 1 Y 24 X -19 Y 23 X 5 Y 47 X -36 Y 23 X 7 Y 23 X -26 Y 47 X -44 Y 23 X -46 Y 24 X -48 Y 23 X -25 Y 47 X
 -169 Y 70 X f black 0.8 0.8 0.8 c black 238 177 m 47 X 429 Y 23 X 56 Y 23 X 38 Y 24 X 22 Y 23 X 4 Y 23 X -1 Y 24 X 8 Y 23 X -7 Y 23 X 14 Y 24 X -6 Y 23 X -13 Y 23 X -12 Y 47 X -8 Y 23 X -8 Y 24 X -17 Y 23 X -10 Y 23 X 2 Y 24 X -28 Y 23 X 12 Y 23 X
 -18 Y 24 X -12 Y 23 X 12 Y 23 X -28 Y 24 X 31 Y 23 X -53 Y 23 X 22 Y 24 X -9 Y 23 X 16 Y 23 X -13 Y 24 X -6 Y 23 X -8 Y 23 X 10 Y 24 X -12 Y 23 X 7 Y 23 X -2 Y 24 X 3 Y 23 X -22 Y 23 X 33 Y 24 X -25 Y 23 X -16 Y 23 X 40 Y 24 X 7 Y 23 X -32 Y 23 X 5
 Y 24 X -73 Y 23 X 68 Y 23 X 1 Y 24 X -19 Y 23 X 5 Y 47 X -36 Y 23 X 7 Y 23 X -26 Y 47 X -44 Y 23 X -46 Y 24 X -48 Y 23 X -25 Y 47 X -169 Y 70 X s 0.999 0.999 0.999 c 336 86 783 861 bf black 783 861 m 336 X s 1119 861 m 86 Y s 1119 947 m -336 X s 783
 947 m -86 Y s 1 1 1 c black
 gsave  799 881
 t 0 r 0 0 m /Times-Roman findfont 69.0629 sf 0 0 m (V0A*V0C) show  gr 
 gr  gr 
showpage
end
%%EOF
