%!PS-Adobe-2.0 EPSF-2.0
%%BoundingBox:  0 0 567 666
%%Title: /afs/in2p3.fr/group/alice/brapp/ppMb2004/ring2004_32channels.eps: 
%%Creator: ROOT Version 3.10/02
%%CreationDate: Thu Jul  8 10:40:04 2004
%%EndComments
%%BeginProlog
80 dict begin
/s {stroke} def /l {lineto} def /m {moveto} def /t {translate} def
/sw {stringwidth} def /r {rotate} def /rl {roll}  def /R {repeat} def
/d {rlineto} def /rm {rmoveto} def /gr {grestore} def /f {eofill} def
/c {setrgbcolor} def /lw {setlinewidth} def /sd {setdash} def
/cl {closepath} def /sf {scalefont setfont} def /black {0 setgray} def
/box {m dup 0 exch d exch 0 d 0 exch neg d cl} def
/NC{systemdict begin initclip end}def/C{NC box clip newpath}def
/bl {box s} def /bf {box f} def /Y { 0 exch d} def /X { 0 d} def 
/mp {newpath /y exch def /x exch def} def
/side {[w .77 mul w .23 mul] .385 w mul sd w 0 l currentpoint t -144 r} def
/mr {mp x y w2 0 360 arc} def /m24 {mr s} def /m20 {mr f} def
/mb {mp x y w2 add m w2 neg 0 d 0 w neg d w 0 d 0 w d cl} def
/mt {mp x y w2 add m w2 neg w neg d w 0 d cl} def
/m21 {mb f} def /m25 {mb s} def /m22 {mt f} def /m26{mt s} def
/m23 {mp x y w2 sub m w2 w d w neg 0 d cl f} def
/m27 {mp x y w2 add m w3 neg w2 neg d w3 w2 neg d w3 w2 d cl s} def
/m28 {mp x w2 sub y w2 sub w3 add m w3 0 d  0 w3 neg d w3 0 d 0 w3 d w3 0 d  0 w3 d w3 neg 0 d 0 w3 d w3 neg 0 d
 0 w3 neg d w3 neg 0 d cl s } def
/m29 {mp gsave x w2 sub y w2 add w3 sub m currentpoint t
 4 {side} repeat cl fill gr} def
/m30 {mp gsave x w2 sub y w2 add w3 sub m currentpoint t
 4 {side} repeat cl s gr} def
/m31 {mp x y w2 sub m 0 w d x w2 sub y m w 0 d x w2 sub y w2 add m w w neg d x w2 sub y w2
 sub m w w d s} def
/m2 {mp x y w2 sub m 0 w d x w2 sub y m w 0 d s} def
/m5 {mp x w2 sub y w2 sub m w w d x w2 sub y w2 add m w w neg d s} def
/reencdict 24 dict def /ReEncode {reencdict begin /nco&na exch def
/nfnam exch def /basefontname exch def /basefontdict basefontname findfont def
/newfont basefontdict maxlength dict def basefontdict {exch dup /FID ne
{dup /Encoding eq {exch dup length array copy newfont 3 1 roll put} {exch 
newfont 3 1 roll put} ifelse} {pop pop} ifelse } forall newfont
/FontName nfnam put nco&na aload pop nco&na length 2 idiv {newfont
/Encoding get 3 1 roll put} repeat nfnam newfont definefont pop end } def
/accvec [ 176 /agrave 181 /Agrave 190 /acircumflex 192 /Acircumflex
201 /adieresis 204 /Adieresis 209 /ccedilla 210 /Ccedilla 211 /eacute
212 /Eacute 213 /egrave 214 /Egrave 215 /ecircumflex 216 /Ecircumflex
217 /edieresis 218 /Edieresis 219 /icircumflex 220 /Icircumflex
221 /idieresis 222 /Idieresis 223 /ntilde 224 /Ntilde 226 /ocircumflex
228 /Ocircumflex 229 /odieresis 230 /Odieresis 231 /ucircumflex 236 /Ucircumflex
237 /udieresis 238 /Udieresis 239 /aring 242 /Aring 243 /ydieresis
244 /Ydieresis 246 /aacute 247 /Aacute 252 /ugrave 253 /Ugrave] def
/Times-Roman /Times-Roman accvec ReEncode
/Times-Italic /Times-Italic accvec ReEncode
/Times-Bold /Times-Bold accvec ReEncode
/Times-BoldItalic /Times-BoldItalic accvec ReEncode
/Helvetica /Helvetica accvec ReEncode
/Helvetica-Oblique /Helvetica-Oblique accvec ReEncode
/Helvetica-Bold /Helvetica-Bold accvec ReEncode
/Helvetica-BoldOblique /Helvetica-BoldOblique  accvec ReEncode
/Courier /Courier accvec ReEncode
/Courier-Oblique /Courier-Oblique accvec ReEncode
/Courier-Bold /Courier-Bold accvec ReEncode
/Courier-BoldOblique /Courier-BoldOblique accvec ReEncode
/oshow {gsave [] 0 sd true charpath stroke gr} def
/stwn { /fs exch def /fn exch def /text exch def fn findfont fs sf
 text sw pop xs add /xs exch def} def
/stwb { /fs exch def /fn exch def /nbas exch def /textf exch deftextf length /tlen exch def nbas tlen gt {/nbas tlendef} iffn findfont fs sf textf dup length nbas sub nbas getinterval sw
pop neg xs add /xs exch def} def
/accspe [ 65 /plusminus  66 /bar  67 /existential  68 /universal 
69 /exclam  70 /numbersign 71 /greater  72 /question  73 /integral 
74 /colon  75 /semicolon  76 /less  77 /bracketleft  78 /bracketright
79 /greaterequal 80 /braceleft 81 /braceright 82 /radical
83 /spade 84 /heart 85 /diamond 86 /club 87 /lessequal
88 /multiply 89 /percent 90 /infinity 48 /circlemultiply 49 /circleplus
50 /emptyset  51 /lozenge 52 /bullet 53 /arrowright 54 /arrowup
55 /arrowleft 56 /arrowdown 57 /arrowboth 48 /degree 44 /comma 43 /plus 45 /angle 42 /angleleft 47 /divide 61 /notequal 40 /equivalence 41 /second 97 /approxequal 98 /congruent 99 /perpendicular 100 /partialdiff 101 /florin 102 /intersection
 103 /union 104 /propersuperset 105 /reflexsuperset 106 /notsubset 107 /propersubset 108 /reflexsubset 109 /element 110 /notelement 111 /gradient 112 /logicaland 113 /logicalor 114 /arrowdblboth 115 /arrowdblleft 116 /arrowdblup 117 /arrowdblright
 118 /arrowdbldown 119 /ampersand 120 /omega1 121 /similar 122 /aleph ] def
/Symbol /Special accspe ReEncode
%%EndProlog
%%BeginSetup
newpath  gsave  .25 .25 scale 
%%EndSetup
 gsave  0 0 t black [] 0 sd 3 lw 1 1 1 c 2268 2666 0 0 bf black 1 1 1 c 1088 613 23 2026 bf black 1 1 1 c 904 485 153 2124 bf black 904 485 153 2124 bl 1 1 1 c 904 485 153 2124 bf black 904 485 153 2124 bl 153 2124 m 904 X s
 gsave  808 2049
 t 0 r 0 0 m /Times-Roman findfont 46.8644 sf 0 0 m (Multiplicity) show  gr  153 2139 m -15 Y s 191 2132 m -8 Y s 229 2132 m -8 Y s 266 2132 m -8 Y s 304 2139 m -15 Y s 342 2132 m -8 Y s 379 2132 m -8 Y s 417 2132 m -8 Y s 454 2139 m -15 Y s 492
 2132 m -8 Y s 530 2132 m -8 Y s 567 2132 m -8 Y s 605 2139 m -15 Y s 643 2132 m -8 Y s 680 2132 m -8 Y s 718 2132 m -8 Y s 756 2139 m -15 Y s 793 2132 m -8 Y s 831 2132 m -8 Y s 869 2132 m -8 Y s 906 2139 m -15 Y s 944 2132 m -8 Y s 981 2132 m -8 Y
 s 1019 2132 m -8 Y s 1057 2139 m -15 Y s
 gsave  137 2084
 t 0 r 0 0 m /Times-Roman findfont 46.8644 sf 0 0 m (0) show  gr 
 gsave  273 2084
 t 0 r 0 0 m /Times-Roman findfont 46.8644 sf 0 0 m (20) show  gr 
 gsave  425 2084
 t 0 r 0 0 m /Times-Roman findfont 46.8644 sf 0 0 m (40) show  gr 
 gsave  578 2084
 t 0 r 0 0 m /Times-Roman findfont 46.8644 sf 0 0 m (60) show  gr 
 gsave  726 2084
 t 0 r 0 0 m /Times-Roman findfont 46.8644 sf 0 0 m (80) show  gr 
 gsave  866 2084
 t 0 r 0 0 m /Times-Roman findfont 46.8644 sf 0 0 m (100) show  gr 
 gsave  1015 2084
 t 0 r 0 0 m /Times-Roman findfont 46.8644 sf 0 0 m (120) show  gr  153 2124 m 485 Y s 179 2124 m -26 X s
 /xs 0 def (1) /Times-Roman 46.8644 stwn  gsave  141 2105
 t 0 r  xs neg 0 t 0 0 m /Times-Roman findfont 46.8644 sf 0 0 m (1) show  gr  166 2164 m -13 X s 166 2187 m -13 X s 166 2203 m -13 X s 166 2216 m -13 X s 166 2226 m -13 X s 166 2235 m -13 X s 166 2242 m -13 X s 166 2249 m -13 X s 179 2255 m -26 X
 s
 /xs 0 def (10) /Times-Roman 46.8644 stwn  gsave  141 2236
 t 0 r  xs neg 0 t 0 0 m /Times-Roman findfont 46.8644 sf 0 0 m (10) show  gr  166 2295 m -13 X s 166 2318 m -13 X s 166 2334 m -13 X s 166 2347 m -13 X s 166 2357 m -13 X s 166 2366 m -13 X s 166 2373 m -13 X s 166 2380 m -13 X s 179 2386 m -26 X
 s
 gsave  121 2397
 t 0 r 0 0 m /Times-Roman findfont 31.2429 sf 0 0 m (2) show  gr 
 gsave  70 2373
 t 0 r 0 0 m /Times-Roman findfont 46.8644 sf 0 0 m (10) show  gr  166 2425 m -13 X s 166 2449 m -13 X s 166 2465 m -13 X s 166 2478 m -13 X s 166 2488 m -13 X s 166 2497 m -13 X s 166 2504 m -13 X s 166 2511 m -13 X s 179 2517 m -26 X s
 gsave  121 2521
 t 0 r 0 0 m /Times-Roman findfont 31.2429 sf 0 0 m (3) show  gr 
 gsave  70 2498
 t 0 r 0 0 m /Times-Roman findfont 46.8644 sf 0 0 m (10) show  gr  166 2556 m -13 X s 166 2579 m -13 X s 166 2596 m -13 X s 0.5 0.5 0.5 c black 0.5 0.5 0.5 c 153 2124 m 8 X 415 Y 7 X -13 Y 8 X -11 Y 7 X -17 Y 8 X -20 Y 7 X -6 Y 8 X -9 Y 8 X -17 Y
 7 X -12 Y 8 X -13 Y 7 X -1 Y 15 X -32 Y 8 X 10 Y 7 X -10 Y 8 X -13 Y 7 X -1 Y 8 X -1 Y 7 X -12 Y 8 X -17 Y 7 X 17 Y 8 X -13 Y 7 X -10 Y 8 X -15 Y 8 X -23 Y 7 X 19 Y 8 X -7 Y 7 X 14 Y 8 X -29 Y 7 X -15 Y 8 X -12 Y 7 X 4 Y 8 X -4 Y 7 X -15 Y 8 X 15 Y
 7 X -35 Y 8 X 14 Y 7 X -7 Y 15 X -55 Y 8 X -63 Y 8 X 79 Y 15 X 13 Y 7 X -52 Y 8 X -40 Y 22 X 63 Y 8 X -63 Y 7 X 40 Y 15 X -40 Y 505 X f black 0.5 0.5 0.5 c black 153 2124 m 8 X 415 Y 7 X -13 Y 8 X -11 Y 7 X -17 Y 8 X -20 Y 7 X -6 Y 8 X -9 Y 8 X -17
 Y 7 X -12 Y 8 X -13 Y 7 X -1 Y 15 X -32 Y 8 X 10 Y 7 X -10 Y 8 X -13 Y 7 X -1 Y 8 X -1 Y 7 X -12 Y 8 X -17 Y 7 X 17 Y 8 X -13 Y 7 X -10 Y 8 X -15 Y 8 X -23 Y 7 X 19 Y 8 X -7 Y 7 X 14 Y 8 X -29 Y 7 X -15 Y 8 X -12 Y 7 X 4 Y 8 X -4 Y 7 X -15 Y 8 X 15
 Y 7 X -35 Y 8 X 14 Y 7 X -7 Y 15 X -55 Y 8 X -63 Y 8 X 79 Y 15 X 13 Y 7 X -52 Y 8 X -40 Y 22 X 63 Y 8 X -63 Y 7 X 40 Y 15 X -40 Y 505 X s 0.8 0.8 0.8 c black 0.8 0.8 0.8 c 153 2124 m 8 X 428 Y 7 X -32 Y 8 X -30 Y 7 X -25 Y 8 X -20 Y 7 X -26 Y 8 X
 -12 Y 8 X -18 Y 7 X -25 Y 8 X -11 Y 7 X -15 Y 8 X -15 Y 7 X -26 Y 8 X -27 Y 7 X -28 Y 8 X 7 Y 7 X -33 Y 8 X -52 Y 7 X 23 Y 8 X -63 Y 7 X 63 Y 8 X -63 Y 738 X f black 0.8 0.8 0.8 c black 153 2124 m 8 X 428 Y 7 X -32 Y 8 X -30 Y 7 X -25 Y 8 X -20 Y 7
 X -26 Y 8 X -12 Y 8 X -18 Y 7 X -25 Y 8 X -11 Y 7 X -15 Y 8 X -15 Y 7 X -26 Y 8 X -27 Y 7 X -28 Y 8 X 7 Y 7 X -33 Y 8 X -52 Y 7 X 23 Y 8 X -63 Y 7 X 63 Y 8 X -63 Y 738 X s 0.999 0.999 0.999 c 304 78 418 2494 bf black 418 2494 m 304 X s 722 2494 m 78
 Y s 722 2572 m -304 X s 418 2572 m -78 Y s 1 1 1 c black
 gsave  425 2514
 t 0 r 0 0 m /Times-Roman findfont 54.6751 sf 0 0 m (V0A-ring 1) show  gr  1 1 1 c 1088 613 23 1360 bf black 1 1 1 c 904 484 153 1458 bf black 904 484 153 1458 bl 1 1 1 c 904 484 153 1458 bf black 904 484 153 1458 bl 153 1458 m 904 X s
 gsave  808 1382
 t 0 r 0 0 m /Times-Roman findfont 46.8644 sf 0 0 m (Multiplicity) show  gr  153 1473 m -15 Y s 191 1465 m -7 Y s 229 1465 m -7 Y s 266 1465 m -7 Y s 304 1473 m -15 Y s 342 1465 m -7 Y s 379 1465 m -7 Y s 417 1465 m -7 Y s 454 1473 m -15 Y s 492
 1465 m -7 Y s 530 1465 m -7 Y s 567 1465 m -7 Y s 605 1473 m -15 Y s 643 1465 m -7 Y s 680 1465 m -7 Y s 718 1465 m -7 Y s 756 1473 m -15 Y s 793 1465 m -7 Y s 831 1465 m -7 Y s 869 1465 m -7 Y s 906 1473 m -15 Y s 944 1465 m -7 Y s 981 1465 m -7 Y
 s 1019 1465 m -7 Y s 1057 1473 m -15 Y s
 gsave  137 1417
 t 0 r 0 0 m /Times-Roman findfont 46.8644 sf 0 0 m (0) show  gr 
 gsave  273 1417
 t 0 r 0 0 m /Times-Roman findfont 46.8644 sf 0 0 m (20) show  gr 
 gsave  425 1417
 t 0 r 0 0 m /Times-Roman findfont 46.8644 sf 0 0 m (40) show  gr 
 gsave  578 1417
 t 0 r 0 0 m /Times-Roman findfont 46.8644 sf 0 0 m (60) show  gr 
 gsave  726 1417
 t 0 r 0 0 m /Times-Roman findfont 46.8644 sf 0 0 m (80) show  gr 
 gsave  866 1417
 t 0 r 0 0 m /Times-Roman findfont 46.8644 sf 0 0 m (100) show  gr 
 gsave  1015 1417
 t 0 r 0 0 m /Times-Roman findfont 46.8644 sf 0 0 m (120) show  gr  153 1458 m 484 Y s 179 1458 m -26 X s
 /xs 0 def (1) /Times-Roman 46.8644 stwn  gsave  141 1439
 t 0 r  xs neg 0 t 0 0 m /Times-Roman findfont 46.8644 sf 0 0 m (1) show  gr  166 1497 m -13 X s 166 1520 m -13 X s 166 1537 m -13 X s 166 1549 m -13 X s 166 1560 m -13 X s 166 1568 m -13 X s 166 1576 m -13 X s 166 1583 m -13 X s 179 1589 m -26 X
 s
 /xs 0 def (10) /Times-Roman 46.8644 stwn  gsave  141 1570
 t 0 r  xs neg 0 t 0 0 m /Times-Roman findfont 46.8644 sf 0 0 m (10) show  gr  166 1628 m -13 X s 166 1651 m -13 X s 166 1667 m -13 X s 166 1680 m -13 X s 166 1691 m -13 X s 166 1699 m -13 X s 166 1707 m -13 X s 166 1714 m -13 X s 179 1720 m -26 X
 s
 gsave  121 1729
 t 0 r 0 0 m /Times-Roman findfont 31.2429 sf 0 0 m (2) show  gr 
 gsave  70 1706
 t 0 r 0 0 m /Times-Roman findfont 46.8644 sf 0 0 m (10) show  gr  166 1759 m -13 X s 166 1782 m -13 X s 166 1798 m -13 X s 166 1811 m -13 X s 166 1821 m -13 X s 166 1830 m -13 X s 166 1838 m -13 X s 166 1845 m -13 X s 179 1851 m -26 X s
 gsave  121 1858
 t 0 r 0 0 m /Times-Roman findfont 31.2429 sf 0 0 m (3) show  gr 
 gsave  70 1834
 t 0 r 0 0 m /Times-Roman findfont 46.8644 sf 0 0 m (10) show  gr  166 1890 m -13 X s 166 1913 m -13 X s 166 1929 m -13 X s 0.5 0.5 0.5 c black 0.5 0.5 0.5 c 153 1458 m 8 X 404 Y 7 X -9 Y 8 X -10 Y 7 X -6 Y 8 X -12 Y 7 X -12 Y 8 X -13 Y 8 X -16 Y
 7 X -13 Y 8 X -2 Y 7 X -14 Y 8 X -9 Y 7 X -7 Y 8 X 2 Y 7 X -6 Y 8 X -20 Y 7 X 4 Y 8 X -12 Y 7 X -1 Y 8 X -8 Y 7 X 4 Y 8 X -12 Y 7 X -12 Y 8 X -1 Y 8 X -10 Y 7 X -10 Y 8 X 8 Y 7 X -14 Y 15 X 9 Y 8 X -5 Y 7 X 11 Y 8 X -35 Y 7 X -6 Y 8 X 13 Y 7 X -10 Y
 8 X -3 Y 7 X 6 Y 8 X -27 Y 7 X -36 Y 8 X 8 Y 8 X 28 Y 7 X -44 Y 15 X 8 Y 8 X 26 Y 7 X -18 Y 8 X -39 Y 7 X 12 Y 8 X -91 Y 15 X 102 Y 7 X -63 Y 8 X -39 Y 7 X 102 Y 8 X -102 Y 53 X 39 Y 7 X 23 Y 8 X -62 Y 414 X f black 0.5 0.5 0.5 c black 153 1458 m 8
 X 404 Y 7 X -9 Y 8 X -10 Y 7 X -6 Y 8 X -12 Y 7 X -12 Y 8 X -13 Y 8 X -16 Y 7 X -13 Y 8 X -2 Y 7 X -14 Y 8 X -9 Y 7 X -7 Y 8 X 2 Y 7 X -6 Y 8 X -20 Y 7 X 4 Y 8 X -12 Y 7 X -1 Y 8 X -8 Y 7 X 4 Y 8 X -12 Y 7 X -12 Y 8 X -1 Y 8 X -10 Y 7 X -10 Y 8 X 8
 Y 7 X -14 Y 15 X 9 Y 8 X -5 Y 7 X 11 Y 8 X -35 Y 7 X -6 Y 8 X 13 Y 7 X -10 Y 8 X -3 Y 7 X 6 Y 8 X -27 Y 7 X -36 Y 8 X 8 Y 8 X 28 Y 7 X -44 Y 15 X 8 Y 8 X 26 Y 7 X -18 Y 8 X -39 Y 7 X 12 Y 8 X -91 Y 15 X 102 Y 7 X -63 Y 8 X -39 Y 7 X 102 Y 8 X -102 Y
 53 X 39 Y 7 X 23 Y 8 X -62 Y 414 X s 0.8 0.8 0.8 c black 0.8 0.8 0.8 c 153 1458 m 8 X 423 Y 7 X -26 Y 8 X -26 Y 7 X -27 Y 8 X -22 Y 7 X -23 Y 8 X 2 Y 8 X -24 Y 7 X -16 Y 8 X -5 Y 7 X -25 Y 8 X -1 Y 7 X -7 Y 8 X -21 Y 7 X 7 Y 8 X -34 Y 7 X -11 Y 8 X
 9 Y 7 X -55 Y 8 X -8 Y 7 X -71 Y 8 X 71 Y 7 X -71 Y 8 X 23 Y 8 X -62 Y 22 X 39 Y 8 X -39 Y 685 X f black 0.8 0.8 0.8 c black 153 1458 m 8 X 423 Y 7 X -26 Y 8 X -26 Y 7 X -27 Y 8 X -22 Y 7 X -23 Y 8 X 2 Y 8 X -24 Y 7 X -16 Y 8 X -5 Y 7 X -25 Y 8 X -1
 Y 7 X -7 Y 8 X -21 Y 7 X 7 Y 8 X -34 Y 7 X -11 Y 8 X 9 Y 7 X -55 Y 8 X -8 Y 7 X -71 Y 8 X 71 Y 7 X -71 Y 8 X 23 Y 8 X -62 Y 22 X 39 Y 8 X -39 Y 685 X s 0.999 0.999 0.999 c 304 78 418 1828 bf black 418 1828 m 304 X s 722 1828 m 78 Y s 722 1906 m -304
 X s 418 1906 m -78 Y s 1 1 1 c black
 gsave  425 1846
 t 0 r 0 0 m /Times-Roman findfont 54.6751 sf 0 0 m (V0A-ring 2) show  gr  1 1 1 c 1088 613 23 693 bf black 1 1 1 c 904 485 153 791 bf black 904 485 153 791 bl 1 1 1 c 904 485 153 791 bf black 904 485 153 791 bl 153 791 m 904 X s
 gsave  808 714
 t 0 r 0 0 m /Times-Roman findfont 46.8644 sf 0 0 m (Multiplicity) show  gr  153 806 m -15 Y s 191 799 m -8 Y s 229 799 m -8 Y s 266 799 m -8 Y s 304 806 m -15 Y s 342 799 m -8 Y s 379 799 m -8 Y s 417 799 m -8 Y s 454 806 m -15 Y s 492 799 m -8 Y
 s 530 799 m -8 Y s 567 799 m -8 Y s 605 806 m -15 Y s 643 799 m -8 Y s 680 799 m -8 Y s 718 799 m -8 Y s 756 806 m -15 Y s 793 799 m -8 Y s 831 799 m -8 Y s 869 799 m -8 Y s 906 806 m -15 Y s 944 799 m -8 Y s 981 799 m -8 Y s 1019 799 m -8 Y s 1057
 806 m -15 Y s
 gsave  137 749
 t 0 r 0 0 m /Times-Roman findfont 46.8644 sf 0 0 m (0) show  gr 
 gsave  273 749
 t 0 r 0 0 m /Times-Roman findfont 46.8644 sf 0 0 m (20) show  gr 
 gsave  425 749
 t 0 r 0 0 m /Times-Roman findfont 46.8644 sf 0 0 m (40) show  gr 
 gsave  578 749
 t 0 r 0 0 m /Times-Roman findfont 46.8644 sf 0 0 m (60) show  gr 
 gsave  726 749
 t 0 r 0 0 m /Times-Roman findfont 46.8644 sf 0 0 m (80) show  gr 
 gsave  866 749
 t 0 r 0 0 m /Times-Roman findfont 46.8644 sf 0 0 m (100) show  gr 
 gsave  1015 749
 t 0 r 0 0 m /Times-Roman findfont 46.8644 sf 0 0 m (120) show  gr  153 791 m 485 Y s 179 791 m -26 X s
 /xs 0 def (1) /Times-Roman 46.8644 stwn  gsave  141 772
 t 0 r  xs neg 0 t 0 0 m /Times-Roman findfont 46.8644 sf 0 0 m (1) show  gr  166 831 m -13 X s 166 854 m -13 X s 166 870 m -13 X s 166 883 m -13 X s 166 893 m -13 X s 166 902 m -13 X s 166 909 m -13 X s 166 916 m -13 X s 179 922 m -26 X s
 /xs 0 def (10) /Times-Roman 46.8644 stwn  gsave  141 903
 t 0 r  xs neg 0 t 0 0 m /Times-Roman findfont 46.8644 sf 0 0 m (10) show  gr  166 962 m -13 X s 166 985 m -13 X s 166 1001 m -13 X s 166 1014 m -13 X s 166 1024 m -13 X s 166 1033 m -13 X s 166 1040 m -13 X s 166 1047 m -13 X s 179 1053 m -26 X s
 gsave  121 1062
 t 0 r 0 0 m /Times-Roman findfont 31.2429 sf 0 0 m (2) show  gr 
 gsave  70 1038
 t 0 r 0 0 m /Times-Roman findfont 46.8644 sf 0 0 m (10) show  gr  166 1093 m -13 X s 166 1116 m -13 X s 166 1132 m -13 X s 166 1145 m -13 X s 166 1155 m -13 X s 166 1164 m -13 X s 166 1171 m -13 X s 166 1178 m -13 X s 179 1184 m -26 X s
 gsave  121 1190
 t 0 r 0 0 m /Times-Roman findfont 31.2429 sf 0 0 m (3) show  gr 
 gsave  70 1167
 t 0 r 0 0 m /Times-Roman findfont 46.8644 sf 0 0 m (10) show  gr  166 1223 m -13 X s 166 1247 m -13 X s 166 1263 m -13 X s 0.5 0.5 0.5 c black 0.5 0.5 0.5 c 153 791 m 8 X 409 Y 7 X -6 Y 8 X -13 Y 7 X -13 Y 8 X -15 Y 7 X -15 Y 8 X -16 Y 8 X -4 Y 7
 X -17 Y 8 X -1 Y 7 X -11 Y 8 X -13 Y 7 X -14 Y 23 X -15 Y 7 X 3 Y 8 X -18 Y 7 X -4 Y 8 X 10 Y 7 X -2 Y 8 X -14 Y 7 X -8 Y 8 X 9 Y 8 X -7 Y 7 X -18 Y 8 X 10 Y 7 X -18 Y 8 X 15 Y 7 X -22 Y 8 X -4 Y 7 X -7 Y 8 X -8 Y 7 X -23 Y 8 X 8 Y 7 X 10 Y 8 X -76
 Y 7 X 54 Y 8 X -21 Y 7 X 21 Y 8 X -15 Y 8 X -13 Y 7 X -7 Y 8 X -48 Y 7 X 39 Y 8 X -102 Y 7 X 40 Y 8 X -40 Y 7 X 63 Y 15 X -23 Y 8 X 23 Y 15 X -63 Y 497 X f black 0.5 0.5 0.5 c black 153 791 m 8 X 409 Y 7 X -6 Y 8 X -13 Y 7 X -13 Y 8 X -15 Y 7 X -15
 Y 8 X -16 Y 8 X -4 Y 7 X -17 Y 8 X -1 Y 7 X -11 Y 8 X -13 Y 7 X -14 Y 23 X -15 Y 7 X 3 Y 8 X -18 Y 7 X -4 Y 8 X 10 Y 7 X -2 Y 8 X -14 Y 7 X -8 Y 8 X 9 Y 8 X -7 Y 7 X -18 Y 8 X 10 Y 7 X -18 Y 8 X 15 Y 7 X -22 Y 8 X -4 Y 7 X -7 Y 8 X -8 Y 7 X -23 Y 8
 X 8 Y 7 X 10 Y 8 X -76 Y 7 X 54 Y 8 X -21 Y 7 X 21 Y 8 X -15 Y 8 X -13 Y 7 X -7 Y 8 X -48 Y 7 X 39 Y 8 X -102 Y 7 X 40 Y 8 X -40 Y 7 X 63 Y 15 X -23 Y 8 X 23 Y 15 X -63 Y 497 X s 0.8 0.8 0.8 c black 0.8 0.8 0.8 c 153 791 m 8 X 425 Y 7 X -29 Y 8 X
 -34 Y 7 X -21 Y 8 X -21 Y 7 X -21 Y 8 X -10 Y 8 X -7 Y 7 X -24 Y 8 X 2 Y 7 X -1 Y 8 X -32 Y 7 X -8 Y 8 X -9 Y 7 X -9 Y 8 X -15 Y 7 X -21 Y 8 X -4 Y 7 X 15 Y 8 X -45 Y 7 X -13 Y 8 X -118 Y 7 X 92 Y 8 X -92 Y 8 X 92 Y 7 X -92 Y 708 X f black 0.8 0.8
 0.8 c black 153 791 m 8 X 425 Y 7 X -29 Y 8 X -34 Y 7 X -21 Y 8 X -21 Y 7 X -21 Y 8 X -10 Y 8 X -7 Y 7 X -24 Y 8 X 2 Y 7 X -1 Y 8 X -32 Y 7 X -8 Y 8 X -9 Y 7 X -9 Y 8 X -15 Y 7 X -21 Y 8 X -4 Y 7 X 15 Y 8 X -45 Y 7 X -13 Y 8 X -118 Y 7 X 92 Y 8 X
 -92 Y 8 X 92 Y 7 X -92 Y 708 X s 0.999 0.999 0.999 c 304 78 418 1161 bf black 418 1161 m 304 X s 722 1161 m 78 Y s 722 1239 m -304 X s 418 1239 m -78 Y s 1 1 1 c black
 gsave  422 1179
 t 0 r 0 0 m /Times-Roman findfont 54.6751 sf 0 0 m (V0A-ring 3) show  gr  1 1 1 c 1088 613 23 27 bf black 1 1 1 c 904 484 153 125 bf black 904 484 153 125 bl 1 1 1 c 904 484 153 125 bf black 904 484 153 125 bl 153 125 m 904 X s
 gsave  808 47
 t 0 r 0 0 m /Times-Roman findfont 46.8644 sf 0 0 m (Multiplicity) show  gr  153 140 m -15 Y s 191 132 m -7 Y s 229 132 m -7 Y s 266 132 m -7 Y s 304 140 m -15 Y s 342 132 m -7 Y s 379 132 m -7 Y s 417 132 m -7 Y s 454 140 m -15 Y s 492 132 m -7 Y
 s 530 132 m -7 Y s 567 132 m -7 Y s 605 140 m -15 Y s 643 132 m -7 Y s 680 132 m -7 Y s 718 132 m -7 Y s 756 140 m -15 Y s 793 132 m -7 Y s 831 132 m -7 Y s 869 132 m -7 Y s 906 140 m -15 Y s 944 132 m -7 Y s 981 132 m -7 Y s 1019 132 m -7 Y s 1057
 140 m -15 Y s
 gsave  137 86
 t 0 r 0 0 m /Times-Roman findfont 46.8644 sf 0 0 m (0) show  gr 
 gsave  273 86
 t 0 r 0 0 m /Times-Roman findfont 46.8644 sf 0 0 m (20) show  gr 
 gsave  425 86
 t 0 r 0 0 m /Times-Roman findfont 46.8644 sf 0 0 m (40) show  gr 
 gsave  578 86
 t 0 r 0 0 m /Times-Roman findfont 46.8644 sf 0 0 m (60) show  gr 
 gsave  726 86
 t 0 r 0 0 m /Times-Roman findfont 46.8644 sf 0 0 m (80) show  gr 
 gsave  866 86
 t 0 r 0 0 m /Times-Roman findfont 46.8644 sf 0 0 m (100) show  gr 
 gsave  1015 86
 t 0 r 0 0 m /Times-Roman findfont 46.8644 sf 0 0 m (120) show  gr  153 125 m 484 Y s 179 125 m -26 X s
 /xs 0 def (1) /Times-Roman 46.8644 stwn  gsave  141 106
 t 0 r  xs neg 0 t 0 0 m /Times-Roman findfont 46.8644 sf 0 0 m (1) show  gr  166 164 m -13 X s 166 187 m -13 X s 166 204 m -13 X s 166 216 m -13 X s 166 227 m -13 X s 166 235 m -13 X s 166 243 m -13 X s 166 250 m -13 X s 179 256 m -26 X s
 /xs 0 def (10) /Times-Roman 46.8644 stwn  gsave  141 237
 t 0 r  xs neg 0 t 0 0 m /Times-Roman findfont 46.8644 sf 0 0 m (10) show  gr  166 295 m -13 X s 166 318 m -13 X s 166 335 m -13 X s 166 347 m -13 X s 166 358 m -13 X s 166 366 m -13 X s 166 374 m -13 X s 166 381 m -13 X s 179 387 m -26 X s
 gsave  121 398
 t 0 r 0 0 m /Times-Roman findfont 31.2429 sf 0 0 m (2) show  gr 
 gsave  70 375
 t 0 r 0 0 m /Times-Roman findfont 46.8644 sf 0 0 m (10) show  gr  166 426 m -13 X s 166 449 m -13 X s 166 466 m -13 X s 166 478 m -13 X s 166 489 m -13 X s 166 497 m -13 X s 166 505 m -13 X s 166 512 m -13 X s 179 518 m -26 X s
 gsave  121 523
 t 0 r 0 0 m /Times-Roman findfont 31.2429 sf 0 0 m (3) show  gr 
 gsave  70 500
 t 0 r 0 0 m /Times-Roman findfont 46.8644 sf 0 0 m (10) show  gr  166 557 m -13 X s 166 580 m -13 X s 166 596 m -13 X s 0.5 0.5 0.5 c black 0.5 0.5 0.5 c 153 125 m 8 X 395 Y 7 X -1 Y 8 X -7 Y 7 X -15 Y 8 X -5 Y 7 X -11 Y 8 X -18 Y 8 X -1 Y 7 X
 -10 Y 8 X -19 Y 7 X -4 Y 8 X -12 Y 7 X -1 Y 8 X -2 Y 7 X -18 Y 8 X -8 Y 7 X -5 Y 8 X -9 Y 7 X 6 Y 8 X -2 Y 7 X -5 Y 15 X -26 Y 8 X 7 Y 8 X -9 Y 7 X 8 Y 8 X -13 Y 7 X 1 Y 8 X -4 Y 7 X 22 Y 8 X -43 Y 7 X 19 Y 8 X 5 Y 7 X -1 Y 8 X -14 Y 7 X -5 Y 8 X
 -19 Y 7 X -15 Y 8 X 32 Y 7 X 4 Y 8 X -36 Y 8 X 30 Y 7 X -27 Y 8 X 25 Y 7 X -28 Y 8 X -15 Y 7 X 8 Y 8 X -92 Y 7 X 63 Y 8 X 29 Y 7 X -75 Y 8 X 46 Y 7 X -7 Y 8 X -27 Y 7 X -52 Y 8 X 52 Y 7 X 11 Y 8 X -11 Y 7 X -29 Y 16 X -23 Y 7 X 40 Y 8 X -40 Y 7 X 23
 Y 8 X -23 Y 15 X -39 Y 22 X 39 Y 8 X -39 Y 369 X f black 0.5 0.5 0.5 c black 153 125 m 8 X 395 Y 7 X -1 Y 8 X -7 Y 7 X -15 Y 8 X -5 Y 7 X -11 Y 8 X -18 Y 8 X -1 Y 7 X -10 Y 8 X -19 Y 7 X -4 Y 8 X -12 Y 7 X -1 Y 8 X -2 Y 7 X -18 Y 8 X -8 Y 7 X -5 Y 8
 X -9 Y 7 X 6 Y 8 X -2 Y 7 X -5 Y 15 X -26 Y 8 X 7 Y 8 X -9 Y 7 X 8 Y 8 X -13 Y 7 X 1 Y 8 X -4 Y 7 X 22 Y 8 X -43 Y 7 X 19 Y 8 X 5 Y 7 X -1 Y 8 X -14 Y 7 X -5 Y 8 X -19 Y 7 X -15 Y 8 X 32 Y 7 X 4 Y 8 X -36 Y 8 X 30 Y 7 X -27 Y 8 X 25 Y 7 X -28 Y 8 X
 -15 Y 7 X 8 Y 8 X -92 Y 7 X 63 Y 8 X 29 Y 7 X -75 Y 8 X 46 Y 7 X -7 Y 8 X -27 Y 7 X -52 Y 8 X 52 Y 7 X 11 Y 8 X -11 Y 7 X -29 Y 16 X -23 Y 7 X 40 Y 8 X -40 Y 7 X 23 Y 8 X -23 Y 15 X -39 Y 22 X 39 Y 8 X -39 Y 369 X s 0.8 0.8 0.8 c black 0.8 0.8 0.8 c
 153 125 m 8 X 415 Y 7 X -16 Y 8 X -27 Y 7 X -25 Y 8 X -23 Y 7 X -17 Y 8 X -10 Y 8 X -14 Y 7 X -7 Y 8 X -7 Y 7 X -2 Y 8 X -23 Y 7 X -9 Y 8 X -2 Y 7 X 8 Y 8 X -10 Y 7 X -4 Y 8 X -25 Y 7 X 5 Y 8 X -14 Y 7 X -20 Y 8 X -3 Y 7 X -24 Y 8 X 37 Y 8 X -52 Y 7
 X 19 Y 8 X -19 Y 7 X -92 Y 8 X 40 Y 7 X 12 Y 8 X -91 Y 15 X 79 Y 15 X -79 Y 7 X 62 Y 8 X -62 Y 625 X f black 0.8 0.8 0.8 c black 153 125 m 8 X 415 Y 7 X -16 Y 8 X -27 Y 7 X -25 Y 8 X -23 Y 7 X -17 Y 8 X -10 Y 8 X -14 Y 7 X -7 Y 8 X -7 Y 7 X -2 Y 8 X
 -23 Y 7 X -9 Y 8 X -2 Y 7 X 8 Y 8 X -10 Y 7 X -4 Y 8 X -25 Y 7 X 5 Y 8 X -14 Y 7 X -20 Y 8 X -3 Y 7 X -24 Y 8 X 37 Y 8 X -52 Y 7 X 19 Y 8 X -19 Y 7 X -92 Y 8 X 40 Y 7 X 12 Y 8 X -91 Y 15 X 79 Y 15 X -79 Y 7 X 62 Y 8 X -62 Y 625 X s 0.999 0.999 0.999
 c 304 78 418 495 bf black 418 495 m 304 X s 722 495 m 78 Y s 722 573 m -304 X s 418 573 m -78 Y s 1 1 1 c black
 gsave  422 511
 t 0 r 0 0 m /Times-Roman findfont 54.6751 sf 0 0 m (V0A-ring 4) show  gr  1 1 1 c 1088 613 1157 2026 bf black 1 1 1 c 904 485 1287 2124 bf black 904 485 1287 2124 bl 1 1 1 c 904 485 1287 2124 bf black 904 485 1287 2124 bl 1287 2124 m 904 X s
 gsave  1944 2049
 t 0 r 0 0 m /Times-Roman findfont 46.8644 sf 0 0 m (Multiplicity) show  gr  1287 2139 m -15 Y s 1325 2132 m -8 Y s 1362 2132 m -8 Y s 1400 2132 m -8 Y s 1438 2139 m -15 Y s 1475 2132 m -8 Y s 1513 2132 m -8 Y s 1551 2132 m -8 Y s 1588 2139 m -15
 Y s 1626 2132 m -8 Y s 1664 2132 m -8 Y s 1701 2132 m -8 Y s 1739 2139 m -15 Y s 1777 2132 m -8 Y s 1814 2132 m -8 Y s 1852 2132 m -8 Y s 1889 2139 m -15 Y s 1927 2132 m -8 Y s 1965 2132 m -8 Y s 2002 2132 m -8 Y s 2040 2139 m -15 Y s 2078 2132 m -8
 Y s 2115 2132 m -8 Y s 2153 2132 m -8 Y s 2191 2139 m -15 Y s
 gsave  1269 2084
 t 0 r 0 0 m /Times-Roman findfont 46.8644 sf 0 0 m (0) show  gr 
 gsave  1409 2084
 t 0 r 0 0 m /Times-Roman findfont 46.8644 sf 0 0 m (20) show  gr 
 gsave  1557 2084
 t 0 r 0 0 m /Times-Roman findfont 46.8644 sf 0 0 m (40) show  gr 
 gsave  1710 2084
 t 0 r 0 0 m /Times-Roman findfont 46.8644 sf 0 0 m (60) show  gr 
 gsave  1862 2084
 t 0 r 0 0 m /Times-Roman findfont 46.8644 sf 0 0 m (80) show  gr 
 gsave  1998 2084
 t 0 r 0 0 m /Times-Roman findfont 46.8644 sf 0 0 m (100) show  gr 
 gsave  2151 2084
 t 0 r 0 0 m /Times-Roman findfont 46.8644 sf 0 0 m (120) show  gr  1287 2124 m 485 Y s 1313 2124 m -26 X s
 /xs 0 def (1) /Times-Roman 46.8644 stwn  gsave  1275 2105
 t 0 r  xs neg 0 t 0 0 m /Times-Roman findfont 46.8644 sf 0 0 m (1) show  gr  1300 2164 m -13 X s 1300 2187 m -13 X s 1300 2203 m -13 X s 1300 2216 m -13 X s 1300 2226 m -13 X s 1300 2235 m -13 X s 1300 2242 m -13 X s 1300 2249 m -13 X s 1313 2255
 m -26 X s
 /xs 0 def (10) /Times-Roman 46.8644 stwn  gsave  1275 2236
 t 0 r  xs neg 0 t 0 0 m /Times-Roman findfont 46.8644 sf 0 0 m (10) show  gr  1300 2295 m -13 X s 1300 2318 m -13 X s 1300 2334 m -13 X s 1300 2347 m -13 X s 1300 2357 m -13 X s 1300 2366 m -13 X s 1300 2373 m -13 X s 1300 2380 m -13 X s 1313
 2386 m -26 X s
 gsave  1253 2397
 t 0 r 0 0 m /Times-Roman findfont 31.2429 sf 0 0 m (2) show  gr 
 gsave  1202 2373
 t 0 r 0 0 m /Times-Roman findfont 46.8644 sf 0 0 m (10) show  gr  1300 2425 m -13 X s 1300 2449 m -13 X s 1300 2465 m -13 X s 1300 2478 m -13 X s 1300 2488 m -13 X s 1300 2497 m -13 X s 1300 2504 m -13 X s 1300 2511 m -13 X s 1313 2517 m -26 X s
 gsave  1253 2521
 t 0 r 0 0 m /Times-Roman findfont 31.2429 sf 0 0 m (3) show  gr 
 gsave  1202 2498
 t 0 r 0 0 m /Times-Roman findfont 46.8644 sf 0 0 m (10) show  gr  1300 2556 m -13 X s 1300 2579 m -13 X s 1300 2596 m -13 X s 0.5 0.5 0.5 c black 0.5 0.5 0.5 c 1287 2124 m 8 X 382 Y 7 X -15 Y 8 X -6 Y 7 X -17 Y 8 X -5 Y 7 X -7 Y 8 X -5 Y 7 X -3 Y
 8 X -5 Y 7 X -12 Y 8 X -9 Y 8 X -2 Y 7 X 13 Y 8 X -23 Y 7 X 6 Y 8 X -4 Y 7 X -19 Y 8 X 3 Y 7 X -8 Y 8 X 13 Y 7 X -14 Y 8 X -3 Y 7 X -13 Y 8 X 5 Y 7 X -9 Y 8 X -3 Y 7 X -4 Y 8 X -2 Y 7 X 9 Y 8 X -10 Y 8 X -16 Y 7 X -7 Y 8 X 23 Y 7 X -6 Y 8 X -17 Y 7
 X 3 Y 8 X 18 Y 7 X -20 Y 8 X -4 Y 7 X 12 Y 8 X -25 Y 7 X -13 Y 8 X 38 Y 7 X -2 Y 8 X -20 Y 7 X -2 Y 8 X -24 Y 8 X 10 Y 7 X 2 Y 8 X 7 Y 7 X -22 Y 8 X 22 Y 22 X -2 Y 8 X -12 Y 7 X -11 Y 15 X -11 Y 8 X -17 Y 7 X 36 Y 8 X -42 Y 7 X 37 Y 8 X -14 Y 8 X
 -36 Y 7 X 40 Y 8 X -27 Y 7 X 15 Y 8 X 30 Y 7 X -26 Y 8 X 26 Y 7 X -11 Y 8 X -34 Y 7 X -13 Y 8 X 32 Y 7 X 11 Y 8 X 7 Y 7 X -37 Y 8 X -39 Y 7 X 10 Y 16 X 23 Y 7 X 12 Y 8 X 17 Y 7 X -43 Y 8 X 14 Y 7 X -23 Y 8 X 39 Y 7 X -62 Y 8 X 62 Y 7 X -30 Y 8 X -19
 Y 7 X -29 Y 8 X 39 Y 7 X -10 Y 8 X -29 Y 7 X 39 Y 8 X -10 Y 8 X -29 Y 15 X 39 Y 7 X -39 Y 8 X 16 Y 7 X -39 Y 8 X 39 Y 7 X -16 Y 8 X -23 Y 7 X 52 Y 8 X -13 Y 15 X -39 Y 7 X 23 Y 8 X -63 Y 7 X 40 Y 15 X 52 Y 8 X -29 Y 15 X -23 Y 8 X -40 Y f black 0.5
 0.5 0.5 c black 1287 2124 m 8 X 382 Y 7 X -15 Y 8 X -6 Y 7 X -17 Y 8 X -5 Y 7 X -7 Y 8 X -5 Y 7 X -3 Y 8 X -5 Y 7 X -12 Y 8 X -9 Y 8 X -2 Y 7 X 13 Y 8 X -23 Y 7 X 6 Y 8 X -4 Y 7 X -19 Y 8 X 3 Y 7 X -8 Y 8 X 13 Y 7 X -14 Y 8 X -3 Y 7 X -13 Y 8 X 5 Y
 7 X -9 Y 8 X -3 Y 7 X -4 Y 8 X -2 Y 7 X 9 Y 8 X -10 Y 8 X -16 Y 7 X -7 Y 8 X 23 Y 7 X -6 Y 8 X -17 Y 7 X 3 Y 8 X 18 Y 7 X -20 Y 8 X -4 Y 7 X 12 Y 8 X -25 Y 7 X -13 Y 8 X 38 Y 7 X -2 Y 8 X -20 Y 7 X -2 Y 8 X -24 Y 8 X 10 Y 7 X 2 Y 8 X 7 Y 7 X -22 Y 8
 X 22 Y 22 X -2 Y 8 X -12 Y 7 X -11 Y 15 X -11 Y 8 X -17 Y 7 X 36 Y 8 X -42 Y 7 X 37 Y 8 X -14 Y 8 X -36 Y 7 X 40 Y 8 X -27 Y 7 X 15 Y 8 X 30 Y 7 X -26 Y 8 X 26 Y 7 X -11 Y 8 X -34 Y 7 X -13 Y 8 X 32 Y 7 X 11 Y 8 X 7 Y 7 X -37 Y 8 X -39 Y 7 X 10 Y 16
 X 23 Y 7 X 12 Y 8 X 17 Y 7 X -43 Y 8 X 14 Y 7 X -23 Y 8 X 39 Y 7 X -62 Y 8 X 62 Y 7 X -30 Y 8 X -19 Y 7 X -29 Y 8 X 39 Y 7 X -10 Y 8 X -29 Y 7 X 39 Y 8 X -10 Y 8 X -29 Y 15 X 39 Y 7 X -39 Y 8 X 16 Y 7 X -39 Y 8 X 39 Y 7 X -16 Y 8 X -23 Y 7 X 52 Y 8
 X -13 Y 15 X -39 Y 7 X 23 Y 8 X -63 Y 7 X 40 Y 15 X 52 Y 8 X -29 Y 15 X -23 Y 8 X s 0.8 0.8 0.8 c black 0.8 0.8 0.8 c 1287 2124 m 8 X 424 Y 7 X -34 Y 8 X -24 Y 7 X -30 Y 8 X -20 Y 7 X -10 Y 8 X -18 Y 7 X -15 Y 8 X -9 Y 7 X -6 Y 8 X -23 Y 8 X -10 Y 7
 X -7 Y 8 X -30 Y 7 X -3 Y 8 X -24 Y 7 X -3 Y 8 X -47 Y 7 X 20 Y 8 X -131 Y 7 X 102 Y 8 X -102 Y 7 X 63 Y 8 X -63 Y 7 X 40 Y 8 X -40 Y 708 X f black 0.8 0.8 0.8 c black 1287 2124 m 8 X 424 Y 7 X -34 Y 8 X -24 Y 7 X -30 Y 8 X -20 Y 7 X -10 Y 8 X -18 Y
 7 X -15 Y 8 X -9 Y 7 X -6 Y 8 X -23 Y 8 X -10 Y 7 X -7 Y 8 X -30 Y 7 X -3 Y 8 X -24 Y 7 X -3 Y 8 X -47 Y 7 X 20 Y 8 X -131 Y 7 X 102 Y 8 X -102 Y 7 X 63 Y 8 X -63 Y 7 X 40 Y 8 X -40 Y 708 X s 0.999 0.999 0.999 c 305 78 1551 2494 bf black 1551 2494 m
 305 X s 1856 2494 m 78 Y s 1856 2572 m -305 X s 1551 2572 m -78 Y s 1 1 1 c black
 gsave  1557 2514
 t 0 r 0 0 m /Times-Roman findfont 54.6751 sf 0 0 m (V0C-ring 1) show  gr  1 1 1 c 1088 613 1157 1360 bf black 1 1 1 c 904 484 1287 1458 bf black 904 484 1287 1458 bl 1 1 1 c 904 484 1287 1458 bf black 904 484 1287 1458 bl 1287 1458 m 904 X s
 gsave  1944 1382
 t 0 r 0 0 m /Times-Roman findfont 46.8644 sf 0 0 m (Multiplicity) show  gr  1287 1473 m -15 Y s 1325 1465 m -7 Y s 1362 1465 m -7 Y s 1400 1465 m -7 Y s 1438 1473 m -15 Y s 1475 1465 m -7 Y s 1513 1465 m -7 Y s 1551 1465 m -7 Y s 1588 1473 m -15
 Y s 1626 1465 m -7 Y s 1664 1465 m -7 Y s 1701 1465 m -7 Y s 1739 1473 m -15 Y s 1777 1465 m -7 Y s 1814 1465 m -7 Y s 1852 1465 m -7 Y s 1889 1473 m -15 Y s 1927 1465 m -7 Y s 1965 1465 m -7 Y s 2002 1465 m -7 Y s 2040 1473 m -15 Y s 2078 1465 m -7
 Y s 2115 1465 m -7 Y s 2153 1465 m -7 Y s 2191 1473 m -15 Y s
 gsave  1269 1417
 t 0 r 0 0 m /Times-Roman findfont 46.8644 sf 0 0 m (0) show  gr 
 gsave  1409 1417
 t 0 r 0 0 m /Times-Roman findfont 46.8644 sf 0 0 m (20) show  gr 
 gsave  1557 1417
 t 0 r 0 0 m /Times-Roman findfont 46.8644 sf 0 0 m (40) show  gr 
 gsave  1710 1417
 t 0 r 0 0 m /Times-Roman findfont 46.8644 sf 0 0 m (60) show  gr 
 gsave  1862 1417
 t 0 r 0 0 m /Times-Roman findfont 46.8644 sf 0 0 m (80) show  gr 
 gsave  1998 1417
 t 0 r 0 0 m /Times-Roman findfont 46.8644 sf 0 0 m (100) show  gr 
 gsave  2151 1417
 t 0 r 0 0 m /Times-Roman findfont 46.8644 sf 0 0 m (120) show  gr  1287 1458 m 484 Y s 1313 1458 m -26 X s
 /xs 0 def (1) /Times-Roman 46.8644 stwn  gsave  1275 1439
 t 0 r  xs neg 0 t 0 0 m /Times-Roman findfont 46.8644 sf 0 0 m (1) show  gr  1300 1497 m -13 X s 1300 1520 m -13 X s 1300 1537 m -13 X s 1300 1549 m -13 X s 1300 1560 m -13 X s 1300 1568 m -13 X s 1300 1576 m -13 X s 1300 1583 m -13 X s 1313 1589
 m -26 X s
 /xs 0 def (10) /Times-Roman 46.8644 stwn  gsave  1275 1570
 t 0 r  xs neg 0 t 0 0 m /Times-Roman findfont 46.8644 sf 0 0 m (10) show  gr  1300 1628 m -13 X s 1300 1651 m -13 X s 1300 1667 m -13 X s 1300 1680 m -13 X s 1300 1691 m -13 X s 1300 1699 m -13 X s 1300 1707 m -13 X s 1300 1714 m -13 X s 1313
 1720 m -26 X s
 gsave  1253 1729
 t 0 r 0 0 m /Times-Roman findfont 31.2429 sf 0 0 m (2) show  gr 
 gsave  1202 1706
 t 0 r 0 0 m /Times-Roman findfont 46.8644 sf 0 0 m (10) show  gr  1300 1759 m -13 X s 1300 1782 m -13 X s 1300 1798 m -13 X s 1300 1811 m -13 X s 1300 1821 m -13 X s 1300 1830 m -13 X s 1300 1838 m -13 X s 1300 1845 m -13 X s 1313 1851 m -26 X s
 gsave  1253 1858
 t 0 r 0 0 m /Times-Roman findfont 31.2429 sf 0 0 m (3) show  gr 
 gsave  1202 1834
 t 0 r 0 0 m /Times-Roman findfont 46.8644 sf 0 0 m (10) show  gr  1300 1890 m -13 X s 1300 1913 m -13 X s 1300 1929 m -13 X s 0.5 0.5 0.5 c black 0.5 0.5 0.5 c 1287 1458 m 8 X 399 Y 7 X -14 Y 8 X -6 Y 7 X -16 Y 8 X -10 Y 7 X -4 Y 8 X -15 Y 7 X
 -14 Y 8 X 5 Y 7 X -22 Y 8 X -1 Y 8 X -3 Y 7 X -11 Y 8 X -5 Y 7 X -1 Y 8 X -6 Y 7 X -21 Y 8 X 7 Y 7 X -12 Y 15 X -12 Y 8 X 5 Y 7 X -10 Y 8 X -18 Y 7 X 7 Y 8 X -1 Y 7 X 4 Y 8 X 8 Y 7 X -25 Y 8 X 13 Y 8 X -14 Y 7 X 2 Y 8 X -1 Y 7 X 11 Y 8 X -16 Y 7 X
 -8 Y 8 X 8 Y 7 X 12 Y 8 X -35 Y 7 X 29 Y 8 X -9 Y 7 X -20 Y 8 X -5 Y 7 X -11 Y 8 X -7 Y 7 X 4 Y 8 X -20 Y 8 X 9 Y 7 X 17 Y 8 X -42 Y 7 X 29 Y 8 X -8 Y 7 X 18 Y 8 X -18 Y 15 X -28 Y 7 X 7 Y 8 X 16 Y 7 X -31 Y 8 X -8 Y 7 X 8 Y 8 X 31 Y 7 X -39 Y 16 X
 -11 Y 15 X -29 Y 7 X 48 Y 8 X -31 Y 7 X -17 Y 8 X 17 Y 7 X 23 Y 8 X -102 Y 22 X 39 Y 23 X -39 Y 15 X 62 Y 8 X -62 Y 97 X 39 Y 8 X -39 Y 181 X f black 0.5 0.5 0.5 c black 1287 1458 m 8 X 399 Y 7 X -14 Y 8 X -6 Y 7 X -16 Y 8 X -10 Y 7 X -4 Y 8 X -15 Y
 7 X -14 Y 8 X 5 Y 7 X -22 Y 8 X -1 Y 8 X -3 Y 7 X -11 Y 8 X -5 Y 7 X -1 Y 8 X -6 Y 7 X -21 Y 8 X 7 Y 7 X -12 Y 15 X -12 Y 8 X 5 Y 7 X -10 Y 8 X -18 Y 7 X 7 Y 8 X -1 Y 7 X 4 Y 8 X 8 Y 7 X -25 Y 8 X 13 Y 8 X -14 Y 7 X 2 Y 8 X -1 Y 7 X 11 Y 8 X -16 Y 7
 X -8 Y 8 X 8 Y 7 X 12 Y 8 X -35 Y 7 X 29 Y 8 X -9 Y 7 X -20 Y 8 X -5 Y 7 X -11 Y 8 X -7 Y 7 X 4 Y 8 X -20 Y 8 X 9 Y 7 X 17 Y 8 X -42 Y 7 X 29 Y 8 X -8 Y 7 X 18 Y 8 X -18 Y 15 X -28 Y 7 X 7 Y 8 X 16 Y 7 X -31 Y 8 X -8 Y 7 X 8 Y 8 X 31 Y 7 X -39 Y 16
 X -11 Y 15 X -29 Y 7 X 48 Y 8 X -31 Y 7 X -17 Y 8 X 17 Y 7 X 23 Y 8 X -102 Y 22 X 39 Y 23 X -39 Y 15 X 62 Y 8 X -62 Y 97 X 39 Y 8 X -39 Y 181 X s 0.8 0.8 0.8 c black 0.8 0.8 0.8 c 1287 1458 m 8 X 418 Y 7 X -23 Y 8 X -29 Y 7 X -22 Y 8 X -29 Y 7 X -10
 Y 8 X -8 Y 7 X -17 Y 8 X -10 Y 7 X -4 Y 8 X -18 Y 8 X -2 Y 7 X -16 Y 8 X 3 Y 7 X -14 Y 8 X -11 Y 7 X 7 Y 8 X -30 Y 7 X -12 Y 8 X 7 Y 7 X -78 Y 8 X 59 Y 7 X -36 Y 8 X -46 Y 7 X 23 Y 8 X -40 Y 7 X -23 Y 8 X -39 Y 7 X 39 Y 16 X 40 Y 7 X -79 Y 8 X 62 Y
 7 X -62 Y 648 X f black 0.8 0.8 0.8 c black 1287 1458 m 8 X 418 Y 7 X -23 Y 8 X -29 Y 7 X -22 Y 8 X -29 Y 7 X -10 Y 8 X -8 Y 7 X -17 Y 8 X -10 Y 7 X -4 Y 8 X -18 Y 8 X -2 Y 7 X -16 Y 8 X 3 Y 7 X -14 Y 8 X -11 Y 7 X 7 Y 8 X -30 Y 7 X -12 Y 8 X 7 Y 7
 X -78 Y 8 X 59 Y 7 X -36 Y 8 X -46 Y 7 X 23 Y 8 X -40 Y 7 X -23 Y 8 X -39 Y 7 X 39 Y 16 X 40 Y 7 X -79 Y 8 X 62 Y 7 X -62 Y 648 X s 0.999 0.999 0.999 c 305 78 1551 1828 bf black 1551 1828 m 305 X s 1856 1828 m 78 Y s 1856 1906 m -305 X s 1551 1906 m
 -78 Y s 1 1 1 c black
 gsave  1557 1846
 t 0 r 0 0 m /Times-Roman findfont 54.6751 sf 0 0 m (V0C-ring 2) show  gr  1 1 1 c 1088 613 1157 693 bf black 1 1 1 c 904 485 1287 791 bf black 904 485 1287 791 bl 1 1 1 c 904 485 1287 791 bf black 904 485 1287 791 bl 1287 791 m 904 X s
 gsave  1944 714
 t 0 r 0 0 m /Times-Roman findfont 46.8644 sf 0 0 m (Multiplicity) show  gr  1287 806 m -15 Y s 1325 799 m -8 Y s 1362 799 m -8 Y s 1400 799 m -8 Y s 1438 806 m -15 Y s 1475 799 m -8 Y s 1513 799 m -8 Y s 1551 799 m -8 Y s 1588 806 m -15 Y s 1626
 799 m -8 Y s 1664 799 m -8 Y s 1701 799 m -8 Y s 1739 806 m -15 Y s 1777 799 m -8 Y s 1814 799 m -8 Y s 1852 799 m -8 Y s 1889 806 m -15 Y s 1927 799 m -8 Y s 1965 799 m -8 Y s 2002 799 m -8 Y s 2040 806 m -15 Y s 2078 799 m -8 Y s 2115 799 m -8 Y s
 2153 799 m -8 Y s 2191 806 m -15 Y s
 gsave  1269 749
 t 0 r 0 0 m /Times-Roman findfont 46.8644 sf 0 0 m (0) show  gr 
 gsave  1409 749
 t 0 r 0 0 m /Times-Roman findfont 46.8644 sf 0 0 m (20) show  gr 
 gsave  1557 749
 t 0 r 0 0 m /Times-Roman findfont 46.8644 sf 0 0 m (40) show  gr 
 gsave  1710 749
 t 0 r 0 0 m /Times-Roman findfont 46.8644 sf 0 0 m (60) show  gr 
 gsave  1862 749
 t 0 r 0 0 m /Times-Roman findfont 46.8644 sf 0 0 m (80) show  gr 
 gsave  1998 749
 t 0 r 0 0 m /Times-Roman findfont 46.8644 sf 0 0 m (100) show  gr 
 gsave  2151 749
 t 0 r 0 0 m /Times-Roman findfont 46.8644 sf 0 0 m (120) show  gr  1287 791 m 485 Y s 1313 791 m -26 X s
 /xs 0 def (1) /Times-Roman 46.8644 stwn  gsave  1275 772
 t 0 r  xs neg 0 t 0 0 m /Times-Roman findfont 46.8644 sf 0 0 m (1) show  gr  1300 831 m -13 X s 1300 854 m -13 X s 1300 870 m -13 X s 1300 883 m -13 X s 1300 893 m -13 X s 1300 902 m -13 X s 1300 909 m -13 X s 1300 916 m -13 X s 1313 922 m -26 X
 s
 /xs 0 def (10) /Times-Roman 46.8644 stwn  gsave  1275 903
 t 0 r  xs neg 0 t 0 0 m /Times-Roman findfont 46.8644 sf 0 0 m (10) show  gr  1300 962 m -13 X s 1300 985 m -13 X s 1300 1001 m -13 X s 1300 1014 m -13 X s 1300 1024 m -13 X s 1300 1033 m -13 X s 1300 1040 m -13 X s 1300 1047 m -13 X s 1313 1053
 m -26 X s
 gsave  1253 1062
 t 0 r 0 0 m /Times-Roman findfont 31.2429 sf 0 0 m (2) show  gr 
 gsave  1202 1038
 t 0 r 0 0 m /Times-Roman findfont 46.8644 sf 0 0 m (10) show  gr  1300 1093 m -13 X s 1300 1116 m -13 X s 1300 1132 m -13 X s 1300 1145 m -13 X s 1300 1155 m -13 X s 1300 1164 m -13 X s 1300 1171 m -13 X s 1300 1178 m -13 X s 1313 1184 m -26 X s
 gsave  1253 1190
 t 0 r 0 0 m /Times-Roman findfont 31.2429 sf 0 0 m (3) show  gr 
 gsave  1202 1167
 t 0 r 0 0 m /Times-Roman findfont 46.8644 sf 0 0 m (10) show  gr  1300 1223 m -13 X s 1300 1247 m -13 X s 1300 1263 m -13 X s 0.5 0.5 0.5 c black 0.5 0.5 0.5 c 1287 791 m 8 X 403 Y 7 X -9 Y 8 X -12 Y 7 X -11 Y 8 X -18 Y 7 X -2 Y 8 X -16 Y 7 X -17
 Y 8 X -4 Y 7 X -9 Y 8 X -8 Y 8 X -18 Y 7 X 4 Y 8 X -18 Y 7 X 9 Y 8 X -2 Y 7 X -10 Y 8 X -10 Y 7 X -3 Y 8 X -10 Y 7 X -11 Y 8 X 9 Y 7 X -2 Y 8 X 3 Y 7 X -39 Y 8 X 23 Y 15 X 4 Y 7 X -7 Y 8 X 4 Y 8 X -19 Y 22 X -10 Y 8 X 7 Y 7 X -20 Y 8 X 2 Y 7 X -22 Y
 8 X 31 Y 7 X -21 Y 8 X 15 Y 7 X -28 Y 8 X 25 Y 7 X -37 Y 8 X 4 Y 7 X 29 Y 8 X -61 Y 8 X 19 Y 15 X -26 Y 15 X -32 Y 7 X 23 Y 8 X 44 Y 7 X -83 Y 8 X 29 Y 7 X 19 Y 15 X -111 Y 8 X 102 Y 7 X -62 Y 8 X 62 Y 7 X -39 Y 8 X -63 Y 8 X 63 Y 7 X -63 Y 53 X 40
 Y 7 X -40 Y 15 X 40 Y 8 X -40 Y 7 X 40 Y 8 X -40 Y 309 X f black 0.5 0.5 0.5 c black 1287 791 m 8 X 403 Y 7 X -9 Y 8 X -12 Y 7 X -11 Y 8 X -18 Y 7 X -2 Y 8 X -16 Y 7 X -17 Y 8 X -4 Y 7 X -9 Y 8 X -8 Y 8 X -18 Y 7 X 4 Y 8 X -18 Y 7 X 9 Y 8 X -2 Y 7 X
 -10 Y 8 X -10 Y 7 X -3 Y 8 X -10 Y 7 X -11 Y 8 X 9 Y 7 X -2 Y 8 X 3 Y 7 X -39 Y 8 X 23 Y 15 X 4 Y 7 X -7 Y 8 X 4 Y 8 X -19 Y 22 X -10 Y 8 X 7 Y 7 X -20 Y 8 X 2 Y 7 X -22 Y 8 X 31 Y 7 X -21 Y 8 X 15 Y 7 X -28 Y 8 X 25 Y 7 X -37 Y 8 X 4 Y 7 X 29 Y 8 X
 -61 Y 8 X 19 Y 15 X -26 Y 15 X -32 Y 7 X 23 Y 8 X 44 Y 7 X -83 Y 8 X 29 Y 7 X 19 Y 15 X -111 Y 8 X 102 Y 7 X -62 Y 8 X 62 Y 7 X -39 Y 8 X -63 Y 8 X 63 Y 7 X -63 Y 53 X 40 Y 7 X -40 Y 15 X 40 Y 8 X -40 Y 7 X 40 Y 8 X -40 Y 309 X s 0.8 0.8 0.8 c black
 0.8 0.8 0.8 c 1287 791 m 8 X 420 Y 7 X -22 Y 8 X -31 Y 7 X -26 Y 8 X -17 Y 7 X -23 Y 8 X -12 Y 7 X 2 Y 8 X -20 Y 7 X -8 Y 16 X -21 Y 7 X 5 Y 8 X -20 Y 7 X -12 Y 8 X -2 Y 7 X 7 Y 8 X -59 Y 7 X 29 Y 8 X -40 Y 7 X 4 Y 8 X -17 Y 7 X 13 Y 8 X -4 Y 7 X
 -35 Y 8 X -32 Y 7 X 46 Y 8 X -62 Y 30 X -63 Y 15 X 63 Y 8 X -63 Y 22 X 40 Y 8 X -40 Y 610 X f black 0.8 0.8 0.8 c black 1287 791 m 8 X 420 Y 7 X -22 Y 8 X -31 Y 7 X -26 Y 8 X -17 Y 7 X -23 Y 8 X -12 Y 7 X 2 Y 8 X -20 Y 7 X -8 Y 16 X -21 Y 7 X 5 Y 8
 X -20 Y 7 X -12 Y 8 X -2 Y 7 X 7 Y 8 X -59 Y 7 X 29 Y 8 X -40 Y 7 X 4 Y 8 X -17 Y 7 X 13 Y 8 X -4 Y 7 X -35 Y 8 X -32 Y 7 X 46 Y 8 X -62 Y 30 X -63 Y 15 X 63 Y 8 X -63 Y 22 X 40 Y 8 X -40 Y 610 X s 0.999 0.999 0.999 c 305 78 1551 1161 bf black 1551
 1161 m 305 X s 1856 1161 m 78 Y s 1856 1239 m -305 X s 1551 1239 m -78 Y s 1 1 1 c black
 gsave  1553 1179
 t 0 r 0 0 m /Times-Roman findfont 54.6751 sf 0 0 m (V0C-ring 3) show  gr  1 1 1 c 1088 613 1157 27 bf black 1 1 1 c 904 484 1287 125 bf black 904 484 1287 125 bl 1 1 1 c 904 484 1287 125 bf black 904 484 1287 125 bl 1287 125 m 904 X s
 gsave  1944 47
 t 0 r 0 0 m /Times-Roman findfont 46.8644 sf 0 0 m (Multiplicity) show  gr  1287 140 m -15 Y s 1325 132 m -7 Y s 1362 132 m -7 Y s 1400 132 m -7 Y s 1438 140 m -15 Y s 1475 132 m -7 Y s 1513 132 m -7 Y s 1551 132 m -7 Y s 1588 140 m -15 Y s 1626
 132 m -7 Y s 1664 132 m -7 Y s 1701 132 m -7 Y s 1739 140 m -15 Y s 1777 132 m -7 Y s 1814 132 m -7 Y s 1852 132 m -7 Y s 1889 140 m -15 Y s 1927 132 m -7 Y s 1965 132 m -7 Y s 2002 132 m -7 Y s 2040 140 m -15 Y s 2078 132 m -7 Y s 2115 132 m -7 Y s
 2153 132 m -7 Y s 2191 140 m -15 Y s
 gsave  1269 86
 t 0 r 0 0 m /Times-Roman findfont 46.8644 sf 0 0 m (0) show  gr 
 gsave  1409 86
 t 0 r 0 0 m /Times-Roman findfont 46.8644 sf 0 0 m (20) show  gr 
 gsave  1557 86
 t 0 r 0 0 m /Times-Roman findfont 46.8644 sf 0 0 m (40) show  gr 
 gsave  1710 86
 t 0 r 0 0 m /Times-Roman findfont 46.8644 sf 0 0 m (60) show  gr 
 gsave  1862 86
 t 0 r 0 0 m /Times-Roman findfont 46.8644 sf 0 0 m (80) show  gr 
 gsave  1998 86
 t 0 r 0 0 m /Times-Roman findfont 46.8644 sf 0 0 m (100) show  gr 
 gsave  2151 86
 t 0 r 0 0 m /Times-Roman findfont 46.8644 sf 0 0 m (120) show  gr  1287 125 m 484 Y s 1313 125 m -26 X s
 /xs 0 def (1) /Times-Roman 46.8644 stwn  gsave  1275 106
 t 0 r  xs neg 0 t 0 0 m /Times-Roman findfont 46.8644 sf 0 0 m (1) show  gr  1300 164 m -13 X s 1300 187 m -13 X s 1300 204 m -13 X s 1300 216 m -13 X s 1300 227 m -13 X s 1300 235 m -13 X s 1300 243 m -13 X s 1300 250 m -13 X s 1313 256 m -26 X
 s
 /xs 0 def (10) /Times-Roman 46.8644 stwn  gsave  1275 237
 t 0 r  xs neg 0 t 0 0 m /Times-Roman findfont 46.8644 sf 0 0 m (10) show  gr  1300 295 m -13 X s 1300 318 m -13 X s 1300 335 m -13 X s 1300 347 m -13 X s 1300 358 m -13 X s 1300 366 m -13 X s 1300 374 m -13 X s 1300 381 m -13 X s 1313 387 m -26 X
 s
 gsave  1253 398
 t 0 r 0 0 m /Times-Roman findfont 31.2429 sf 0 0 m (2) show  gr 
 gsave  1202 375
 t 0 r 0 0 m /Times-Roman findfont 46.8644 sf 0 0 m (10) show  gr  1300 426 m -13 X s 1300 449 m -13 X s 1300 466 m -13 X s 1300 478 m -13 X s 1300 489 m -13 X s 1300 497 m -13 X s 1300 505 m -13 X s 1300 512 m -13 X s 1313 518 m -26 X s
 gsave  1253 523
 t 0 r 0 0 m /Times-Roman findfont 31.2429 sf 0 0 m (3) show  gr 
 gsave  1202 500
 t 0 r 0 0 m /Times-Roman findfont 46.8644 sf 0 0 m (10) show  gr  1300 557 m -13 X s 1300 580 m -13 X s 1300 596 m -13 X s 0.5 0.5 0.5 c black 0.5 0.5 0.5 c 1287 125 m 8 X 407 Y 7 X -9 Y 8 X -13 Y 7 X -18 Y 8 X -8 Y 7 X -20 Y 8 X -12 Y 7 X -7 Y 8
 X -7 Y 7 X -15 Y 8 X -5 Y 8 X -11 Y 7 X -6 Y 8 X 1 Y 7 X -11 Y 8 X -4 Y 7 X -6 Y 8 X -11 Y 7 X -1 Y 8 X -4 Y 7 X 4 Y 8 X -13 Y 7 X 3 Y 8 X -3 Y 7 X -13 Y 8 X -11 Y 7 X 14 Y 8 X 8 Y 7 X -36 Y 8 X 33 Y 8 X -27 Y 7 X -6 Y 8 X -4 Y 7 X 8 Y 8 X -21 Y 7 X
 -9 Y 8 X 9 Y 7 X -30 Y 8 X 27 Y 7 X -16 Y 8 X -16 Y 7 X 5 Y 8 X -5 Y 7 X 32 Y 8 X -19 Y 7 X -63 Y 8 X 82 Y 8 X -42 Y 7 X -29 Y 8 X -11 Y 7 X -52 Y 8 X 23 Y 7 X 17 Y 8 X -40 Y 7 X 23 Y 8 X 40 Y 7 X -11 Y 8 X -52 Y 7 X 40 Y 8 X -79 Y 173 X 39 Y 8 X
 -39 Y 271 X f black 0.5 0.5 0.5 c black 1287 125 m 8 X 407 Y 7 X -9 Y 8 X -13 Y 7 X -18 Y 8 X -8 Y 7 X -20 Y 8 X -12 Y 7 X -7 Y 8 X -7 Y 7 X -15 Y 8 X -5 Y 8 X -11 Y 7 X -6 Y 8 X 1 Y 7 X -11 Y 8 X -4 Y 7 X -6 Y 8 X -11 Y 7 X -1 Y 8 X -4 Y 7 X 4 Y 8
 X -13 Y 7 X 3 Y 8 X -3 Y 7 X -13 Y 8 X -11 Y 7 X 14 Y 8 X 8 Y 7 X -36 Y 8 X 33 Y 8 X -27 Y 7 X -6 Y 8 X -4 Y 7 X 8 Y 8 X -21 Y 7 X -9 Y 8 X 9 Y 7 X -30 Y 8 X 27 Y 7 X -16 Y 8 X -16 Y 7 X 5 Y 8 X -5 Y 7 X 32 Y 8 X -19 Y 7 X -63 Y 8 X 82 Y 8 X -42 Y 7
 X -29 Y 8 X -11 Y 7 X -52 Y 8 X 23 Y 7 X 17 Y 8 X -40 Y 7 X 23 Y 8 X 40 Y 7 X -11 Y 8 X -52 Y 7 X 40 Y 8 X -79 Y 173 X 39 Y 8 X -39 Y 271 X s 0.8 0.8 0.8 c black 0.8 0.8 0.8 c 1287 125 m 8 X 421 Y 7 X -26 Y 8 X -27 Y 7 X -33 Y 8 X -20 Y 7 X -7 Y 8 X
 -20 Y 7 X -3 Y 8 X -6 Y 7 X -17 Y 8 X -21 Y 8 X 13 Y 7 X -18 Y 8 X -13 Y 7 X 11 Y 8 X -7 Y 7 X -15 Y 8 X -5 Y 7 X -7 Y 8 X -24 Y 7 X 7 Y 8 X -22 Y 7 X -15 Y 8 X -10 Y 7 X -34 Y 8 X -40 Y 7 X 56 Y 8 X -56 Y 15 X -62 Y 8 X 62 Y 7 X -62 Y 8 X 39 Y 15 X
 -39 Y 82 X 39 Y 8 X -39 Y 550 X f black 0.8 0.8 0.8 c black 1287 125 m 8 X 421 Y 7 X -26 Y 8 X -27 Y 7 X -33 Y 8 X -20 Y 7 X -7 Y 8 X -20 Y 7 X -3 Y 8 X -6 Y 7 X -17 Y 8 X -21 Y 8 X 13 Y 7 X -18 Y 8 X -13 Y 7 X 11 Y 8 X -7 Y 7 X -15 Y 8 X -5 Y 7 X
 -7 Y 8 X -24 Y 7 X 7 Y 8 X -22 Y 7 X -15 Y 8 X -10 Y 7 X -34 Y 8 X -40 Y 7 X 56 Y 8 X -56 Y 15 X -62 Y 8 X 62 Y 7 X -62 Y 8 X 39 Y 15 X -39 Y 82 X 39 Y 8 X -39 Y 550 X s 0.999 0.999 0.999 c 305 78 1551 495 bf black 1551 495 m 305 X s 1856 495 m 78 Y
 s 1856 573 m -305 X s 1551 573 m -78 Y s 1 1 1 c black
 gsave  1553 511
 t 0 r 0 0 m /Times-Roman findfont 54.6751 sf 0 0 m (V0C-ring 4) show  gr 
 gr  gr 
showpage
end
%%EOF
