%!PS-Adobe-3.0 EPSF-3.0
%%BoundingBox: 34 154 576 696
%%Title: C:\users\essertaize\LASER_A4_A4SCHEMA.PS
%%Creator: GSview from C:\users\essertaize\LASER_A4_A4SCHEMA.PS
%%CreationDate: Fri Jun 04 10:04:36 2004
%%Pages: 1
%%EndComments
%%Page: 1 1
%%BeginDocument: C:\users\essertaize\LASER_A4_A4SCHEMA.PS
%![PS-Adobe-1.0]%%
%%[Status: Busy;Source: Serial 9]%%
%%[Creator: ]%%
%%[Title: Fichier Postscript]%%
%%[Creation Date: mon may 28 10:00:00 1990]%%
%%[DocumentFonts: Courier]%%
%%BoundingBox:         28         28        610        851
%%Pages: (atend)
%%[EndComments]%%
/c { setrgbcolor } def
/w { setlinewidth } def
/m { moveto } def
/l { lineto } def
/n { newpath } def
/h { show } def
/r { rotate } def
/e { ellipse } def
/cu { curveto } def
/sc { scale } def
/rc { rectclip } def
/ic { initclip } def
/cc { closepath clip } def
/sp { showpage } def
/tr { translate } def
/mf { makefont setfont } def
/gs { gsave } def
/gr { grestore } def
/s { stroke } def
/ISOdict 12 dict def
/ISOcode
{ ISOdict begin
/newcodes exch def/newfontname exch def/basefontname exch def
/basefontdict basefontname findfont def
/newfont basefontdict maxlength dict def
basefontdict {exch dup /FID ne {dup/Encoding eq
{exch dup length array copy newfont 3 1 roll put}
{exch newfont 3 1 roll put}ifelse}{pop pop}ifelse}forall 
newfont/FontName newfontname put
newcodes aload pop
newcodes length 2 idiv 
{newfont/Encoding get 3 1 roll put} repeat
newfontname newfont definefont pop end } def
/scandvec[
8#202/Ccedilla 8#203/Eacute 8#205/Odieresis 8#206/Udieresis
8#210/agrave 8#211/acircumflex 8#212/adieresis 8#215/ccedilia
8#216/eacute 8#217/egrave 8#220/ecircumflex 8#221/edieresis
8#224/icircumflex 8#225/idieresis 8#231/ocircumflex
8#232/odieresis 8#235/ugrave 8#236/ucircumflex
8#237/udieresis 8#251/copyright 8#313/Agrave
8#344/Acircumflex 8#345/Adieresis
8#346/Ecircumflex 8#350/Edieresis 8#351/Egrave
8#353/Icircumflex 8#354/Idieresis 8#357/Ocircumflex 
8#363/Ugrave 8#364/Ucircumflex ] def

%%[Definition d'une ellipse]%%
/ellipsedict 8 dict def
ellipsedict/mtrx matrix put
/ellipse { ellipsedict begin
/endangle exch def /startangle exch def
/yrad exch def /xrad exch def
/y exch def /x exch def
/savematrix mtrx currentmatrix def
x y translate xrad yrad scale
0 0 1 startangle endangle arc
savematrix setmatrix end } def

%%[Definition de la police de caracteres]%%
/Courier /Courier_ISO scandvec ISOcode
/pol1 /Courier_ISO findfont def
2 setlinejoin
[] 0 setdash

%%[c:/users/essertaize/A4SCHEMA                Name of the drawi]%%
%%[                                            User name        ]%%
%%[     10                                     Category         ]%%

%%[scale transformation in cm]%%
   28.3465    28.3465 sc
0 0 tr
0.013 w
%%Page:  0   1
    0.5000     0.5000    20.5000    28.9929 rc
0.049 w
n
   10.7500    14.9964     1.1714   -90.0000   270.0000 arc
s
n
   10.7500    14.9964     2.2550   -90.0000   270.0000 arc
s
n
   10.7500    14.9964     6.2379   -90.0000   270.0000 arc
s
n
   10.7500    14.9964     9.4886   -90.0000   270.0000 arc
s
n
    1.2614    14.9964 m
    9.5786    14.9964 l
s
n
   10.7500     5.5079 m
   10.7500    13.8250 l
s
n
   11.5783    15.8248 m
   17.4594    21.7059 l
s
n
   10.7500    16.1679 m
   10.7500    24.4850 l
s
n
   11.9214    14.9964 m
   20.2386    14.9964 l
s
n
   10.7500    14.9964     3.8071   -90.0000   270.0000 arc
s
0.024 w
n
   12.2069    18.5138 m
   12.2257    18.5590 l
s
n
   12.2632    18.6495 m
   12.3006    18.7400 l
s
n
   12.3381    18.8305 m
   12.3756    18.9210 l
s
n
   12.4131    19.0115 m
   12.4506    19.1020 l
s
n
   12.4881    19.1925 m
   12.5256    19.2830 l
s
n
   12.5630    19.3735 m
   12.6005    19.4640 l
s
n
   12.6380    19.5545 m
   12.6755    19.6450 l
s
n
   12.7130    19.7355 m
   12.7505    19.8260 l
s
n
   12.7880    19.9165 m
   12.8254    20.0070 l
s
n
   12.8629    20.0975 m
   12.9004    20.1880 l
s
n
   12.9379    20.2785 m
   12.9754    20.3690 l
s
n
   13.0129    20.4595 m
   13.0504    20.5500 l
s
n
   13.0878    20.6405 m
   13.1253    20.7310 l
s
n
   13.1628    20.8215 m
   13.2003    20.9120 l
s
n
   13.2378    21.0025 m
   13.2753    21.0930 l
s
n
   13.3128    21.1835 m
   13.3502    21.2740 l
s
n
   13.3877    21.3645 m
   13.4252    21.4550 l
s
n
   13.4627    21.5455 m
   13.5002    21.6360 l
s
n
   13.5377    21.7265 m
   13.5752    21.8170 l
s
n
   13.6126    21.9075 m
   13.6501    21.9980 l
s
n
   13.6876    22.0885 m
   13.7251    22.1790 l
s
n
   13.7626    22.2695 m
   13.8001    22.3600 l
s
n
   13.8376    22.4505 m
   13.8750    22.5410 l
s
n
   13.9125    22.6315 m
   13.9500    22.7220 l
s
n
   13.9875    22.8125 m
   14.0250    22.9030 l
s
n
   14.0625    22.9935 m
   14.1000    23.0840 l
s
n
   14.1374    23.1745 m
   14.1749    23.2650 l
s
n
   14.2124    23.3555 m
   14.2499    23.4460 l
s
n
   14.2874    23.5365 m
   14.3249    23.6270 l
s
n
   14.3624    23.7175 m
   14.3811    23.7628 l
s
n
   14.2673    16.4534 m
   14.3126    16.4721 l
s
n
   14.4031    16.5096 m
   14.4936    16.5471 l
s
n
   14.5841    16.5846 m
   14.6746    16.6220 l
s
n
   14.7651    16.6595 m
   14.8556    16.6970 l
s
n
   14.9461    16.7345 m
   15.0366    16.7720 l
s
n
   15.1271    16.8095 m
   15.2176    16.8470 l
s
n
   15.3081    16.8844 m
   15.3986    16.9219 l
s
n
   15.4891    16.9594 m
   15.5796    16.9969 l
s
n
   15.6701    17.0344 m
   15.7606    17.0719 l
s
n
   15.8511    17.1094 m
   15.9416    17.1469 l
s
n
   16.0321    17.1843 m
   16.1226    17.2218 l
s
n
   16.2131    17.2593 m
   16.3036    17.2968 l
s
n
   16.3941    17.3343 m
   16.4846    17.3718 l
s
n
   16.5751    17.4093 m
   16.6656    17.4467 l
s
n
   16.7561    17.4842 m
   16.8466    17.5217 l
s
n
   16.9371    17.5592 m
   17.0276    17.5967 l
s
n
   17.1181    17.6342 m
   17.2086    17.6717 l
s
n
   17.2991    17.7091 m
   17.3896    17.7466 l
s
n
   17.4801    17.7841 m
   17.5706    17.8216 l
s
n
   17.6611    17.8591 m
   17.7516    17.8966 l
s
n
   17.8421    17.9341 m
   17.9326    17.9715 l
s
n
   18.0231    18.0090 m
   18.1136    18.0465 l
s
n
   18.2041    18.0840 m
   18.2946    18.1215 l
s
n
   18.3851    18.1590 m
   18.4756    18.1965 l
s
n
   18.5661    18.2339 m
   18.6566    18.2714 l
s
n
   18.7471    18.3089 m
   18.8376    18.3464 l
s
n
   18.9281    18.3839 m
   19.0186    18.4214 l
s
n
   19.1091    18.4589 m
   19.1996    18.4963 l
s
n
   19.2901    18.5338 m
   19.3806    18.5713 l
s
n
   19.4711    18.6088 m
   19.5163    18.6275 l
s
n
   14.2673    13.5395 m
   14.3126    13.5208 l
s
n
   14.4031    13.4833 m
   14.4936    13.4458 l
s
n
   14.5841    13.4083 m
   14.6746    13.3708 l
s
n
   14.7651    13.3333 m
   14.8556    13.2958 l
s
n
   14.9461    13.2584 m
   15.0366    13.2209 l
s
n
   15.1271    13.1834 m
   15.2176    13.1459 l
s
n
   15.3081    13.1084 m
   15.3986    13.0709 l
s
n
   15.4891    13.0334 m
   15.5796    12.9960 l
s
n
   15.6701    12.9585 m
   15.7606    12.9210 l
s
n
   15.8511    12.8835 m
   15.9416    12.8460 l
s
n
   16.0321    12.8085 m
   16.1226    12.7710 l
s
n
   16.2131    12.7336 m
   16.3036    12.6961 l
s
n
   16.3941    12.6586 m
   16.4846    12.6211 l
s
n
   16.5751    12.5836 m
   16.6656    12.5461 l
s
n
   16.7561    12.5086 m
   16.8466    12.4712 l
s
n
   16.9371    12.4337 m
   17.0276    12.3962 l
s
n
   17.1181    12.3587 m
   17.2086    12.3212 l
s
n
   17.2991    12.2837 m
   17.3896    12.2462 l
s
n
   17.4801    12.2088 m
   17.5706    12.1713 l
s
n
   17.6611    12.1338 m
   17.7516    12.0963 l
s
n
   17.8421    12.0588 m
   17.9326    12.0213 l
s
n
   18.0231    11.9838 m
   18.1136    11.9464 l
s
n
   18.2041    11.9089 m
   18.2946    11.8714 l
s
n
   18.3851    11.8339 m
   18.4756    11.7964 l
s
n
   18.5661    11.7589 m
   18.6566    11.7214 l
s
n
   18.7471    11.6840 m
   18.8376    11.6465 l
s
n
   18.9281    11.6090 m
   19.0186    11.5715 l
s
n
   19.1091    11.5340 m
   19.1996    11.4965 l
s
n
   19.2901    11.4590 m
   19.3806    11.4216 l
s
n
   19.4711    11.3841 m
   19.5163    11.3653 l
s
0.049 w
n
   11.5783    14.1681 m
   17.4594     8.2870 l
s
0.024 w
n
   12.2069    11.4791 m
   12.2257    11.4338 l
s
n
   12.2632    11.3433 m
   12.3006    11.2528 l
s
n
   12.3381    11.1623 m
   12.3756    11.0718 l
s
n
   12.4131    10.9813 m
   12.4506    10.8908 l
s
n
   12.4881    10.8003 m
   12.5256    10.7098 l
s
n
   12.5630    10.6193 m
   12.6005    10.5288 l
s
n
   12.6380    10.4383 m
   12.6755    10.3478 l
s
n
   12.7130    10.2573 m
   12.7505    10.1668 l
s
n
   12.7880    10.0763 m
   12.8254     9.9858 l
s
n
   12.8629     9.8953 m
   12.9004     9.8048 l
s
n
   12.9379     9.7143 m
   12.9754     9.6238 l
s
n
   13.0129     9.5333 m
   13.0504     9.4429 l
s
n
   13.0878     9.3524 m
   13.1253     9.2619 l
s
n
   13.1628     9.1714 m
   13.2003     9.0809 l
s
n
   13.2378     8.9904 m
   13.2753     8.8999 l
s
n
   13.3128     8.8094 m
   13.3502     8.7189 l
s
n
   13.3877     8.6284 m
   13.4252     8.5379 l
s
n
   13.4627     8.4474 m
   13.5002     8.3569 l
s
n
   13.5377     8.2664 m
   13.5752     8.1759 l
s
n
   13.6126     8.0854 m
   13.6501     7.9949 l
s
n
   13.6876     7.9044 m
   13.7251     7.8139 l
s
n
   13.7626     7.7234 m
   13.8001     7.6329 l
s
n
   13.8376     7.5424 m
   13.8750     7.4519 l
s
n
   13.9125     7.3614 m
   13.9500     7.2709 l
s
n
   13.9875     7.1804 m
   14.0250     7.0899 l
s
n
   14.0625     6.9994 m
   14.1000     6.9089 l
s
n
   14.1374     6.8184 m
   14.1749     6.7279 l
s
n
   14.2124     6.6374 m
   14.2499     6.5469 l
s
n
   14.2874     6.4564 m
   14.3249     6.3659 l
s
n
   14.3624     6.2754 m
   14.3811     6.2301 l
s
n
    9.2931    11.4791 m
    9.2743    11.4338 l
s
n
    9.2368    11.3433 m
    9.1994    11.2528 l
s
n
    9.1619    11.1623 m
    9.1244    11.0718 l
s
n
    9.0869    10.9813 m
    9.0494    10.8908 l
s
n
    9.0119    10.8003 m
    8.9744    10.7098 l
s
n
    8.9370    10.6193 m
    8.8995    10.5288 l
s
n
    8.8620    10.4383 m
    8.8245    10.3478 l
s
n
    8.7870    10.2573 m
    8.7495    10.1668 l
s
n
    8.7120    10.0763 m
    8.6746     9.9858 l
s
n
    8.6371     9.8953 m
    8.5996     9.8048 l
s
n
    8.5621     9.7143 m
    8.5246     9.6238 l
s
n
    8.4871     9.5333 m
    8.4496     9.4429 l
s
n
    8.4122     9.3524 m
    8.3747     9.2619 l
s
n
    8.3372     9.1714 m
    8.2997     9.0809 l
s
n
    8.2622     8.9904 m
    8.2247     8.8999 l
s
n
    8.1872     8.8094 m
    8.1498     8.7189 l
s
n
    8.1123     8.6284 m
    8.0748     8.5379 l
s
n
    8.0373     8.4474 m
    7.9998     8.3569 l
s
n
    7.9623     8.2664 m
    7.9248     8.1759 l
s
n
    7.8874     8.0854 m
    7.8499     7.9949 l
s
n
    7.8124     7.9044 m
    7.7749     7.8139 l
s
n
    7.7374     7.7234 m
    7.6999     7.6329 l
s
n
    7.6624     7.5424 m
    7.6249     7.4519 l
s
n
    7.5875     7.3614 m
    7.5500     7.2709 l
s
n
    7.5125     7.1804 m
    7.4750     7.0899 l
s
n
    7.4375     6.9994 m
    7.4000     6.9089 l
s
n
    7.3625     6.8184 m
    7.3251     6.7279 l
s
n
    7.2876     6.6374 m
    7.2501     6.5469 l
s
n
    7.2126     6.4564 m
    7.1751     6.3659 l
s
n
    7.1376     6.2754 m
    7.1189     6.2301 l
s
0.049 w
n
    9.9217    14.1681 m
    4.0406     8.2870 l
s
0.024 w
n
    7.2327    13.5395 m
    7.1874    13.5208 l
s
n
    7.0969    13.4833 m
    7.0064    13.4458 l
s
n
    6.9159    13.4083 m
    6.8254    13.3708 l
s
n
    6.7349    13.3333 m
    6.6444    13.2958 l
s
n
    6.5539    13.2584 m
    6.4634    13.2209 l
s
n
    6.3729    13.1834 m
    6.2824    13.1459 l
s
n
    6.1919    13.1084 m
    6.1014    13.0709 l
s
n
    6.0109    13.0334 m
    5.9204    12.9960 l
s
n
    5.8299    12.9585 m
    5.7394    12.9210 l
s
n
    5.6489    12.8835 m
    5.5584    12.8460 l
s
n
    5.4679    12.8085 m
    5.3774    12.7710 l
s
n
    5.2869    12.7336 m
    5.1964    12.6961 l
s
n
    5.1059    12.6586 m
    5.0154    12.6211 l
s
n
    4.9249    12.5836 m
    4.8344    12.5461 l
s
n
    4.7439    12.5086 m
    4.6534    12.4712 l
s
n
    4.5629    12.4337 m
    4.4724    12.3962 l
s
n
    4.3819    12.3587 m
    4.2914    12.3212 l
s
n
    4.2009    12.2837 m
    4.1104    12.2462 l
s
n
    4.0199    12.2088 m
    3.9294    12.1713 l
s
n
    3.8389    12.1338 m
    3.7484    12.0963 l
s
n
    3.6579    12.0588 m
    3.5674    12.0213 l
s
n
    3.4769    11.9838 m
    3.3864    11.9464 l
s
n
    3.2959    11.9089 m
    3.2054    11.8714 l
s
n
    3.1149    11.8339 m
    3.0244    11.7964 l
s
n
    2.9339    11.7589 m
    2.8434    11.7214 l
s
n
    2.7529    11.6840 m
    2.6624    11.6465 l
s
n
    2.5719    11.6090 m
    2.4814    11.5715 l
s
n
    2.3910    11.5340 m
    2.3005    11.4965 l
s
n
    2.2100    11.4590 m
    2.1195    11.4216 l
s
n
    2.0290    11.3841 m
    1.9837    11.3653 l
s
n
    7.2327    16.4534 m
    7.1874    16.4721 l
s
n
    7.0969    16.5096 m
    7.0064    16.5471 l
s
n
    6.9159    16.5846 m
    6.8254    16.6220 l
s
n
    6.7349    16.6595 m
    6.6444    16.6970 l
s
n
    6.5539    16.7345 m
    6.4634    16.7720 l
s
n
    6.3729    16.8095 m
    6.2824    16.8470 l
s
n
    6.1919    16.8844 m
    6.1014    16.9219 l
s
n
    6.0109    16.9594 m
    5.9204    16.9969 l
s
n
    5.8299    17.0344 m
    5.7394    17.0719 l
s
n
    5.6489    17.1094 m
    5.5584    17.1469 l
s
n
    5.4679    17.1843 m
    5.3774    17.2218 l
s
n
    5.2869    17.2593 m
    5.1964    17.2968 l
s
n
    5.1059    17.3343 m
    5.0154    17.3718 l
s
n
    4.9249    17.4093 m
    4.8344    17.4467 l
s
n
    4.7439    17.4842 m
    4.6534    17.5217 l
s
n
    4.5629    17.5592 m
    4.4724    17.5967 l
s
n
    4.3819    17.6342 m
    4.2914    17.6717 l
s
n
    4.2009    17.7091 m
    4.1104    17.7466 l
s
n
    4.0199    17.7841 m
    3.9294    17.8216 l
s
n
    3.8389    17.8591 m
    3.7484    17.8966 l
s
n
    3.6579    17.9341 m
    3.5674    17.9715 l
s
n
    3.4769    18.0090 m
    3.3864    18.0465 l
s
n
    3.2959    18.0840 m
    3.2054    18.1215 l
s
n
    3.1149    18.1590 m
    3.0244    18.1965 l
s
n
    2.9339    18.2339 m
    2.8434    18.2714 l
s
n
    2.7529    18.3089 m
    2.6624    18.3464 l
s
n
    2.5719    18.3839 m
    2.4814    18.4214 l
s
n
    2.3910    18.4589 m
    2.3005    18.4963 l
s
n
    2.2100    18.5338 m
    2.1195    18.5713 l
s
n
    2.0290    18.6088 m
    1.9837    18.6275 l
s
0.049 w
n
    9.9217    15.8248 m
    4.0406    21.7059 l
s
0.024 w
n
    9.2931    18.5138 m
    9.2743    18.5590 l
s
n
    9.2368    18.6495 m
    9.1994    18.7400 l
s
n
    9.1619    18.8305 m
    9.1244    18.9210 l
s
n
    9.0869    19.0115 m
    9.0494    19.1020 l
s
n
    9.0119    19.1925 m
    8.9744    19.2830 l
s
n
    8.9370    19.3735 m
    8.8995    19.4640 l
s
n
    8.8620    19.5545 m
    8.8245    19.6450 l
s
n
    8.7870    19.7355 m
    8.7495    19.8260 l
s
n
    8.7120    19.9165 m
    8.6746    20.0070 l
s
n
    8.6371    20.0975 m
    8.5996    20.1880 l
s
n
    8.5621    20.2785 m
    8.5246    20.3690 l
s
n
    8.4871    20.4595 m
    8.4496    20.5500 l
s
n
    8.4122    20.6405 m
    8.3747    20.7310 l
s
n
    8.3372    20.8215 m
    8.2997    20.9120 l
s
n
    8.2622    21.0025 m
    8.2247    21.0930 l
s
n
    8.1872    21.1835 m
    8.1498    21.2740 l
s
n
    8.1123    21.3645 m
    8.0748    21.4550 l
s
n
    8.0373    21.5455 m
    7.9998    21.6360 l
s
n
    7.9623    21.7265 m
    7.9248    21.8170 l
s
n
    7.8874    21.9075 m
    7.8499    21.9980 l
s
n
    7.8124    22.0885 m
    7.7749    22.1790 l
s
n
    7.7374    22.2695 m
    7.6999    22.3600 l
s
n
    7.6624    22.4505 m
    7.6249    22.5410 l
s
n
    7.5875    22.6315 m
    7.5500    22.7220 l
s
n
    7.5125    22.8125 m
    7.4750    22.9030 l
s
n
    7.4375    22.9935 m
    7.4000    23.0840 l
s
n
    7.3625    23.1745 m
    7.3251    23.2650 l
s
n
    7.2876    23.3555 m
    7.2501    23.4460 l
s
n
    7.2126    23.5365 m
    7.1751    23.6270 l
s
n
    7.1376    23.7175 m
    7.1189    23.7628 l
s
0.049 w
n
   12.1651    15.1453 m
   12.1651    15.4013 l
   12.1651    15.6574 l
   12.1651    15.9134 l
   12.0096    15.9134 l
   12.0096    16.0734 l
   12.0782    16.0963 l
   12.1376    16.1329 l
   12.1925    16.1831 l
   12.2291    16.2472 l
   12.2519    16.3157 l
   12.4714    16.3157 l
   12.4714    16.0826 l
   12.4714    15.8494 l
   12.4714    15.6162 l
   12.4714    15.3830 l
   12.4714    15.1453 l
   12.3205    15.1453 l
   12.1651    15.1453 l
s
n
   13.1582    15.6115 m
   13.1582    15.8538 l
   13.3822    16.1282 l
   13.6062    16.4071 l
   13.6200    16.4391 l
   13.6200    16.4711 l
   13.6062    16.4985 l
   13.5834    16.5214 l
   13.5559    16.5351 l
   13.5239    16.5305 l
   13.4919    16.5122 l
   13.4736    16.4894 l
   13.4691    16.4574 l
   13.4691    16.4116 l
   13.3136    16.4116 l
   13.1582    16.4116 l
   13.1582    16.4711 l
   13.1673    16.5397 l
   13.1902    16.6037 l
   13.2268    16.6631 l
   13.2770    16.7134 l
   13.3319    16.7500 l
   13.4005    16.7728 l
   13.4691    16.7820 l
   13.6200    16.7820 l
   13.6885    16.7728 l
   13.7571    16.7500 l
   13.8120    16.7134 l
   13.8623    16.6631 l
   13.8988    16.6037 l
   13.9217    16.5397 l
   13.9309    16.4711 l
   13.9217    16.4025 l
   13.8988    16.3385 l
   13.8623    16.2790 l
   13.6977    16.0687 l
   13.5285    15.8538 l
   13.7297    15.8538 l
   13.9309    15.8538 l
   13.9309    15.6115 l
   13.6748    15.6115 l
   13.4188    15.6115 l
   13.1582    15.6115 l
s
n
   15.4359    16.9635 m
   15.4907    16.9817 l
   15.5273    17.0183 l
   15.5410    17.0732 l
   15.5319    17.1098 l
   15.5044    17.1418 l
   15.4633    17.1509 l
   15.4267    17.1418 l
   15.3993    17.1098 l
   15.3901    17.0732 l
   15.3901    17.0275 l
   15.2347    17.0275 l
   15.0792    17.0275 l
   15.0792    17.0869 l
   15.0975    17.1829 l
   15.1387    17.2698 l
   15.2073    17.3384 l
   15.2941    17.3795 l
   15.3901    17.3978 l
   15.5410    17.3978 l
   15.6370    17.3795 l
   15.7239    17.3384 l
   15.7925    17.2698 l
   15.8336    17.1829 l
   15.8519    17.0869 l
   15.8291    16.9772 l
   15.7696    16.8812 l
   15.6782    16.8126 l
   15.7696    16.7440 l
   15.8291    16.6480 l
   15.8519    16.5337 l
   15.8336    16.4377 l
   15.7925    16.3554 l
   15.7239    16.2868 l
   15.6370    16.2411 l
   15.5410    16.2274 l
   15.3901    16.2274 l
   15.2941    16.2411 l
   15.2073    16.2868 l
   15.1387    16.3554 l
   15.0975    16.4377 l
   15.0792    16.5337 l
   15.0792    16.5977 l
   15.2347    16.5977 l
   15.3901    16.5977 l
   15.3901    16.5474 l
   15.3993    16.5108 l
   15.4267    16.4834 l
   15.4633    16.4742 l
   15.5044    16.4834 l
   15.5319    16.5108 l
   15.5410    16.5474 l
   15.5273    16.6023 l
   15.4907    16.6434 l
   15.4359    16.6571 l
   15.4359    16.8080 l
   15.4359    16.9635 l
s
n
   18.0527    18.6304 m
   18.3270    18.6304 l
   18.3270    18.4064 l
   18.3270    18.1824 l
   18.3270    17.9538 l
   18.4505    17.9538 l
   18.4505    17.6749 l
   18.3270    17.6749 l
   18.3270    17.4600 l
   18.0527    17.4600 l
   18.0527    17.6749 l
   17.8378    17.6749 l
   17.6183    17.6749 l
   17.6183    17.9538 l
   17.7601    18.1778 l
   17.9018    18.4018 l
   18.0527    18.6304 l
s
n
   18.0527    18.1961 m
   17.8972    17.9538 l
   18.0527    17.9538 l
   18.0527    18.1961 l
s

sp
%%Trailer
%%Pages:   1
%%EOF

%%EndDocument
%%Trailer
