%!PS-Adobe-2.0 EPSF-2.0
%%BoundingBox:  0 0 567 569
%%Title: /afs/in2p3.fr/group/alice/brapp/V0TIME/TofDiffV0.eps: Tof
%%Creator: ROOT Version 3.10/02
%%CreationDate: Thu Jul  8 11:15:31 2004
%%EndComments
%%BeginProlog
80 dict begin
/s {stroke} def /l {lineto} def /m {moveto} def /t {translate} def
/sw {stringwidth} def /r {rotate} def /rl {roll}  def /R {repeat} def
/d {rlineto} def /rm {rmoveto} def /gr {grestore} def /f {eofill} def
/c {setrgbcolor} def /lw {setlinewidth} def /sd {setdash} def
/cl {closepath} def /sf {scalefont setfont} def /black {0 setgray} def
/box {m dup 0 exch d exch 0 d 0 exch neg d cl} def
/NC{systemdict begin initclip end}def/C{NC box clip newpath}def
/bl {box s} def /bf {box f} def /Y { 0 exch d} def /X { 0 d} def 
/mp {newpath /y exch def /x exch def} def
/side {[w .77 mul w .23 mul] .385 w mul sd w 0 l currentpoint t -144 r} def
/mr {mp x y w2 0 360 arc} def /m24 {mr s} def /m20 {mr f} def
/mb {mp x y w2 add m w2 neg 0 d 0 w neg d w 0 d 0 w d cl} def
/mt {mp x y w2 add m w2 neg w neg d w 0 d cl} def
/m21 {mb f} def /m25 {mb s} def /m22 {mt f} def /m26{mt s} def
/m23 {mp x y w2 sub m w2 w d w neg 0 d cl f} def
/m27 {mp x y w2 add m w3 neg w2 neg d w3 w2 neg d w3 w2 d cl s} def
/m28 {mp x w2 sub y w2 sub w3 add m w3 0 d  0 w3 neg d w3 0 d 0 w3 d w3 0 d  0 w3 d w3 neg 0 d 0 w3 d w3 neg 0 d
 0 w3 neg d w3 neg 0 d cl s } def
/m29 {mp gsave x w2 sub y w2 add w3 sub m currentpoint t
 4 {side} repeat cl fill gr} def
/m30 {mp gsave x w2 sub y w2 add w3 sub m currentpoint t
 4 {side} repeat cl s gr} def
/m31 {mp x y w2 sub m 0 w d x w2 sub y m w 0 d x w2 sub y w2 add m w w neg d x w2 sub y w2
 sub m w w d s} def
/m2 {mp x y w2 sub m 0 w d x w2 sub y m w 0 d s} def
/m5 {mp x w2 sub y w2 sub m w w d x w2 sub y w2 add m w w neg d s} def
/reencdict 24 dict def /ReEncode {reencdict begin /nco&na exch def
/nfnam exch def /basefontname exch def /basefontdict basefontname findfont def
/newfont basefontdict maxlength dict def basefontdict {exch dup /FID ne
{dup /Encoding eq {exch dup length array copy newfont 3 1 roll put} {exch 
newfont 3 1 roll put} ifelse} {pop pop} ifelse } forall newfont
/FontName nfnam put nco&na aload pop nco&na length 2 idiv {newfont
/Encoding get 3 1 roll put} repeat nfnam newfont definefont pop end } def
/accvec [ 176 /agrave 181 /Agrave 190 /acircumflex 192 /Acircumflex
201 /adieresis 204 /Adieresis 209 /ccedilla 210 /Ccedilla 211 /eacute
212 /Eacute 213 /egrave 214 /Egrave 215 /ecircumflex 216 /Ecircumflex
217 /edieresis 218 /Edieresis 219 /icircumflex 220 /Icircumflex
221 /idieresis 222 /Idieresis 223 /ntilde 224 /Ntilde 226 /ocircumflex
228 /Ocircumflex 229 /odieresis 230 /Odieresis 231 /ucircumflex 236 /Ucircumflex
237 /udieresis 238 /Udieresis 239 /aring 242 /Aring 243 /ydieresis
244 /Ydieresis 246 /aacute 247 /Aacute 252 /ugrave 253 /Ugrave] def
/Times-Roman /Times-Roman accvec ReEncode
/Times-Italic /Times-Italic accvec ReEncode
/Times-Bold /Times-Bold accvec ReEncode
/Times-BoldItalic /Times-BoldItalic accvec ReEncode
/Helvetica /Helvetica accvec ReEncode
/Helvetica-Oblique /Helvetica-Oblique accvec ReEncode
/Helvetica-Bold /Helvetica-Bold accvec ReEncode
/Helvetica-BoldOblique /Helvetica-BoldOblique  accvec ReEncode
/Courier /Courier accvec ReEncode
/Courier-Oblique /Courier-Oblique accvec ReEncode
/Courier-Bold /Courier-Bold accvec ReEncode
/Courier-BoldOblique /Courier-BoldOblique accvec ReEncode
/oshow {gsave [] 0 sd true charpath stroke gr} def
/stwn { /fs exch def /fn exch def /text exch def fn findfont fs sf
 text sw pop xs add /xs exch def} def
/stwb { /fs exch def /fn exch def /nbas exch def /textf exch deftextf length /tlen exch def nbas tlen gt {/nbas tlendef} iffn findfont fs sf textf dup length nbas sub nbas getinterval sw
pop neg xs add /xs exch def} def
/accspe [ 65 /plusminus  66 /bar  67 /existential  68 /universal 
69 /exclam  70 /numbersign 71 /greater  72 /question  73 /integral 
74 /colon  75 /semicolon  76 /less  77 /bracketleft  78 /bracketright
79 /greaterequal 80 /braceleft 81 /braceright 82 /radical
83 /spade 84 /heart 85 /diamond 86 /club 87 /lessequal
88 /multiply 89 /percent 90 /infinity 48 /circlemultiply 49 /circleplus
50 /emptyset  51 /lozenge 52 /bullet 53 /arrowright 54 /arrowup
55 /arrowleft 56 /arrowdown 57 /arrowboth 48 /degree 44 /comma 43 /plus 45 /angle 42 /angleleft 47 /divide 61 /notequal 40 /equivalence 41 /second 97 /approxequal 98 /congruent 99 /perpendicular 100 /partialdiff 101 /florin 102 /intersection
 103 /union 104 /propersuperset 105 /reflexsuperset 106 /notsubset 107 /propersubset 108 /reflexsubset 109 /element 110 /notelement 111 /gradient 112 /logicaland 113 /logicalor 114 /arrowdblboth 115 /arrowdblleft 116 /arrowdblup 117 /arrowdblright
 118 /arrowdbldown 119 /ampersand 120 /omega1 121 /similar 122 /aleph ] def
/Symbol /Special accspe ReEncode
%%EndProlog
%%BeginSetup
newpath  gsave  .25 .25 scale 
%%EndSetup
 gsave  0 0 t black [] 0 sd 3 lw 1 1 1 c 2268 2277 0 0 bf black 1 1 1 c 1834 1751 318 367 bf black 1834 1751 318 367 bl 1 1 1 c 1834 1751 318 367 bf black 1834 1751 318 367 bl 0 0 1 c 1 1 1 c black 0 0 1 c 318 367 m 344 X 1 Y 7 X -1 Y 22 X 1 Y 7 X 1
 Y 8 X -2 Y 7 X 1 Y 7 X -1 Y 15 X 2 Y 7 X -2 Y 29 X 1 Y 8 X -1 Y 22 X 1 Y 7 X -1 Y 58 X 1 Y 8 X -1 Y 29 X 2 Y 7 X -1 Y 7 X 1 Y 8 X -1 Y 7 X -1 Y 7 X 1 Y 8 X -1 Y 7 X 4 Y 7 X -3 Y 15 X 2 Y 7 X -1 Y 7 X -2 Y 8 X 5 Y 7 X -2 Y 15 X 3 Y 7 X -6 Y 7 X 4 Y 8
 X 1 Y 14 X 3 Y 8 X 2 Y 14 X -1 Y 7 X 5 Y 15 X -5 Y 7 X 6 Y 8 X 3 Y 7 X 6 Y 7 X 5 Y 8 X -4 Y 7 X 12 Y 7 X 12 Y 7 X -13 Y 8 X 28 Y 7 X -15 Y 7 X 28 Y 8 X 7 Y 7 X 46 Y 7 X -22 Y 8 X 56 Y 7 X 42 Y 7 X 42 Y 8 X 44 Y 7 X 73 Y 7 X 69 Y 7 X 110 Y 8 X 68 Y 7
 X 107 Y 7 X 128 Y 8 X 117 Y 7 X 143 Y 7 X 26 Y 8 X 170 Y 7 X 11 Y 7 X -60 Y 7 X -13 Y 8 X -51 Y 7 X -62 Y 7 X -149 Y 8 X -102 Y 7 X -109 Y 7 X -137 Y 8 X -146 Y 7 X -103 Y 7 X -71 Y 8 X -58 Y 7 X -51 Y 7 X -36 Y 7 X -44 Y 8 X -45 Y 7 X -5 Y 7 X 1 Y
 8 X -25 Y 7 X -10 Y 7 X -9 Y 8 X -9 Y 7 X 7 Y 7 X -15 Y 15 X 4 Y 7 X -2 Y 7 X -1 Y 8 X -7 Y 7 X 8 Y 7 X -7 Y 8 X 4 Y 7 X -1 Y 7 X -4 Y 8 X 2 Y 7 X -2 Y 7 X 4 Y 7 X -2 Y 8 X -1 Y 7 X 2 Y 15 X 3 Y 7 X -8 Y 7 X 3 Y 8 X 1 Y 7 X -2 Y 7 X 2 Y 15 X -2 Y 7
 X 5 Y 7 X 1 Y 8 X -2 Y 7 X -2 Y 7 X 5 Y 8 X -9 Y 7 X 9 Y 7 X -2 Y 8 X -4 Y 7 X 5 Y 7 X -4 Y 7 X 6 Y 8 X -11 Y 7 X 7 Y 7 X -8 Y 8 X 10 Y 7 X -9 Y 7 X 1 Y 15 X 3 Y 7 X -3 Y 8 X 5 Y 7 X 5 Y 7 X -4 Y 7 X -4 Y 8 X 8 Y 7 X -9 Y 7 X 4 Y 8 X -5 Y 7 X 4 Y 7
 X -4 Y 8 X 2 Y 7 X -1 Y 7 X -3 Y 7 X 2 Y 8 X 3 Y 7 X -2 Y 7 X -4 Y 8 X 8 Y 7 X -4 Y 7 X 4 Y 8 X -2 Y 7 X 3 Y 7 X -5 Y 8 X -3 Y 7 X 5 Y 7 X 1 Y 7 X -7 Y 8 X 2 Y 14 X 1 Y 15 X -1 Y 7 X -1 Y 8 X 5 Y 7 X -2 Y 7 X -3 Y 7 X 1 Y 8 X 4 Y 7 X -2 Y 7 X 1 Y 8
 X -3 Y 7 X -1 Y 7 X -2 Y 8 X 7 Y 7 X s black 318 367 m 1834 X s
 gsave  1901 198
 t 0 r 0 0 m /Times-Roman findfont 106.148 sf 0 0 m (| \(ns\)) show  gr 
 gsave  1761 159
 t 0 r 0 0 m /Times-Roman findfont 72.3739 sf 0 0 m (V0C) show  gr 
 gsave  1689 198
 t 0 r 0 0 m /Times-Roman findfont 106.148 sf 0 0 m (-t) show  gr 
 gsave  1544 159
 t 0 r 0 0 m /Times-Roman findfont 72.3739 sf 0 0 m (V0A) show  gr 
 gsave  1476 198
 t 0 r 0 0 m /Times-Roman findfont 106.148 sf 0 0 m (|t) show  gr  318 422 m -55 Y s 391 394 m -27 Y s 465 394 m -27 Y s 538 394 m -27 Y s 611 394 m -27 Y s 684 422 m -55 Y s 757 394 m -27 Y s 830 394 m -27 Y s 903 394 m -27 Y s 976 394 m -27 Y s
 1049 422 m -55 Y s 1122 394 m -27 Y s 1195 394 m -27 Y s 1268 394 m -27 Y s 1341 394 m -27 Y s 1414 422 m -55 Y s 1487 394 m -27 Y s 1560 394 m -27 Y s 1633 394 m -27 Y s 1706 394 m -27 Y s 1779 422 m -55 Y s 1852 394 m -27 Y s 1925 394 m -27 Y s
 1999 394 m -27 Y s 2072 394 m -27 Y s 2145 422 m -55 Y s 2145 422 m -55 Y s
 gsave  289 265
 t 0 r 0 0 m /Times-Roman findfont 106.148 sf 0 0 m (0) show  gr 
 gsave  651 265
 t 0 r 0 0 m /Times-Roman findfont 106.148 sf 0 0 m (5) show  gr 
 gsave  989 265
 t 0 r 0 0 m /Times-Roman findfont 106.148 sf 0 0 m (10) show  gr 
 gsave  1356 265
 t 0 r 0 0 m /Times-Roman findfont 106.148 sf 0 0 m (15) show  gr 
 gsave  1718 265
 t 0 r 0 0 m /Times-Roman findfont 106.148 sf 0 0 m (20) show  gr 
 gsave  2084 265
 t 0 r 0 0 m /Times-Roman findfont 106.148 sf 0 0 m (25) show  gr  318 367 m 1751 Y s 371 367 m -53 X s 345 425 m -27 X s 345 483 m -27 X s 345 542 m -27 X s 371 600 m -53 X s 345 659 m -27 X s 345 717 m -27 X s 345 775 m -27 X s 371 834 m -53 X s
 345 892 m -27 X s 345 951 m -27 X s 345 1009 m -27 X s 371 1067 m -53 X s 345 1126 m -27 X s 345 1184 m -27 X s 345 1242 m -27 X s 371 1301 m -53 X s 345 1359 m -27 X s 345 1418 m -27 X s 345 1476 m -27 X s 371 1534 m -53 X s 345 1593 m -27 X s 345
 1651 m -27 X s 345 1709 m -27 X s 371 1768 m -53 X s 345 1826 m -27 X s 345 1885 m -27 X s 345 1943 m -27 X s 371 2001 m -53 X s 371 2001 m -53 X s 345 2060 m -27 X s 345 2118 m -27 X s
 gsave  246 338
 t 0 r 0 0 m /Times-Roman findfont 106.148 sf 0 0 m (0) show  gr 
 gsave  72 574
 t 0 r 0 0 m /Times-Roman findfont 106.148 sf 0 0 m (2000) show  gr 
 gsave  72 806
 t 0 r 0 0 m /Times-Roman findfont 106.148 sf 0 0 m (4000) show  gr 
 gsave  72 1042
 t 0 r 0 0 m /Times-Roman findfont 106.148 sf 0 0 m (6000) show  gr 
 gsave  72 1274
 t 0 r 0 0 m /Times-Roman findfont 106.148 sf 0 0 m (8000) show  gr 
 gsave  10 1505
 t 0 r 0 0 m /Times-Roman findfont 106.148 sf 0 0 m (10000) show  gr 
 gsave  10 1742
 t 0 r 0 0 m /Times-Roman findfont 106.148 sf 0 0 m (12000) show  gr 
 gsave  10 1973
 t 0 r 0 0 m /Times-Roman findfont 106.148 sf 0 0 m (14000) show  gr  1 0 1 c 1 1 1 c black 1 0 1 c 318 367 m 154 X 2 Y 7 X -2 Y 37 X 2 Y 14 X -2 Y 146 X 3 Y 8 X -3 Y 87 X 1 Y 8 X -1 Y 146 X 1 Y 7 X -1 Y 29 X 1 Y 8 X -1 Y 14 X 2 Y 7 X -2 Y 8 X 8 Y
 7 X -8 Y 7 X 4 Y 8 X -4 Y 7 X 7 Y 7 X -3 Y 8 X -2 Y 7 X 8 Y 7 X -3 Y 8 X -4 Y 7 X 5 Y 7 X 5 Y 7 X 8 Y 8 X -13 Y 7 X 3 Y 7 X 4 Y 8 X 4 Y 7 X 8 Y 7 X -12 Y 8 X 14 Y 7 X -4 Y 7 X 33 Y 7 X -15 Y 8 X 8 Y 7 X -30 Y 7 X 32 Y 8 X 1 Y 7 X -7 Y 7 X 6 Y 8 X 24
 Y 7 X 7 Y 7 X -26 Y 8 X -4 Y 7 X 45 Y 7 X -7 Y 7 X -5 Y 8 X 65 Y 7 X -12 Y 7 X 53 Y 8 X -21 Y 7 X 37 Y 7 X 38 Y 8 X -61 Y 7 X -26 Y 7 X 46 Y 7 X -76 Y 8 X 73 Y 7 X -24 Y 7 X 9 Y 8 X -59 Y 7 X -3 Y 15 X -41 Y 7 X 42 Y 7 X -38 Y 8 X -6 Y 7 X 10 Y 7 X
 -17 Y 7 X -4 Y 8 X 44 Y 7 X -66 Y 7 X -8 Y 8 X 28 Y 7 X -45 Y 7 X -12 Y 8 X 33 Y 7 X -16 Y 7 X -17 Y 7 X 4 Y 8 X -9 Y 7 X 50 Y 7 X -39 Y 8 X -14 Y 14 X 8 Y 8 X 16 Y 7 X -24 Y 7 X -2 Y 8 X 22 Y 7 X -20 Y 7 X -3 Y 7 X -1 Y 8 X -1 Y 7 X 3 Y 7 X -3 Y 8
 X 3 Y 7 X -3 Y 15 X 1 Y 22 X -1 Y 7 X 6 Y 7 X -6 Y 15 X 1 Y 7 X -1 Y 15 X 1 Y 7 X -1 Y 7 X 1 Y 8 X -1 Y 7 X 3 Y 7 X -3 Y 7 X 2 Y 8 X -1 Y 7 X -1 Y 22 X 9 Y 7 X -7 Y 8 X -2 Y 14 X 1 Y 15 X -1 Y 7 X 3 Y 7 X -3 Y 8 X 3 Y 7 X -3 Y 15 X 1 Y 7 X -1 Y 15 X
 1 Y 7 X -1 Y 7 X 5 Y 7 X -5 Y 74 X 1 Y 7 X -1 Y 14 X 2 Y 8 X -2 Y 36 X 1 Y 8 X 3 Y 7 X -4 Y 7 X 2 Y 7 X -2 Y 22 X 2 Y 8 X -2 Y 7 X 1 Y 7 X -1 Y 15 X s 0.35 0.83 0.33 c 1 1 1 c black 0.35 0.83 0.33 c 318 367 m 176 X 14 Y 7 X -14 Y 153 X 28 Y 8 X -28
 Y 14 X 28 Y 15 X 14 Y 7 X -42 Y 8 X 42 Y 14 X 29 Y 8 X 28 Y 7 X 15 Y 7 X 43 Y 7 X -58 Y 8 X 58 Y 7 X 14 Y 7 X 71 Y 8 X -28 Y 7 X 85 Y 7 X -43 Y 8 X 171 Y 7 X -142 Y 7 X 157 Y 7 X 57 Y 8 X -29 Y 7 X 100 Y 7 X 43 Y 8 X 185 Y 7 X -128 Y 7 X 228 Y 8 X
 57 Y 7 X -14 Y 7 X -72 Y 8 X 86 Y 7 X -128 Y 7 X 14 Y 7 X 57 Y 8 X -100 Y 7 X 57 Y 7 X -57 Y 8 X 43 Y 7 X -143 Y 7 X -57 Y 8 X -114 Y 7 X -100 Y 7 X -42 Y 7 X 85 Y 8 X 14 Y 7 X -199 Y 7 X -71 Y 15 X -57 Y 7 X 57 Y 8 X -143 Y 7 X 43 Y 7 X 14 Y 8 X
 -29 Y 7 X -57 Y 14 X 29 Y 8 X -29 Y 7 X -14 Y 7 X -28 Y 8 X 28 Y 22 X -14 Y 7 X -14 Y 29 X 14 Y 15 X -14 Y 29 X 14 Y 15 X -14 Y 204 X 14 Y 7 X -14 Y 8 X 14 Y 7 X -14 Y 22 X 14 Y 7 X -14 Y 117 X 28 Y 7 X -28 Y 8 X 14 Y 7 X -14 Y 73 X 14 Y 7 X -14 Y
 15 X 14 Y 7 X -14 Y 190 X 14 Y 15 X -14 Y 14 X 14 Y 8 X -14 Y 7 X 14 Y 7 X -14 Y 66 X 14 Y 7 X -14 Y 22 X 14 Y 8 X -14 Y 43 X 14 Y 8 X -14 Y 29 X s 1 0 0 c 6 lw 1 1 1 c black 1 0 0 c 318 367 m 154 X 3 Y 7 X -3 Y 15 X 14 Y 7 X -14 Y 15 X 2 Y 14 X -2
 Y 124 X 29 Y 8 X -28 Y 7 X -1 Y 7 X 32 Y 8 X -4 Y 7 X 16 Y 7 X -42 Y 8 X 40 Y 7 X 2 Y 7 X 28 Y 8 X 27 Y 7 X 17 Y 7 X 41 Y 7 X -58 Y 8 X 58 Y 7 X 14 Y 7 X 74 Y 8 X -31 Y 7 X 85 Y 7 X -43 Y 8 X 173 Y 7 X -144 Y 7 X 157 Y 7 X 57 Y 8 X -29 Y 7 X 100 Y 7
 X 43 Y 8 X 186 Y 7 X -129 Y 7 X 229 Y 8 X 56 Y 7 X -14 Y 7 X -71 Y 8 X 85 Y 7 X -127 Y 7 X 14 Y 7 X 58 Y 8 X -100 Y 7 X 55 Y 7 X -56 Y 8 X 42 Y 7 X -138 Y 7 X -59 Y 8 X -115 Y 7 X -98 Y 7 X -41 Y 7 X 82 Y 8 X 26 Y 7 X -209 Y 7 X -68 Y 8 X -1 Y 7 X
 -56 Y 7 X 57 Y 8 X -142 Y 7 X 50 Y 7 X 15 Y 8 X -31 Y 7 X -52 Y 7 X 4 Y 7 X 42 Y 8 X -43 Y 7 X -15 Y 7 X -18 Y 8 X 34 Y 7 X 15 Y 7 X -8 Y 8 X -3 Y 7 X -7 Y 7 X 46 Y 7 X -29 Y 8 X 36 Y 7 X -30 Y 7 X 60 Y 8 X -6 Y 7 X 39 Y 7 X -16 Y 8 X 79 Y 7 X 64 Y
 7 X 16 Y 8 X 25 Y 7 X 119 Y 7 X 62 Y 7 X 104 Y 8 X 133 Y 7 X 96 Y 7 X 181 Y 8 X 95 Y 7 X 180 Y 7 X 64 Y 8 X 110 Y 7 X -16 Y 7 X -13 Y 7 X -89 Y 8 X 22 Y 7 X -87 Y 7 X -140 Y 8 X -161 Y 7 X -111 Y 7 X -138 Y 8 X -187 Y 7 X -60 Y 7 X -109 Y 8 X -65 Y
 7 X -40 Y 7 X -53 Y 7 X -48 Y 8 X -1 Y 7 X -57 Y 7 X -22 Y 8 X 17 Y 7 X -69 Y 7 X -20 Y 8 X 23 Y 7 X 6 Y 7 X -47 Y 7 X 4 Y 8 X -5 Y 7 X 48 Y 7 X -40 Y 8 X -20 Y 7 X 7 Y 7 X 2 Y 8 X 19 Y 7 X -25 Y 7 X -6 Y 8 X 24 Y 7 X -22 Y 7 X 1 Y 7 X -2 Y 8 X -3 Y
 7 X 33 Y 7 X -31 Y 8 X 20 Y 7 X -25 Y 7 X 3 Y 8 X 2 Y 7 X -2 Y 7 X 3 Y 8 X -2 Y 7 X 4 Y 7 X -1 Y 7 X 2 Y 8 X -1 Y 7 X 10 Y 7 X -9 Y 8 X -8 Y 7 X 22 Y 7 X -15 Y 8 X -5 Y 7 X 8 Y 7 X -6 Y 7 X 8 Y 8 X -13 Y 7 X 6 Y 7 X -7 Y 8 X 9 Y 14 X -6 Y 8 X -1 Y 7
 X 2 Y 7 X -1 Y 8 X 4 Y 7 X 4 Y 14 X -8 Y 8 X 12 Y 7 X -13 Y 7 X 4 Y 8 X -4 Y 7 X 3 Y 7 X -4 Y 8 X 4 Y 7 X -3 Y 7 X 17 Y 7 X -4 Y 8 X -11 Y 7 X -2 Y 7 X 11 Y 8 X -7 Y 7 X 11 Y 7 X -11 Y 8 X -2 Y 7 X 3 Y 7 X -5 Y 8 X -2 Y 7 X 4 Y 7 X 1 Y 7 X -5 Y 15 X
 15 Y 7 X -14 Y 15 X -1 Y 7 X 15 Y 8 X -7 Y 7 X -6 Y 14 X -2 Y 8 X 5 Y 7 X -3 Y 7 X 17 Y 8 X -19 Y 14 X -3 Y 8 X 7 Y 7 X s 1 0 1 c
 gsave  1443 970
 t 0 r 0 0 m /Times-Roman findfont 86.8487 sf 0 0 m (beam halo [47 kHz]) show  gr  0 0 1 c
 gsave  1419 1645
 t 0 r 0 0 m /Times-Roman findfont 86.8487 sf 0 0 m (beam-gas [198 kHz]) show  gr  0.35 0.83 0.33 c
 gsave  396 1409
 t 0 r 0 0 m /Times-Roman findfont 86.8487 sf 0 0 m (p-p [200 kHz]) show  gr  black 3 lw 1 1 1 c 1587 126 449 2142 bf black 449 2142 m 1587 X s 2036 2142 m 126 Y s 2036 2268 m -1587 X s 449 2268 m -126 Y s 1 1 1 c black
 gsave  511 2171
 t 0 r 0 0 m /Times-Roman findfont 91.6736 sf 0 0 m (V0A-V0C time-of-flight difference) show  gr  883 806 m -270 569 d s 897 811 m 10 -63 d -39 48 d f 897 811 m 10 -63 d -39 48 d 29 15 d cl s 1351 1124 m 246 502 d s 1370 1115 m -48 -49 d 15 63 d f
 1370 1115 m -48 -49 d 15 63 d 33 -14 d cl s 1346 502 m 232 453 d s 1365 492 m -48 -48 d 15 63 d f 1365 492 m -48 -48 d 15 63 d 33 -15 d cl s
 gr  gr 
showpage
end
%%EOF
